namespace = mbs_personal_sigil_events		
###################################

###

character_event = {
	id = mbs_personal_sigil_events.1 
	hide_window = yes
		
	is_triggered_only = yes

	immediate = {
		ROOT = {
			character_event = { id = dynamic_coa.1 } 					
		}	
	}
	
	option = {
		name = OK
	}
}
#Stark
character_event = {
	id = mbs_personal_sigil_events.2
	hide_window = yes
		
	is_triggered_only = yes

	trigger = {
		ai = yes
		dynasty = 59
		NOR = { 
		has_character_flag = stark_martial	
			has_character_flag = stark_fourth
			has_character_flag = stark_third
			has_character_flag = stark_second
			has_character_flag = stark_arryn
			has_character_flag = stark_targaryen1
			has_character_flag = stark_baratheon
			has_character_flag = stark_blackfyre
			has_character_flag = stark_gardener
			has_character_flag = stark_greyjoy
			has_character_flag = stark_hoare
			has_character_flag = stark_hightower
			has_character_flag = stark_lannister
			has_character_flag = stark_martell
			has_character_flag = stark_reyne
			has_character_flag = stark_royce
			has_character_flag = stark_tully
			has_character_flag = stark_tyrell
			has_character_flag = stark_yronwood
			has_character_flag = stark_velaryon
			has_character_flag = no_special_coa_mbs
		}
		OR = {
			OR  = {
				father_even_if_dead = {
					dynasty = 178
				}
				mother_even_if_dead = {
					dynasty = 178
				}
			}
			OR  = {
				father_even_if_dead = {
					dynasty = 317
				}
				mother_even_if_dead = {
					dynasty = 317
				}
			}
			OR  = {
				father_even_if_dead = {
					dynasty = 1544
				}
				mother_even_if_dead = {
					dynasty = 1544
				}
			}
			OR  = {
				father_even_if_dead = {
					dynasty = 57
				}
				mother_even_if_dead = {
					dynasty = 57
				}
			}
			OR  = {
				father_even_if_dead = {
					dynasty = 1254
				}
				mother_even_if_dead = {
					dynasty = 1254
				}
			}
			OR  = {
				father_even_if_dead = {
					dynasty = 107
				}
				mother_even_if_dead = {
					dynasty = 107
				}
			}
			OR  = {
				father_even_if_dead = {
					dynasty = 285
				}
				mother_even_if_dead = {
					dynasty = 285
				}
			}
			OR  = {
				father_even_if_dead = {
					dynasty = 66
				}
				mother_even_if_dead = {
					dynasty = 66
				}
			}
			OR  = {
				father_even_if_dead = {
					dynasty = 190
				}
				mother_even_if_dead = {
					dynasty = 190
				}
			}
			OR  = {
				father_even_if_dead = {
					dynasty = 1
				}
				mother_even_if_dead = {
					dynasty = 1
				}
			}
			OR  = {
				father_even_if_dead = {
					dynasty = 197
				}
				mother_even_if_dead = {
					dynasty = 197
				}
			}
			OR  = {
				father_even_if_dead = {
					dynasty = 496
				}
				mother_even_if_dead = {
					dynasty = 496
				}
			}
			OR  = {
				father_even_if_dead = {
					dynasty = 159
				}
				mother_even_if_dead = {
					dynasty = 159
				}
			}
			OR  = {
				father_even_if_dead = {
					dynasty = 253
				}
				mother_even_if_dead = {
					dynasty = 253
				}
			}
			OR  = {
				father_even_if_dead = {
					dynasty = 12
				}
				mother_even_if_dead = {
					dynasty = 12
				}
			}
			OR  = {
				father_even_if_dead = {
					dynasty = 52
				}
				mother_even_if_dead = {
					dynasty = 52
				}
			}
		}
	}


	immediate = {
		ROOT = {
			random_list = {
				100 = {
					if = {
						limit = {
							OR  = {
								father_even_if_dead = {
									dynasty = 178
								}
								mother_even_if_dead = {
									dynasty = 178
								}
							}
						}
						set_character_flag = stark_arryn					
					}
					if = {
						limit = {
							OR  = {
								father_even_if_dead = {
									dynasty = 317
								}
								mother_even_if_dead = {
									dynasty = 317
								}
							}
						}
						set_character_flag = stark_baratheon					
					}
					if = {
						limit = {
							OR  = {
								father_even_if_dead = {
									dynasty = 1544
								}
								mother_even_if_dead = {
									dynasty = 1544
								}
							}
						}
						set_character_flag = stark_baratheon					
					}
					if = {
						limit = {
							OR  = {
								father_even_if_dead = {
									dynasty = 57
								}
								mother_even_if_dead = {
									dynasty = 57
								}
							}
						}
						set_character_flag = stark_blackfyre				
					}
					if = {
						limit = {
							OR  = {
								father_even_if_dead = {
									dynasty = 1254
								}
								mother_even_if_dead = {
									dynasty = 1254
								}
							}
						}
						set_character_flag = stark_gardener			
					}
					if = {
						limit = {
							OR  = {
								father_even_if_dead = {
									dynasty = 107
								}
								mother_even_if_dead = {
									dynasty = 107
								}
							}
						}
						set_character_flag = stark_greyjoy
					}
					if = {
						limit = {
							OR  = {
								father_even_if_dead = {
									dynasty = 285
								}
								mother_even_if_dead = {
									dynasty = 285
								}
							}
						}
						set_character_flag = stark_hightower
					}
					if = {
						limit = {
							OR  = {
								father_even_if_dead = {
									dynasty = 66
								}
								mother_even_if_dead = {
									dynasty = 66
								}
							}
						}
						set_character_flag = stark_hoare
					}
					if = {
						limit = {
							OR  = {
								father_even_if_dead = {
									dynasty = 190
								}
								mother_even_if_dead = {
									dynasty = 190
								}
							}
						}
						set_character_flag = stark_lannister
					}
					if = {
						limit = {
							OR  = {
								father_even_if_dead = {
									dynasty = 1
								}
								mother_even_if_dead = {
									dynasty = 1
								}
							}
						}
						set_character_flag = stark_martell
					}
					if = {
						limit = {
							OR  = {
								father_even_if_dead = {
									dynasty = 197
								}
								mother_even_if_dead = {
									dynasty = 197
								}
							}
						}
						set_character_flag = stark_reyne
					}
					if = {
						limit = {
							OR  = {
								father_even_if_dead = {
									dynasty = 187
								}
								mother_even_if_dead = {
									dynasty = 187
								}
							}
						}
						set_character_flag = stark_royce
					}
					if = {
						limit = {
							OR  = {
								father_even_if_dead = {
									dynasty = 496
								}
								mother_even_if_dead = {
									dynasty = 496
								}
							}
						}
						set_character_flag = stark_targaryen1
					}
					if = {
						limit = {
							OR  = {
								father_even_if_dead = {
									dynasty = 159
								}
								mother_even_if_dead = {
									dynasty = 159
								}
							}
						}
						set_character_flag = stark_tully
					}
					if = {
						limit = {
							OR  = {
								father_even_if_dead = {
									dynasty = 253
								}
								mother_even_if_dead = {
									dynasty = 253
								}
							}
						}
						set_character_flag = stark_tyrell
					}
					if = {
						limit = {
							OR  = {
								father_even_if_dead = {
									dynasty = 12
								}
								mother_even_if_dead = {
									dynasty = 12
								}
							}
						}
						set_character_flag = stark_yronwood
					}
					if = {
						limit = {
							OR  = {
								father_even_if_dead = {
									dynasty = 52
								}
								mother_even_if_dead = {
									dynasty = 52
								}
							}
						}
						set_character_flag = stark_velaryon
					}
				}
				300 = {
					set_character_flag = no_special_coa_mbs
				}
			}
		}
		ROOT = {
			character_event = { id = dynamic_coa.1 } 					
		}	
	}
	
	option = {
		name = OK
	}
}
#Arryn
character_event = {
	id = mbs_personal_sigil_events.3
	hide_window = yes
		
	is_triggered_only = yes

	trigger = {
		ai = yes
		dynasty = 178
		NOR = { 
		has_character_flag = arryn_martial	
			has_character_flag = arryn_fourth
			has_character_flag = arryn_third
			has_character_flag = arryn_second
			has_character_flag = arryn_targaryen
			has_character_flag = arryn_baratheon
			has_character_flag = arryn_blackfyre
			has_character_flag = arryn_gardener
			has_character_flag = arryn_greyjoy
			has_character_flag = arryn_hoare
			has_character_flag = arryn_hightower
			has_character_flag = arryn_lannister
			has_character_flag = arryn_martell
			has_character_flag = arryn_reyne
			has_character_flag = arryn_royce
			has_character_flag = arryn_stark
			has_character_flag = arryn_tully
			has_character_flag = arryn_tyrell
			has_character_flag = arryn_yronwood
			has_character_flag = arryn_velaryon
			has_character_flag = no_special_coa_mbs
		}
		OR = {
			OR  = {
				father_even_if_dead = {
					dynasty = 59
				}
				mother_even_if_dead = {
					dynasty = 59
				}
			}
			OR  = {
				father_even_if_dead = {
					dynasty = 317
				}
				mother_even_if_dead = {
					dynasty = 317
				}
			}
			OR  = {
				father_even_if_dead = {
					dynasty = 1544
				}
				mother_even_if_dead = {
					dynasty = 1544
				}
			}
			OR  = {
				father_even_if_dead = {
					dynasty = 57
				}
				mother_even_if_dead = {
					dynasty = 57
				}
			}
			OR  = {
				father_even_if_dead = {
					dynasty = 1254
				}
				mother_even_if_dead = {
					dynasty = 1254
				}
			}
			OR  = {
				father_even_if_dead = {
					dynasty = 107
				}
				mother_even_if_dead = {
					dynasty = 107
				}
			}
			OR  = {
				father_even_if_dead = {
					dynasty = 285
				}
				mother_even_if_dead = {
					dynasty = 285
				}
			}
			OR  = {
				father_even_if_dead = {
					dynasty = 66
				}
				mother_even_if_dead = {
					dynasty = 66
				}
			}
			OR  = {
				father_even_if_dead = {
					dynasty = 190
				}
				mother_even_if_dead = {
					dynasty = 190
				}
			}
			OR  = {
				father_even_if_dead = {
					dynasty = 1
				}
				mother_even_if_dead = {
					dynasty = 1
				}
			}
			OR  = {
				father_even_if_dead = {
					dynasty = 197
				}
				mother_even_if_dead = {
					dynasty = 197
				}
			}
			OR  = {
				father_even_if_dead = {
					dynasty = 496
				}
				mother_even_if_dead = {
					dynasty = 496
				}
			}
			OR  = {
				father_even_if_dead = {
					dynasty = 159
				}
				mother_even_if_dead = {
					dynasty = 159
				}
			}
			OR  = {
				father_even_if_dead = {
					dynasty = 253
				}
				mother_even_if_dead = {
					dynasty = 253
				}
			}
			OR  = {
				father_even_if_dead = {
					dynasty = 12
				}
				mother_even_if_dead = {
					dynasty = 12
				}
			}
			OR  = {
				father_even_if_dead = {
					dynasty = 52
				}
				mother_even_if_dead = {
					dynasty = 52
				}
			}
		}
	}


	immediate = {
		ROOT = {
			random_list = {
				100 = {
					if = {
						limit = {
							OR  = {
								father_even_if_dead = {
									dynasty = 59
								}
								mother_even_if_dead = {
									dynasty = 59
								}
							}
						}
						set_character_flag = arryn_stark					
					}
					if = {
						limit = {
							OR  = {
								father_even_if_dead = {
									dynasty = 317
								}
								mother_even_if_dead = {
									dynasty = 317
								}
							}
						}
						set_character_flag = arryn_baratheon					
					}
					if = {
						limit = {
							OR  = {
								father_even_if_dead = {
									dynasty = 1544
								}
								mother_even_if_dead = {
									dynasty = 1544
								}
							}
						}
						set_character_flag = arryn_baratheon					
					}
					if = {
						limit = {
							OR  = {
								father_even_if_dead = {
									dynasty = 57
								}
								mother_even_if_dead = {
									dynasty = 57
								}
							}
						}
						set_character_flag = arryn_blackfyre				
					}
					if = {
						limit = {
							OR  = {
								father_even_if_dead = {
									dynasty = 1254
								}
								mother_even_if_dead = {
									dynasty = 1254
								}
							}
						}
						set_character_flag = arryn_gardener			
					}
					if = {
						limit = {
							OR  = {
								father_even_if_dead = {
									dynasty = 107
								}
								mother_even_if_dead = {
									dynasty = 107
								}
							}
						}
						set_character_flag = arryn_greyjoy
					}
					if = {
						limit = {
							OR  = {
								father_even_if_dead = {
									dynasty = 285
								}
								mother_even_if_dead = {
									dynasty = 285
								}
							}
						}
						set_character_flag = arryn_hightower
					}
					if = {
						limit = {
							OR  = {
								father_even_if_dead = {
									dynasty = 66
								}
								mother_even_if_dead = {
									dynasty = 66
								}
							}
						}
						set_character_flag = arryn_hoare
					}
					if = {
						limit = {
							OR  = {
								father_even_if_dead = {
									dynasty = 190
								}
								mother_even_if_dead = {
									dynasty = 190
								}
							}
						}
						set_character_flag = arryn_lannister
					}
					if = {
						limit = {
							OR  = {
								father_even_if_dead = {
									dynasty = 1
								}
								mother_even_if_dead = {
									dynasty = 1
								}
							}
						}
						set_character_flag = arryn_martell
					}
					if = {
						limit = {
							OR  = {
								father_even_if_dead = {
									dynasty = 197
								}
								mother_even_if_dead = {
									dynasty = 197
								}
							}
						}
						set_character_flag = arryn_reyne
					}
					if = {
						limit = {
							OR  = {
								father_even_if_dead = {
									dynasty = 187
								}
								mother_even_if_dead = {
									dynasty = 187
								}
							}
						}
						set_character_flag = arryn_royce
					}
					if = {
						limit = {
							OR  = {
								father_even_if_dead = {
									dynasty = 496
								}
								mother_even_if_dead = {
									dynasty = 496
								}
							}
						}
						set_character_flag = arryn_targaryen
					}
					if = {
						limit = {
							OR  = {
								father_even_if_dead = {
									dynasty = 159
								}
								mother_even_if_dead = {
									dynasty = 159
								}
							}
						}
						set_character_flag = arryn_tully
					}
					if = {
						limit = {
							OR  = {
								father_even_if_dead = {
									dynasty = 253
								}
								mother_even_if_dead = {
									dynasty = 253
								}
							}
						}
						set_character_flag = arryn_tyrell
					}
					if = {
						limit = {
							OR  = {
								father_even_if_dead = {
									dynasty = 12
								}
								mother_even_if_dead = {
									dynasty = 12
								}
							}
						}
						set_character_flag = arryn_yronwood
					}
					if = {
						limit = {
							OR  = {
								father_even_if_dead = {
									dynasty = 52
								}
								mother_even_if_dead = {
									dynasty = 52
								}
							}
						}
						set_character_flag = arryn_velaryon
					}
				}
				300 = {
					set_character_flag = no_special_coa_mbs
				}
			}
		}
		ROOT = {
			character_event = { id = dynamic_coa.1 } 					
		}	
	}
	
	option = {
		name = OK
	}
}
#Targaryen
character_event = {
	id = mbs_personal_sigil_events.4
	hide_window = yes
		
	is_triggered_only = yes

	trigger = {
		ai = yes
		dynasty = 496
		NOR = { 
			has_character_flag = targaryen_martial	
			has_character_flag = targaryen_fourth
			has_character_flag = targaryen_third
			has_character_flag = targaryen_second
			has_character_flag = targaryen_targaryen
			has_character_flag = targaryen_baratheon
			has_character_flag = targaryen_blackfyre
			has_character_flag = targaryen_gardener
			has_character_flag = targaryen_greyjoy
			has_character_flag = targaryen_hoare
			has_character_flag = targaryen_hightower
			has_character_flag = targaryen_lannister
			has_character_flag = targaryen_martell
			has_character_flag = targaryen_reyne
			has_character_flag = targaryen_royce
			has_character_flag = targaryen_stark
			has_character_flag = targaryen_tully
			has_character_flag = targaryen_tyrell
			has_character_flag = targaryen_yronwood
			has_character_flag = targaryen_velaryon
			has_character_flag = no_special_coa_mbs
		}
		OR = {
			OR  = {
				father_even_if_dead = {
					dynasty = 59
				}
				mother_even_if_dead = {
					dynasty = 59
				}
			}
			OR  = {
				father_even_if_dead = {
					dynasty = 317
				}
				mother_even_if_dead = {
					dynasty = 317
				}
			}
			OR  = {
				father_even_if_dead = {
					dynasty = 1544
				}
				mother_even_if_dead = {
					dynasty = 1544
				}
			}
			OR  = {
				father_even_if_dead = {
					dynasty = 57
				}
				mother_even_if_dead = {
					dynasty = 57
				}
			}
			OR  = {
				father_even_if_dead = {
					dynasty = 1254
				}
				mother_even_if_dead = {
					dynasty = 1254
				}
			}
			OR  = {
				father_even_if_dead = {
					dynasty = 107
				}
				mother_even_if_dead = {
					dynasty = 107
				}
			}
			OR  = {
				father_even_if_dead = {
					dynasty = 285
				}
				mother_even_if_dead = {
					dynasty = 285
				}
			}
			OR  = {
				father_even_if_dead = {
					dynasty = 66
				}
				mother_even_if_dead = {
					dynasty = 66
				}
			}
			OR  = {
				father_even_if_dead = {
					dynasty = 190
				}
				mother_even_if_dead = {
					dynasty = 190
				}
			}
			OR  = {
				father_even_if_dead = {
					dynasty = 1
				}
				mother_even_if_dead = {
					dynasty = 1
				}
			}
			OR  = {
				father_even_if_dead = {
					dynasty = 197
				}
				mother_even_if_dead = {
					dynasty = 197
				}
			}
			OR  = {
				father_even_if_dead = {
					dynasty = 178
				}
				mother_even_if_dead = {
					dynasty = 178
				}
			}
			OR  = {
				father_even_if_dead = {
					dynasty = 159
				}
				mother_even_if_dead = {
					dynasty = 159
				}
			}
			OR  = {
				father_even_if_dead = {
					dynasty = 253
				}
				mother_even_if_dead = {
					dynasty = 253
				}
			}
			OR  = {
				father_even_if_dead = {
					dynasty = 12
				}
				mother_even_if_dead = {
					dynasty = 12
				}
			}
			OR  = {
				father_even_if_dead = {
					dynasty = 52
				}
				mother_even_if_dead = {
					dynasty = 52
				}
			}
		}
	}


	immediate = {
		ROOT = {
			random_list = {
				100 = {
					if = {
						limit = {
							OR  = {
								father_even_if_dead = {
									dynasty = 178
								}
								mother_even_if_dead = {
									dynasty = 178
								}
							}
						}
						set_character_flag = targaryen_arryn
					}
					if = {
						limit = {
							OR  = {
								father_even_if_dead = {
									dynasty = 59
								}
								mother_even_if_dead = {
									dynasty = 59
								}
							}
						}
						set_character_flag = targaryen_stark					
					}
					if = {
						limit = {
							OR  = {
								father_even_if_dead = {
									dynasty = 317
								}
								mother_even_if_dead = {
									dynasty = 317
								}
							}
						}
						set_character_flag = targaryen_baratheon					
					}
					if = {
						limit = {
							OR  = {
								father_even_if_dead = {
									dynasty = 1544
								}
								mother_even_if_dead = {
									dynasty = 1544
								}
							}
						}
						set_character_flag = targaryen_baratheon					
					}
					if = {
						limit = {
							OR  = {
								father_even_if_dead = {
									dynasty = 57
								}
								mother_even_if_dead = {
									dynasty = 57
								}
							}
						}
						set_character_flag = targaryen_blackfyre				
					}
					if = {
						limit = {
							OR  = {
								father_even_if_dead = {
									dynasty = 1254
								}
								mother_even_if_dead = {
									dynasty = 1254
								}
							}
						}
						set_character_flag = targaryen_gardener			
					}
					if = {
						limit = {
							OR  = {
								father_even_if_dead = {
									dynasty = 107
								}
								mother_even_if_dead = {
									dynasty = 107
								}
							}
						}
						set_character_flag = targaryen_greyjoy
					}
					if = {
						limit = {
							OR  = {
								father_even_if_dead = {
									dynasty = 285
								}
								mother_even_if_dead = {
									dynasty = 285
								}
							}
						}
						set_character_flag = targaryen_hightower
					}
					if = {
						limit = {
							OR  = {
								father_even_if_dead = {
									dynasty = 66
								}
								mother_even_if_dead = {
									dynasty = 66
								}
							}
						}
						set_character_flag = targaryen_hoare
					}
					if = {
						limit = {
							OR  = {
								father_even_if_dead = {
									dynasty = 190
								}
								mother_even_if_dead = {
									dynasty = 190
								}
							}
						}
						set_character_flag = targaryen_lannister
					}
					if = {
						limit = {
							OR  = {
								father_even_if_dead = {
									dynasty = 1
								}
								mother_even_if_dead = {
									dynasty = 1
								}
							}
						}
						set_character_flag = targaryen_martell
					}
					if = {
						limit = {
							OR  = {
								father_even_if_dead = {
									dynasty = 197
								}
								mother_even_if_dead = {
									dynasty = 197
								}
							}
						}
						set_character_flag = targaryen_reyne
					}
					if = {
						limit = {
							OR  = {
								father_even_if_dead = {
									dynasty = 187
								}
								mother_even_if_dead = {
									dynasty = 187
								}
							}
						}
						set_character_flag = targaryen_royce
					}
					if = {
						limit = {
							OR  = {
								father_even_if_dead = {
									dynasty = 159
								}
								mother_even_if_dead = {
									dynasty = 159
								}
							}
						}
						set_character_flag = targaryen_tully
					}
					if = {
						limit = {
							OR  = {
								father_even_if_dead = {
									dynasty = 253
								}
								mother_even_if_dead = {
									dynasty = 253
								}
							}
						}
						set_character_flag = targaryen_tyrell
					}
					if = {
						limit = {
							OR  = {
								father_even_if_dead = {
									dynasty = 12
								}
								mother_even_if_dead = {
									dynasty = 12
								}
							}
						}
						set_character_flag = targaryen_yronwood
					}
					if = {
						limit = {
							OR  = {
								father_even_if_dead = {
									dynasty = 52
								}
								mother_even_if_dead = {
									dynasty = 52
								}
							}
						}
						set_character_flag = targaryen_velaryon
					}
				}
				300 = {
					set_character_flag = no_special_coa_mbs
				}
			}
		}
		ROOT = {
			character_event = { id = dynamic_coa.1 } 					
		}	
	}
	
	option = {
		name = OK
	}
}
#Lannister
character_event = {
	id = mbs_personal_sigil_events.5
	hide_window = yes
		
	is_triggered_only = yes

	trigger = {
		ai = yes
		dynasty = 190
		NOR = { 
			has_character_flag = lannister_martial	
			has_character_flag = lannister_fourth
			has_character_flag = lannister_third
			has_character_flag = lannister_second
			has_character_flag = lannister_targaryen
			has_character_flag = lannister_baratheon1
			has_character_flag = lannister_blackfyre
			has_character_flag = lannister_gardener
			has_character_flag = lannister_greyjoy
			has_character_flag = lannister_hoare
			has_character_flag = lannister_hightower
			has_character_flag = lannister_lannister
			has_character_flag = lannister_martell
			has_character_flag = lannister_reyne
			has_character_flag = lannister_royce
			has_character_flag = lannister_stark
			has_character_flag = lannister_tully
			has_character_flag = lannister_tyrell
			has_character_flag = lannister_yronwood
			has_character_flag = lannister_velaryon
			has_character_flag = no_special_coa_mbs
		}
		OR = {
			OR  = {
				father_even_if_dead = {
					dynasty = 59
				}
				mother_even_if_dead = {
					dynasty = 59
				}
			}
			OR  = {
				father_even_if_dead = {
					dynasty = 317
				}
				mother_even_if_dead = {
					dynasty = 317
				}
			}
			OR  = {
				father_even_if_dead = {
					dynasty = 1544
				}
				mother_even_if_dead = {
					dynasty = 1544
				}
			}
			OR  = {
				father_even_if_dead = {
					dynasty = 57
				}
				mother_even_if_dead = {
					dynasty = 57
				}
			}
			OR  = {
				father_even_if_dead = {
					dynasty = 1254
				}
				mother_even_if_dead = {
					dynasty = 1254
				}
			}
			OR  = {
				father_even_if_dead = {
					dynasty = 107
				}
				mother_even_if_dead = {
					dynasty = 107
				}
			}
			OR  = {
				father_even_if_dead = {
					dynasty = 285
				}
				mother_even_if_dead = {
					dynasty = 285
				}
			}
			OR  = {
				father_even_if_dead = {
					dynasty = 66
				}
				mother_even_if_dead = {
					dynasty = 66
				}
			}
			OR  = {
				father_even_if_dead = {
					dynasty = 496
				}
				mother_even_if_dead = {
					dynasty = 496
				}
			}
			OR  = {
				father_even_if_dead = {
					dynasty = 1
				}
				mother_even_if_dead = {
					dynasty = 1
				}
			}
			OR  = {
				father_even_if_dead = {
					dynasty = 197
				}
				mother_even_if_dead = {
					dynasty = 197
				}
			}
			OR  = {
				father_even_if_dead = {
					dynasty = 178
				}
				mother_even_if_dead = {
					dynasty = 178
				}
			}
			OR  = {
				father_even_if_dead = {
					dynasty = 159
				}
				mother_even_if_dead = {
					dynasty = 159
				}
			}
			OR  = {
				father_even_if_dead = {
					dynasty = 253
				}
				mother_even_if_dead = {
					dynasty = 253
				}
			}
			OR  = {
				father_even_if_dead = {
					dynasty = 12
				}
				mother_even_if_dead = {
					dynasty = 12
				}
			}
			OR  = {
				father_even_if_dead = {
					dynasty = 52
				}
				mother_even_if_dead = {
					dynasty = 52
				}
			}
		}
	}


	immediate = {
		ROOT = {
			random_list = {
				100 = {
					if = {
						limit = {
							OR  = {
								father_even_if_dead = {
									dynasty = 178
								}
								mother_even_if_dead = {
									dynasty = 178
								}
							}
						}
						set_character_flag = lannister_arryn
					}
					if = {
						limit = {
							OR  = {
								father_even_if_dead = {
									dynasty = 59
								}
								mother_even_if_dead = {
									dynasty = 59
								}
							}
						}
						set_character_flag = lannister_stark					
					}
					if = {
						limit = {
							OR  = {
								father_even_if_dead = {
									dynasty = 317
								}
								mother_even_if_dead = {
									dynasty = 317
								}
							}
						}
						set_character_flag = lannister_baratheon1					
					}
					if = {
						limit = {
							OR  = {
								father_even_if_dead = {
									dynasty = 1544
								}
								mother_even_if_dead = {
									dynasty = 1544
								}
							}
						}
						set_character_flag = lannister_baratheon1					
					}
					if = {
						limit = {
							OR  = {
								father_even_if_dead = {
									dynasty = 57
								}
								mother_even_if_dead = {
									dynasty = 57
								}
							}
						}
						set_character_flag = lannister_blackfyre				
					}
					if = {
						limit = {
							OR  = {
								father_even_if_dead = {
									dynasty = 1254
								}
								mother_even_if_dead = {
									dynasty = 1254
								}
							}
						}
						set_character_flag = lannister_gardener			
					}
					if = {
						limit = {
							OR  = {
								father_even_if_dead = {
									dynasty = 107
								}
								mother_even_if_dead = {
									dynasty = 107
								}
							}
						}
						set_character_flag = lannister_greyjoy
					}
					if = {
						limit = {
							OR  = {
								father_even_if_dead = {
									dynasty = 285
								}
								mother_even_if_dead = {
									dynasty = 285
								}
							}
						}
						set_character_flag = lannister_hightower
					}
					if = {
						limit = {
							OR  = {
								father_even_if_dead = {
									dynasty = 66
								}
								mother_even_if_dead = {
									dynasty = 66
								}
							}
						}
						set_character_flag = lannister_hoare
					}
					if = {
						limit = {
							OR  = {
								father_even_if_dead = {
									dynasty = 496
								}
								mother_even_if_dead = {
									dynasty = 496
								}
							}
						}
						set_character_flag = lannister_targaryen
					}
					if = {
						limit = {
							OR  = {
								father_even_if_dead = {
									dynasty = 1
								}
								mother_even_if_dead = {
									dynasty = 1
								}
							}
						}
						set_character_flag = lannister_martell
					}
					if = {
						limit = {
							OR  = {
								father_even_if_dead = {
									dynasty = 197
								}
								mother_even_if_dead = {
									dynasty = 197
								}
							}
						}
						set_character_flag = lannister_reyne
					}
					if = {
						limit = {
							OR  = {
								father_even_if_dead = {
									dynasty = 187
								}
								mother_even_if_dead = {
									dynasty = 187
								}
							}
						}
						set_character_flag = lannister_royce
					}
					if = {
						limit = {
							OR  = {
								father_even_if_dead = {
									dynasty = 159
								}
								mother_even_if_dead = {
									dynasty = 159
								}
							}
						}
						set_character_flag = lannister_tully
					}
					if = {
						limit = {
							OR  = {
								father_even_if_dead = {
									dynasty = 253
								}
								mother_even_if_dead = {
									dynasty = 253
								}
							}
						}
						set_character_flag = lannister_tyrell
					}
					if = {
						limit = {
							OR  = {
								father_even_if_dead = {
									dynasty = 12
								}
								mother_even_if_dead = {
									dynasty = 12
								}
							}
						}
						set_character_flag = lannister_yronwood
					}
					if = {
						limit = {
							OR  = {
								father_even_if_dead = {
									dynasty = 52
								}
								mother_even_if_dead = {
									dynasty = 52
								}
							}
						}
						set_character_flag = lannister_velaryon
					}
				}
				300 = {
					set_character_flag = no_special_coa_mbs
				}
			}
		}
		ROOT = {
			character_event = { id = dynamic_coa.1 } 					
		}	
	}
	
	option = {
		name = OK
	}
}
#baratheon
character_event = {
	id = mbs_personal_sigil_events.6
	hide_window = yes
		
	is_triggered_only = yes

	trigger = {
		ai = yes
		dynasty = 317
		NOR = { 
			has_character_flag = baratheon_martial	
			has_character_flag = baratheon_fourth
			has_character_flag = baratheon_third
			has_character_flag = baratheon_second
			has_character_flag = baratheon_targaryen
			has_character_flag = baratheon_arry
			has_character_flag = baratheon_blackfyre
			has_character_flag = baratheon_gardener
			has_character_flag = baratheon_greyjoy
			has_character_flag = baratheon_hoare
			has_character_flag = baratheon_hightower
			has_character_flag = baratheon_lannister
			has_character_flag = baratheon_martell
			has_character_flag = baratheon_reyne
			has_character_flag = baratheon_royce
			has_character_flag = baratheon_stark
			has_character_flag = baratheon_tully
			has_character_flag = baratheon_tyrell
			has_character_flag = baratheon_yronwood
			has_character_flag = baratheon_velaryon
			has_character_flag = no_special_coa_mbs
		}
		OR = {
			OR  = {
				father_even_if_dead = {
					dynasty = 59
				}
				mother_even_if_dead = {
					dynasty = 59
				}
			}
			OR  = {
				father_even_if_dead = {
					dynasty = 178
				}
				mother_even_if_dead = {
					dynasty = 178
				}
			}
			OR  = {
				father_even_if_dead = {
					dynasty = 57
				}
				mother_even_if_dead = {
					dynasty = 57
				}
			}
			OR  = {
				father_even_if_dead = {
					dynasty = 1254
				}
				mother_even_if_dead = {
					dynasty = 1254
				}
			}
			OR  = {
				father_even_if_dead = {
					dynasty = 107
				}
				mother_even_if_dead = {
					dynasty = 107
				}
			}
			OR  = {
				father_even_if_dead = {
					dynasty = 285
				}
				mother_even_if_dead = {
					dynasty = 285
				}
			}
			OR  = {
				father_even_if_dead = {
					dynasty = 66
				}
				mother_even_if_dead = {
					dynasty = 66
				}
			}
			OR  = {
				father_even_if_dead = {
					dynasty = 190
				}
				mother_even_if_dead = {
					dynasty = 190
				}
			}
			OR  = {
				father_even_if_dead = {
					dynasty = 1
				}
				mother_even_if_dead = {
					dynasty = 1
				}
			}
			OR  = {
				father_even_if_dead = {
					dynasty = 197
				}
				mother_even_if_dead = {
					dynasty = 197
				}
			}
			OR  = {
				father_even_if_dead = {
					dynasty = 496
				}
				mother_even_if_dead = {
					dynasty = 496
				}
			}
			OR  = {
				father_even_if_dead = {
					dynasty = 159
				}
				mother_even_if_dead = {
					dynasty = 159
				}
			}
			OR  = {
				father_even_if_dead = {
					dynasty = 253
				}
				mother_even_if_dead = {
					dynasty = 253
				}
			}
			OR  = {
				father_even_if_dead = {
					dynasty = 12
				}
				mother_even_if_dead = {
					dynasty = 12
				}
			}
			OR  = {
				father_even_if_dead = {
					dynasty = 52
				}
				mother_even_if_dead = {
					dynasty = 52
				}
			}
		}
	}


	immediate = {
		ROOT = {
			random_list = {
				100 = {
					if = {
						limit = {
							OR  = {
								father_even_if_dead = {
									dynasty = 59
								}
								mother_even_if_dead = {
									dynasty = 59
								}
							}
						}
						set_character_flag = baratheon_stark					
					}
					if = {
						limit = {
							OR  = {
								father_even_if_dead = {
									dynasty = 178
								}
								mother_even_if_dead = {
									dynasty = 178
								}
							}
						}
						set_character_flag = baratheon_arryn				
					}
					if = {
						limit = {
							OR  = {
								father_even_if_dead = {
									dynasty = 57
								}
								mother_even_if_dead = {
									dynasty = 57
								}
							}
						}
						set_character_flag = baratheon_blackfyre				
					}
					if = {
						limit = {
							OR  = {
								father_even_if_dead = {
									dynasty = 1254
								}
								mother_even_if_dead = {
									dynasty = 1254
								}
							}
						}
						set_character_flag = baratheon_gardener			
					}
					if = {
						limit = {
							OR  = {
								father_even_if_dead = {
									dynasty = 107
								}
								mother_even_if_dead = {
									dynasty = 107
								}
							}
						}
						set_character_flag = baratheon_greyjoy
					}
					if = {
						limit = {
							OR  = {
								father_even_if_dead = {
									dynasty = 285
								}
								mother_even_if_dead = {
									dynasty = 285
								}
							}
						}
						set_character_flag = baratheon_hightower
					}
					if = {
						limit = {
							OR  = {
								father_even_if_dead = {
									dynasty = 66
								}
								mother_even_if_dead = {
									dynasty = 66
								}
							}
						}
						set_character_flag = baratheon_hoare
					}
					if = {
						limit = {
							OR  = {
								father_even_if_dead = {
									dynasty = 190
								}
								mother_even_if_dead = {
									dynasty = 190
								}
							}
						}
						set_character_flag = baratheon_lannister
					}
					if = {
						limit = {
							OR  = {
								father_even_if_dead = {
									dynasty = 1
								}
								mother_even_if_dead = {
									dynasty = 1
								}
							}
						}
						set_character_flag = baratheon_martell
					}
					if = {
						limit = {
							OR  = {
								father_even_if_dead = {
									dynasty = 197
								}
								mother_even_if_dead = {
									dynasty = 197
								}
							}
						}
						set_character_flag = baratheon_reyne
					}
					if = {
						limit = {
							OR  = {
								father_even_if_dead = {
									dynasty = 187
								}
								mother_even_if_dead = {
									dynasty = 187
								}
							}
						}
						set_character_flag = baratheon_royce
					}
					if = {
						limit = {
							OR  = {
								father_even_if_dead = {
									dynasty = 496
								}
								mother_even_if_dead = {
									dynasty = 496
								}
							}
						}
						set_character_flag = baratheon_targaryen
					}
					if = {
						limit = {
							OR  = {
								father_even_if_dead = {
									dynasty = 159
								}
								mother_even_if_dead = {
									dynasty = 159
								}
							}
						}
						set_character_flag = baratheon_tully
					}
					if = {
						limit = {
							OR  = {
								father_even_if_dead = {
									dynasty = 253
								}
								mother_even_if_dead = {
									dynasty = 253
								}
							}
						}
						set_character_flag = baratheon_tyrell
					}
					if = {
						limit = {
							OR  = {
								father_even_if_dead = {
									dynasty = 12
								}
								mother_even_if_dead = {
									dynasty = 12
								}
							}
						}
						set_character_flag = baratheon_yronwood
					}
					if = {
						limit = {
							OR  = {
								father_even_if_dead = {
									dynasty = 52
								}
								mother_even_if_dead = {
									dynasty = 52
								}
							}
						}
						set_character_flag = baratheon_velaryon
					}
				}
				300 = {
					set_character_flag = no_special_coa_mbs
				}
			}
		}
		ROOT = {
			character_event = { id = dynamic_coa.1 } 					
		}	
	}
	
	option = {
		name = OK
	}
}
#martell
character_event = {
	id = mbs_personal_sigil_events.7
	hide_window = yes
		
	is_triggered_only = yes

	trigger = {
		ai = yes
		dynasty = 1
		NOR = { 
			has_character_flag = martell_martial	
			has_character_flag = martell_fourth
			has_character_flag = martell_third
			has_character_flag = martell_second
			has_character_flag = martell_targaryen
			has_character_flag = martell_baratheon
			has_character_flag = martell_blackfyre
			has_character_flag = martell_gardener
			has_character_flag = martell_greyjoy
			has_character_flag = martell_hoare
			has_character_flag = martell_hightower
			has_character_flag = martell_lannister
			has_character_flag = martell_arryn
			has_character_flag = martell_reyne
			has_character_flag = martell_royce
			has_character_flag = martell_stark
			has_character_flag = martell_tully
			has_character_flag = martell_tyrell
			has_character_flag = martell_yronwood
			has_character_flag = martell_velaryon
			has_character_flag = tyrell_stark
			has_character_flag = tyrell_targaryen
			has_character_flag = tyrell_baratheon
			has_character_flag = tyrell_blackfyre
			has_character_flag = tyrell_gardener
			has_character_flag = tyrell_greyjoy
			has_character_flag = tyrell_hoare
			has_character_flag = tyrell_hightower
			has_character_flag = tyrell_arryn
			has_character_flag = tyrell_lannister
			has_character_flag = tyrell_reyne
			has_character_flag = tyrell_royce
			has_character_flag = tyrell_tully
			has_character_flag = tyrell_martell
			has_character_flag = tyrell_yronwood
			has_character_flag = tyrell_velaryon
			has_character_flag = tully_stark
			has_character_flag = tully_targaryen
			has_character_flag = tully_baratheon
			has_character_flag = tully_blackfyre
			has_character_flag = tully_gardener
			has_character_flag = tully_greyjoy
			has_character_flag = tully_hoare
			has_character_flag = tully_hightower
			has_character_flag = tully_arryn
			has_character_flag = tully_lannister
			has_character_flag = tully_reyne
			has_character_flag = tully_royce
			has_character_flag = tully_tyrell
			has_character_flag = tully_martell
			has_character_flag = tully_yronwood
			has_character_flag = tully_velaryon
			has_character_flag = no_special_coa_mbs
		}
		OR = {
			OR  = {
				father_even_if_dead = {
					dynasty = 59
				}
				mother_even_if_dead = {
					dynasty = 59
				}
			}
			OR  = {
				father_even_if_dead = {
					dynasty = 317
				}
				mother_even_if_dead = {
					dynasty = 317
				}
			}
			OR  = {
				father_even_if_dead = {
					dynasty = 1544
				}
				mother_even_if_dead = {
					dynasty = 1544
				}
			}
			OR  = {
				father_even_if_dead = {
					dynasty = 57
				}
				mother_even_if_dead = {
					dynasty = 57
				}
			}
			OR  = {
				father_even_if_dead = {
					dynasty = 1254
				}
				mother_even_if_dead = {
					dynasty = 1254
				}
			}
			OR  = {
				father_even_if_dead = {
					dynasty = 107
				}
				mother_even_if_dead = {
					dynasty = 107
				}
			}
			OR  = {
				father_even_if_dead = {
					dynasty = 285
				}
				mother_even_if_dead = {
					dynasty = 285
				}
			}
			OR  = {
				father_even_if_dead = {
					dynasty = 66
				}
				mother_even_if_dead = {
					dynasty = 66
				}
			}
			OR  = {
				father_even_if_dead = {
					dynasty = 190
				}
				mother_even_if_dead = {
					dynasty = 190
				}
			}
			OR  = {
				father_even_if_dead = {
					dynasty = 178
				}
				mother_even_if_dead = {
					dynasty = 178
				}
			}
			OR  = {
				father_even_if_dead = {
					dynasty = 197
				}
				mother_even_if_dead = {
					dynasty = 197
				}
			}
			OR  = {
				father_even_if_dead = {
					dynasty = 496
				}
				mother_even_if_dead = {
					dynasty = 496
				}
			}
			OR  = {
				father_even_if_dead = {
					dynasty = 159
				}
				mother_even_if_dead = {
					dynasty = 159
				}
			}
			OR  = {
				father_even_if_dead = {
					dynasty = 253
				}
				mother_even_if_dead = {
					dynasty = 253
				}
			}
			OR  = {
				father_even_if_dead = {
					dynasty = 12
				}
				mother_even_if_dead = {
					dynasty = 12
				}
			}
			OR  = {
				father_even_if_dead = {
					dynasty = 52
				}
				mother_even_if_dead = {
					dynasty = 52
				}
			}
		}
	}


	immediate = {
		ROOT = {
			random_list = {
				100 = {
					if = {
						limit = {
							OR  = {
								father_even_if_dead = {
									dynasty = 59
								}
								mother_even_if_dead = {
									dynasty = 59
								}
							}
						}
						set_character_flag = martell_stark					
					}
					if = {
						limit = {
							OR  = {
								father_even_if_dead = {
									dynasty = 317
								}
								mother_even_if_dead = {
									dynasty = 317
								}
							}
						}
						set_character_flag = martell_baratheon					
					}
					if = {
						limit = {
							OR  = {
								father_even_if_dead = {
									dynasty = 1544
								}
								mother_even_if_dead = {
									dynasty = 1544
								}
							}
						}
						set_character_flag = martell_baratheon					
					}
					if = {
						limit = {
							OR  = {
								father_even_if_dead = {
									dynasty = 57
								}
								mother_even_if_dead = {
									dynasty = 57
								}
							}
						}
						set_character_flag = martell_blackfyre				
					}
					if = {
						limit = {
							OR  = {
								father_even_if_dead = {
									dynasty = 1254
								}
								mother_even_if_dead = {
									dynasty = 1254
								}
							}
						}
						set_character_flag = martell_gardener			
					}
					if = {
						limit = {
							OR  = {
								father_even_if_dead = {
									dynasty = 107
								}
								mother_even_if_dead = {
									dynasty = 107
								}
							}
						}
						set_character_flag = martell_greyjoy
					}
					if = {
						limit = {
							OR  = {
								father_even_if_dead = {
									dynasty = 285
								}
								mother_even_if_dead = {
									dynasty = 285
								}
							}
						}
						set_character_flag = martell_hightower
					}
					if = {
						limit = {
							OR  = {
								father_even_if_dead = {
									dynasty = 66
								}
								mother_even_if_dead = {
									dynasty = 66
								}
							}
						}
						set_character_flag = martell_hoare
					}
					if = {
						limit = {
							OR  = {
								father_even_if_dead = {
									dynasty = 190
								}
								mother_even_if_dead = {
									dynasty = 190
								}
							}
						}
						set_character_flag = martell_lannister
					}
					if = {
						limit = {
							OR  = {
								father_even_if_dead = {
									dynasty = 178
								}
								mother_even_if_dead = {
									dynasty = 178
								}
							}
						}
						set_character_flag = martell_arryn
					}
					if = {
						limit = {
							OR  = {
								father_even_if_dead = {
									dynasty = 197
								}
								mother_even_if_dead = {
									dynasty = 197
								}
							}
						}
						set_character_flag = martell_reyne
					}
					if = {
						limit = {
							OR  = {
								father_even_if_dead = {
									dynasty = 187
								}
								mother_even_if_dead = {
									dynasty = 187
								}
							}
						}
						set_character_flag = martell_royce
					}
					if = {
						limit = {
							OR  = {
								father_even_if_dead = {
									dynasty = 496
								}
								mother_even_if_dead = {
									dynasty = 496
								}
							}
						}
						set_character_flag = martell_targaryen
					}
					if = {
						limit = {
							OR  = {
								father_even_if_dead = {
									dynasty = 159
								}
								mother_even_if_dead = {
									dynasty = 159
								}
							}
						}
						set_character_flag = martell_tully
					}
					if = {
						limit = {
							OR  = {
								father_even_if_dead = {
									dynasty = 253
								}
								mother_even_if_dead = {
									dynasty = 253
								}
							}
						}
						set_character_flag = martell_tyrell
					}
					if = {
						limit = {
							OR  = {
								father_even_if_dead = {
									dynasty = 12
								}
								mother_even_if_dead = {
									dynasty = 12
								}
							}
						}
						set_character_flag = martell_yronwood
					}
					if = {
						limit = {
							OR  = {
								father_even_if_dead = {
									dynasty = 52
								}
								mother_even_if_dead = {
									dynasty = 52
								}
							}
						}
						set_character_flag = martell_velaryon
					}
				}
				300 = {
					set_character_flag = no_special_coa_mbs
				}
			}
		}
		ROOT = {
			character_event = { id = dynamic_coa.1 } 					
		}	
	}
	
	option = {
		name = OK
	}
}
#tyrell
character_event = {
	id = mbs_personal_sigil_events.8
	hide_window = yes
		
	is_triggered_only = yes

	trigger = {
		ai = yes
		dynasty = 253
		NOR = { 
			has_character_flag = tyrell_stark
			has_character_flag = tyrell_targaryen
			has_character_flag = tyrell_baratheon
			has_character_flag = tyrell_blackfyre
			has_character_flag = tyrell_gardener
			has_character_flag = tyrell_greyjoy
			has_character_flag = tyrell_hoare
			has_character_flag = tyrell_hightower
			has_character_flag = tyrell_arryn
			has_character_flag = tyrell_lannister
			has_character_flag = tyrell_reyne
			has_character_flag = tyrell_royce
			has_character_flag = tyrell_tully
			has_character_flag = tyrell_martell
			has_character_flag = tyrell_yronwood
			has_character_flag = tyrell_velaryon
			has_character_flag = tully_stark
			has_character_flag = tully_targaryen
			has_character_flag = tully_baratheon
			has_character_flag = tully_blackfyre
			has_character_flag = tully_gardener
			has_character_flag = tully_greyjoy
			has_character_flag = tully_hoare
			has_character_flag = tully_hightower
			has_character_flag = tully_arryn
			has_character_flag = tully_lannister
			has_character_flag = tully_reyne
			has_character_flag = tully_royce
			has_character_flag = tully_tyrell
			has_character_flag = tully_martell
			has_character_flag = tully_yronwood
			has_character_flag = tully_velaryon
			has_character_flag = no_special_coa_mbs
		}
		OR = {
			OR  = {
				father_even_if_dead = {
					dynasty = 59
				}
				mother_even_if_dead = {
					dynasty = 59
				}
			}
			OR  = {
				father_even_if_dead = {
					dynasty = 317
				}
				mother_even_if_dead = {
					dynasty = 317
				}
			}
			OR  = {
				father_even_if_dead = {
					dynasty = 1544
				}
				mother_even_if_dead = {
					dynasty = 1544
				}
			}
			OR  = {
				father_even_if_dead = {
					dynasty = 57
				}
				mother_even_if_dead = {
					dynasty = 57
				}
			}
			OR  = {
				father_even_if_dead = {
					dynasty = 1254
				}
				mother_even_if_dead = {
					dynasty = 1254
				}
			}
			OR  = {
				father_even_if_dead = {
					dynasty = 107
				}
				mother_even_if_dead = {
					dynasty = 107
				}
			}
			OR  = {
				father_even_if_dead = {
					dynasty = 285
				}
				mother_even_if_dead = {
					dynasty = 285
				}
			}
			OR  = {
				father_even_if_dead = {
					dynasty = 66
				}
				mother_even_if_dead = {
					dynasty = 66
				}
			}
			OR  = {
				father_even_if_dead = {
					dynasty = 190
				}
				mother_even_if_dead = {
					dynasty = 190
				}
			}
			OR  = {
				father_even_if_dead = {
					dynasty = 178
				}
				mother_even_if_dead = {
					dynasty = 178
				}
			}
			OR  = {
				father_even_if_dead = {
					dynasty = 197
				}
				mother_even_if_dead = {
					dynasty = 197
				}
			}
			OR  = {
				father_even_if_dead = {
					dynasty = 496
				}
				mother_even_if_dead = {
					dynasty = 496
				}
			}
			OR  = {
				father_even_if_dead = {
					dynasty = 159
				}
				mother_even_if_dead = {
					dynasty = 159
				}
			}
			OR  = {
				father_even_if_dead = {
					dynasty = 1
				}
				mother_even_if_dead = {
					dynasty = 1
				}
			}
			OR  = {
				father_even_if_dead = {
					dynasty = 12
				}
				mother_even_if_dead = {
					dynasty = 12
				}
			}
			OR  = {
				father_even_if_dead = {
					dynasty = 52
				}
				mother_even_if_dead = {
					dynasty = 52
				}
			}
		}
	}


	immediate = {
		ROOT = {
			random_list = {
				100 = {
					if = {
						limit = {
							OR  = {
								father_even_if_dead = {
									dynasty = 59
								}
								mother_even_if_dead = {
									dynasty = 59
								}
							}
						}
						set_character_flag = tyrell_stark					
					}
					if = {
						limit = {
							OR  = {
								father_even_if_dead = {
									dynasty = 317
								}
								mother_even_if_dead = {
									dynasty = 317
								}
							}
						}
						set_character_flag = tyrell_baratheon					
					}
					if = {
						limit = {
							OR  = {
								father_even_if_dead = {
									dynasty = 1544
								}
								mother_even_if_dead = {
									dynasty = 1544
								}
							}
						}
						set_character_flag = tyrell_baratheon					
					}
					if = {
						limit = {
							OR  = {
								father_even_if_dead = {
									dynasty = 57
								}
								mother_even_if_dead = {
									dynasty = 57
								}
							}
						}
						set_character_flag = tyrell_blackfyre				
					}
					if = {
						limit = {
							OR  = {
								father_even_if_dead = {
									dynasty = 1254
								}
								mother_even_if_dead = {
									dynasty = 1254
								}
							}
						}
						set_character_flag = tyrell_gardener			
					}
					if = {
						limit = {
							OR  = {
								father_even_if_dead = {
									dynasty = 107
								}
								mother_even_if_dead = {
									dynasty = 107
								}
							}
						}
						set_character_flag = tyrell_greyjoy
					}
					if = {
						limit = {
							OR  = {
								father_even_if_dead = {
									dynasty = 285
								}
								mother_even_if_dead = {
									dynasty = 285
								}
							}
						}
						set_character_flag = tyrell_hightower
					}
					if = {
						limit = {
							OR  = {
								father_even_if_dead = {
									dynasty = 66
								}
								mother_even_if_dead = {
									dynasty = 66
								}
							}
						}
						set_character_flag = tyrell_hoare
					}
					if = {
						limit = {
							OR  = {
								father_even_if_dead = {
									dynasty = 190
								}
								mother_even_if_dead = {
									dynasty = 190
								}
							}
						}
						set_character_flag = tyrell_lannister
					}
					if = {
						limit = {
							OR  = {
								father_even_if_dead = {
									dynasty = 178
								}
								mother_even_if_dead = {
									dynasty = 178
								}
							}
						}
						set_character_flag = tyrell_arryn
					}
					if = {
						limit = {
							OR  = {
								father_even_if_dead = {
									dynasty = 197
								}
								mother_even_if_dead = {
									dynasty = 197
								}
							}
						}
						set_character_flag = tyrell_reyne
					}
					if = {
						limit = {
							OR  = {
								father_even_if_dead = {
									dynasty = 187
								}
								mother_even_if_dead = {
									dynasty = 187
								}
							}
						}
						set_character_flag = tyrell_royce
					}
					if = {
						limit = {
							OR  = {
								father_even_if_dead = {
									dynasty = 496
								}
								mother_even_if_dead = {
									dynasty = 496
								}
							}
						}
						set_character_flag = tyrell_targaryen
					}
					if = {
						limit = {
							OR  = {
								father_even_if_dead = {
									dynasty = 159
								}
								mother_even_if_dead = {
									dynasty = 159
								}
							}
						}
						set_character_flag = tyrell_tully
					}
					if = {
						limit = {
							OR  = {
								father_even_if_dead = {
									dynasty = 1
								}
								mother_even_if_dead = {
									dynasty = 1
								}
							}
						}
						set_character_flag = tyrell_martell
					}
					if = {
						limit = {
							OR  = {
								father_even_if_dead = {
									dynasty = 12
								}
								mother_even_if_dead = {
									dynasty = 12
								}
							}
						}
						set_character_flag = tyrell_yronwood
					}
					if = {
						limit = {
							OR  = {
								father_even_if_dead = {
									dynasty = 52
								}
								mother_even_if_dead = {
									dynasty = 52
								}
							}
						}
						set_character_flag = tyrell_velaryon
					}
				}
				300 = {
					set_character_flag = no_special_coa_mbs
				}
			}
		}
		ROOT = {
			character_event = { id = dynamic_coa.1 } 					
		}	
	}
	
	option = {
		name = OK
	}
}

#Tully
character_event = {
	id = mbs_personal_sigil_events.2
	hide_window = yes
		
	is_triggered_only = yes

	trigger = {
		ai = yes
		dynasty = 159
		NOR = { 
			has_character_flag = tully_martial	
			has_character_flag = tully_fourth
			has_character_flag = tully_third
			has_character_flag = tully_second
			has_character_flag = tully_arryn
			has_character_flag = tully_stark
			has_character_flag = tully_targaryen
			has_character_flag = tully_baratheon
			has_character_flag = tully_blackfyre
			has_character_flag = tully_gardener
			has_character_flag = tully_greyjoy
			has_character_flag = tully_hoare
			has_character_flag = tully_hightower
			has_character_flag = tully_arryn
			has_character_flag = tully_lannister
			has_character_flag = tully_reyne
			has_character_flag = tully_royce
			has_character_flag = tully_tyrell
			has_character_flag = tully_martell
			has_character_flag = tully_yronwood
			has_character_flag = tully_velaryon
			has_character_flag = no_special_coa_mbs
		}
		OR = {
			OR  = {
				father_even_if_dead = {
					dynasty = 178
				}
				mother_even_if_dead = {
					dynasty = 178
				}
			}
			OR  = {
				father_even_if_dead = {
					dynasty = 317
				}
				mother_even_if_dead = {
					dynasty = 317
				}
			}
			OR  = {
				father_even_if_dead = {
					dynasty = 1544
				}
				mother_even_if_dead = {
					dynasty = 1544
				}
			}
			OR  = {
				father_even_if_dead = {
					dynasty = 57
				}
				mother_even_if_dead = {
					dynasty = 57
				}
			}
			OR  = {
				father_even_if_dead = {
					dynasty = 1254
				}
				mother_even_if_dead = {
					dynasty = 1254
				}
			}
			OR  = {
				father_even_if_dead = {
					dynasty = 107
				}
				mother_even_if_dead = {
					dynasty = 107
				}
			}
			OR  = {
				father_even_if_dead = {
					dynasty = 285
				}
				mother_even_if_dead = {
					dynasty = 285
				}
			}
			OR  = {
				father_even_if_dead = {
					dynasty = 66
				}
				mother_even_if_dead = {
					dynasty = 66
				}
			}
			OR  = {
				father_even_if_dead = {
					dynasty = 190
				}
				mother_even_if_dead = {
					dynasty = 190
				}
			}
			OR  = {
				father_even_if_dead = {
					dynasty = 1
				}
				mother_even_if_dead = {
					dynasty = 1
				}
			}
			OR  = {
				father_even_if_dead = {
					dynasty = 197
				}
				mother_even_if_dead = {
					dynasty = 197
				}
			}
			OR  = {
				father_even_if_dead = {
					dynasty = 496
				}
				mother_even_if_dead = {
					dynasty = 496
				}
			}
			OR  = {
				father_even_if_dead = {
					dynasty = 59
				}
				mother_even_if_dead = {
					dynasty = 59
				}
			}
			OR  = {
				father_even_if_dead = {
					dynasty = 253
				}
				mother_even_if_dead = {
					dynasty = 253
				}
			}
			OR  = {
				father_even_if_dead = {
					dynasty = 12
				}
				mother_even_if_dead = {
					dynasty = 12
				}
			}
			OR  = {
				father_even_if_dead = {
					dynasty = 52
				}
				mother_even_if_dead = {
					dynasty = 52
				}
			}
		}
	}


	immediate = {
		ROOT = {
			random_list = {
				100 = {
					if = {
						limit = {
							OR  = {
								father_even_if_dead = {
									dynasty = 178
								}
								mother_even_if_dead = {
									dynasty = 178
								}
							}
						}
						set_character_flag = tully_arryn					
					}
					if = {
						limit = {
							OR  = {
								father_even_if_dead = {
									dynasty = 317
								}
								mother_even_if_dead = {
									dynasty = 317
								}
							}
						}
						set_character_flag = tully_baratheon					
					}
					if = {
						limit = {
							OR  = {
								father_even_if_dead = {
									dynasty = 1544
								}
								mother_even_if_dead = {
									dynasty = 1544
								}
							}
						}
						set_character_flag = tully_baratheon					
					}
					if = {
						limit = {
							OR  = {
								father_even_if_dead = {
									dynasty = 57
								}
								mother_even_if_dead = {
									dynasty = 57
								}
							}
						}
						set_character_flag = tully_blackfyre				
					}
					if = {
						limit = {
							OR  = {
								father_even_if_dead = {
									dynasty = 1254
								}
								mother_even_if_dead = {
									dynasty = 1254
								}
							}
						}
						set_character_flag = tully_gardener			
					}
					if = {
						limit = {
							OR  = {
								father_even_if_dead = {
									dynasty = 107
								}
								mother_even_if_dead = {
									dynasty = 107
								}
							}
						}
						set_character_flag = tully_greyjoy
					}
					if = {
						limit = {
							OR  = {
								father_even_if_dead = {
									dynasty = 285
								}
								mother_even_if_dead = {
									dynasty = 285
								}
							}
						}
						set_character_flag = tully_hightower
					}
					if = {
						limit = {
							OR  = {
								father_even_if_dead = {
									dynasty = 66
								}
								mother_even_if_dead = {
									dynasty = 66
								}
							}
						}
						set_character_flag = tully_hoare
					}
					if = {
						limit = {
							OR  = {
								father_even_if_dead = {
									dynasty = 190
								}
								mother_even_if_dead = {
									dynasty = 190
								}
							}
						}
						set_character_flag = tully_lannister
					}
					if = {
						limit = {
							OR  = {
								father_even_if_dead = {
									dynasty = 1
								}
								mother_even_if_dead = {
									dynasty = 1
								}
							}
						}
						set_character_flag = tully_martell
					}
					if = {
						limit = {
							OR  = {
								father_even_if_dead = {
									dynasty = 197
								}
								mother_even_if_dead = {
									dynasty = 197
								}
							}
						}
						set_character_flag = tully_reyne
					}
					if = {
						limit = {
							OR  = {
								father_even_if_dead = {
									dynasty = 187
								}
								mother_even_if_dead = {
									dynasty = 187
								}
							}
						}
						set_character_flag = tully_royce
					}
					if = {
						limit = {
							OR  = {
								father_even_if_dead = {
									dynasty = 496
								}
								mother_even_if_dead = {
									dynasty = 496
								}
							}
						}
						set_character_flag = tully_targaryen
					}
					if = {
						limit = {
							OR  = {
								father_even_if_dead = {
									dynasty = 59
								}
								mother_even_if_dead = {
									dynasty = 59
								}
							}
						}
						set_character_flag = tully_stark
					}
					if = {
						limit = {
							OR  = {
								father_even_if_dead = {
									dynasty = 253
								}
								mother_even_if_dead = {
									dynasty = 253
								}
							}
						}
						set_character_flag = tully_tyrell
					}
					if = {
						limit = {
							OR  = {
								father_even_if_dead = {
									dynasty = 12
								}
								mother_even_if_dead = {
									dynasty = 12
								}
							}
						}
						set_character_flag = tully_yronwood
					}
					if = {
						limit = {
							OR  = {
								father_even_if_dead = {
									dynasty = 52
								}
								mother_even_if_dead = {
									dynasty = 52
								}
							}
						}
						set_character_flag = tully_velaryon
					}
				}
				300 = {
					set_character_flag = no_special_coa_mbs
				}
			}
		}
		ROOT = {
			character_event = { id = dynamic_coa.1 } 					
		}	
	}
	
	option = {
		name = OK
	}
}




#Martial
character_event = {
	id = mbs_personal_sigil_events.30
	hide_window = yes
		
	is_triggered_only = yes

	trigger = {
		ai = yes
		OR = { 
			dynasty = 59
			dynasty = 317
			dynasty = 1544
			dynasty = 57
			dynasty = 1254
			dynasty = 107
			dynasty = 66
			dynasty = 190
			dynasty = 1
			dynasty = 197
			dynasty = 496
			dynasty = 159
			dynasty = 253
			dynasty = 178
		}
		NOR = { 
			has_character_flag = stark_martial	
			has_character_flag = stark_fourth
			has_character_flag = stark_third
			has_character_flag = stark_second
			has_character_flag = stark_arryn
			has_character_flag = velaryon_martial	
			has_character_flag = velaryon_fourth
			has_character_flag = velaryon_third
			has_character_flag = velaryon_second
			has_character_flag = targaryen_martial	
			has_character_flag = targaryen_fourth
			has_character_flag = targaryen_third
			has_character_flag = targaryen_second
			has_character_flag = blackfyre_martial	
			has_character_flag = blackfyre_fourth
			has_character_flag = blackfyre_third
			has_character_flag = blackfyre_second
			has_character_flag = tully_martial	
			has_character_flag = tully_fourth
			has_character_flag = tully_third
			has_character_flag = tully_second
			has_character_flag = arryn_martial	
			has_character_flag = arryn_fourth
			has_character_flag = arryn_third
			has_character_flag = arryn_second
			has_character_flag = lannister_martial	
			has_character_flag = lannister_fourth
			has_character_flag = lannister_third
			has_character_flag = lannister_second
			has_character_flag = reyne_martial	
			has_character_flag = reyne_fourth
			has_character_flag = reyne_third
			has_character_flag = reyne_second
			has_character_flag = tyrell_martial	
			has_character_flag = tyrell_fourth
			has_character_flag = tyrell_third
			has_character_flag = tyrell_second
			has_character_flag = gardener_martial	
			has_character_flag = gardener_fourth
			has_character_flag = gardener_third
			has_character_flag = gardener_second
			has_character_flag = baratheon_martial	
			has_character_flag = baratheon_fourth
			has_character_flag = baratheon_third
			has_character_flag = baratheon_second
			has_character_flag = martell_martial	
			has_character_flag = martell_fourth
			has_character_flag = martell_third
			has_character_flag = martell_second
			has_character_flag = greyjoy_martial	
			has_character_flag = greyjoy_fourth
			has_character_flag = greyjoy_third
			has_character_flag = greyjoy_second
			has_character_flag = greyjoy_second
			has_character_flag = stark_arryn
			has_character_flag = stark_targaryen1
			has_character_flag = stark_baratheon
			has_character_flag = stark_blackfyre
			has_character_flag = stark_gardener
			has_character_flag = stark_greyjoy
			has_character_flag = stark_hoare
			has_character_flag = stark_hightower
			has_character_flag = stark_lannister
			has_character_flag = stark_martell
			has_character_flag = stark_reyne
			has_character_flag = stark_royce
			has_character_flag = stark_tully
			has_character_flag = stark_tyrell
			has_character_flag = stark_yronwood
			has_character_flag = stark_velaryon
			has_character_flag = arryn_stark
			has_character_flag = arryn_targaryen
			has_character_flag = arryn_baratheon
			has_character_flag = arryn_blackfyre
			has_character_flag = arryn_gardener
			has_character_flag = arryn_greyjoy
			has_character_flag = arryn_hoare
			has_character_flag = arryn_hightower
			has_character_flag = arryn_lannister
			has_character_flag = arryn_martell
			has_character_flag = arryn_reyne
			has_character_flag = arryn_royce
			has_character_flag = arryn_tully
			has_character_flag = arryn_tyrell
			has_character_flag = arryn_yronwood
			has_character_flag = arryn_velaryon
			has_character_flag = targaryen_arryn
			has_character_flag = targaryen_stark
			has_character_flag = targaryen_baratheon
			has_character_flag = targaryen_blackfyre
			has_character_flag = targaryen_gardener
			has_character_flag = targaryen_greyjoy
			has_character_flag = targaryen_hoare
			has_character_flag = targaryen_hightower
			has_character_flag = targaryen_lannister
			has_character_flag = targaryen_martell
			has_character_flag = targaryen_reyne
			has_character_flag = targaryen_royce
			has_character_flag = targaryen_tully
			has_character_flag = targaryen_tyrell
			has_character_flag = targaryen_yronwood
			has_character_flag = targaryen_velaryon
			has_character_flag = lannister_stark
			has_character_flag = lannister_targaryen
			has_character_flag = lannister_baratheon1
			has_character_flag = lannister_blackfyre
			has_character_flag = lannister_gardener
			has_character_flag = lannister_greyjoy
			has_character_flag = lannister_hoare
			has_character_flag = lannister_hightower
			has_character_flag = lannister_arryn
			has_character_flag = lannister_martell
			has_character_flag = lannister_reyne
			has_character_flag = lannister_royce
			has_character_flag = lannister_tully
			has_character_flag = lannister_tyrell
			has_character_flag = lannister_yronwood
			has_character_flag = lannister_velaryon
			has_character_flag = baratheon_stark
			has_character_flag = baratheon_targaryen
			has_character_flag = baratheon_lannister
			has_character_flag = baratheon_blackfyre
			has_character_flag = baratheon_gardener
			has_character_flag = baratheon_greyjoy
			has_character_flag = baratheon_hoare
			has_character_flag = baratheon_hightower
			has_character_flag = baratheon_arryn
			has_character_flag = baratheon_martell
			has_character_flag = baratheon_reyne
			has_character_flag = baratheon_royce
			has_character_flag = baratheon_tully
			has_character_flag = baratheon_tyrell
			has_character_flag = baratheon_yronwood
			has_character_flag = baratheon_velaryon
			has_character_flag = martell_stark
			has_character_flag = martell_targaryen
			has_character_flag = martell_baratheon
			has_character_flag = martell_blackfyre
			has_character_flag = martell_gardener
			has_character_flag = martell_greyjoy
			has_character_flag = martell_hoare
			has_character_flag = martell_hightower
			has_character_flag = martell_arryn
			has_character_flag = martell_lannister
			has_character_flag = martell_reyne
			has_character_flag = martell_royce
			has_character_flag = martell_tully
			has_character_flag = martell_tyrell
			has_character_flag = martell_yronwood
			has_character_flag = martell_velaryon
			has_character_flag = tyrell_stark
			has_character_flag = tyrell_targaryen
			has_character_flag = tyrell_baratheon
			has_character_flag = tyrell_blackfyre
			has_character_flag = tyrell_gardener
			has_character_flag = tyrell_greyjoy
			has_character_flag = tyrell_hoare
			has_character_flag = tyrell_hightower
			has_character_flag = tyrell_arryn
			has_character_flag = tyrell_lannister
			has_character_flag = tyrell_reyne
			has_character_flag = tyrell_royce
			has_character_flag = tyrell_tully
			has_character_flag = tyrell_martell
			has_character_flag = tyrell_yronwood
			has_character_flag = tyrell_velaryon
			has_character_flag = tully_stark
			has_character_flag = tully_targaryen
			has_character_flag = tully_baratheon
			has_character_flag = tully_blackfyre
			has_character_flag = tully_gardener
			has_character_flag = tully_greyjoy
			has_character_flag = tully_hoare
			has_character_flag = tully_hightower
			has_character_flag = tully_arryn
			has_character_flag = tully_lannister
			has_character_flag = tully_reyne
			has_character_flag = tully_royce
			has_character_flag = tully_tyrell
			has_character_flag = tully_martell
			has_character_flag = tully_yronwood
			has_character_flag = tully_velaryon
			has_character_flag = no_special_coa_mbs
		}
		OR = {
			trait = brilliant_strategist
			trait = strategist
			trait = master_warrior
		}
	}


	immediate = {
		ROOT = {
			random_list = {
				100 = {
					if = {
						limit = {
							dynasty = 59
						}
						set_character_flag = stark_martial					
					}
					if = {
						limit = {
							dynasty = 317
						}
						set_character_flag = baratheon_martial					
					}
					if = {
						limit = {
							dynasty = 1544
						}
						set_character_flag = baratheon_martial					
					}
					if = {
						limit = {
							dynasty = 57
						}
						set_character_flag = blackfyre_martial					
					}
					if = {
						limit = {
							dynasty = 1254
						}
						set_character_flag = gardener_martial
					}
					if = {
						limit = {
							dynasty = 107
						}
						set_character_flag = greyjoy_martial					
					}
					if = {
						limit = {
							dynasty = 178
						}
						set_character_flag = arryn_martial					
					}
					if = {
						limit = {
							dynasty = 66
						}
						set_character_flag = hoare_martial					
					}
					if = {
						limit = {
							dynasty = 190
						}
						set_character_flag = lannister_martial					
					}
					if = {
						limit = {
							dynasty = 1
						}
						set_character_flag = martell_martial					
					}
					if = {
						limit = {
							dynasty = 197
						}
						set_character_flag = reyne_martial					
					}
					if = {
						limit = {
							dynasty = 496
						}
						set_character_flag = targaryen_martial					
					}
					if = {
						limit = {
							dynasty = 159
						}
						set_character_flag = tully_martial					
					}
					if = {
						limit = {
							dynasty = 253
						}
						set_character_flag = tyrell_martial					
					}
				}
				300 = {
					set_character_flag = no_special_coa_mbs
				}
			}
		}
		ROOT = {
			character_event = { id = dynamic_coa.1 } 					
		}	
	}
	
	option = {
		name = OK
	}
}






#Multiples
character_event = {
	id = mbs_personal_sigil_events.40
	hide_window = yes
		
	is_triggered_only = yes

	trigger = {
		ai = yes
		any_sibling_even_if_dead  = {
			count = 1
			is_female = no 
			is_older_than = ROOT
			AND = { 
				NOT = { 
					trait = bastard
				}
			}
		}
		NOR = {
			any_sibling_even_if_dead  = {
				count = 2
				is_female = no 
				is_older_than = ROOT
				AND = { 
					NOT = { 
						trait = bastard
					}
				}
			}
			any_sibling_even_if_dead  = {
				count = 3
				is_female = no 
				is_older_than = ROOT
				AND = { 
					NOT = { 
					trait = bastard
					}
				}
			}
		}
		OR = { 
			dynasty = 59
			dynasty = 52
			dynasty = 317
			dynasty = 1544
			dynasty = 57
			dynasty = 1254
			dynasty = 107
			dynasty = 66
			dynasty = 190
			dynasty = 1
			dynasty = 197
			dynasty = 496
			dynasty = 159
			dynasty = 178
			dynasty = 253
		}
		NOR = { 
			has_character_flag = stark_martial	
			has_character_flag = stark_fourth
			has_character_flag = stark_third
			has_character_flag = stark_second
			has_character_flag = stark_arryn
			has_character_flag = velaryon_martial	
			has_character_flag = velaryon_fourth
			has_character_flag = velaryon_third
			has_character_flag = velaryon_second
			has_character_flag = targaryen_martial	
			has_character_flag = targaryen_fourth
			has_character_flag = targaryen_third
			has_character_flag = targaryen_second
			has_character_flag = blackfyre_martial	
			has_character_flag = blackfyre_fourth
			has_character_flag = blackfyre_third
			has_character_flag = blackfyre_second
			has_character_flag = tully_martial	
			has_character_flag = tully_fourth
			has_character_flag = tully_third
			has_character_flag = tully_second
			has_character_flag = arryn_martial	
			has_character_flag = arryn_fourth
			has_character_flag = arryn_third
			has_character_flag = arryn_second
			has_character_flag = lannister_martial	
			has_character_flag = lannister_fourth
			has_character_flag = lannister_third
			has_character_flag = lannister_second
			has_character_flag = reyne_martial	
			has_character_flag = reyne_fourth
			has_character_flag = reyne_third
			has_character_flag = reyne_second
			has_character_flag = tyrell_martial	
			has_character_flag = tyrell_fourth
			has_character_flag = tyrell_third
			has_character_flag = tyrell_second
			has_character_flag = gardener_martial	
			has_character_flag = gardener_fourth
			has_character_flag = gardener_third
			has_character_flag = gardener_second
			has_character_flag = baratheon_martial	
			has_character_flag = baratheon_fourth
			has_character_flag = baratheon_third
			has_character_flag = baratheon_second
			has_character_flag = martell_martial	
			has_character_flag = martell_fourth
			has_character_flag = martell_third
			has_character_flag = martell_second
			has_character_flag = greyjoy_martial	
			has_character_flag = greyjoy_fourth
			has_character_flag = greyjoy_third
			has_character_flag = greyjoy_second
			has_character_flag = greyjoy_second
			has_character_flag = stark_arryn
			has_character_flag = stark_targaryen1
			has_character_flag = stark_baratheon
			has_character_flag = stark_blackfyre
			has_character_flag = stark_gardener
			has_character_flag = stark_greyjoy
			has_character_flag = stark_hoare
			has_character_flag = stark_hightower
			has_character_flag = stark_lannister
			has_character_flag = stark_martell
			has_character_flag = stark_reyne
			has_character_flag = stark_royce
			has_character_flag = stark_tully
			has_character_flag = stark_tyrell
			has_character_flag = stark_yronwood
			has_character_flag = stark_velaryon
			has_character_flag = arryn_stark
			has_character_flag = arryn_targaryen
			has_character_flag = arryn_baratheon
			has_character_flag = arryn_blackfyre
			has_character_flag = arryn_gardener
			has_character_flag = arryn_greyjoy
			has_character_flag = arryn_hoare
			has_character_flag = arryn_hightower
			has_character_flag = arryn_lannister
			has_character_flag = arryn_martell
			has_character_flag = arryn_reyne
			has_character_flag = arryn_royce
			has_character_flag = arryn_tully
			has_character_flag = arryn_tyrell
			has_character_flag = arryn_yronwood
			has_character_flag = arryn_velaryon
			has_character_flag = targaryen_arryn
			has_character_flag = targaryen_stark
			has_character_flag = targaryen_baratheon
			has_character_flag = targaryen_blackfyre
			has_character_flag = targaryen_gardener
			has_character_flag = targaryen_greyjoy
			has_character_flag = targaryen_hoare
			has_character_flag = targaryen_hightower
			has_character_flag = targaryen_lannister
			has_character_flag = targaryen_martell
			has_character_flag = targaryen_reyne
			has_character_flag = targaryen_royce
			has_character_flag = targaryen_tully
			has_character_flag = targaryen_tyrell
			has_character_flag = targaryen_yronwood
			has_character_flag = targaryen_velaryon
			has_character_flag = lannister_stark
			has_character_flag = lannister_targaryen
			has_character_flag = lannister_baratheon1
			has_character_flag = lannister_blackfyre
			has_character_flag = lannister_gardener
			has_character_flag = lannister_greyjoy
			has_character_flag = lannister_hoare
			has_character_flag = lannister_hightower
			has_character_flag = lannister_arryn
			has_character_flag = lannister_martell
			has_character_flag = lannister_reyne
			has_character_flag = lannister_royce
			has_character_flag = lannister_tully
			has_character_flag = lannister_tyrell
			has_character_flag = lannister_yronwood
			has_character_flag = lannister_velaryon
			has_character_flag = baratheon_stark
			has_character_flag = baratheon_targaryen
			has_character_flag = baratheon_lannister
			has_character_flag = baratheon_blackfyre
			has_character_flag = baratheon_gardener
			has_character_flag = baratheon_greyjoy
			has_character_flag = baratheon_hoare
			has_character_flag = baratheon_hightower
			has_character_flag = baratheon_arryn
			has_character_flag = baratheon_martell
			has_character_flag = baratheon_reyne
			has_character_flag = baratheon_royce
			has_character_flag = baratheon_tully
			has_character_flag = baratheon_tyrell
			has_character_flag = baratheon_yronwood
			has_character_flag = baratheon_velaryon
			has_character_flag = martell_stark
			has_character_flag = martell_targaryen
			has_character_flag = martell_baratheon
			has_character_flag = martell_blackfyre
			has_character_flag = martell_gardener
			has_character_flag = martell_greyjoy
			has_character_flag = martell_hoare
			has_character_flag = martell_hightower
			has_character_flag = martell_arryn
			has_character_flag = martell_lannister
			has_character_flag = martell_reyne
			has_character_flag = martell_royce
			has_character_flag = martell_tully
			has_character_flag = martell_tyrell
			has_character_flag = martell_yronwood
			has_character_flag = martell_velaryon
			has_character_flag = tyrell_stark
			has_character_flag = tyrell_targaryen
			has_character_flag = tyrell_baratheon
			has_character_flag = tyrell_blackfyre
			has_character_flag = tyrell_gardener
			has_character_flag = tyrell_greyjoy
			has_character_flag = tyrell_hoare
			has_character_flag = tyrell_hightower
			has_character_flag = tyrell_arryn
			has_character_flag = tyrell_lannister
			has_character_flag = tyrell_reyne
			has_character_flag = tyrell_royce
			has_character_flag = tyrell_tully
			has_character_flag = tyrell_martell
			has_character_flag = tyrell_yronwood
			has_character_flag = tyrell_velaryon
			has_character_flag = tully_stark
			has_character_flag = tully_targaryen
			has_character_flag = tully_baratheon
			has_character_flag = tully_blackfyre
			has_character_flag = tully_gardener
			has_character_flag = tully_greyjoy
			has_character_flag = tully_hoare
			has_character_flag = tully_hightower
			has_character_flag = tully_arryn
			has_character_flag = tully_lannister
			has_character_flag = tully_reyne
			has_character_flag = tully_royce
			has_character_flag = tully_tyrell
			has_character_flag = tully_martell
			has_character_flag = tully_yronwood
			has_character_flag = tully_velaryon
			has_character_flag = no_special_coa_mbs
		}
	}


	immediate = {
		ROOT = {
			random_list = {
				100 = {
					if = {
						limit = {
							dynasty = 59
						}
						set_character_flag = stark_second					
					}
					if = {
						limit = {
							dynasty = 317
						}
						set_character_flag = baratheon_second					
					}
					if = {
						limit = {
							dynasty = 1544
						}
						set_character_flag = baratheon_second					
					}
					if = {
						limit = {
							dynasty = 178
						}
						set_character_flag = arryn_second					
					}
					if = {
						limit = {
							dynasty = 57
						}
						set_character_flag = blackfyre_second					
					}
					if = {
						limit = {
							dynasty = 1254
						}
						set_character_flag = gardener_second
					}
					if = {
						limit = {
							dynasty = 107
						}
						set_character_flag = greyjoy_second					
					}
					if = {
						limit = {
							dynasty = 66
						}
						set_character_flag = hoare_second					
					}
					if = {
						limit = {
							dynasty = 190
						}
						set_character_flag = lannister_second					
					}
					if = {
						limit = {
							dynasty = 1
						}
						set_character_flag = martell_second					
					}
					if = {
						limit = {
							dynasty = 197
						}
						set_character_flag = reyne_second					
					}
					if = {
						limit = {
							dynasty = 496
						}
						set_character_flag = targaryen_second					
					}
					if = {
						limit = {
							dynasty = 159
						}
						set_character_flag = tully_second					
					}
					if = {
						limit = {
							dynasty = 253
						}
						set_character_flag = tyrell_second					
					}
				}
				300 = {
					set_character_flag = no_special_coa_mbs
				}
			}
		}
		ROOT = {
			character_event = { id = dynamic_coa.1 } 					
		}	
	}
	
	option = {
		name = OK
	}
}
character_event = {
	id = mbs_personal_sigil_events.41
	hide_window = yes
		
	is_triggered_only = yes

	trigger = {
		ai = yes
		any_sibling_even_if_dead  = {
			count = 2
			is_female = no 
			is_older_than = ROOT
			AND = { 
				NOT = { 
					trait = bastard
				}
			}
		}
		NOT = {
			any_sibling_even_if_dead  = {
				count = 3
				is_female = no 
				is_older_than = ROOT
				AND = { 
					NOT = { 
					trait = bastard
					}
				}
			}
		}
		OR = { 
			dynasty = 59
			dynasty = 52
			dynasty = 317
			dynasty = 1544
			dynasty = 57
			dynasty = 1254
			dynasty = 107
			dynasty = 66
			dynasty = 190
			dynasty = 1
			dynasty = 197
			dynasty = 496
			dynasty = 159
			dynasty = 178
			dynasty = 253
		}
		NOR = { 
			has_character_flag = stark_martial	
			has_character_flag = stark_fourth
			has_character_flag = stark_third
			has_character_flag = stark_second
			has_character_flag = stark_arryn
			has_character_flag = velaryon_martial	
			has_character_flag = velaryon_fourth
			has_character_flag = velaryon_third
			has_character_flag = velaryon_second
			has_character_flag = targaryen_martial	
			has_character_flag = targaryen_fourth
			has_character_flag = targaryen_third
			has_character_flag = targaryen_second
			has_character_flag = blackfyre_martial	
			has_character_flag = blackfyre_fourth
			has_character_flag = blackfyre_third
			has_character_flag = blackfyre_second
			has_character_flag = tully_martial	
			has_character_flag = tully_fourth
			has_character_flag = tully_third
			has_character_flag = tully_second
			has_character_flag = arryn_martial	
			has_character_flag = arryn_fourth
			has_character_flag = arryn_third
			has_character_flag = arryn_second
			has_character_flag = lannister_martial	
			has_character_flag = lannister_fourth
			has_character_flag = lannister_third
			has_character_flag = lannister_second
			has_character_flag = reyne_martial	
			has_character_flag = reyne_fourth
			has_character_flag = reyne_third
			has_character_flag = reyne_second
			has_character_flag = tyrell_martial	
			has_character_flag = tyrell_fourth
			has_character_flag = tyrell_third
			has_character_flag = tyrell_second
			has_character_flag = gardener_martial	
			has_character_flag = gardener_fourth
			has_character_flag = gardener_third
			has_character_flag = gardener_second
			has_character_flag = baratheon_martial	
			has_character_flag = baratheon_fourth
			has_character_flag = baratheon_third
			has_character_flag = baratheon_second
			has_character_flag = martell_martial	
			has_character_flag = martell_fourth
			has_character_flag = martell_third
			has_character_flag = martell_second
			has_character_flag = greyjoy_martial	
			has_character_flag = greyjoy_fourth
			has_character_flag = greyjoy_third
			has_character_flag = greyjoy_second
			has_character_flag = greyjoy_second
			has_character_flag = stark_arryn
			has_character_flag = stark_targaryen1
			has_character_flag = stark_baratheon
			has_character_flag = stark_blackfyre
			has_character_flag = stark_gardener
			has_character_flag = stark_greyjoy
			has_character_flag = stark_hoare
			has_character_flag = stark_hightower
			has_character_flag = stark_lannister
			has_character_flag = stark_martell
			has_character_flag = stark_reyne
			has_character_flag = stark_royce
			has_character_flag = stark_tully
			has_character_flag = stark_tyrell
			has_character_flag = stark_yronwood
			has_character_flag = stark_velaryon
			has_character_flag = arryn_stark
			has_character_flag = arryn_targaryen
			has_character_flag = arryn_baratheon
			has_character_flag = arryn_blackfyre
			has_character_flag = arryn_gardener
			has_character_flag = arryn_greyjoy
			has_character_flag = arryn_hoare
			has_character_flag = arryn_hightower
			has_character_flag = arryn_lannister
			has_character_flag = arryn_martell
			has_character_flag = arryn_reyne
			has_character_flag = arryn_royce
			has_character_flag = arryn_tully
			has_character_flag = arryn_tyrell
			has_character_flag = arryn_yronwood
			has_character_flag = arryn_velaryon
			has_character_flag = targaryen_arryn
			has_character_flag = targaryen_stark
			has_character_flag = targaryen_baratheon
			has_character_flag = targaryen_blackfyre
			has_character_flag = targaryen_gardener
			has_character_flag = targaryen_greyjoy
			has_character_flag = targaryen_hoare
			has_character_flag = targaryen_hightower
			has_character_flag = targaryen_lannister
			has_character_flag = targaryen_martell
			has_character_flag = targaryen_reyne
			has_character_flag = targaryen_royce
			has_character_flag = targaryen_tully
			has_character_flag = targaryen_tyrell
			has_character_flag = targaryen_yronwood
			has_character_flag = targaryen_velaryon
			has_character_flag = lannister_stark
			has_character_flag = lannister_targaryen
			has_character_flag = lannister_baratheon1
			has_character_flag = lannister_blackfyre
			has_character_flag = lannister_gardener
			has_character_flag = lannister_greyjoy
			has_character_flag = lannister_hoare
			has_character_flag = lannister_hightower
			has_character_flag = lannister_arryn
			has_character_flag = lannister_martell
			has_character_flag = lannister_reyne
			has_character_flag = lannister_royce
			has_character_flag = lannister_tully
			has_character_flag = lannister_tyrell
			has_character_flag = lannister_yronwood
			has_character_flag = lannister_velaryon
			has_character_flag = baratheon_stark
			has_character_flag = baratheon_targaryen
			has_character_flag = baratheon_lannister
			has_character_flag = baratheon_blackfyre
			has_character_flag = baratheon_gardener
			has_character_flag = baratheon_greyjoy
			has_character_flag = baratheon_hoare
			has_character_flag = baratheon_hightower
			has_character_flag = baratheon_arryn
			has_character_flag = baratheon_martell
			has_character_flag = baratheon_reyne
			has_character_flag = baratheon_royce
			has_character_flag = baratheon_tully
			has_character_flag = baratheon_tyrell
			has_character_flag = baratheon_yronwood
			has_character_flag = baratheon_velaryon
			has_character_flag = martell_stark
			has_character_flag = martell_targaryen
			has_character_flag = martell_baratheon
			has_character_flag = martell_blackfyre
			has_character_flag = martell_gardener
			has_character_flag = martell_greyjoy
			has_character_flag = martell_hoare
			has_character_flag = martell_hightower
			has_character_flag = martell_arryn
			has_character_flag = martell_lannister
			has_character_flag = martell_reyne
			has_character_flag = martell_royce
			has_character_flag = martell_tully
			has_character_flag = martell_tyrell
			has_character_flag = martell_yronwood
			has_character_flag = martell_velaryon
			has_character_flag = tyrell_stark
			has_character_flag = tyrell_targaryen
			has_character_flag = tyrell_baratheon
			has_character_flag = tyrell_blackfyre
			has_character_flag = tyrell_gardener
			has_character_flag = tyrell_greyjoy
			has_character_flag = tyrell_hoare
			has_character_flag = tyrell_hightower
			has_character_flag = tyrell_arryn
			has_character_flag = tyrell_lannister
			has_character_flag = tyrell_reyne
			has_character_flag = tyrell_royce
			has_character_flag = tyrell_tully
			has_character_flag = tyrell_martell
			has_character_flag = tyrell_yronwood
			has_character_flag = tyrell_velaryon
			has_character_flag = tully_stark
			has_character_flag = tully_targaryen
			has_character_flag = tully_baratheon
			has_character_flag = tully_blackfyre
			has_character_flag = tully_gardener
			has_character_flag = tully_greyjoy
			has_character_flag = tully_hoare
			has_character_flag = tully_hightower
			has_character_flag = tully_arryn
			has_character_flag = tully_lannister
			has_character_flag = tully_reyne
			has_character_flag = tully_royce
			has_character_flag = tully_tyrell
			has_character_flag = tully_martell
			has_character_flag = tully_yronwood
			has_character_flag = tully_velaryon
			has_character_flag = no_special_coa_mbs
		}
	}


	immediate = {
		ROOT = {
			random_list = {
				150 = {
					if = {
						limit = {
							dynasty = 59
						}
						set_character_flag = stark_third					
					}
					if = {
						limit = {
							dynasty = 317
						}
						set_character_flag = baratheon_third					
					}
					if = {
						limit = {
							dynasty = 1544
						}
						set_character_flag = baratheon_third					
					}
					if = {
						limit = {
							dynasty = 178
						}
						set_character_flag = arryn_third					
					}
					if = {
						limit = {
							dynasty = 57
						}
						set_character_flag = blackfyre_third					
					}
					if = {
						limit = {
							dynasty = 1254
						}
						set_character_flag = gardener_third
					}
					if = {
						limit = {
							dynasty = 107
						}
						set_character_flag = greyjoy_third					
					}
					if = {
						limit = {
							dynasty = 66
						}
						set_character_flag = hoare_third					
					}
					if = {
						limit = {
							dynasty = 190
						}
						set_character_flag = lannister_third					
					}
					if = {
						limit = {
							dynasty = 1
						}
						set_character_flag = martell_third					
					}
					if = {
						limit = {
							dynasty = 197
						}
						set_character_flag = reyne_third					
					}
					if = {
						limit = {
							dynasty = 496
						}
						set_character_flag = targaryen_third					
					}
					if = {
						limit = {
							dynasty = 159
						}
						set_character_flag = tully_third					
					}
					if = {
						limit = {
							dynasty = 253
						}
						set_character_flag = tyrell_third					
					}
				}
				250 = {
					set_character_flag = no_special_coa_mbs
				}
			}
		}
		ROOT = {
			character_event = { id = dynamic_coa.1 } 					
		}	
	}
	
	option = {
		name = OK
	}
}
character_event = {
	id = mbs_personal_sigil_events.42
	hide_window = yes
		
	is_triggered_only = yes

	trigger = {
		ai = yes
		any_sibling_even_if_dead  = {
			count = 3
			is_female = no 
			is_older_than = ROOT
			AND = { 
				NOT = { 
					trait = bastard
				}
			}
		}
		NOT = {
			any_sibling_even_if_dead  = {
				count = 5
				is_female = no 
				is_older_than = ROOT
				AND = { 
					NOT = { 
					trait = bastard
					}
				}
			}
		}
		OR = { 
			dynasty = 59
			dynasty = 52
			dynasty = 317
			dynasty = 1544
			dynasty = 57
			dynasty = 1254
			dynasty = 107
			dynasty = 66
			dynasty = 190
			dynasty = 1
			dynasty = 197
			dynasty = 496
			dynasty = 159
			dynasty = 178
			dynasty = 253
		}
		NOR = { 
			has_character_flag = stark_martial	
			has_character_flag = stark_fourth
			has_character_flag = stark_third
			has_character_flag = stark_second
			has_character_flag = stark_arryn
			has_character_flag = velaryon_martial	
			has_character_flag = velaryon_fourth
			has_character_flag = velaryon_third
			has_character_flag = velaryon_second
			has_character_flag = targaryen_martial	
			has_character_flag = targaryen_fourth
			has_character_flag = targaryen_third
			has_character_flag = targaryen_second
			has_character_flag = blackfyre_martial	
			has_character_flag = blackfyre_fourth
			has_character_flag = blackfyre_third
			has_character_flag = blackfyre_second
			has_character_flag = tully_martial	
			has_character_flag = tully_fourth
			has_character_flag = tully_third
			has_character_flag = tully_second
			has_character_flag = arryn_martial	
			has_character_flag = arryn_fourth
			has_character_flag = arryn_third
			has_character_flag = arryn_second
			has_character_flag = lannister_martial	
			has_character_flag = lannister_fourth
			has_character_flag = lannister_third
			has_character_flag = lannister_second
			has_character_flag = reyne_martial	
			has_character_flag = reyne_fourth
			has_character_flag = reyne_third
			has_character_flag = reyne_second
			has_character_flag = tyrell_martial	
			has_character_flag = tyrell_fourth
			has_character_flag = tyrell_third
			has_character_flag = tyrell_second
			has_character_flag = gardener_martial	
			has_character_flag = gardener_fourth
			has_character_flag = gardener_third
			has_character_flag = gardener_second
			has_character_flag = baratheon_martial	
			has_character_flag = baratheon_fourth
			has_character_flag = baratheon_third
			has_character_flag = baratheon_second
			has_character_flag = martell_martial	
			has_character_flag = martell_fourth
			has_character_flag = martell_third
			has_character_flag = martell_second
			has_character_flag = greyjoy_martial	
			has_character_flag = greyjoy_fourth
			has_character_flag = greyjoy_third
			has_character_flag = greyjoy_second
			has_character_flag = greyjoy_second
			has_character_flag = stark_arryn
			has_character_flag = stark_targaryen1
			has_character_flag = stark_baratheon
			has_character_flag = stark_blackfyre
			has_character_flag = stark_gardener
			has_character_flag = stark_greyjoy
			has_character_flag = stark_hoare
			has_character_flag = stark_hightower
			has_character_flag = stark_lannister
			has_character_flag = stark_martell
			has_character_flag = stark_reyne
			has_character_flag = stark_royce
			has_character_flag = stark_tully
			has_character_flag = stark_tyrell
			has_character_flag = stark_yronwood
			has_character_flag = stark_velaryon
			has_character_flag = arryn_stark
			has_character_flag = arryn_targaryen
			has_character_flag = arryn_baratheon
			has_character_flag = arryn_blackfyre
			has_character_flag = arryn_gardener
			has_character_flag = arryn_greyjoy
			has_character_flag = arryn_hoare
			has_character_flag = arryn_hightower
			has_character_flag = arryn_lannister
			has_character_flag = arryn_martell
			has_character_flag = arryn_reyne
			has_character_flag = arryn_royce
			has_character_flag = arryn_tully
			has_character_flag = arryn_tyrell
			has_character_flag = arryn_yronwood
			has_character_flag = arryn_velaryon
			has_character_flag = targaryen_arryn
			has_character_flag = targaryen_stark
			has_character_flag = targaryen_baratheon
			has_character_flag = targaryen_blackfyre
			has_character_flag = targaryen_gardener
			has_character_flag = targaryen_greyjoy
			has_character_flag = targaryen_hoare
			has_character_flag = targaryen_hightower
			has_character_flag = targaryen_lannister
			has_character_flag = targaryen_martell
			has_character_flag = targaryen_reyne
			has_character_flag = targaryen_royce
			has_character_flag = targaryen_tully
			has_character_flag = targaryen_tyrell
			has_character_flag = targaryen_yronwood
			has_character_flag = targaryen_velaryon
			has_character_flag = lannister_stark
			has_character_flag = lannister_targaryen
			has_character_flag = lannister_baratheon1
			has_character_flag = lannister_blackfyre
			has_character_flag = lannister_gardener
			has_character_flag = lannister_greyjoy
			has_character_flag = lannister_hoare
			has_character_flag = lannister_hightower
			has_character_flag = lannister_arryn
			has_character_flag = lannister_martell
			has_character_flag = lannister_reyne
			has_character_flag = lannister_royce
			has_character_flag = lannister_tully
			has_character_flag = lannister_tyrell
			has_character_flag = lannister_yronwood
			has_character_flag = lannister_velaryon
			has_character_flag = baratheon_stark
			has_character_flag = baratheon_targaryen
			has_character_flag = baratheon_lannister
			has_character_flag = baratheon_blackfyre
			has_character_flag = baratheon_gardener
			has_character_flag = baratheon_greyjoy
			has_character_flag = baratheon_hoare
			has_character_flag = baratheon_hightower
			has_character_flag = baratheon_arryn
			has_character_flag = baratheon_martell
			has_character_flag = baratheon_reyne
			has_character_flag = baratheon_royce
			has_character_flag = baratheon_tully
			has_character_flag = baratheon_tyrell
			has_character_flag = baratheon_yronwood
			has_character_flag = baratheon_velaryon
			has_character_flag = martell_stark
			has_character_flag = martell_targaryen
			has_character_flag = martell_baratheon
			has_character_flag = martell_blackfyre
			has_character_flag = martell_gardener
			has_character_flag = martell_greyjoy
			has_character_flag = martell_hoare
			has_character_flag = martell_hightower
			has_character_flag = martell_arryn
			has_character_flag = martell_lannister
			has_character_flag = martell_reyne
			has_character_flag = martell_royce
			has_character_flag = martell_tully
			has_character_flag = martell_tyrell
			has_character_flag = martell_yronwood
			has_character_flag = martell_velaryon
			has_character_flag = tyrell_stark
			has_character_flag = tyrell_targaryen
			has_character_flag = tyrell_baratheon
			has_character_flag = tyrell_blackfyre
			has_character_flag = tyrell_gardener
			has_character_flag = tyrell_greyjoy
			has_character_flag = tyrell_hoare
			has_character_flag = tyrell_hightower
			has_character_flag = tyrell_arryn
			has_character_flag = tyrell_lannister
			has_character_flag = tyrell_reyne
			has_character_flag = tyrell_royce
			has_character_flag = tyrell_tully
			has_character_flag = tyrell_martell
			has_character_flag = tyrell_yronwood
			has_character_flag = tyrell_velaryon
			has_character_flag = tully_stark
			has_character_flag = tully_targaryen
			has_character_flag = tully_baratheon
			has_character_flag = tully_blackfyre
			has_character_flag = tully_gardener
			has_character_flag = tully_greyjoy
			has_character_flag = tully_hoare
			has_character_flag = tully_hightower
			has_character_flag = tully_arryn
			has_character_flag = tully_lannister
			has_character_flag = tully_reyne
			has_character_flag = tully_royce
			has_character_flag = tully_tyrell
			has_character_flag = tully_martell
			has_character_flag = tully_yronwood
			has_character_flag = tully_velaryon
			has_character_flag = no_special_coa_mbs
		}
	}


	immediate = {
		ROOT = {
			random_list = {
				150 = {
					if = {
						limit = {
							dynasty = 59
						}
						set_character_flag = stark_fourth					
					}
					if = {
						limit = {
							dynasty = 317
						}
						set_character_flag = baratheon_fourth					
					}
					if = {
						limit = {
							dynasty = 1544
						}
						set_character_flag = baratheon_fourth					
					}
					if = {
						limit = {
							dynasty = 178
						}
						set_character_flag = arryn_fourth					
					}
					if = {
						limit = {
							dynasty = 57
						}
						set_character_flag = blackfyre_fourth					
					}
					if = {
						limit = {
							dynasty = 1254
						}
						set_character_flag = gardener_fourth
					}
					if = {
						limit = {
							dynasty = 107
						}
						set_character_flag = greyjoy_fourth					
					}
					if = {
						limit = {
							dynasty = 66
						}
						set_character_flag = hoare_fourth					
					}
					if = {
						limit = {
							dynasty = 190
						}
						set_character_flag = lannister_fourth					
					}
					if = {
						limit = {
							dynasty = 1
						}
						set_character_flag = martell_fourth					
					}
					if = {
						limit = {
							dynasty = 197
						}
						set_character_flag = reyne_fourth					
					}
					if = {
						limit = {
							dynasty = 496
						}
						set_character_flag = targaryen_fourth					
					}
					if = {
						limit = {
							dynasty = 159
						}
						set_character_flag = tully_fourth					
					}
					if = {
						limit = {
							dynasty = 253
						}
						set_character_flag = tyrell_fourth					
					}
				}
				250 = {
					set_character_flag = no_special_coa_mbs
				}
			}
		}
		ROOT = {
			character_event = { id = dynamic_coa.1 } 					
		}	
	}
	
	option = {
		name = OK
	}
}