namespace = unicorn
###################################

#############unicorn Quest
#Am I going to do this?
character_event = {
	id = unicorn.1
	desc = "EVTDESCunicorn.1"
	picture = "GFX_evt_unicorn"
	

	
	is_triggered_only = yes
		
	
	option = {
		name = "EVTOPTAunicorn.1" #lets do it
		ai_chance = {
			factor = 2
						
			modifier = {
				factor = 3
				is_old_gods_religion_trigger = yes
				trait = zealous
			}
			modifier = {
				factor = 3
				trait = brave
			}
			modifier = {
				factor = 50
				trait = greensight
			}
			modifier = {
				factor = 25
				trait = mystic
			}			
		}
		character_event = { id = unicorn.2 }
		set_character_flag = taming_exotic_beast
		save_event_target_as = unicorn_quest_leader
	}
	option = {
		name = "EVTOPTBunicorn.1" #not rn
		ai_chance = {
			factor = 2
						

			modifier = {
				factor = 10
				trait = craven
			}			
		}
	}
}
#Am I already on Skagos?
character_event = {
	id = unicorn.2
	desc = "EVTDESCunicorn.2"
	picture = "GFX_evt_unicorn"
	

	
	is_triggered_only = yes
		
	
	option = {
		name = "EVTOPTAunicorn.2" #have to journey beyond wall
		trigger = {
			NOR = {
				location = {
					county = {
						title = c_kingshouse
					}
				}
				location = {
					county = {
						title = c_deepdown
					}
				}
				location = {
					county = {
						title = c_driftwoodhall
					}
				}
			}
		}			
		character_event = { id = unicorn.3 days = 20 random = 10 }
		add_trait = wikid
	}
	option = {
		name = "EVTOPTBunicorn.2" #beyond wall already
		trigger = {
			OR = {
				location = {
					county = {
						title = c_kingshouse
					}
				}
				location = {
					county = {
						title = c_deepdown
					}
				}
				location = {
					county = {
						title = c_driftwoodhall
					}
				}
			}
		}
		character_event = { id = unicorn.7 days = 20 random = 10 }

	}
}
#Gets to Eastwatch - speaks to C, C recommends taking a smuggler
character_event = {
	id = unicorn.3
	desc = "EVTDESCunicorn.3"
	picture = "GFX_evt_the_wall"
	

	
	is_triggered_only = yes
		
	
	option = {
		name = "EVTOPTAunicorn.3" #take smuggler
		ai_chance = {
			factor = 10
		}
		c_eastwatch = { holder_scope = { tooltip = { show_portrait = yes } } }
		character_event = { id = unicorn.4 days = 10 random = 10 }
	}
	option = {
		name = "EVTOPTBunicorn.3" #
		ai_chance = {
			factor = 0
		}
		character_event = { id = unicorn.6 days = 10 random = 10 }
	}
}
#goes to White Harbour for smuggler
character_event = {
	id = unicorn.4
	desc = "EVTDESCunicorn.4"
	picture = "GFX_white_harbour_event"
	

	
	is_triggered_only = yes
		
	immediate = { 
		create_random_steward = {
			random_traits = yes
			dynasty = none
			female = no
			culture = half_southron 
			religion = the_seven 
			historical = yes
		}
		new_character = {
			change_martial = 2
			add_trait = deceitful
			add_trait = quick
			add_trait = skilled_warrior						
			add_trait = schemer						
			add_trait = ambitious						
			add_trait = wikid
			random_list = {
				32 = { add_trait = tall }
				32 = { add_trait = strong }
				32 = { add_trait = brave }
				32 = { add_trait = gregarious }
			}
			save_event_target_as = mammoth_quest_smuggler
			set_character_flag = unicorn_quest_smuggler
		}
	}
	
	option = {
		name = "EVTOPTAunicorn.4" #have to go back to eastwatch
		set_character_flag = unicorn_quest_has_smuggler
		event_target:unicorn_quest_smuggler = { character_event = { id = unicorn.401 } }
		character_event = { id = unicorn.6 days = 10 random = 10 }
		wealth = -20

	}
}
#"Hi, I'm your smuggler"
character_event = {
	id = unicorn.401
	

	
	is_triggered_only = yes
		
	
	option = {
		event_target:unicorn_quest_leader = { character_event = { id = unicorn.5 } }
		FROM = { tooltip = { show_portrait = yes } }
	}
}
#"Hi, I'm your smuggler"
character_event = {
	id = unicorn.5
	desc = "EVTDESCunicorn.5"
	picture = "GFX_white_harbour_event"
	

	
	is_triggered_only = yes
		
	
	option = {
		name = "EVTOPTAunicorn.4" #have to journey beyond wall
		FROM = { tooltip = { show_portrait = yes } }
	}
}
#Sail from Eastwatch
character_event = {
	id = unicorn.6
	desc = "EVTDESCunicorn.6"
	picture = "GFX_eastwatch_event"
	

	
	is_triggered_only = yes
		
	
	option = {
		name = "EVTOPTAunicorn.6" #
		character_event = { id = unicorn.7 days = 10 random = 10 }
	}
}
#Chance to decide if you have an issue
character_event = {
	id = unicorn.7
	hide_window = yes


	
	is_triggered_only = yes
		
	
	option = {
		name = "EVTOPTAunicorn.7" #avoids all wildling attacks
		ai_chance = {
			factor = 4
						
			modifier = {
				factor = 25
				culture = skagosi 
			}			
			modifier = {
				factor = 100
				trait = dragon_rider #flies over danger
			}			
			modifier = {
				factor = 10
				has_character_flag = unicorn_quest_has_smuggler	#smuggler knows his way
			}
		}
		character_event = { id = unicorn.8 }
	}
	option = {
		name = "EVTOPTBunicorn.7" #wildling attack
		ai_chance = {
			factor = 10					
		}
		character_event = { id = unicorn.9 }
	}
}
#Pass through landing without incident
character_event = {
	id = unicorn.8
	desc = "EVTDESCunicorn.8"
	picture = "GFX_skagos_event"
	

	
	is_triggered_only = yes
		
	
	option = {
		name = "EVTOPTAunicorn.8" #
		character_event = { id = unicorn.15 days = 10 random = 10 }
	}
}
#Wildling attack
character_event = {
	id = unicorn.9
	desc = "EVTDESCunicorn.9"
	picture = "GFX_evt_wildlings"
	

	
	is_triggered_only = yes
		
	
	option = {
		name = "EVTOPTAunicorn.9" #dracarys
		ai_chance = {
			factor = 10					
		}
		trigger = {
			trait = dragon_rider
		}			
		character_event = { id = unicorn.10 }
	}
	option = {
		name = "EVTOPTBunicorn.9" #I'm a greenseer, mate
		ai_chance = {
			factor = 100					
		}
		trigger = {
			trait = greensight
		}			
		character_event = { id = unicorn.11 }
	}
	option = {
		name = "EVTOPTCunicorn.9" #pay them off
		ai_chance = {
			factor = 5					
		}
		wealth = -15
		character_event = { id = unicorn.12 }
	}
	option = {
		name = "EVTOPTDunicorn.9" #have to fight them off
		ai_chance = {
			factor = 5					
			modifier = {
				factor = 25
				trait = master_warrior
			}			
			modifier = {
				factor = 5
				trait = strong
			}			
			modifier = {
				factor = 5
				trait = skilled_warrior
			}			
			modifier = {
				factor = 5
				trait = brave
			}			
			modifier = {
				factor = 10
				has_character_flag = unicorn_quest_has_smuggler	#smuggler knows his way
			}
		}
			
		character_event = { id = unicorn.13 }
	}	
}
#Dracarys
character_event = {
	id = unicorn.10
	desc = "EVTDESCunicorn.10"
	picture = "GFX_evt_dragon_angry"
	

	
	is_triggered_only = yes
		
	
	option = {
		name = "EVTOPTAunicorn.10" #
		character_event = { id = unicorn.15 days = 10 random = 10 }
	}
}
#Greensight
character_event = {
	id = unicorn.11
	desc = "EVTDESCunicorn.11"
	picture = "GFX_evt_wildlings"
	

	
	is_triggered_only = yes
		
	
	option = {
		name = "EVTOPTAunicorn.11" #
		
		add_artifact = weirwood_bow 
		add_artifact = dragonglass_dagger 
		
		character_event = { id = unicorn.15 days = 10 random = 10 }
	}
}
#Paid off
character_event = {
	id = unicorn.12
	desc = "EVTDESCunicorn.12"
	picture = "GFX_evt_wildlings"
	

	
	is_triggered_only = yes
		
	
	option = {
		name = "EVTOPTAunicorn.12" #
				
		character_event = { id = unicorn.15 days = 10 random = 10 }
	}
}
#Fight off
character_event = {
	id = unicorn.13
	hide_window = yes
	

	
	is_triggered_only = yes
		

	option = {
		name = "EVTOPTAunicorn.13" #wins
		ai_chance = {
			factor = 5					
			modifier = {
				factor = 25
				trait = master_warrior
			}			
			modifier = {
				factor = 10
				trait = strong
			}			
			modifier = {
				factor = 10
				trait = tall
			}			
			modifier = {
				factor = 7
				trait = quick
			}	
			modifier = {
				factor = 10
				trait = genius
			}	
			modifier = {
				factor = 15
				trait = skilled_warrior
			}			
			modifier = {
				factor = 5
				trait = brave
			}			
			modifier = {
				factor = 25
				has_character_flag = unicorn_quest_has_smuggler	#smuggler helps
			}
		}
			
		character_event = { id = unicorn.14 }
	}	
	option = {
		name = "EVTOPTCunicorn.13" #loses
		ai_chance = {
			factor = 5					
			modifier = {
				factor = 25
				trait = weak
			}			
			modifier = {
				factor = 10
				trait = craven
			}			
			modifier = {
				factor = 30
				trait = crippled
			}			
		}
		character_event = { id = unicorn.1301 }
	}
}
#Fought off
character_event = {
	id = unicorn.14
	desc = "EVTDESCunicorn.14"
	picture = "GFX_evt_wildlings"
	

	
	is_triggered_only = yes
		
	
	option = {
		name = "EVTOPTAunicorn.14" #
		prestige = 20		
		character_event = { id = unicorn.15 days = 10 random = 10 }
	}
}
#Failed
character_event = {
	id = unicorn.1301
	desc = "EVTDESCunicorn.1301"
	picture = "GFX_evt_wildlings"
	

	
	is_triggered_only = yes
		
	
	option = {
		name = "EVTOPTAunicorn.1301" #
		prestige = -20		
		random_list = {
			30 = { add_trait = wounded }
			10 = { add_maimed_trait_effect = yes }
			10 = {
				death = {
					death_reason = death_execution_eaten 
				} 
			}
			60 = { }
		}
		wealth = -35
		event_target:unicorn_quest_smuggler = { character_event = { id = unicorn.1302 } }
		character_event = { id = unicorn.15 days = 10 random = 10 }
	}
}
#Does smuggler die?
character_event = {
	id = unicorn.1302
	desc = "EVTDESCunicorn.1302"
	picture = "GFX_evt_wildlings"
	

	
	is_triggered_only = yes
		
	
	option = {
		name = "EVTOPTAunicorn.1302" #
		prestige = -20		
		random_list = {
			30 = { add_trait = wounded }
			10 = { add_maimed_trait_effect = yes }
			5 = {
				death = {
					death_reason = death_execution_eaten 
				} 
			}
			60 = { }
		}
		event_target:unicorn_quest_leader = { character_event = { id = unicorn.1303 } }
	}
}
#smuggler dead
character_event = {
	id = unicorn.1303
	desc = "EVTDESCunicorn.1303"
	picture = "GFX_evt_wildlings"
	

	
	is_triggered_only = yes
		
	
	option = {
		name = "EVTOPTAunicorn.1303" #
		prestige = -20
		clr_character_flag = unicorn_quest_has_smuggler
	}
}
#Goes to Skagosi Lord's hall
character_event = {
	id = unicorn.15
	desc = "EVTDESCunicorn.15"
	picture = "GFX_skagos_event"
	

	
	is_triggered_only = yes
		
	
	option = {
		name = "EVTOPTAunicorn.15" #
		c_kingshouse = { holder_scope = { tooltip = { show_portrait = yes } } }
		prestige = 20		
		character_event = { id = unicorn.1501 days = 1 }
	}
}
#Skagosi Lord offers guide
character_event = {
	id = unicorn.1501
	desc = "EVTDESCunicorn.1501"
	picture = "GFX_evt_wildlings"
	

	
	is_triggered_only = yes
		
	

	
	option = {
		name = "EVTOPTAunicorn.1501" #dracarys
		ai_chance = {
			factor = 10					
		}
		trigger = {
			trait = dragon_rider
		}			
		character_event = { id = unicorn.25 }
		set_character_flag = unicorn_quest_has_hunter
		create_random_soldier = {
			random_traits = yes
			dynasty = none
			female = no
			culture = skagosi 
			religion = beyond_wall_old_gods
			historical = yes
		}
		new_character = {
			change_martial = 2
			add_trait = hunter
			add_trait = brave
			add_trait = skilled_warrior						
			add_trait = wikid
			random_list = {
				32 = { add_trait = tall }
				32 = { add_trait = strong }
				32 = { add_trait = mystic }
				32 = { add_trait = cruel }
			}
			save_event_target_as = unicorn_quest_hunter
		}
	}
	option = {
		name = "EVTOPTBunicorn.1501" #I'm a greenseer, mate
		ai_chance = {
			factor = 100					
		}
		trigger = {
			trait = greensight
		}			
		character_event = { id = unicorn.25 }
		set_character_flag = unicorn_quest_has_hunter
		create_random_soldier = {
			random_traits = yes
			dynasty = none
			female = no
			culture = skagosi 
			religion = beyond_wall_old_gods
			historical = yes
		}
		new_character = {
			change_martial = 2
			add_trait = hunter
			add_trait = brave
			add_trait = skilled_warrior						
			add_trait = wikid
			random_list = {
				32 = { add_trait = tall }
				32 = { add_trait = strong }
				32 = { add_trait = mystic }
				32 = { add_trait = cruel }
			}
			save_event_target_as = unicorn_quest_hunter
		}
	}
	option = {
		name = "EVTOPTCunicorn.1501" #pay them off
		ai_chance = {
			factor = 5					
		}
		wealth = -15
		character_event = { id = unicorn.25 }
		set_character_flag = unicorn_quest_has_hunter
		create_random_soldier = {
			random_traits = yes
			dynasty = none
			female = no
			culture = skagosi 
			religion = beyond_wall_old_gods
			historical = yes
		}
		new_character = {
			change_martial = 2
			add_trait = hunter
			add_trait = brave
			add_trait = skilled_warrior						
			add_trait = wikid
			random_list = {
				32 = { add_trait = tall }
				32 = { add_trait = strong }
				32 = { add_trait = mystic }
				32 = { add_trait = cruel }
			}
			save_event_target_as = unicorn_quest_hunter
		}
	}
	option = {
		name = "EVTOPTDunicorn.1501" #don't need
		ai_chance = {
			factor = 0					
		}
		
		character_event = { id = unicorn.25 }
	}	
}
#unicorn
character_event = {
	id = unicorn.25
	picture = "GFX_evt_unicorn"
	
	desc = {
		text = "EVTDESCunicorn.25A"
		trigger = { has_character_flag = unicorn_quest_has_hunter }
	}
	desc = {
		text = "EVTDESCunicorn.25B"
		trigger = { 
			NOT = {
				has_character_flag = unicorn_quest_has_hunter 
			}
		}
	}

	
	is_triggered_only = yes
		
	
	option = {
		name = "EVTOPTAunicorn.25" #
				
		character_event = { id = unicorn.26 }
	}
}
#Tries taming
character_event = {
	id = unicorn.26
	hide_window = yes
	

	
	is_triggered_only = yes
		
	
	option = {
		name = "EVTOPTAunicorn.26" #
		ai_chance = {
			factor = 5
						
			modifier = {
				factor = 3
				is_old_gods_religion_trigger = yes
				trait = zealous
			}
			modifier = {
				factor = 3
				trait = brave
			}
			modifier = {
				factor = 50
				trait = greensight
			}
			modifier = {
				factor = 25
				trait = mystic
			}			
			modifier = {
				factor = 3
				is_smart_trigger = yes
			}
			modifier = {
				factor = 8
				has_character_flag = unicorn_quest_has_hunter
			}			
		}				
		character_event = { id = unicorn.27 }
	}
	option = {
		name = "EVTOPTBunicorn.26" #
		ai_chance = {
			factor = 15		
		}				
		trigger = {
			NOT = { trait = greensight }
			
		}			
		character_event = { id = unicorn.45 }
	}
}
#unicorn
character_event = {
	id = unicorn.27
	desc = "EVTDESCunicorn.27"
	picture = "GFX_evt_unicorn"
	

	
	is_triggered_only = yes
		
	
	option = {
		name = "EVTOPTAunicorn.27" #
				
		character_event = { id = unicorn.30 }
		add_trait = unicorn_MBS
		add_character_modifier = {
			name = unicorn_rider
			duration = 54688
		}
		if = {
			limit = { has_nickname = no }
			give_nickname = nick_unicorn_tamer 
		}
	}
}
character_event = {
	id = unicorn.45
	desc = "EVTDESCunicorn.45"
	picture = "GFX_evt_unicorn"
	

	
	is_triggered_only = yes
		
	
	option = {
		name = "EVTOPTAunicorn.45" #
		character_event = { id = unicorn.28 }
	}
}
#Fought off
character_event = {
	id = unicorn.2801
	desc = "EVTDESCunicorn.2801"
	picture = "GFX_evt_unicorn"
	

	
	is_triggered_only = yes
		
	
	option = {
		name = "EVTOPTAunicorn.2801" #
		prestige = 20		
		character_event = { id = unicorn.35 }
	}
}
#Failed
character_event = {
	id = unicorn.2802
	desc = "EVTDESCunicorn.2802"
	picture = "GFX_evt_unicorn"
	

	
	is_triggered_only = yes
		
	
	option = {
		name = "EVTOPTAunicorn.2802" #
		prestige = -20		
		add_trait = wounded
		event_target:unicorn_quest_smuggler = { character_event = { id = unicorn.2803 } }
	}
}
#Does smuggler die?
character_event = {
	id = unicorn.2803
	desc = "EVTDESCunicorn.2803"
	picture = "GFX_evt_unicorn"
	

	
	is_triggered_only = yes
		
	
	option = {
		name = "EVTOPTAunicorn.2803" #
		prestige = -20		
		random_list = {
			30 = { add_trait = wounded }
			25 = { add_maimed_trait_effect = yes }
			60 = { }
		}
	}
}

#tamed unicorn
character_event = {
	id = unicorn.30
	desc = "EVTDESCunicorn.30"
	picture = "GFX_evt_unicorn"
	

	
	is_triggered_only = yes
		
	
	option = {
		name = "EVTOPTAunicorn.30" #
		if = {
			limit = { has_character_flag = unicorn_quest_has_smuggler }
			character_event = { id = unicorn.31 }
		}
		else_if = {
			limit = { NOT = { has_character_flag = unicorn_quest_has_smuggler } }
			character_event = { id = unicorn.40 }
		}				
	}
}
#befriend smuggler
character_event = {
	id = unicorn.31
	desc = "EVTDESCunicorn.31"
	picture = "GFX_evt_unicorn"
	

	
	is_triggered_only = yes
	immediate = { 
   		any_courtier = {
    		limit = { 
				is_landed = no
				has_character_flag = unicorn_quest_smuggler
			}
			add_friend  = ROOT
    	}
	}
		
	
	option = {
		name = "EVTOPTAunicorn.31" #
		event_target:unicorn_quest_smuggler = { character_event = { id = unicorn.3101 } }				
		character_event = { id = unicorn.40 }
	}
}
#befriend smuggler
character_event = {
	id = unicorn.3101
	desc = "EVTDESCunicorn.3101"
	picture = "GFX_evt_unicorn"
	

	
	is_triggered_only = yes
		
	
	option = {
		name = "EVTOPTAunicorn.3101" #
	}
}



#fought off unicorn
character_event = {
	id = unicorn.35
	desc = "EVTDESCunicorn.35"
	picture = "GFX_evt_unicorn"
	

	
	is_triggered_only = yes
		
	
	option = {
		name = "EVTOPTAunicorn.35" #
				
		character_event = { id = unicorn.40 }
	}
}
#ends quest
character_event = {
	id = unicorn.40
	desc = "EVTDESCunicorn.40"
	picture = "GFX_evt_unicorn"
	

	
	is_triggered_only = yes
		
	immediate = { 
   		any_courtier = {
    		limit = { 
				is_landed = no
				trait = wikid
			}
			remove_trait = wikid
			clr_character_flag = unicorn_quest_smuggler
			clr_character_flag = unicorn_quest_hunter
			clear_event_target = unicorn_quest_hunter
			clear_event_target = unicorn_quest_smuggler 	
    	}
	}
	
	option = {
		name = "EVTOPTAunicorn.40" #
		remove_trait = wikid
		set_character_flag = tamed_exotic_beast
		clr_character_flag = unicorn_quest_has_smuggler
		clr_character_flag = unicorn_quest_has_hunter
		clr_character_flag = taming_exotic_beast
		clear_event_target = unicorn_quest_leader 	
	}
}




#Fight off tombola
character_event = {
	id = unicorn.28
	hide_window = yes
	

	
	is_triggered_only = yes
		

	option = {
		name = EVTOPTAunicorn.28 #wins
		ai_chance = {
			factor = 1					
			modifier = {
				factor = 25
				trait = master_warrior
			}			
			modifier = {
				factor = 10
				trait = strong
			}			
			modifier = {
				factor = 10
				trait = tall
			}			
			modifier = {
				factor = 7
				trait = quick
			}	
			modifier = {
				factor = 10
				trait = genius
			}	
			modifier = {
				factor = 5
				trait = skilled_warrior
			}			
			modifier = {
				factor = 5
				trait = brave
			}			
			modifier = {
				factor = 10
				has_character_flag = unicorn_quest_has_smuggler	#smuggler helps
			}
			modifier = {
				factor = 15
				has_character_flag = unicorn_quest_has_hunter	#hunter helps
			}
		}
			
		character_event = { id = unicorn.2801 }
	}	
	option = {
		name = EVTOPTCunicorn.28 #loses
		ai_chance = {
			factor = 20					
			modifier = {
				factor = 25
				trait = weak
			}			
			modifier = {
				factor = 10
				trait = craven
			}			
			modifier = {
				factor = 30
				trait = crippled
			}			
		}
		character_event = { id = unicorn.2802 }
	}
}
