#### Beyond the Wall Ancestors ####

### Magnar's of Thenn
112344 = {
	name="Halleck"
	dynasty=174344
	
	religion="thenn_rel"
	culture="thenn"
	
	add_trait="cruel"
	add_trait="proud"
	add_trait="tough_soldier"
	add_trait="trained_warrior"
	
	father=111344
	
	3235.1.1 = {birth="3235.1.1"}
	3276.1.1 = {death="3276.1.1"}
}
111344 = {
	name="Errok"
	dynasty=174344
	
	religion="thenn_rel"
	culture="thenn"
	
	add_trait="cruel"
	add_trait="proud"
	add_trait="tough_soldier"
	add_trait="trained_warrior"
	
	father=110344
	
	3210.1.1 = {birth="3210.1.1"}
	3255.1.1 = {death="3255.1.1"}
}
110344 = {
	name="Dryn"
	dynasty=174344
	
	religion="old_gods"
	culture="thenn"
	
	add_trait="cruel"
	add_trait="proud"
	add_trait="tough_soldier"
	add_trait="trained_warrior"
	
	father=109344
	
	3187.1.1 = {birth="3187.1.1"}
	3228.1.1 = {death="3228.1.1"}
}
109344 = {
	name="Wayn"
	dynasty=174344
	
	religion="thenn_rel"
	culture="thenn"
	
	add_trait="cruel"
	add_trait="proud"
	add_trait="tough_soldier"
	add_trait="trained_warrior"
	
	father=108344
	
	3159.1.1 = {birth="3159.1.1"}
	3208.1.1 = {death="3208.1.1"}
}
108344 = {
	name="Harlon"
	dynasty=174344
	
	religion="thenn_rel"
	culture="thenn"
	
	add_trait="cruel"
	add_trait="proud"
	add_trait="tough_soldier"
	add_trait="trained_warrior"
	
	father=107344
	
	3142.1.1 = {birth="3142.1.1"}
	3168.1.1 = {death="3168.1.1"}
}
107344 = {
	name="Halys"
	dynasty=174344
	
	religion="thenn_rel"
	culture="thenn"
	
	add_trait="cruel"
	add_trait="proud"
	add_trait="tough_soldier"
	add_trait="trained_warrior"
	
	father=106344
	
	3116.1.1 = {birth="3116.1.1"}
	3162.1.1 = {death="3162.1.1"}
}
106344 = {
	name="Stiv"
	dynasty=174344
	
	religion="thenn_rel"
	culture="thenn"
	
	add_trait="cruel"
	add_trait="proud"
	add_trait="tough_soldier"
	add_trait="trained_warrior"
	
	father=105344
	
	3092.1.1 = {birth="3092.1.1"}
	3141.1.1 = {death="3141.1.1"}
}
105344 = {
	name="Stygett"
	dynasty=174344
	
	religion="thenn_rel"
	culture="thenn"
	
	add_trait="cruel"
	add_trait="proud"
	add_trait="tough_soldier"
	add_trait="trained_warrior"
	
	father=104344
	
	3054.1.1 = {birth="3054.1.1"}
	3107.1.1 = {death="3107.1.1"}
}
104344 = {
	name="Tormund"
	dynasty=174344
	
	religion="thenn_rel"
	culture="thenn"
	
	add_trait="cruel"
	add_trait="proud"
	add_trait="tough_soldier"
	add_trait="trained_warrior"
	
	father=103344
	
	3033.1.1 = {birth="3033.1.1"}
	3086.1.1 = {death="3086.1.1"}
}
103344 = {
	name="Gendel"
	dynasty=174344
	
	religion="thenn_rel"
	culture="thenn"
	
	add_trait="cruel"
	add_trait="proud"
	add_trait="tough_soldier"
	add_trait="trained_warrior"
	
	father=102344
	
	3019.1.1 = {birth="3019.1.1"}
	3052.1.1 = {death="3052.1.1"}
}
102344 = {
	name="Halgor"
	dynasty=174344
	
	religion="thenn_rel"
	culture="thenn"
	
	add_trait="cruel"
	add_trait="proud"
	add_trait="tough_soldier"
	add_trait="trained_warrior"
	
	father=100344
	
	2996.1.1 = {birth="2996.1.1"}
	3037.1.1 = {death="3037.1.1"}
}
100344 = {
	name="Sygertt"
	dynasty=174344
	
	religion="thenn_rel"
	culture="thenn"
	
	add_trait="cruel"
	add_trait="proud"
	add_trait="tough_soldier"
	add_trait="trained_warrior"
	
	2978.1.1 = {birth="2978.1.1"}
	3009.1.1 = {death="3009.1.1"}
}

#Ancient Kings Beyond the Wall

904347 = {
	name="Joramun"
	
	religion="beyond_wall_old_gods"
	culture="wildling"
	
	add_trait="mystic"
	add_trait="honorable"
	add_trait="brilliant_strategist"
	add_trait="skilled_warrior"
	
	950.1.1 = {birth="950.1.1"}
	1025.1.1 = {death="1025.1.1"}
}

###Thankskull of Northern Frostfangs###
101559112 = {
	name="Lenn"	# a lord
	dynasty=559112

	religion="beyond_wall_old_gods"
	culture="wildling"

	2955.1.1 = {birth="2955.1.1"}
	2971.1.1 = {add_trait=trained_warrior}
	2973.1.1 = {add_spouse=401559112}
	3008.1.1 = {death="3008.1.1"}
}
401559112 = {
	name="Morra"
	female=yes

	religion="beyond_wall_old_gods"
	culture="wildling"

	2955.1.1 = {birth="2955.1.1"}
	3008.1.1 = {death="3008.1.1"}
}
102559112 = {
	name="Orell"	# a lord
	dynasty=559112

	religion="beyond_wall_old_gods"
	culture="wildling"

	father=101559112
	mother=401559112

	2984.1.1 = {birth="2984.1.1"}
	3000.1.1 = {add_trait=skilled_warrior}
	3002.1.1 = {add_spouse=402559112}
	3041.1.1 = {death="3041.1.1"}
}
402559112 = {
	name="Ygritte"
	female=yes

	religion="beyond_wall_old_gods"
	culture="wildling"

	2984.1.1 = {birth="2984.1.1"}
	3041.1.1 = {death="3041.1.1"}
}
103559112 = {
	name="Torwynd"	# a lord
	dynasty=559112

	religion="beyond_wall_old_gods"
	culture="wildling"

	father=102559112
	mother=402559112

	3009.1.1 = {birth="3009.1.1"}
	3025.1.1 = {add_trait=trained_warrior}
	3027.1.1 = {add_spouse=403559112}
	3073.1.1 = {death="3073.1.1"}
}
403559112 = {
	name="Holly"
	female=yes

	religion="beyond_wall_old_gods"
	culture="wildling"

	3009.1.1 = {birth="3009.1.1"}
	3073.1.1 = {death="3073.1.1"}
}
104559112 = {
	name="Rynne"	# not a lord
	female=yes
	dynasty=559112

	religion="beyond_wall_old_gods"
	culture="wildling"

	father=102559112
	mother=402559112

	3012.1.1 = {birth="3012.1.1"}
	3075.1.1 = {death="3075.1.1"}
}
105559112 = {
	name="Beron"	# not a lord
	dynasty=559112

	religion="beyond_wall_old_gods"
	culture="wildling"

	father=103559112
	mother=403559112

	3042.1.1 = {birth="3042.1.1"}
	3058.1.1 = {add_trait=trained_warrior}
	3072.1.1 = {death="3072.1.1"}
}
106559112 = {
	name="Arnolf"	# a lord
	dynasty=559112

	religion="beyond_wall_old_gods"
	culture="wildling"

	father=103559112
	mother=403559112

	3045.1.1 = {birth="3045.1.1"}
	3061.1.1 = {add_trait=trained_warrior}
	3063.1.1 = {add_spouse=406559112}
	3091.1.1 = {death="3091.1.1"}
}
406559112 = {
	name="Morra"
	female=yes

	religion="beyond_wall_old_gods"
	culture="wildling"

	3045.1.1 = {birth="3045.1.1"}
	3091.1.1 = {death="3091.1.1"}
}
107559112 = {
	name="Beron"	# a lord
	dynasty=559112

	religion="beyond_wall_old_gods"
	culture="wildling"

	father=106559112
	mother=406559112

	3074.1.1 = {birth="3074.1.1"}
	3090.1.1 = {add_trait=master_warrior}
	3092.1.1 = {add_spouse=407559112}
	3144.1.1 = {death="3144.1.1"}
}
407559112 = {
	name="Ygritte"
	female=yes

	religion="beyond_wall_old_gods"
	culture="wildling"

	3074.1.1 = {birth="3074.1.1"}
	3144.1.1 = {death="3144.1.1"}
}
108559112 = {
	name="Cregan"	# not a lord
	dynasty=559112

	religion="beyond_wall_old_gods"
	culture="wildling"

	father=106559112
	mother=406559112

	3076.1.1 = {birth="3076.1.1"}
	3092.1.1 = {add_trait=skilled_warrior}
	3128.1.1 = {death="3128.1.1"}
}
109559112 = {
	name="Halleck"	# a lord
	dynasty=559112

	religion="beyond_wall_old_gods"
	culture="wildling"

	father=107559112
	mother=407559112

	3096.1.1 = {birth="3096.1.1"}
	3112.1.1 = {add_trait=trained_warrior}
	3114.1.1 = {add_spouse=409559112}
	3176.1.1 = {death="3176.1.1"}
}
409559112 = {
	name="rynne"
	female=yes

	religion="beyond_wall_old_gods"
	culture="wildling"

	3096.1.1 = {birth="3096.1.1"}
	3176.1.1 = {death="3176.1.1"}
}
110559112 = {
	name="Thistle"	# not a lord
	female=yes
	dynasty=559112

	religion="beyond_wall_old_gods"
	culture="wildling"

	father=109559112
	mother=409559112

	3121.1.1 = {birth="3121.1.1"}
	3181.1.1 = {death="3181.1.1"}
}
112559112 = {
	name="Henk"	# not a lord
	dynasty=559112

	religion="beyond_wall_old_gods"
	culture="wildling"

	father=109559112
	mother=409559112

	3124.1.1 = {birth="3124.1.1"}
	3140.1.1 = {add_trait=trained_warrior}
	3142.1.1 = {add_spouse=412559112}
	3172.1.1 = {death="3172.1.1"}
}
412559112 = {
	name="Willow"
	female=yes

	religion="beyond_wall_old_gods"
	culture="wildling"

	3124.1.1 = {birth="3124.1.1"}
	3172.1.1 = {death="3172.1.1"}
}
114559112 = {
	name="Lenn"	# a lord
	dynasty=559112

	religion="beyond_wall_old_gods"
	culture="wildling"

	father=112559112
	mother=412559112

	3147.1.1 = {birth="3147.1.1"}
	3163.1.1 = {add_trait=skilled_warrior}
	3165.1.1 = {add_spouse=414559112}
	3199.1.1 = {death="3199.1.1"}
}
414559112 = {
	name="Dalla"
	female=yes

	religion="beyond_wall_old_gods"
	culture="wildling"

	3147.1.1 = {birth="3147.1.1"}
	3199.1.1 = {death="3199.1.1"}
}
115559112 = {
	name="Frenya"	# not a lord
	female=yes
	dynasty=559112

	religion="beyond_wall_old_gods"
	culture="wildling"

	father=112559112
	mother=412559112

	3148.1.1 = {birth="3148.1.1"}
	3210.1.1 = {death="3210.1.1"}
}
116559112 = {
	name="Willow"	# not a lord
	female=yes
	dynasty=559112

	religion="beyond_wall_old_gods"
	culture="wildling"

	father=114559112
	mother=414559112

	3166.1.1 = {birth="3166.1.1"}
	3224.1.1 = {death="3224.1.1"}
}
117559112 = {
	name="Soren"	# a lord
	dynasty=559112

	religion="beyond_wall_old_gods"
	culture="wildling"

	father=114559112
	mother=414559112

	3168.1.1 = {birth="3168.1.1"}
	3184.1.1 = {add_trait=poor_warrior}
	3186.1.1 = {add_spouse=417559112}
	3211.1.1 = {death="3211.1.1"}
}
417559112 = {
	name="Meera"
	female=yes

	religion="beyond_wall_old_gods"
	culture="wildling"

	3168.1.1 = {birth="3168.1.1"}
	3211.1.1 = {death="3211.1.1"}
}
118559112 = {
	name="Dryn"	# a lord
	dynasty=559112

	religion="beyond_wall_old_gods"
	culture="wildling"

	father=117559112
	mother=417559112

	3189.1.1 = {birth="3189.1.1"}
	3205.1.1 = {add_trait=trained_warrior}
	3207.1.1 = {add_spouse=418559112}
	3247.1.1 = {death="3247.1.1"}
}
418559112 = {
	name="Frenya"
	female=yes

	religion="beyond_wall_old_gods"
	culture="wildling"

	3189.1.1 = {birth="3189.1.1"}
	3247.1.1 = {death="3247.1.1"}
}
119559112 = {
	name="Ondrew"	# a lord
	dynasty=559112

	religion="beyond_wall_old_gods"
	culture="wildling"

	father=118559112
	mother=418559112

	3210.1.1 = {birth="3210.1.1"}
	3226.1.1 = {add_trait=poor_warrior}
	3228.1.1 = {add_spouse=419559112}
	3262.1.1 = {death="3262.1.1"}
}
419559112 = {
	name="Maege"
	female=yes

	religion="beyond_wall_old_gods"
	culture="wildling"

	3210.1.1 = {birth="3210.1.1"}
	3262.1.1 = {death="3262.1.1"}
}
121559112 = {
	name="Borroq"	# a lord
	dynasty=559112

	religion="beyond_wall_old_gods"
	culture="wildling"

	father=119559112
	mother=419559112

	3233.1.1 = {birth="3233.1.1"}
	3249.1.1 = {add_trait=trained_warrior}
	3251.1.1 = {add_spouse=421559112}
	3278.1.1 = {death="3278.1.1"}
}
421559112 = {
	name="Holly"
	female=yes

	religion="beyond_wall_old_gods"
	culture="wildling"

	3233.1.1 = {birth="3233.1.1"}
	3278.1.1 = {death="3278.1.1"}
}
122559112 = {
	name="Arthor"	# not a lord
	dynasty=559112

	religion="beyond_wall_old_gods"
	culture="wildling"

	father=119559112
	mother=419559112

	3236.1.1 = {birth="3236.1.1"}
	3252.1.1 = {add_trait=trained_warrior}
	3272.1.1 = {death = {death_reason = death_battle}}
}
123559112 = {
	name="Varamyr"	# not a lord
	dynasty=559112

	religion="beyond_wall_old_gods"
	culture="wildling"

	father=121559112
	mother=421559112

	3252.1.1 = {birth="3252.1.1"}
	3268.1.1 = {add_trait=trained_warrior}
}
124559112 = {
	name="Dan"	# not a lord
	dynasty=559112

	religion="beyond_wall_old_gods"
	culture="wildling"

	father=121559112
	mother=421559112

	3254.1.1 = {birth="3254.1.1"}
	3270.1.1 = {add_trait=trained_warrior}
}
###Crowhunters of Skirling Pass###
101559122 = {
	name="Hareth"	# a lord
	dynasty=559122

	religion="beyond_wall_old_gods"
	culture="wildling"

	2962.1.1 = {birth="2962.1.1"}
	2978.1.1 = {add_trait=skilled_warrior}
	2980.1.1 = {add_spouse=401559122}
	3013.1.1 = {death="3013.1.1"}
}
401559122 = {
	name="Rowan"
	female=yes

	religion="beyond_wall_old_gods"
	culture="wildling"

	2962.1.1 = {birth="2962.1.1"}
	3013.1.1 = {death="3013.1.1"}
}
102559122 = {
	name="Grisella"	# not a lord
	female=yes
	dynasty=559122

	religion="beyond_wall_old_gods"
	culture="wildling"

	father=101559122
	mother=401559122

	2989.1.1 = {birth="2989.1.1"}
	3033.1.1 = {death="3033.1.1"}
}
103559122 = {
	name="Dywen"	# a lord
	dynasty=559122

	religion="beyond_wall_old_gods"
	culture="wildling"

	father=101559122
	mother=401559122

	2992.1.1 = {birth="2992.1.1"}
	3008.1.1 = {add_trait=poor_warrior}
	3010.1.1 = {add_spouse=403559122}
	3051.1.1 = {death="3051.1.1"}
}
403559122 = {
	name="Dalla"
	female=yes

	religion="beyond_wall_old_gods"
	culture="wildling"

	2992.1.1 = {birth="2992.1.1"}
	3051.1.1 = {death="3051.1.1"}
}
104559122 = {
	name="Jorelle"	# not a lord
	female=yes
	dynasty=559122

	religion="beyond_wall_old_gods"
	culture="wildling"

	father=103559122
	mother=403559122

	3015.1.1 = {birth="3015.1.1"}
	3095.1.1 = {death="3095.1.1"}
}
105559122 = {
	name="Dormund"	# a lord
	dynasty=559122

	religion="beyond_wall_old_gods"
	culture="wildling"

	father=103559122
	mother=403559122

	3017.1.1 = {birth="3017.1.1"}
	3033.1.1 = {add_trait=trained_warrior}
	3035.1.1 = {add_spouse=405559122}
	3065.1.1 = {death="3065.1.1"}
}
405559122 = {
	name="Morra"
	female=yes

	religion="beyond_wall_old_gods"
	culture="wildling"

	3017.1.1 = {birth="3017.1.1"}
	3065.1.1 = {death="3065.1.1"}
}
106559122 = {
	name="Ferny"	# not a lord
	female=yes
	dynasty=559122

	religion="beyond_wall_old_gods"
	culture="wildling"

	father=105559122
	mother=405559122

	3046.1.1 = {birth="3046.1.1"}
	3102.1.1 = {death="3102.1.1"}
}
107559122 = {
	name="Lenn"	# a lord
	dynasty=559122

	religion="beyond_wall_old_gods"
	culture="wildling"

	father=105559122
	mother=405559122

	3048.1.1 = {birth="3048.1.1"}
	3064.1.1 = {add_trait=trained_warrior}
	3066.1.1 = {add_spouse=407559122}
	3093.1.1 = {death="3093.1.1"}
}
407559122 = {
	name="Palla"
	female=yes

	religion="beyond_wall_old_gods"
	culture="wildling"

	3048.1.1 = {birth="3048.1.1"}
	3093.1.1 = {death="3093.1.1"}
}
108559122 = {
	name="Bodger"	# not a lord
	dynasty=559122

	religion="beyond_wall_old_gods"
	culture="wildling"

	father=105559122
	mother=405559122

	3049.1.1 = {birth="3049.1.1"}
	3065.1.1 = {add_trait=trained_warrior}
	3084.1.1 = {death="3084.1.1"}
}
109559122 = {
	name="Ryk"	# a lord
	dynasty=559122

	religion="beyond_wall_old_gods"
	culture="wildling"

	father=107559122
	mother=407559122

	3066.1.1 = {birth="3066.1.1"}
	3082.1.1 = {add_trait=skilled_warrior}
	3084.1.1 = {add_spouse=409559122}
	3135.1.1 = {death = {death_reason = death_accident}}
}
409559122 = {
	name="Erena"
	female=yes

	religion="beyond_wall_old_gods"
	culture="wildling"

	3066.1.1 = {birth="3066.1.1"}
	3135.1.1 = {death="3135.1.1"}
}
110559122 = {
	name="Harra"	# not a lord
	female=yes
	dynasty=559122

	religion="beyond_wall_old_gods"
	culture="wildling"

	father=107559122
	mother=407559122

	3068.1.1 = {birth="3068.1.1"}
	3098.1.1 = {death="3098.1.1"}
}
111559122 = {
	name="Ondrew"	# not a lord
	dynasty=559122

	religion="beyond_wall_old_gods"
	culture="wildling"

	father=109559122
	mother=409559122

	3089.1.1 = {birth="3089.1.1"}
	3105.1.1 = {add_trait=poor_warrior}
	3107.1.1 = {add_spouse=411559122}
	3130.1.1 = {death="3130.1.1"}
}
411559122 = {
	name="Hali"
	female=yes

	religion="beyond_wall_old_gods"
	culture="wildling"

	3089.1.1 = {birth="3089.1.1"}
	3130.1.1 = {death="3130.1.1"}
}
112559122 = {
	name="Mikken"	# a lord
	dynasty=559122

	religion="beyond_wall_old_gods"
	culture="wildling"

	father=111559122
	mother=411559122

	3123.1.1 = {birth="3123.1.1"}
	3139.1.1 = {add_trait=skilled_warrior}
	3141.1.1 = {add_spouse=412559122}
	3191.1.1 = {death="3191.1.1"}
}
412559122 = {
	name="Val"
	female=yes

	religion="beyond_wall_old_gods"
	culture="wildling"

	3123.1.1 = {birth="3123.1.1"}
	3191.1.1 = {death="3191.1.1"}
}
113559122 = {
	name="Joramun"	# not a lord
	dynasty=559122

	religion="beyond_wall_old_gods"
	culture="wildling"

	father=112559122
	mother=412559122

	3155.1.1 = {birth="3155.1.1"}
	3171.1.1 = {add_trait=trained_warrior}
	3173.1.1 = {add_spouse=413559122}
	3184.1.1 = {death="3184.1.1"}
}
413559122 = {
	name="Val"
	female=yes

	religion="beyond_wall_old_gods"
	culture="wildling"

	3155.1.1 = {birth="3155.1.1"}
	3184.1.1 = {death="3184.1.1"}
}
114559122 = {
	name="Torwynd"	# a lord
	dynasty=559122

	religion="beyond_wall_old_gods"
	culture="wildling"

	father=113559122
	mother=413559122

	3180.1.1 = {birth="3180.1.1"}
	3196.1.1 = {add_trait=skilled_warrior}
	3198.1.1 = {add_spouse=414559122}
	3230.1.1 = {death="3230.1.1"}
}
414559122 = {
	name="Kyra"
	female=yes

	religion="beyond_wall_old_gods"
	culture="wildling"

	3180.1.1 = {birth="3180.1.1"}
	3230.1.1 = {death="3230.1.1"}
}
115559122 = {
	name="Dan"	# not a lord
	dynasty=559122

	religion="beyond_wall_old_gods"
	culture="wildling"

	father=113559122
	mother=413559122

	3182.1.1 = {birth="3182.1.1"}
	3198.1.1 = {add_trait=poor_warrior}
	3226.1.1 = {death="3226.1.1"}
}
116559122 = {
	name="Gerrick"	# a lord
	dynasty=559122

	religion="beyond_wall_old_gods"
	culture="wildling"

	father=114559122
	mother=414559122

	3203.1.1 = {birth="3203.1.1"}
	3219.1.1 = {add_trait=trained_warrior}
	3221.1.1 = {add_spouse=416559122}
	3253.1.1 = {death="3253.1.1"}
}
416559122 = {
	name="Jonella"
	female=yes

	religion="beyond_wall_old_gods"
	culture="wildling"

	3203.1.1 = {birth="3203.1.1"}
	3253.1.1 = {death="3253.1.1"}
}
117559122 = {
	name="Owen"	# not a lord
	dynasty=559122

	religion="beyond_wall_old_gods"
	culture="wildling"

	father=114559122
	mother=414559122

	3206.1.1 = {birth="3206.1.1"}
	3222.1.1 = {add_trait=trained_warrior}
	3263.1.1 = {death = {death_reason = death_accident}}
}
118559122 = {
	name="Mikken"	# not a lord
	dynasty=559122

	religion="beyond_wall_old_gods"
	culture="wildling"

	father=116559122
	mother=416559122

	3225.1.1 = {birth="3225.1.1"}
	3241.1.1 = {add_trait=skilled_warrior}
	3251.1.1 = {death="3251.1.1"}
}
119559122 = {
	name="Arthor"	# a lord
	dynasty=559122

	religion="beyond_wall_old_gods"
	culture="wildling"

	father=116559122
	mother=416559122

	3227.1.1 = {birth="3227.1.1"}
	3243.1.1 = {add_trait=trained_warrior}
	3245.1.1 = {add_spouse=419559122}
	3280.1.1 = {death="3280.1.1"}
}
419559122 = {
	name="Myrtle"
	female=yes

	religion="beyond_wall_old_gods"
	culture="wildling"

	3227.1.1 = {birth="3227.1.1"}
	3280.1.1 = {death="3280.1.1"}
}
120559122 = {
	name="Mance"	# not a lord
	dynasty=559122

	religion="beyond_wall_old_gods"
	culture="wildling"

	father=119559122
	mother=419559122

	3259.1.1 = {birth="3259.1.1"}
	3275.1.1 = {add_trait=poor_warrior}
}
121559122 = {
	name="Hallis"	# not a lord
	dynasty=559122

	religion="beyond_wall_old_gods"
	culture="wildling"

	father=119559122
	mother=419559122

	3262.1.1 = {birth="3262.1.1"}
	3278.1.1 = {add_trait=skilled_warrior}
}
##The Gorge
10559121 = {
	name="Yoren"	# a lord
	dynasty=559121

	religion="beyond_wall_old_gods"
	culture="wildling"

	2966.1.1 = {birth="2966.1.1"}
	2982.1.1 = {add_trait=trained_warrior}
	3024.1.1 = {death="3024.1.1"}
}
12559121 = {
	name="Wallen"	# a lord
	dynasty=559121

	religion="beyond_wall_old_gods"
	culture="wildling"

	father=10559121

	3000.1.1 = {birth="3000.1.1"}
	3016.1.1 = {add_trait=trained_warrior}
	3052.1.1 = {death="3052.1.1"}
}
13559121 = {
	name="Dormund"	# a lord
	dynasty=559121

	religion="beyond_wall_old_gods"
	culture="wildling"

	father=12559121

	3035.1.1 = {birth="3035.1.1"}
	3051.1.1 = {add_trait=trained_warrior}
	3096.1.1 = {death="3096.1.1"}
}
14559121 = {
	name="Cregan"	# a lord
	dynasty=559121

	religion="beyond_wall_old_gods"
	culture="wildling"

	father=13559121

	3069.1.1 = {birth="3069.1.1"}
	3085.1.1 = {add_trait=trained_warrior}
	3137.1.1 = {death="3137.1.1"}
}
15559121 = {
	name="Henk"	# a lord
	dynasty=559121

	religion="beyond_wall_old_gods"
	culture="wildling"

	father=14559121

	3095.1.1 = {birth="3095.1.1"}
	3111.1.1 = {add_trait=skilled_warrior}
	3148.1.1 = {death="3148.1.1"}
}
16559121 = {
	name="Gendel"	# not a lord
	dynasty=559121

	religion="beyond_wall_old_gods"
	culture="wildling"

	father=14559121

	3097.1.1 = {birth="3097.1.1"}
	3113.1.1 = {add_trait=trained_warrior}
	3169.1.1 = {death="3169.1.1"}
}
17559121 = {
	name="Briar"	# a lord
	dynasty=559121

	religion="beyond_wall_old_gods"
	culture="wildling"

	father=15559121

	3118.1.1 = {birth="3118.1.1"}
	3134.1.1 = {add_trait=poor_warrior}
	3184.1.1 = {death="3184.1.1"}
}
18559121 = {
	name="Joramun"	# a lord
	dynasty=559121

	religion="beyond_wall_old_gods"
	culture="wildling"

	father=17559121

	3146.1.1 = {birth="3146.1.1"}
	3162.1.1 = {add_trait=skilled_warrior}
	3206.1.1 = {death="3206.1.1"}
}
19559121 = {
	name="Halleck"	# a lord
	dynasty=559121

	religion="beyond_wall_old_gods"
	culture="wildling"

	father=17559121

	3147.1.1 = {birth="3147.1.1"}
	3163.1.1 = {add_trait=skilled_warrior}
	3210.1.1 = {death="3210.1.1"}
}
20559121 = {
	name="Toregg"	# not a lord
	dynasty=559121

	religion="beyond_wall_old_gods"
	culture="wildling"

	father=19559121

	3167.1.1 = {birth="3167.1.1"}
	3183.1.1 = {add_trait=trained_warrior}
	3202.1.1 = {death="3202.1.1"}
}
21559121 = {
	name="Hali"	# not a lord
	female=yes
	dynasty=559121

	religion="beyond_wall_old_gods"
	culture="wildling"

	father=19559121

	3168.1.1 = {birth="3168.1.1"}
	3230.1.1 = {death="3230.1.1"}
}
22559121 = {
	name="Gendel"	# a lord
	dynasty=559121

	religion="beyond_wall_old_gods"
	culture="wildling"

	father=19559121

	3171.1.1 = {birth="3171.1.1"}
	3187.1.1 = {add_trait=trained_warrior}
	3235.1.1 = {death="3235.1.1"}
}
23559121 = {
	name="Ondrew"	# a lord
	dynasty=559121

	religion="beyond_wall_old_gods"
	culture="wildling"

	father=22559121

	3198.1.1 = {birth="3198.1.1"}
	3214.1.1 = {add_trait=poor_warrior}
	3239.1.1 = {death="3239.1.1"}
}
25559121 = {
	name="Dan"	# a lord
	dynasty=559121

	religion="beyond_wall_old_gods"
	culture="wildling"

	father=23559121

	3219.1.1 = {birth="3219.1.1"}
	3235.1.1 = {add_trait=poor_warrior}
	3270.1.1 = {death="3270.1.1"}
}
26559121 = {
	name="Lenn"	# a lord
	dynasty=559121

	religion="beyond_wall_old_gods"
	culture="wildling"

	father=25559121

	3237.1.1 = {birth="3237.1.1"}
	3253.1.1 = {add_trait=trained_warrior}
	3294.1.1 = {death="3294.1.1"}
}
28559121 = {
	name="Walton"	# a lord
	dynasty=559121

	religion="beyond_wall_old_gods"
	culture="wildling"

	father=26559121

	3259.1.1 = {birth="3259.1.1"}
	3275.1.1 = {add_trait=trained_warrior}
}
##Fist of the First Men
104500017 = {
	name="Torghen"	# a lord
	dynasty=4500017

	religion="beyond_wall_old_gods"
	culture="wildling"

	2971.1.1 = {birth="2971.1.1"}
	2987.1.1 = {add_trait=skilled_warrior}
	3046.1.1 = {death="3046.1.1"}
}
114500017 = {
	name="Quort"	# not a lord
	dynasty=4500017

	religion="beyond_wall_old_gods"
	culture="wildling"

	father=104500017

	2989.1.1 = {birth="2989.1.1"}
	3005.1.1 = {add_trait=skilled_warrior}
	3024.1.1 = {death="3024.1.1"}
}
134500017 = {
	name="Galbart"	# a lord
	dynasty=4500017

	religion="beyond_wall_old_gods"
	culture="wildling"

	father=114500017

	3015.1.1 = {birth="3015.1.1"}
	3031.1.1 = {add_trait=trained_warrior}
	3082.1.1 = {death="3082.1.1"}
}
144500017 = {
	name="Torghen"	# a lord
	dynasty=4500017

	religion="beyond_wall_old_gods"
	culture="wildling"

	father=134500017

	3033.1.1 = {birth="3033.1.1"}
	3049.1.1 = {add_trait=poor_warrior}
	3089.1.1 = {death="3089.1.1"}
}
154500017 = {
	name="Varamyr"	# a lord
	dynasty=4500017

	religion="beyond_wall_old_gods"
	culture="wildling"

	father=144500017

	3052.1.1 = {birth="3052.1.1"}
	3068.1.1 = {add_trait=skilled_warrior}
	3106.1.1 = {death="3106.1.1"}
}
164500017 = {
	name="Wayn"	# a lord
	dynasty=4500017

	religion="beyond_wall_old_gods"
	culture="wildling"

	father=154500017

	3074.1.1 = {birth="3074.1.1"}
	3090.1.1 = {add_trait=poor_warrior}
	3131.1.1 = {death="3131.1.1"}
}
174500017 = {
	name="Kyleg"	# a lord
	dynasty=4500017

	religion="beyond_wall_old_gods"
	culture="wildling"

	father=164500017

	3098.1.1 = {birth="3098.1.1"}
	3114.1.1 = {add_trait=trained_warrior}
	3149.1.1 = {death = {death_reason = death_murder}}
}
184500017 = {
	name="Harlon"	# a lord
	dynasty=4500017

	religion="beyond_wall_old_gods"
	culture="wildling"

	father=174500017

	3125.1.1 = {birth="3125.1.1"}
	3141.1.1 = {add_trait=trained_warrior}
	3188.1.1 = {death="3188.1.1"}
}
214500017 = {
	name="Gorne"	# a lord
	dynasty=4500017

	religion="beyond_wall_old_gods"
	culture="wildling"

	father=184500017

	3150.1.1 = {birth="3150.1.1"}
	3166.1.1 = {add_trait=poor_warrior}
	3196.1.1 = {death="3196.1.1"}
}
224500017 = {
	name="Joramun"	# a lord
	dynasty=4500017

	religion="beyond_wall_old_gods"
	culture="wildling"

	father=214500017

	3178.1.1 = {birth="3178.1.1"}
	3194.1.1 = {add_trait=trained_warrior}
	3250.1.1 = {death="3250.1.1"}
}
234500017 = {
	name="Mikken"	# a lord
	dynasty=4500017

	religion="beyond_wall_old_gods"
	culture="wildling"

	father=224500017

	3201.1.1 = {birth="3201.1.1"}
	3217.1.1 = {add_trait=poor_warrior}
	3251.1.1 = {death="3251.1.1"}
}
244500017 = {
	name="Bodger"	# a lord
	dynasty=4500017

	religion="beyond_wall_old_gods"
	culture="wildling"

	father=234500017

	3233.1.1 = {birth="3233.1.1"}
	3249.1.1 = {add_trait=skilled_warrior}
	3298.1.1 = {death="3298.1.1"}
}
254500017 = {
	name="Gorne"	# a lord
	dynasty=4500017

	religion="beyond_wall_old_gods"
	culture="wildling"

	father=244500017

	3264.1.1 = {birth="3264.1.1"}
	3280.1.1 = {add_trait=skilled_warrior}
}
##Winter Keep/Crasters Keep
10559133 = {
	name="Mikken"	# a lord
	dynasty=559133

	religion="beyond_wall_old_gods"
	culture="wildling"

	2955.1.1 = {birth="2955.1.1"}
	2971.1.1 = {add_trait=trained_warrior}
	3007.1.1 = {death="3007.1.1"}
}
11559133 = {
	name="Orell"	# a lord
	dynasty=559133

	religion="beyond_wall_old_gods"
	culture="wildling"

	father=10559133

	2975.1.1 = {birth="2975.1.1"}
	2991.1.1 = {add_trait=trained_warrior}
	3020.1.1 = {death="3020.1.1"}
}
12559133 = {
	name="Raymun"	# not a lord
	dynasty=559133

	religion="beyond_wall_old_gods"
	culture="wildling"

	father=10559133

	2976.1.1 = {birth="2976.1.1"}
	2992.1.1 = {add_trait=skilled_warrior}
	3014.1.1 = {death = {death_reason = death_battle}}
}
13559133 = {
	name="Jyana"	# not a lord
	female=yes
	dynasty=559133

	religion="beyond_wall_old_gods"
	culture="wildling"

	father=11559133

	3002.1.1 = {birth="3002.1.1"}
	3054.1.1 = {death="3054.1.1"}
}
14559133 = {
	name="Hareth"	# a lord
	dynasty=559133

	religion="beyond_wall_old_gods"
	culture="wildling"

	father=12559133

	3002.1.1 = {birth="3002.1.1"}
	3018.1.1 = {add_trait=trained_warrior}
	3067.1.1 = {death="3067.1.1"}
}
15559133 = {
	name="Lenn"	# not a lord
	dynasty=559133

	religion="beyond_wall_old_gods"
	culture="wildling"

	father=14559133

	3020.1.1 = {birth="3020.1.1"}
	3036.1.1 = {add_trait=trained_warrior}
	3054.1.1 = {death="3054.1.1"}
}
17559133 = {
	name="Henk"	# a lord
	dynasty=559133

	religion="beyond_wall_old_gods"
	culture="wildling"

	father=14559133

	3023.1.1 = {birth="3023.1.1"}
	3039.1.1 = {add_trait=trained_warrior}
	3079.1.1 = {death="3079.1.1"}
}
18559133 = {
	name="Osha"	# not a lord
	female=yes
	dynasty=559133

	religion="beyond_wall_old_gods"
	culture="wildling"

	father=17559133

	3049.1.1 = {birth="3049.1.1"}
	3085.1.1 = {death="3085.1.1"}
}
19559133 = {
	name="Grisel"	# not a lord
	female=yes
	dynasty=559133

	religion="beyond_wall_old_gods"
	culture="wildling"

	father=17559133

	3051.1.1 = {birth="3051.1.1"}
	3105.1.1 = {death="3105.1.1"}
}
20559133 = {
	name="Alfyn"	# a lord
	dynasty=559133

	religion="beyond_wall_old_gods"
	culture="wildling"

	father=15559133

	3051.1.1 = {birth="3051.1.1"}
	3067.1.1 = {add_trait=trained_warrior}
	3127.1.1 = {death="3127.1.1"}
}
21559133 = {
	name="Gariss"	# a lord
	dynasty=559133

	religion="beyond_wall_old_gods"
	culture="wildling"

	father=20559133

	3078.1.1 = {birth="3078.1.1"}
	3094.1.1 = {add_trait=trained_warrior}
	3146.1.1 = {death="3146.1.1"}
}
23559133 = {
	name="Hallis"	# a lord
	dynasty=559133

	religion="beyond_wall_old_gods"
	culture="wildling"

	father=21559133

	3104.1.1 = {birth="3104.1.1"}
	3120.1.1 = {add_trait=poor_warrior}
	3147.1.1 = {death = {death_reason = death_accident}}
}
24559133 = {
	name="Calon"	# a lord
	dynasty=559133

	religion="beyond_wall_old_gods"
	culture="wildling"

	father=23559133

	3125.1.1 = {birth="3125.1.1"}
	3141.1.1 = {add_trait=trained_warrior}
	3184.1.1 = {death="3184.1.1"}
}
25559133 = {
	name="Gendel"	# not a lord
	dynasty=559133

	religion="beyond_wall_old_gods"
	culture="wildling"

	father=24559133

	3148.1.1 = {birth="3148.1.1"}
	3164.1.1 = {add_trait=skilled_warrior}
	3182.1.1 = {death = {death_reason = death_battle}}
}
26559133 = {
	name="Bernarr"	# a lord
	dynasty=559133

	religion="beyond_wall_old_gods"
	culture="wildling"

	father=25559133

	3168.1.1 = {birth="3168.1.1"}
	3184.1.1 = {add_trait=skilled_warrior}
	3239.1.1 = {death="3239.1.1"}
}
27559133 = {
	name="Maege"	# not a lord
	female=yes
	dynasty=559133

	religion="beyond_wall_old_gods"
	culture="wildling"

	father=26559133

	3203.1.1 = {birth="3203.1.1"}
	3251.1.1 = {death="3251.1.1"}
}
28559133 = {
	name="Harma"	# not a lord
	female=yes
	dynasty=559133

	religion="beyond_wall_old_gods"
	culture="wildling"

	father=26559133

	3206.1.1 = {birth="3206.1.1"}
	3263.1.1 = {death="3263.1.1"}
}
29559133 = {
	name="Torwynd"	# a lord
	dynasty=559133

	religion="beyond_wall_old_gods"
	culture="wildling"

	father=26559133

	3208.1.1 = {birth="3208.1.1"}
	3224.1.1 = {add_trait=trained_warrior}
	3256.1.1 = {death="3256.1.1"}
}
31559133 = {
	name="Gerrick"	# a lord
	dynasty=559133

	religion="beyond_wall_old_gods"
	culture="wildling"

	father=29559133

	3228.1.1 = {birth="3228.1.1"}
	3244.1.1 = {add_trait=poor_warrior}
	3263.1.1 = {death="3263.1.1"}
}
32559133 = {
	name="Devyn"	# a lord
	dynasty=559133

	religion="beyond_wall_old_gods"
	culture="wildling"

	father=31559133

	3248.1.1 = {birth="3248.1.1"}
	3264.1.1 = {add_trait=trained_warrior}
}
33559133 = {
	name="Mance"	# not a lord
	dynasty=559133

	religion="beyond_wall_old_gods"
	culture="wildling"

	father=32559133

	3274.1.1 = {birth="3274.1.1"}
	3290.1.1 = {add_trait=skilled_warrior}
}
34559133 = {
	name="Meera"	# not a lord
	female=yes
	dynasty=559133

	religion="beyond_wall_old_gods"
	culture="wildling"

	father=32559133

	3275.1.1 = {birth="3275.1.1"}
}
35559133 = {
	name="Osha"	# not a lord
	female=yes
	dynasty=559133

	religion="beyond_wall_old_gods"
	culture="wildling"

	father=32559133

	3278.1.1 = {birth="3278.1.1"}
}
##Whitetree
100559134 = {
	name="Lenn"	# a lord
	dynasty=559134

	religion="beyond_wall_old_gods"
	culture="wildling"

	2970.1.1 = {birth="2970.1.1"}
	2986.1.1 = {add_trait=skilled_warrior}
	3012.1.1 = {death="3012.1.1"}
}
101559134 = {
	name="Ragwyle"	# not a lord
	female=yes
	dynasty=559134

	religion="beyond_wall_old_gods"
	culture="wildling"

	father=100559134

	2992.1.1 = {birth="2992.1.1"}
	3019.1.1 = {death="3019.1.1"}
}
103559134 = {
	name="Toregg"	# a lord
	dynasty=559134

	religion="beyond_wall_old_gods"
	culture="wildling"

	father=100559134

	2996.1.1 = {birth="2996.1.1"}
	3012.1.1 = {add_trait=skilled_warrior}
	3058.1.1 = {death="3058.1.1"}
}
104559134 = {
	name="Artos"	# not a lord
	dynasty=559134

	religion="beyond_wall_old_gods"
	culture="wildling"

	father=100559134

	2998.1.1 = {birth="2998.1.1"}
	3014.1.1 = {add_trait=skilled_warrior}
	3043.1.1 = {death="3043.1.1"}
}
105559134 = {
	name="Maege"	# not a lord
	female=yes
	dynasty=559134

	religion="beyond_wall_old_gods"
	culture="wildling"

	father=103559134

	3028.1.1 = {birth="3028.1.1"}
	3086.1.1 = {death="3086.1.1"}
}
106559134 = {
	name="Sansa"	# not a lord
	female=yes
	dynasty=559134

	religion="beyond_wall_old_gods"
	culture="wildling"

	father=104559134

	3033.1.1 = {birth="3033.1.1"}
	3094.1.1 = {death="3094.1.1"}
}
107559134 = {
	name="Briar"	# a lord
	dynasty=559134

	religion="beyond_wall_old_gods"
	culture="wildling"

	father=104559134

	3035.1.1 = {birth="3035.1.1"}
	3051.1.1 = {add_trait=trained_warrior}
	3091.1.1 = {death="3091.1.1"}
}
108559134 = {
	name="Walton"	# not a lord
	dynasty=559134

	religion="beyond_wall_old_gods"
	culture="wildling"

	father=104559134

	3037.1.1 = {birth="3037.1.1"}
	3053.1.1 = {add_trait=poor_warrior}
	3086.1.1 = {death="3086.1.1"}
}
109559134 = {
	name="Dan"	# not a lord
	dynasty=559134

	religion="beyond_wall_old_gods"
	culture="wildling"

	father=104559134

	3040.1.1 = {birth="3040.1.1"}
	3056.1.1 = {add_trait=poor_warrior}
	3094.1.1 = {death="3094.1.1"}
}
111559134 = {
	name="Tormund"	# a lord
	dynasty=559134

	religion="beyond_wall_old_gods"
	culture="wildling"

	father=107559134

	3070.1.1 = {birth="3070.1.1"}
	3086.1.1 = {add_trait=trained_warrior}
	3117.1.1 = {death="3117.1.1"}
}
112559134 = {
	name="Halys"	# a lord
	dynasty=559134

	religion="beyond_wall_old_gods"
	culture="wildling"

	father=111559134

	3098.1.1 = {birth="3098.1.1"}
	3114.1.1 = {add_trait=trained_warrior}
	3149.1.1 = {death="3149.1.1"}
}
113559134 = {
	name="Ryk"	# a lord
	dynasty=559134

	religion="beyond_wall_old_gods"
	culture="wildling"

	father=112559134

	3122.1.1 = {birth="3122.1.1"}
	3138.1.1 = {add_trait=trained_warrior}
	3162.1.1 = {death="3162.1.1"}
}
114559134 = {
	name="Orell"	# a lord
	dynasty=559134

	religion="beyond_wall_old_gods"
	culture="wildling"

	father=113559134

	3141.1.1 = {birth="3141.1.1"}
	3157.1.1 = {add_trait=trained_warrior}
	3200.1.1 = {death="3200.1.1"}
}
115559134 = {
	name="Howd"	# a lord
	dynasty=559134

	religion="beyond_wall_old_gods"
	culture="wildling"

	father=114559134

	3168.1.1 = {birth="3168.1.1"}
	3184.1.1 = {add_trait=poor_warrior}
	3234.1.1 = {death="3234.1.1"}
}
116559134 = {
	name="Cregan"	# not a lord
	dynasty=559134

	religion="beyond_wall_old_gods"
	culture="wildling"

	father=114559134

	3170.1.1 = {birth="3170.1.1"}
	3186.1.1 = {add_trait=poor_warrior}
	3206.1.1 = {death="3206.1.1"}
}
117559134 = {
	name="Lyra"	# not a lord
	female=yes
	dynasty=559134

	religion="beyond_wall_old_gods"
	culture="wildling"

	father=116559134

	3190.1.1 = {birth="3190.1.1"}
	3238.1.1 = {death="3238.1.1"}
}
118559134 = {
	name="Grisella"	# not a lord
	female=yes
	dynasty=559134

	religion="beyond_wall_old_gods"
	culture="wildling"

	father=116559134

	3192.1.1 = {birth="3192.1.1"}
	3199.1.1 = {death="3199.1.1"}
}
119559134 = {
	name="Ferny"	# not a lord
	female=yes
	dynasty=559134

	religion="beyond_wall_old_gods"
	culture="wildling"

	father=116559134

	3193.1.1 = {birth="3193.1.1"}
	3254.1.1 = {death="3254.1.1"}
}
120559134 = {
	name="Kyleg"	# a lord
	dynasty=559134

	religion="beyond_wall_old_gods"
	culture="wildling"

	father=116559134

	3194.1.1 = {birth="3194.1.1"}
	3210.1.1 = {add_trait=trained_warrior}
	3250.1.1 = {death="3250.1.1"}
}
121559134 = {
	name="Jojen"	# a lord
	dynasty=559134

	religion="beyond_wall_old_gods"
	culture="wildling"

	father=120559134

	3220.1.1 = {birth="3220.1.1"}
	3236.1.1 = {add_trait=skilled_warrior}
	3266.1.1 = {death="3266.1.1"}
}
123559134 = {
	name="Toregg"	# a lord
	dynasty=559134

	religion="beyond_wall_old_gods"
	culture="wildling"

	father=121559134

	3243.1.1 = {birth="3243.1.1"}
	3259.1.1 = {add_trait=trained_warrior}
}
124559134 = {
	name="Hallis"	# not a lord
	dynasty=559134

	religion="beyond_wall_old_gods"
	culture="wildling"

	father=123559134

	3270.1.1 = {birth="3270.1.1"}
	3286.1.1 = {add_trait=poor_warrior}
}
125559134 = {
	name="Lenn"	# not a lord
	dynasty=559134

	religion="beyond_wall_old_gods"
	culture="wildling"

	father=123559134

	3271.1.1 = {birth="3271.1.1"}
	3287.1.1 = {add_trait=trained_warrior}
}
##Hardhome
10559139 = {
	name="Torghen"	# a lord
	dynasty=559139

	religion="beyond_wall_old_gods"
	culture="wildling"

	2944.1.1 = {birth="2944.1.1"}
	2960.1.1 = {add_trait=trained_warrior}
	3003.1.1 = {death="3003.1.1"}
}
11559139 = {
	name="Karlon"	# a lord
	dynasty=559139

	religion="beyond_wall_old_gods"
	culture="wildling"

	father=10559139

	2973.1.1 = {birth="2973.1.1"}
	2989.1.1 = {add_trait=trained_warrior}
	3033.1.1 = {death="3033.1.1"}
}
12559139 = {
	name="Ferny"	# not a lord
	female=yes
	dynasty=559139

	religion="beyond_wall_old_gods"
	culture="wildling"

	father=10559139

	2976.1.1 = {birth="2976.1.1"}
	3029.1.1 = {death="3029.1.1"}
}
13559139 = {
	name="Dryn"	# a lord
	dynasty=559139

	religion="beyond_wall_old_gods"
	culture="wildling"

	father=10559139

	2979.1.1 = {birth="2979.1.1"}
	2995.1.1 = {add_trait=trained_warrior}
	3035.1.1 = {death="3035.1.1"}
}
14559139 = {
	name="Ygritte"	# not a lord
	female=yes
	dynasty=559139

	religion="beyond_wall_old_gods"
	culture="wildling"

	father=10559139

	2980.1.1 = {birth="2980.1.1"}
	3044.1.1 = {death="3044.1.1"}
}
15559139 = {
	name="Val"	# not a lord
	female=yes
	dynasty=559139

	religion="beyond_wall_old_gods"
	culture="wildling"

	father=11559139

	2992.1.1 = {birth="2992.1.1"}
	3044.1.1 = {death="3044.1.1"}
}
16559139 = {
	name="Thistle"	# not a lord
	female=yes
	dynasty=559139

	religion="beyond_wall_old_gods"
	culture="wildling"

	father=11559139

	2993.1.1 = {birth="2993.1.1"}
	3032.1.1 = {death="3032.1.1"}
}
17559139 = {
	name="Gerrick"	# a lord
	dynasty=559139

	religion="beyond_wall_old_gods"
	culture="wildling"

	father=13559139

	3004.1.1 = {birth="3004.1.1"}
	3020.1.1 = {add_trait=trained_warrior}
	3062.1.1 = {death="3062.1.1"}
}
18559139 = {
	name="Walton"	# not a lord
	dynasty=559139

	religion="beyond_wall_old_gods"
	culture="wildling"

	father=13559139

	3005.1.1 = {birth="3005.1.1"}
	3021.1.1 = {add_trait=poor_warrior}
	3048.1.1 = {death="3048.1.1"}
}
19559139 = {
	name="Maege"	# not a lord
	female=yes
	dynasty=559139

	religion="beyond_wall_old_gods"
	culture="wildling"

	father=17559139

	3030.1.1 = {birth="3030.1.1"}
	3058.1.1 = {death = {death_reason = death_execution}}
}
20559139 = {
	name="Helya"	# not a lord
	female=yes
	dynasty=559139

	religion="beyond_wall_old_gods"
	culture="wildling"

	father=17559139

	3033.1.1 = {birth="3033.1.1"}
	3109.1.1 = {death="3109.1.1"}
}
21559139 = {
	name="Munda"	# not a lord
	female=yes
	dynasty=559139

	religion="beyond_wall_old_gods"
	culture="wildling"

	father=18559139

	3038.1.1 = {birth="3038.1.1"}
	3092.1.1 = {death="3092.1.1"}
}
22559139 = {
	name="Harlon"	# a lord
	dynasty=559139

	religion="beyond_wall_old_gods"
	culture="wildling"

	father=18559139

	3040.1.1 = {birth="3040.1.1"}
	3056.1.1 = {add_trait=trained_warrior}
	3085.1.1 = {death="3085.1.1"}
}
23559139 = {
	name="Mors"	# a lord
	dynasty=559139

	religion="beyond_wall_old_gods"
	culture="wildling"

	father=22559139

	3071.1.1 = {birth="3071.1.1"}
	3087.1.1 = {add_trait=skilled_warrior}
	3140.1.1 = {death="3140.1.1"}
}
24559139 = {
	name="Cayn"	# a lord
	dynasty=559139

	religion="beyond_wall_old_gods"
	culture="wildling"

	father=23559139

	3093.1.1 = {birth="3093.1.1"}
	3109.1.1 = {add_trait=poor_warrior}
	3154.1.1 = {death="3154.1.1"}
}
25559139 = {
	name="Helya"	# not a lord
	female=yes
	dynasty=559139

	religion="beyond_wall_old_gods"
	culture="wildling"

	father=24559139

	3114.1.1 = {birth="3114.1.1"}
	3172.1.1 = {death="3172.1.1"}
}
26559139 = {
	name="Quort"	# a lord
	dynasty=559139

	religion="beyond_wall_old_gods"
	culture="wildling"

	father=24559139

	3115.1.1 = {birth="3115.1.1"}
	3131.1.1 = {add_trait=trained_warrior}
	3168.1.1 = {death="3168.1.1"}
}
28559139 = {
	name="Gerrick"	# a lord
	dynasty=559139

	religion="beyond_wall_old_gods"
	culture="wildling"

	father=26559139

	3150.1.1 = {birth="3150.1.1"}
	3166.1.1 = {add_trait=trained_warrior}
	3210.1.1 = {death="3210.1.1"}
}
29559139 = {
	name="Mikken"	# a lord
	dynasty=559139

	religion="beyond_wall_old_gods"
	culture="wildling"

	father=28559139

	3170.1.1 = {birth="3170.1.1"}
	3186.1.1 = {add_trait=trained_warrior}
	3221.1.1 = {death="3221.1.1"}
}
30559139 = {
	name="Byam"	# a lord
	dynasty=559139

	religion="beyond_wall_old_gods"
	culture="wildling"

	father=29559139

	3198.1.1 = {birth="3198.1.1"}
	3214.1.1 = {add_trait=skilled_warrior}
	3264.1.1 = {death = {death_reason = death_accident}}
}
31559139 = {
	name="Arthor"	# not a lord
	dynasty=559139

	religion="beyond_wall_old_gods"
	culture="wildling"

	father=29559139

	3200.1.1 = {birth="3200.1.1"}
	3216.1.1 = {add_trait=trained_warrior}
	3259.1.1 = {death="3259.1.1"}
}
32559139 = {
	name="Maege"	# not a lord
	female=yes
	dynasty=559139

	religion="beyond_wall_old_gods"
	culture="wildling"

	father=29559139

	3201.1.1 = {birth="3201.1.1"}
	3233.1.1 = {death="3233.1.1"}
}
33559139 = {
	name="Raymun"	# a lord
	dynasty=559139

	religion="beyond_wall_old_gods"
	culture="wildling"

	father=30559139

	3219.1.1 = {birth="3219.1.1"}
	3235.1.1 = {add_trait=skilled_warrior}
	3275.1.1 = {death="3275.1.1"}
}
34559139 = {
	name="Alfyn"	# a lord
	dynasty=559139

	religion="beyond_wall_old_gods"
	culture="wildling"

	father=30559139

	3221.1.1 = {birth="3221.1.1"}
	3237.1.1 = {add_trait=poor_warrior}
	3282.1.1 = {death="3282.1.1"}
}
35559139 = {
	name="Palla"	# not a lord
	female=yes
	dynasty=559139

	religion="beyond_wall_old_gods"
	culture="wildling"

	father=33559139

	3250.1.1 = {birth="3250.1.1"}
}
36559139 = {
	name="Thistle"	# not a lord
	female=yes
	dynasty=559139

	religion="beyond_wall_old_gods"
	culture="wildling"

	father=33559139

	3252.1.1 = {birth="3252.1.1"}
}
37559139 = {
	name="Ygon"	# a lord
	dynasty=559139

	religion="beyond_wall_old_gods"
	culture="wildling"

	father=34559139

	3246.1.1 = {birth="3246.1.1"}
	3262.1.1 = {add_trait=poor_warrior}
}
38559139 = {
	name="Walton"	# not a lord
	dynasty=559139

	religion="beyond_wall_old_gods"
	culture="wildling"

	father=34559139

	3248.1.1 = {birth="3248.1.1"}
	3264.1.1 = {add_trait=trained_warrior}
	3297.1.1 = {death="3297.1.1"}
}
39559139 = {
	name="Erena"	# not a lord
	female=yes
	dynasty=559139

	religion="beyond_wall_old_gods"
	culture="wildling"

	father=37559139

	3269.1.1 = {birth="3269.1.1"}
}
40559139 = {
	name="Kyra"
	female=yes
	dynasty=559139
	
	religion="beyond_wall_old_gods"
	culture="wildling"

	father=37559139

	3271.1.1 = {birth="3271.1.1"}
}
41559139 = {
	name="Sigorn"
	dynasty=559139
	
	religion="beyond_wall_old_gods"
	culture="wildling"

	father=37559139

	3274.1.1 = {birth="3274.1.1"}
	3290.1.1 = {add_trait=trained_warrior}
}
##First Forest
10559141 = {
	name="Yoren"	# a lord
	dynasty=559141

	religion="beyond_wall_old_gods"
	culture="wildling"

	2975.1.1 = {birth="2975.1.1"}
	2991.1.1 = {add_trait=trained_warrior}
	3030.1.1 = {death="3030.1.1"}
}
11559141 = {
	name="Gariss"	# a lord
	dynasty=559141

	religion="beyond_wall_old_gods"
	culture="wildling"

	father=10559141

	2996.1.1 = {birth="2996.1.1"}
	3012.1.1 = {add_trait=skilled_warrior}
	3051.1.1 = {death="3051.1.1"}
}
12559141 = {
	name="Joseth"	# not a lord
	dynasty=559141

	religion="beyond_wall_old_gods"
	culture="wildling"

	father=10559141

	2997.1.1 = {birth="2997.1.1"}
	3013.1.1 = {add_trait=skilled_warrior}
	3046.1.1 = {death="3046.1.1"}
}
13559141 = {
	name="Morna"	# not a lord
	female=yes
	dynasty=559141

	religion="beyond_wall_old_gods"
	culture="wildling"

	father=10559141

	2998.1.1 = {birth="2998.1.1"}
	3027.1.1 = {death = {death_reason = death_accident}}
}
14559141 = {
	name="Stiv"	# not a lord
	dynasty=559141

	religion="beyond_wall_old_gods"
	culture="wildling"

	father=10559141

	3001.1.1 = {birth="3001.1.1"}
	3017.1.1 = {add_trait=trained_warrior}
	3055.1.1 = {death="3055.1.1"}
}
15559141 = {
	name="Jojen"	# a lord
	dynasty=559141

	religion="beyond_wall_old_gods"
	culture="wildling"

	father=11559141

	3023.1.1 = {birth="3023.1.1"}
	3039.1.1 = {add_trait=trained_warrior}
	3086.1.1 = {death="3086.1.1"}
}
17559141 = {
	name="Quort"	# not a lord
	dynasty=559141

	religion="beyond_wall_old_gods"
	culture="wildling"

	father=11559141

	3025.1.1 = {birth="3025.1.1"}
	3041.1.1 = {add_trait=poor_warrior}
	3061.1.1 = {death="3061.1.1"}
}
18559141 = {
	name="Osha"	# not a lord
	female=yes
	dynasty=559141

	religion="beyond_wall_old_gods"
	culture="wildling"

	father=15559141

	3051.1.1 = {birth="3051.1.1"}
	3120.1.1 = {death="3120.1.1"}
}
20559141 = {
	name="Jarl"	# a lord
	dynasty=559141

	religion="beyond_wall_old_gods"
	culture="wildling"

	father=15559141

	3055.1.1 = {birth="3055.1.1"}
	3071.1.1 = {add_trait=trained_warrior}
	3100.1.1 = {death="3100.1.1"}
}
21559141 = {
	name="Lyra"	# not a lord
	female=yes
	dynasty=559141

	religion="beyond_wall_old_gods"
	culture="wildling"

	father=20559141

	3079.1.1 = {birth="3079.1.1"}
	3128.1.1 = {death="3128.1.1"}
}
24559141 = {
	name="Alfyn"	# a lord
	dynasty=559141

	religion="beyond_wall_old_gods"
	culture="wildling"

	father=20559141

	3087.1.1 = {birth="3087.1.1"}
	3103.1.1 = {add_trait=skilled_warrior}
	3126.1.1 = {death="3126.1.1"}
}
25559141 = {
	name="Quent"	# a lord
	dynasty=559141

	religion="beyond_wall_old_gods"
	culture="wildling"

	father=20559141

	3089.1.1 = {birth="3089.1.1"}
	3105.1.1 = {add_trait=poor_warrior}
	3152.1.1 = {death="3152.1.1"}
}
26559141 = {
	name="Gretchel"	# not a lord
	female=yes
	dynasty=559141

	religion="beyond_wall_old_gods"
	culture="wildling"

	father=24559141

	3112.1.1 = {birth="3112.1.1"}
	3116.1.1 = {death="3116.1.1"}
}
27559141 = {
	name="Ygritte"	# not a lord
	female=yes
	dynasty=559141

	religion="beyond_wall_old_gods"
	culture="wildling"

	father=24559141

	3115.1.1 = {birth="3115.1.1"}
	3151.1.1 = {death="3151.1.1"}
}
28559141 = {
	name="Toregg"	# a lord
	dynasty=559141

	religion="beyond_wall_old_gods"
	culture="wildling"

	father=25559141

	3112.1.1 = {birth="3112.1.1"}
	3128.1.1 = {add_trait=trained_warrior}
	3171.1.1 = {death="3171.1.1"}
}
29559141 = {
	name="Alfyn"	# a lord
	dynasty=559141

	religion="beyond_wall_old_gods"
	culture="wildling"

	father=28559141

	3136.1.1 = {birth="3136.1.1"}
	3152.1.1 = {add_trait=trained_warrior}
	3182.1.1 = {death="3182.1.1"}
}
30559141 = {
	name="Jonella"	# not a lord
	female=yes
	dynasty=559141

	religion="beyond_wall_old_gods"
	culture="wildling"

	father=29559141

	3163.1.1 = {birth="3163.1.1"}
	3236.1.1 = {death = {death_reason = death_accident}}
}
31559141 = {
	name="Tormund"	# a lord
	dynasty=559141

	religion="beyond_wall_old_gods"
	culture="wildling"

	father=29559141

	3166.1.1 = {birth="3166.1.1"}
	3182.1.1 = {add_trait=trained_warrior}
	3224.1.1 = {death="3224.1.1"}
}
33559141 = {
	name="Lenn"	# a lord
	dynasty=559141

	religion="beyond_wall_old_gods"
	culture="wildling"

	father=31559141

	3197.1.1 = {birth="3197.1.1"}
	3213.1.1 = {add_trait=trained_warrior}
	3256.1.1 = {death="3256.1.1"}
}
34559141 = {
	name="Arthor"	# a lord
	dynasty=559141

	religion="beyond_wall_old_gods"
	culture="wildling"

	father=33559141

	3216.1.1 = {birth="3216.1.1"}
	3232.1.1 = {add_trait=poor_warrior}
	3264.1.1 = {death="3264.1.1"}
}
35559141 = {
	name="Jeor"	# a lord
	dynasty=559141

	religion="beyond_wall_old_gods"
	culture="wildling"

	father=34559141

	3241.1.1 = {birth="3241.1.1"}
	3257.1.1 = {add_trait=trained_warrior}
	3295.1.1 = {death="3295.1.1"}
}
37559141 = {
	name="Eyron"	# not a lord
	dynasty=559141

	religion="beyond_wall_old_gods"
	culture="wildling"

	father=34559141

	3245.1.1 = {birth="3245.1.1"}
	3261.1.1 = {add_trait=trained_warrior}
}
38559141 = {
	name="Gavin"	# a lord
	dynasty=559141

	religion="beyond_wall_old_gods"
	culture="wildling"

	father=35559141

	3267.1.1 = {birth="3267.1.1"}
	3283.1.1 = {add_trait=poor_warrior}
}
40559141 = {
	name="Qhorin"
	dynasty=559141
	
	religion="beyond_wall_old_gods"
	culture="wildling"

	father=35559141

	3271.1.1 = {birth="3271.1.1"}
	3287.1.1 = {add_trait=skilled_warrior}
}
41559141 = {
	name="Toregg"	# not a lord
	dynasty=559141

	religion="beyond_wall_old_gods"
	culture="wildling"

	father=37559141

	3279.1.1 = {birth="3279.1.1"}
	3295.1.1 = {add_trait=trained_warrior}
}
42559141 = {
	name="Hali"
	female=yes
	dynasty=559141
	
	religion="beyond_wall_old_gods"
	culture="wildling"

	father=37559141

	3282.1.1 = {birth="3282.1.1"}
}
#North Frostfangs
10559143 = {
	name="Cayn"	# a lord
	dynasty=559143

	religion="beyond_wall_old_gods"
	culture="wildling"

	2966.1.1 = {birth="2966.1.1"}
	2982.1.1 = {add_trait=trained_warrior}
	3022.1.1 = {death="3022.1.1"}
}
11559143 = {
	name="Torghen"	# a lord
	dynasty=559143

	religion="beyond_wall_old_gods"
	culture="wildling"

	father=10559143

	2985.1.1 = {birth="2985.1.1"}
	3001.1.1 = {add_trait=trained_warrior}
	3033.1.1 = {death="3033.1.1"}
}
12559143 = {
	name="Walton"	# not a lord
	dynasty=559143

	religion="beyond_wall_old_gods"
	culture="wildling"

	father=10559143

	2986.1.1 = {birth="2986.1.1"}
	3002.1.1 = {add_trait=poor_warrior}
	3017.1.1 = {death="3017.1.1"}
}
13559143 = {
	name="Dryn"	# not a lord
	dynasty=559143

	religion="beyond_wall_old_gods"
	culture="wildling"

	father=10559143

	2987.1.1 = {birth="2987.1.1"}
	3003.1.1 = {add_trait=poor_warrior}
	3052.1.1 = {death="3052.1.1"}
}
14559143 = {
	name="Eyron"	# a lord
	dynasty=559143

	religion="beyond_wall_old_gods"
	culture="wildling"

	father=11559143

	3008.1.1 = {birth="3008.1.1"}
	3024.1.1 = {add_trait=skilled_warrior}
	3052.1.1 = {death="3052.1.1"}
}
15559143 = {
	name="Munda"	# not a lord
	female=yes
	dynasty=559143

	religion="beyond_wall_old_gods"
	culture="wildling"

	father=14559143

	3030.1.1 = {birth="3030.1.1"}
	3104.1.1 = {death="3104.1.1"}
}
16559143 = {
	name="Zia"	# not a lord
	female=yes
	dynasty=559143

	religion="beyond_wall_old_gods"
	culture="wildling"

	father=14559143

	3033.1.1 = {birth="3033.1.1"}
	3067.1.1 = {death="3067.1.1"}
}
18559143 = {
	name="Devyn"	# a lord
	dynasty=559143

	religion="beyond_wall_old_gods"
	culture="wildling"

	father=13559143

	3008.1.1 = {birth="3008.1.1"}
	3024.1.1 = {add_trait=trained_warrior}
	3060.1.1 = {death="3060.1.1"}
}
19559143 = {
	name="Walton"	# a lord
	dynasty=559143

	religion="beyond_wall_old_gods"
	culture="wildling"

	father=18559143

	3032.1.1 = {birth="3032.1.1"}
	3048.1.1 = {add_trait=trained_warrior}
	3085.1.1 = {death="3085.1.1"}
}
21559143 = {
	name="Torghen"	# not a lord
	dynasty=559143

	religion="beyond_wall_old_gods"
	culture="wildling"

	father=18559143

	3035.1.1 = {birth="3035.1.1"}
	3051.1.1 = {add_trait=trained_warrior}
	3087.1.1 = {death="3087.1.1"}
}
22559143 = {
	name="Jojen"	# a lord
	dynasty=559143

	religion="beyond_wall_old_gods"
	culture="wildling"

	father=19559143

	3053.1.1 = {birth="3053.1.1"}
	3069.1.1 = {add_trait=trained_warrior}
	3096.1.1 = {death="3096.1.1"}
}
23559143 = {
	name="Gerrick"	# a lord
	dynasty=559143

	religion="beyond_wall_old_gods"
	culture="wildling"

	father=22559143

	3078.1.1 = {birth="3078.1.1"}
	3094.1.1 = {add_trait=skilled_warrior}
	3127.1.1 = {death="3127.1.1"}
}
26559143 = {
	name="Dywen"	# a lord
	dynasty=559143

	religion="beyond_wall_old_gods"
	culture="wildling"

	father=23559143

	3108.1.1 = {birth="3108.1.1"}
	3124.1.1 = {add_trait=trained_warrior}
	3155.1.1 = {death="3155.1.1"}
}
27559143 = {
	name="Gariss"	# a lord
	dynasty=559143

	religion="beyond_wall_old_gods"
	culture="wildling"

	father=26559143

	3127.1.1 = {birth="3127.1.1"}
	3143.1.1 = {add_trait=trained_warrior}
	3175.1.1 = {death="3175.1.1"}
}
28559143 = {
	name="Quort"	# not a lord
	dynasty=559143

	religion="beyond_wall_old_gods"
	culture="wildling"

	father=26559143

	3129.1.1 = {birth="3129.1.1"}
	3145.1.1 = {add_trait=poor_warrior}
	3150.1.1 = {death="3150.1.1"}
}
29559143 = {
	name="Brella"	# not a lord
	female=yes
	dynasty=559143

	religion="beyond_wall_old_gods"
	culture="wildling"

	father=27559143

	3151.1.1 = {birth="3151.1.1"}
	3198.1.1 = {death="3198.1.1"}
}
30559143 = {
	name="Jonella"	# not a lord
	female=yes
	dynasty=559143

	religion="beyond_wall_old_gods"
	culture="wildling"

	father=27559143

	3154.1.1 = {birth="3154.1.1"}
	3211.1.1 = {death="3211.1.1"}
}
31559143 = {
	name="Briar"	# a lord
	dynasty=559143

	religion="beyond_wall_old_gods"
	culture="wildling"

	father=28559143

	3150.1.1 = {birth="3150.1.1"}
	3166.1.1 = {add_trait=skilled_warrior}
	3215.1.1 = {death="3215.1.1"}
}
33559143 = {
	name="Dormund"	# a lord
	dynasty=559143

	religion="beyond_wall_old_gods"
	culture="wildling"

	father=31559143

	3198.1.1 = {birth="3198.1.1"}
	3214.1.1 = {add_trait=trained_warrior}
	3224.1.1 = {death="3224.1.1"}
}
34559143 = {
	name="Arthor"	# not a lord
	dynasty=559143

	religion="beyond_wall_old_gods"
	culture="wildling"

	father=31559143

	3201.1.1 = {birth="3201.1.1"}
	3217.1.1 = {add_trait=skilled_warrior}
	3223.1.1 = {death = {death_reason = death_battle}}
}
35559143 = {
	name="Mance"	# a lord
	dynasty=559143

	religion="beyond_wall_old_gods"
	culture="wildling"

	father=33559143

	3221.1.1 = {birth="3221.1.1"}
	3237.1.1 = {add_trait=trained_warrior}
	3260.1.1 = {death="3260.1.1"}
}
37559143 = {
	name="Gerrick"	# not a lord
	dynasty=559143

	religion="beyond_wall_old_gods"
	culture="wildling"

	father=33559143

	3224.1.1 = {birth="3224.1.1"}
	3240.1.1 = {add_trait=poor_warrior}
	3280.1.1 = {death="3280.1.1"}
}
38559143 = {
	name="Arnolf"	# a lord
	dynasty=559143

	religion="beyond_wall_old_gods"
	culture="wildling"

	father=35559143

	3240.1.1 = {birth="3240.1.1"}
	3256.1.1 = {add_trait=skilled_warrior}
	3286.1.1 = {death="3286.1.1"}
}
39559143 = {
	name="Wallen"	# not a lord
	dynasty=559143

	religion="beyond_wall_old_gods"
	culture="wildling"

	father=35559143

	3242.1.1 = {birth="3242.1.1"}
	3258.1.1 = {add_trait=skilled_warrior}
	3286.1.1 = {death="3286.1.1"}
}
40559143 = {
	name="Dalla"
	female=yes
	dynasty=559143
	
	religion="beyond_wall_old_gods"
	culture="wildling"

	father=38559143

	3272.1.1 = {birth="3272.1.1"}
}
41559143 = {
	name="Ysilla"
	female=yes
	dynasty=559143
	
	religion="beyond_wall_old_gods"
	culture="wildling"

	father=38559143

	3275.1.1 = {birth="3275.1.1"}
}
42559143 = {
	name="Devyn"
	dynasty=559143
	
	religion="beyond_wall_old_gods"
	culture="wildling"

	father=38559143

	3278.1.1 = {birth="3278.1.1"}
	3294.1.1 = {add_trait=trained_warrior}
}
43559143 = {
	name="Jonella"
	female=yes
	dynasty=559143
	
	religion="beyond_wall_old_gods"
	culture="wildling"

	father=42559143

	3296.1.1 = {birth="3296.1.1"}
}
44559143 = {
	name="Dormund"

	religion="beyond_wall_old_gods"
	culture="wildling"

	father=42559143

	3297.1.1 = {birth="3297.1.1"}
	3313.1.1 = {add_trait=poor_warrior}
}
###Giant's Stairs
10559144 = {
	name="Bodger"	# a lord
	dynasty=559144

	religion="beyond_wall_old_gods"
	culture="wildling"

	2960.1.1 = {birth="2960.1.1"}
	2976.1.1 = {add_trait=trained_warrior}
	3011.1.1 = {death="3011.1.1"}
}
11559144 = {
	name="Owen"	# a lord
	dynasty=559144

	religion="beyond_wall_old_gods"
	culture="wildling"

	father=10559144

	2984.1.1 = {birth="2984.1.1"}
	3000.1.1 = {add_trait=trained_warrior}
	3024.1.1 = {death="3024.1.1"}
}
12559144 = {
	name="Harlon"	# a lord
	dynasty=559144

	religion="beyond_wall_old_gods"
	culture="wildling"

	father=11559144

	3019.1.1 = {birth="3019.1.1"}
	3035.1.1 = {add_trait=trained_warrior}
	3050.1.1 = {death="3050.1.1"}
}
14559144 = {
	name="Quent"	# not a lord
	dynasty=559144

	religion="beyond_wall_old_gods"
	culture="wildling"

	father=11559144

	3023.1.1 = {birth="3023.1.1"}
	3039.1.1 = {add_trait=poor_warrior}
	3090.1.1 = {death="3090.1.1"}
}
15559144 = {
	name="Mors"	# a lord
	dynasty=559144

	religion="beyond_wall_old_gods"
	culture="wildling"

	father=12559144

	3039.1.1 = {birth="3039.1.1"}
	3055.1.1 = {add_trait=trained_warrior}
	3079.1.1 = {death="3079.1.1"}
}
16559144 = {
	name="Dryn"	# a lord
	dynasty=559144

	religion="beyond_wall_old_gods"
	culture="wildling"

	father=12559144

	3041.1.1 = {birth="3041.1.1"}
	3057.1.1 = {add_trait=skilled_warrior}
	3101.1.1 = {death="3101.1.1"}
}
17559144 = {
	name="Mikken"	# not a lord
	dynasty=559144

	religion="beyond_wall_old_gods"
	culture="wildling"

	father=15559144

	3066.1.1 = {birth="3066.1.1"}
	3082.1.1 = {add_trait=trained_warrior}
	3122.1.1 = {death="3122.1.1"}
}
18559144 = {
	name="Meera"	# not a lord
	female=yes
	dynasty=559144

	religion="beyond_wall_old_gods"
	culture="wildling"

	father=15559144

	3067.1.1 = {birth="3067.1.1"}
	3112.1.1 = {death="3112.1.1"}
}
20559144 = {
	name="Henk"	# not a lord
	dynasty=559144

	religion="beyond_wall_old_gods"
	culture="wildling"

	father=16559144

	3067.1.1 = {birth="3067.1.1"}
	3083.1.1 = {add_trait=trained_warrior}
	3092.1.1 = {death = {death_reason = death_murder}}
}
21559144 = {
	name="Gorne"	# a lord
	dynasty=559144

	religion="beyond_wall_old_gods"
	culture="wildling"

	father=16559144

	3068.1.1 = {birth="3068.1.1"}
	3084.1.1 = {add_trait=trained_warrior}
	3123.1.1 = {death="3123.1.1"}
}
22559144 = {
	name="Harmond"	# a lord
	dynasty=559144

	religion="beyond_wall_old_gods"
	culture="wildling"

	father=21559144

	3087.1.1 = {birth="3087.1.1"}
	3103.1.1 = {add_trait=poor_warrior}
	3131.1.1 = {death="3131.1.1"}
}
23559144 = {
	name="Alfyn"	# a lord
	dynasty=559144

	religion="beyond_wall_old_gods"
	culture="wildling"

	father=22559144

	3106.1.1 = {birth="3106.1.1"}
	3122.1.1 = {add_trait=skilled_warrior}
	3148.1.1 = {death="3148.1.1"}
}
24559144 = {
	name="Varamyr"	# not a lord
	dynasty=559144

	religion="beyond_wall_old_gods"
	culture="wildling"

	father=22559144

	3109.1.1 = {birth="3109.1.1"}
	3125.1.1 = {add_trait=poor_warrior}
	3162.1.1 = {death="3162.1.1"}
}
29559144 = {
	name="Henk"	# a lord
	dynasty=559144

	religion="beyond_wall_old_gods"
	culture="wildling"

	father=23559144

	3142.1.1 = {birth="3142.1.1"}
	3158.1.1 = {add_trait=trained_warrior}
	3215.1.1 = {death = {death_reason = death_accident}}
}
30559144 = {
	name="Arson"	# a lord
	dynasty=559144

	religion="beyond_wall_old_gods"
	culture="wildling"

	father=29559144

	3176.1.1 = {birth="3176.1.1"}
	3192.1.1 = {add_trait=poor_warrior}
	3228.1.1 = {death="3228.1.1"}
}
31559144 = {
	name="Qhorin"	# not a lord
	dynasty=559144

	religion="beyond_wall_old_gods"
	culture="wildling"

	father=29559144

	3178.1.1 = {birth="3178.1.1"}
	3194.1.1 = {add_trait=poor_warrior}
	3232.1.1 = {death="3232.1.1"}
}
32559144 = {
	name="Jeor"	# a lord
	dynasty=559144

	religion="beyond_wall_old_gods"
	culture="wildling"

	father=30559144

	3204.1.1 = {birth="3204.1.1"}
	3220.1.1 = {add_trait=trained_warrior}
	3256.1.1 = {death="3256.1.1"}
}
33559144 = {
	name="Lenyl"	# a lord
	dynasty=559144

	religion="beyond_wall_old_gods"
	culture="wildling"

	father=32559144

	3226.1.1 = {birth="3226.1.1"}
	3242.1.1 = {add_trait=poor_warrior}
	3267.1.1 = {death="3267.1.1"}
}
34559144 = {
	name="Dorren"	# not a lord
	dynasty=559144

	religion="beyond_wall_old_gods"
	culture="wildling"

	father=32559144

	3229.1.1 = {birth="3229.1.1"}
	3245.1.1 = {add_trait=trained_warrior}
	3280.1.1 = {death="3280.1.1"}
}
35559144 = {
	name="Jonnela"	# not a lord
	female=yes
	dynasty=559144

	religion="beyond_wall_old_gods"
	culture="wildling"

	father=33559144

	3261.1.1 = {birth="3261.1.1"}
}
36559144 = {
	name="Halleck"	# a lord
	dynasty=559144

	religion="beyond_wall_old_gods"
	culture="wildling"

	father=33559144

	3262.1.1 = {birth="3262.1.1"}
	3278.1.1 = {add_trait=trained_warrior}
}
37559144 = {
	name="Brogg"	# not a lord
	dynasty=559144

	religion="beyond_wall_old_gods"
	culture="wildling"

	father=36559144

	3291.1.1 = {birth="3291.1.1"}
	3307.1.1 = {add_trait=poor_warrior}
}
38559144 = {
	name="Dalla"	# not a lord
	female=yes
	dynasty=559144

	religion="beyond_wall_old_gods"
	culture="wildling"

	father=36559144

	3294.1.1 = {birth="3294.1.1"}
}
39559144 = {
	name="Harra"	# not a lord
	female=yes
	dynasty=559144

	religion="beyond_wall_old_gods"
	culture="wildling"

	father=36559144

	3297.1.1 = {birth="3297.1.1"}
}
40559144 = {
	name="Bernarr"

	religion="beyond_wall_old_gods"
	culture="wildling"

	father=36559144

	3300.1.1 = {birth="3300.1.1"}
	3316.1.1 = {add_trait=poor_warrior}
}
###Frozen Shore
10559255 = {
	name="Direwolf"	# a lord
	dynasty=559255

	religion="beyond_wall_old_gods"
	culture="frozen_shore"

	2967.1.1 = {birth="2967.1.1"}
	2983.1.1 = {add_trait=trained_warrior}
	3023.1.1 = {death="3023.1.1"}
}
11559255 = {
	name="Donkey"	# a lord
	dynasty=559255

	religion="beyond_wall_old_gods"
	culture="frozen_shore"

	father=10559255

	2990.1.1 = {birth="2990.1.1"}
	3006.1.1 = {add_trait=skilled_warrior}
	3034.1.1 = {death="3034.1.1"}
}
12559255 = {
	name="Fox"	# a lord
	dynasty=559255

	religion="beyond_wall_old_gods"
	culture="frozen_shore"

	father=11559255

	3009.1.1 = {birth="3009.1.1"}
	3025.1.1 = {add_trait=trained_warrior}
	3065.1.1 = {death="3065.1.1"}
}
13559255 = {
	name="Eel"	# a lord
	dynasty=559255

	religion="beyond_wall_old_gods"
	culture="frozen_shore"

	father=12559255

	3036.1.1 = {birth="3036.1.1"}
	3052.1.1 = {add_trait=skilled_warrior}
	3081.1.1 = {death="3081.1.1"}
}
14559255 = {
	name="Snowbear"	# a lord
	dynasty=559255

	religion="beyond_wall_old_gods"
	culture="frozen_shore"

	father=13559255

	3058.1.1 = {birth="3058.1.1"}
	3074.1.1 = {add_trait=trained_warrior}
	3117.1.1 = {death="3117.1.1"}
}
15559255 = {
	name="Whale"	# a lord
	dynasty=559255

	religion="beyond_wall_old_gods"
	culture="frozen_shore"

	father=14559255

	3081.1.1 = {birth="3081.1.1"}
	3097.1.1 = {add_trait=trained_warrior}
	3130.1.1 = {death="3130.1.1"}
}
16559255 = {
	name="Goat"	# a lord
	dynasty=559255

	religion="beyond_wall_old_gods"
	culture="frozen_shore"

	father=15559255

	3108.1.1 = {birth="3108.1.1"}
	3124.1.1 = {add_trait=trained_warrior}
	3152.1.1 = {death="3152.1.1"}
}
17559255 = {
	name="Giant"	# a lord
	dynasty=559255

	religion="beyond_wall_old_gods"
	culture="frozen_shore"

	father=16559255

	3134.1.1 = {birth="3134.1.1"}
	3150.1.1 = {add_trait=poor_warrior}
	3203.1.1 = {death="3203.1.1"}
}
19559255 = {
	name="Boar"	# not a lord
	dynasty=559255

	religion="beyond_wall_old_gods"
	culture="frozen_shore"

	father=17559255

	3162.1.1 = {birth="3162.1.1"}
	3178.1.1 = {add_trait=skilled_warrior}
	3198.1.1 = {death = {death_reason = death_battle}}
}
20559255 = {
	name="Donkey"	# a lord
	dynasty=559255

	religion="beyond_wall_old_gods"
	culture="frozen_shore"

	father=19559255

	3188.1.1 = {birth="3188.1.1"}
	3204.1.1 = {add_trait=trained_warrior}
	3230.1.1 = {death="3230.1.1"}
}
21559255 = {
	name="Bat"	# a lord
	dynasty=559255

	religion="beyond_wall_old_gods"
	culture="frozen_shore"

	father=20559255

	3215.1.1 = {birth="3215.1.1"}
	3231.1.1 = {add_trait=trained_warrior}
	3266.1.1 = {death="3266.1.1"}
}
22559255 = {
	name="Cat"	# a lord
	dynasty=559255

	religion="beyond_wall_old_gods"
	culture="frozen_shore"

	father=21559255

	3246.1.1 = {birth="3246.1.1"}
	3262.1.1 = {add_trait=trained_warrior}
	3309.1.1 = {death="3309.1.1"}
}
24559255 = {
	name="Wolf"	# not a lord
	dynasty=559255

	religion="beyond_wall_old_gods"
	culture="frozen_shore"

	father=22559255

	3274.1.1 = {birth="3274.1.1"}
	3290.1.1 = {add_trait=poor_warrior}
}
###Ice Bay Shore
###Ice Bay Shore
10559257 = {
	name="Fox"	# a lord
	dynasty=559257

	religion="beyond_wall_old_gods"
	culture="frozen_shore"

	2942.1.1 = {birth="2942.1.1"}
	2958.1.1 = {add_trait=trained_warrior}
	3009.1.1 = {death="3009.1.1"}
}
11559257 = {
	name="Lion"	# a lord
	dynasty=559257

	religion="beyond_wall_old_gods"
	culture="frozen_shore"

	father=10559257

	2960.1.1 = {birth="2960.1.1"}
	2976.1.1 = {add_trait=trained_warrior}
	3015.1.1 = {death="3015.1.1"}
}
13559257 = {
	name="Donkey"	# not a lord
	dynasty=559257

	religion="beyond_wall_old_gods"
	culture="frozen_shore"

	father=10559257

	2965.1.1 = {birth="2965.1.1"}
	2981.1.1 = {add_trait=poor_warrior}
	3017.1.1 = {death="3017.1.1"}
}
15559257 = {
	name="Direwolf"	# a lord
	dynasty=559257

	religion="beyond_wall_old_gods"
	culture="frozen_shore"

	father=11559257

	2990.1.1 = {birth="2990.1.1"}
	3006.1.1 = {add_trait=poor_warrior}
	3031.1.1 = {death="3031.1.1"}
}
17559257 = {
	name="Lion"	# a lord
	dynasty=559257

	religion="beyond_wall_old_gods"
	culture="frozen_shore"

	father=15559257

	3020.1.1 = {birth="3020.1.1"}
	3036.1.1 = {add_trait=poor_warrior}
	3066.1.1 = {death = {death_reason = death_accident}}
}
19559257 = {
	name="Cat"	# a lord
	dynasty=559257

	religion="beyond_wall_old_gods"
	culture="frozen_shore"

	father=17559257

	3054.1.1 = {birth="3054.1.1"}
	3070.1.1 = {add_trait=trained_warrior}
	3089.1.1 = {death="3089.1.1"}
}
20559257 = {
	name="Eagle"	# a lord
	dynasty=559257

	religion="beyond_wall_old_gods"
	culture="frozen_shore"

	father=17559257

	3055.1.1 = {birth="3055.1.1"}
	3071.1.1 = {add_trait=trained_warrior}
	3114.1.1 = {death="3114.1.1"}
}
21559257 = {
	name="Dog"	# not a lord
	female=yes
	dynasty=559257

	religion="beyond_wall_old_gods"
	culture="frozen_shore"

	father=19559257

	3083.1.1 = {birth="3083.1.1"}
	3131.1.1 = {death="3131.1.1"}
}
22559257 = {
	name="Snowbear"	# a lord
	dynasty=559257

	religion="beyond_wall_old_gods"
	culture="frozen_shore"

	father=20559257

	3073.1.1 = {birth="3073.1.1"}
	3089.1.1 = {add_trait=poor_warrior}
	3137.1.1 = {death = {death_reason = death_murder}}
}
23559257 = {
	name="Unicorn"	# not a lord
	dynasty=559257

	religion="beyond_wall_old_gods"
	culture="frozen_shore"

	father=22559257

	3098.1.1 = {birth="3098.1.1"}
	3114.1.1 = {add_trait=poor_warrior}
	3131.1.1 = {death="3131.1.1"}
}
24559257 = {
	name="Anteater"	# a lord
	dynasty=559257

	religion="beyond_wall_old_gods"
	culture="frozen_shore"

	father=22559257

	3099.1.1 = {birth="3099.1.1"}
	3115.1.1 = {add_trait=trained_warrior}
	3139.1.1 = {death="3139.1.1"}
}
25559257 = {
	name="Giant"	# not a lord
	dynasty=559257

	religion="beyond_wall_old_gods"
	culture="frozen_shore"

	father=23559257

	3129.1.1 = {birth="3129.1.1"}
	3145.1.1 = {add_trait=poor_warrior}
	3162.1.1 = {death="3162.1.1"}
}
26559257 = {
	name="Giant"	# a lord
	dynasty=559257

	religion="beyond_wall_old_gods"
	culture="frozen_shore"

	father=23559257

	3131.1.1 = {birth="3131.1.1"}
	3137.1.1 = {add_trait=skilled_warrior}
	3206.1.1 = {death="3206.1.1"}
}
27559257 = {
	name="Mammoth"	# a lord
	dynasty=559257

	religion="beyond_wall_old_gods"
	culture="frozen_shore"

	father=24559257

	3125.1.1 = {birth="3125.1.1"}
	3141.1.1 = {add_trait=trained_warrior}
	3174.1.1 = {death="3174.1.1"}
}
28559257 = {
	name="Eagle"	# not a lord
	dynasty=559257

	religion="beyond_wall_old_gods"
	culture="frozen_shore"

	father=24559257

	3128.1.1 = {birth="3128.1.1"}
	3144.1.1 = {add_trait=trained_warrior}
	3154.1.1 = {death = {death_reason = death_battle}}
}
30559257 = {
	name="Seal"	# a lord
	dynasty=559257

	religion="beyond_wall_old_gods"
	culture="frozen_shore"

	father=27559257

	3159.1.1 = {birth="3159.1.1"}
	3175.1.1 = {add_trait=trained_warrior}
	3220.1.1 = {death="3220.1.1"}
}
31559257 = {
	name="Dog"	# not a lord
	female=yes
	dynasty=559257

	religion="beyond_wall_old_gods"
	culture="frozen_shore"

	father=26559257

	3153.1.1 = {birth="3153.1.1"}
	3192.1.1 = {death="3192.1.1"}
}
34559257 = {
	name="Elk"	# not a lord
	dynasty=559257

	religion="beyond_wall_old_gods"
	culture="frozen_shore"

	father=30559257

	3186.1.1 = {birth="3186.1.1"}
	3202.1.1 = {add_trait=skilled_warrior}
	3217.1.1 = {death="3217.1.1"}
}
35559257 = {
	name="Elk"	# a lord
	dynasty=559257

	religion="beyond_wall_old_gods"
	culture="frozen_shore"

	father=30559257

	3189.1.1 = {birth="3189.1.1"}
	3205.1.1 = {add_trait=trained_warrior}
	3245.1.1 = {death="3245.1.1"}
}
37559257 = {
	name="Bear"	# a lord
	dynasty=559257

	religion="beyond_wall_old_gods"
	culture="frozen_shore"

	father=34559257

	3206.1.1 = {birth="3206.1.1"}
	3222.1.1 = {add_trait=skilled_warrior}
	3261.1.1 = {death="3261.1.1"}
}
415519257 = {
	name="Goat"

	religion="beyond_wall_old_gods"
	culture="frozen_shore"

	father=35559257

	3223.1.1 = {birth="3223.1.1"}
	3239.1.1 = {add_trait=poor_warrior}
	3272.1.1 = {death="3272.1.1"}
}
425519257 = {
	name="Eagle"

	religion="beyond_wall_old_gods"
	culture="frozen_shore"

	father=35559257

	3226.1.1 = {birth="3226.1.1"}
	3242.1.1 = {add_trait=poor_warrior}
	3254.1.1 = {death = {death_reason = death_battle}}
}
38559257 = {
	name="Donkey"	# a lord
	dynasty=559257

	religion="beyond_wall_old_gods"
	culture="frozen_shore"

	father=37559257

	3225.1.1 = {birth="3225.1.1"}
	3241.1.1 = {add_trait=trained_warrior}
	3271.1.1 = {death="3271.1.1"}
}
39559257 = {
	name="Bear"	# not a lord
	dynasty=559257

	religion="beyond_wall_old_gods"
	culture="frozen_shore"

	father=37559257

	3227.1.1 = {birth="3227.1.1"}
	3243.1.1 = {add_trait=poor_warrior}
	3264.1.1 = {death="3264.1.1"}
}
40559257 = {
	name="Beetle"

	religion="beyond_wall_old_gods"
	culture="frozen_shore"

	father=38559257

	3243.1.1 = {birth="3243.1.1"}
	3259.1.1 = {add_trait=poor_warrior}
	3290.1.1 = {death = {death_reason = death_accident}}
}
41559257 = {
	name="Deer"

	religion="beyond_wall_old_gods"
	culture="frozen_shore"

	father=38559257

	3244.1.1 = {birth="3244.1.1"}
	3260.1.1 = {add_trait=skilled_warrior}
	3289.1.1 = {death="3289.1.1"}
}
42559257 = {
	name="Goat"
	female=yes

	religion="beyond_wall_old_gods"
	culture="frozen_shore"

	father=41559257

	3278.1.1 = {birth="3278.1.1"}
}
43559257 = {
	name="Unicorn"

	religion="beyond_wall_old_gods"
	culture="frozen_shore"

	father=41559257

	3268.1.1 = {birth="3268.1.1"}
	3284.1.1 = {add_trait=trained_warrior}
}

###Great Ice River
10559354 = {
	name="Gerrick"	# a lord
	dynasty=559354

	religion="beyond_wall_old_gods"
	culture="cannibal_clan"

	2963.1.1 = {birth="2963.1.1"}
	2979.1.1 = {add_trait=skilled_warrior}
	3019.1.1 = {death="3019.1.1"}
}
11559354 = {
	name="Bump"	# a lord
	dynasty=559354

	religion="beyond_wall_old_gods"
	culture="cannibal_clan"

	father=10559354

	2986.1.1 = {birth="2986.1.1"}
	3002.1.1 = {add_trait=trained_warrior}
	3035.1.1 = {death="3035.1.1"}
}
12559354 = {
	name="Jarl"	# not a lord
	dynasty=559354

	religion="beyond_wall_old_gods"
	culture="cannibal_clan"

	father=10559354

	2988.1.1 = {birth="2988.1.1"}
	3004.1.1 = {add_trait=poor_warrior}
	3047.1.1 = {death="3047.1.1"}
}
13559354 = {
	name="Beron"	# a lord
	dynasty=559354

	religion="beyond_wall_old_gods"
	culture="cannibal_clan"

	father=11559354

	3012.1.1 = {birth="3012.1.1"}
	3028.1.1 = {add_trait=skilled_warrior}
	3066.1.1 = {death="3066.1.1"}
}
14559354 = {
	name="Harlon"	# not a lord
	dynasty=559354

	religion="beyond_wall_old_gods"
	culture="cannibal_clan"

	father=11559354

	3015.1.1 = {birth="3015.1.1"}
	3031.1.1 = {add_trait=poor_warrior}
	3053.1.1 = {death="3053.1.1"}
}
17559354 = {
	name="Gerrick"	# a lord
	dynasty=559354

	religion="beyond_wall_old_gods"
	culture="cannibal_clan"

	father=13559354

	3036.1.1 = {birth="3036.1.1"}
	3052.1.1 = {add_trait=skilled_warrior}
	3101.1.1 = {death="3101.1.1"}
}
18559354 = {
	name="Dan"	# a lord
	dynasty=559354

	religion="beyond_wall_old_gods"
	culture="cannibal_clan"

	father=17559354

	3062.1.1 = {birth="3062.1.1"}
	3078.1.1 = {add_trait=trained_warrior}
	3120.1.1 = {death="3120.1.1"}
}
19559354 = {
	name="Stiv"	# a lord
	dynasty=559354

	religion="beyond_wall_old_gods"
	culture="cannibal_clan"

	father=18559354

	3086.1.1 = {birth="3086.1.1"}
	3102.1.1 = {add_trait=trained_warrior}
	3141.1.1 = {death="3141.1.1"}
}
20559354 = {
	name="Torghen"	# a lord
	dynasty=559354

	religion="beyond_wall_old_gods"
	culture="cannibal_clan"

	father=19559354

	3114.1.1 = {birth="3114.1.1"}
	3130.1.1 = {add_trait=trained_warrior}
	3174.1.1 = {death="3174.1.1"}
}
21559354 = {
	name="Harlon"	# a lord
	dynasty=559354

	religion="beyond_wall_old_gods"
	culture="cannibal_clan"

	father=19559354

	3115.1.1 = {birth="3115.1.1"}
	3131.1.1 = {add_trait=skilled_warrior}
	3177.1.1 = {death="3177.1.1"}
}
22559354 = {
	name="Galbart"	# not a lord
	dynasty=559354

	religion="beyond_wall_old_gods"
	culture="cannibal_clan"

	father=20559354

	3148.1.1 = {birth="3148.1.1"}
	3164.1.1 = {add_trait=poor_warrior}
	3181.1.1 = {death="3181.1.1"}
}
23559354 = {
	name="Rowan"	# not a lord
	female=yes
	dynasty=559354

	religion="beyond_wall_old_gods"
	culture="cannibal_clan"

	father=20559354

	3150.1.1 = {birth="3150.1.1"}
	3207.1.1 = {death="3207.1.1"}
}
24559354 = {
	name="Jonella"	# not a lord
	female=yes
	dynasty=559354

	religion="beyond_wall_old_gods"
	culture="cannibal_clan"

	father=21559354

	3141.1.1 = {birth="3141.1.1"}
	3176.1.1 = {death="3176.1.1"}
}
25559354 = {
	name="Qhorin"	# a lord
	dynasty=559354

	religion="beyond_wall_old_gods"
	culture="cannibal_clan"

	father=21559354

	3143.1.1 = {birth="3143.1.1"}
	3159.1.1 = {add_trait=skilled_warrior}
	3207.1.1 = {death = {death_reason = death_accident}}
}
26559354 = {
	name="rynne"	# not a lord
	female=yes
	dynasty=559354

	religion="beyond_wall_old_gods"
	culture="cannibal_clan"

	father=25559354

	3177.1.1 = {birth="3177.1.1"}
	3220.1.1 = {death="3220.1.1"}
}
27559354 = {
	name="Alfyn"	# a lord
	dynasty=559354

	religion="beyond_wall_old_gods"
	culture="cannibal_clan"

	father=22559354

	3180.1.1 = {birth="3180.1.1"}
	3196.1.1 = {add_trait=trained_warrior}
	3231.1.1 = {death="3231.1.1"}
}
28559354 = {
	name="Grisel"	# not a lord
	female=yes
	dynasty=559354

	religion="beyond_wall_old_gods"
	culture="cannibal_clan"

	father=27559354

	3202.1.1 = {birth="3202.1.1"}
	3237.1.1 = {death="3237.1.1"}
}
29559354 = {
	name="Halys"	# a lord
	dynasty=559354

	religion="beyond_wall_old_gods"
	culture="cannibal_clan"

	father=27559354

	3204.1.1 = {birth="3204.1.1"}
	3220.1.1 = {add_trait=trained_warrior}
	3267.1.1 = {death="3267.1.1"}
}
30559354 = {
	name="Dorren"	# a lord
	dynasty=559354

	religion="beyond_wall_old_gods"
	culture="cannibal_clan"

	father=27559354

	3207.1.1 = {birth="3207.1.1"}
	3223.1.1 = {add_trait=trained_warrior}
	3278.1.1 = {death="3278.1.1"}
}
31559354 = {
	name="Morna"	# not a lord
	female=yes
	dynasty=559354

	religion="beyond_wall_old_gods"
	culture="cannibal_clan"

	father=29559354

	3233.1.1 = {birth="3233.1.1"}
	3293.1.1 = {death="3293.1.1"}
}
32559354 = {
	name="Raymun"	# a lord
	dynasty=559354

	religion="beyond_wall_old_gods"
	culture="cannibal_clan"

	father=30559354

	3234.1.1 = {birth="3234.1.1"}
	3250.1.1 = {add_trait=poor_warrior}
}
34559354 = {
	name="Hallis"	# not a lord
	dynasty=559354

	religion="beyond_wall_old_gods"
	culture="cannibal_clan"

	father=30559354

	3236.1.1 = {birth="3236.1.1"}
	3252.1.1 = {add_trait=skilled_warrior}
	3274.1.1 = {death="3274.1.1"}
}
35559354 = {
	name="Karlon"	# not a lord
	dynasty=559354

	religion="beyond_wall_old_gods"
	culture="cannibal_clan"

	father=32559354

	3267.1.1 = {birth="3267.1.1"}
	3283.1.1 = {add_trait=trained_warrior}
}
36559354 = {
	name="Morna"	# not a lord
	female=yes
	dynasty=559354

	religion="beyond_wall_old_gods"
	culture="cannibal_clan"

	father=32559354

	3270.1.1 = {birth="3270.1.1"}
}
37559354 = {
	name="Jojen"	# not a lord
	dynasty=559354

	religion="beyond_wall_old_gods"
	culture="cannibal_clan"

	father=32559354

	3271.1.1 = {birth="3271.1.1"}
	3287.1.1 = {add_trait=trained_warrior}
}
###The West Shelf
10559357 = {
	name="Quent"	# a lord
	dynasty=559357

	religion="beyond_wall_old_gods"
	culture="cannibal_clan"

	2974.1.1 = {birth="2974.1.1"}
	2990.1.1 = {add_trait=trained_warrior}
	3047.1.1 = {death="3047.1.1"}
}
11559357 = {
	name="Gerrick"	# a lord
	dynasty=559357

	religion="beyond_wall_old_gods"
	culture="cannibal_clan"

	father=10559357

	2992.1.1 = {birth="2992.1.1"}
	3008.1.1 = {add_trait=trained_warrior}
	3069.1.1 = {death="3069.1.1"}
}
12559357 = {
	name="Raymun"	# not a lord
	dynasty=559357

	religion="beyond_wall_old_gods"
	culture="cannibal_clan"

	father=10559357

	2995.1.1 = {birth="2995.1.1"}
	3011.1.1 = {add_trait=trained_warrior}
	3066.1.1 = {death="3066.1.1"}
}
13559357 = {
	name="Torwynd"	# not a lord
	dynasty=559357

	religion="beyond_wall_old_gods"
	culture="cannibal_clan"

	father=10559357

	2997.1.1 = {birth="2997.1.1"}
	3013.1.1 = {add_trait=skilled_warrior}
	3055.1.1 = {death="3055.1.1"}
}
14559357 = {
	name="Karlon"	# not a lord
	dynasty=559357

	religion="beyond_wall_old_gods"
	culture="cannibal_clan"

	father=10559357

	2998.1.1 = {birth="2998.1.1"}
	3014.1.1 = {add_trait=skilled_warrior}
	3060.1.1 = {death="3060.1.1"}
}
16559357 = {
	name="Arson"	# a lord
	dynasty=559357

	religion="beyond_wall_old_gods"
	culture="cannibal_clan"

	father=11559357

	3017.1.1 = {birth="3017.1.1"}
	3033.1.1 = {add_trait=skilled_warrior}
	3078.1.1 = {death="3078.1.1"}
}
17559357 = {
	name="Errok"	# a lord
	dynasty=559357

	religion="beyond_wall_old_gods"
	culture="cannibal_clan"

	father=16559357

	3039.1.1 = {birth="3039.1.1"}
	3055.1.1 = {add_trait=trained_warrior}
	3092.1.1 = {death="3092.1.1"}
}
19559357 = {
	name="Ondrew"	# a lord
	dynasty=559357

	religion="beyond_wall_old_gods"
	culture="cannibal_clan"

	father=17559357

	3061.1.1 = {birth="3061.1.1"}
	3077.1.1 = {add_trait=trained_warrior}
	3097.1.1 = {death="3097.1.1"}
}
20559357 = {
	name="Eyron"	# a lord
	dynasty=559357

	religion="beyond_wall_old_gods"
	culture="cannibal_clan"

	father=19559357

	3080.1.1 = {birth="3080.1.1"}
	3096.1.1 = {add_trait=trained_warrior}
	3128.1.1 = {death="3128.1.1"}
}
21559357 = {
	name="Arson"	# a lord
	dynasty=559357

	religion="beyond_wall_old_gods"
	culture="cannibal_clan"

	father=20559357

	3106.1.1 = {birth="3106.1.1"}
	3122.1.1 = {add_trait=trained_warrior}
	3159.1.1 = {death="3159.1.1"}
}
22559357 = {
	name="Henk"	# a lord
	dynasty=559357

	religion="beyond_wall_old_gods"
	culture="cannibal_clan"

	father=21559357

	3134.1.1 = {birth="3134.1.1"}
	3150.1.1 = {add_trait=skilled_warrior}
	3178.1.1 = {death = {death_reason = death_accident}}
}
23559357 = {
	name="Gorne"	# a lord
	dynasty=559357

	religion="beyond_wall_old_gods"
	culture="cannibal_clan"

	father=22559357

	3163.1.1 = {birth="3163.1.1"}
	3179.1.1 = {add_trait=poor_warrior}
	3222.1.1 = {death = {death_reason = death_accident}}
}
24559357 = {
	name="Owen"	# not a lord
	dynasty=559357

	religion="beyond_wall_old_gods"
	culture="cannibal_clan"

	father=22559357

	3166.1.1 = {birth="3166.1.1"}
	3182.1.1 = {add_trait=poor_warrior}
	3225.1.1 = {death="3225.1.1"}
}
25559357 = {
	name="Bael"	# a lord
	dynasty=559357

	religion="beyond_wall_old_gods"
	culture="cannibal_clan"

	father=23559357

	3186.1.1 = {birth="3186.1.1"}
	3202.1.1 = {add_trait=trained_warrior}
	3265.1.1 = {death="3265.1.1"}
}
27559357 = {
	name="Jeor"	# not a lord
	dynasty=559357

	religion="beyond_wall_old_gods"
	culture="cannibal_clan"

	father=23559357

	3191.1.1 = {birth="3191.1.1"}
	3207.1.1 = {add_trait=trained_warrior}
	3226.1.1 = {death="3226.1.1"}
}
28559357 = {
	name="Gavin"	# not a lord
	dynasty=559357

	religion="beyond_wall_old_gods"
	culture="cannibal_clan"

	father=25559357

	3209.1.1 = {birth="3209.1.1"}
	3225.1.1 = {add_trait=trained_warrior}
	3265.1.1 = {death="3265.1.1"}
}
30559357 = {
	name="Toregg"	# a lord
	dynasty=559357

	religion="beyond_wall_old_gods"
	culture="cannibal_clan"

	father=28559357

	3234.1.1 = {birth="3234.1.1"}
	3250.1.1 = {add_trait=trained_warrior}
	3300.1.1 = {death="3300.1.1"}
}
31559357 = {
	name="Arthor"	# a lord
	dynasty=559357

	religion="beyond_wall_old_gods"
	culture="cannibal_clan"

	father=30559357

	3253.1.1 = {birth="3253.1.1"}
	3269.1.1 = {add_trait=trained_warrior}
}
32559357 = {
	name="Galbart"	# not a lord
	dynasty=559357

	religion="beyond_wall_old_gods"
	culture="cannibal_clan"

	father=30559357

	3255.1.1 = {birth="3255.1.1"}
	3271.1.1 = {add_trait=poor_warrior}
}
33559357 = {
	name="Dywen"	# not a lord
	dynasty=559357

	religion="beyond_wall_old_gods"
	culture="cannibal_clan"

	father=31559357

	3279.1.1 = {birth="3279.1.1"}
	3295.1.1 = {add_trait=poor_warrior}
}
34559357 = {
	name="Medger"	# not a lord
	dynasty=559357

	religion="beyond_wall_old_gods"
	culture="cannibal_clan"

	father=31559357

	3282.1.1 = {birth="3282.1.1"}
	3298.1.1 = {add_trait=trained_warrior}
}
###Shivering Forest
10559161 = {
	name="Toregg"	# a lord
	dynasty=559161

	religion="beyond_wall_old_gods"
	culture="wildling"

	2958.1.1 = {birth="2958.1.1"}
	2974.1.1 = {add_trait=skilled_warrior}
	3015.1.1 = {death="3015.1.1"}
}
11559161 = {
	name="Torwynd"	# a lord
	dynasty=559161

	religion="beyond_wall_old_gods"
	culture="wildling"

	father=10559161

	2993.1.1 = {birth="2993.1.1"}
	3009.1.1 = {add_trait=trained_warrior}
	3038.1.1 = {death="3038.1.1"}
}
12559161 = {
	name="Haggon"	# not a lord
	dynasty=559161

	religion="beyond_wall_old_gods"
	culture="wildling"

	father=10559161

	2994.1.1 = {birth="2994.1.1"}
	3010.1.1 = {add_trait=trained_warrior}
	3023.1.1 = {death="3023.1.1"}
}
13559161 = {
	name="Joramun"	# a lord
	dynasty=559161

	religion="beyond_wall_old_gods"
	culture="wildling"

	father=11559161

	3018.1.1 = {birth="3018.1.1"}
	3034.1.1 = {add_trait=trained_warrior}
	3068.1.1 = {death="3068.1.1"}
}
14559161 = {
	name="Ysilla"	# not a lord
	female=yes
	dynasty=559161

	religion="beyond_wall_old_gods"
	culture="wildling"

	father=13559161

	3051.1.1 = {birth="3051.1.1"}
	3085.1.1 = {death="3085.1.1"}
}
15559161 = {
	name="Quort"	# not a lord
	dynasty=559161

	religion="beyond_wall_old_gods"
	culture="wildling"

	father=12559161

	3014.1.1 = {birth="3014.1.1"}
	3030.1.1 = {add_trait=skilled_warrior}
	3047.1.1 = {death="3047.1.1"}
}
18559161 = {
	name="Arthor"	# not a lord
	dynasty=559161

	religion="beyond_wall_old_gods"
	culture="wildling"

	father=12559161

	3020.1.1 = {birth="3020.1.1"}
	3036.1.1 = {add_trait=skilled_warrior}
	3065.1.1 = {death = {death_reason = death_murder}}
}
19559161 = {
	name="Jarl"	# a lord
	dynasty=559161

	religion="beyond_wall_old_gods"
	culture="wildling"

	father=15559161

	3046.1.1 = {birth="3046.1.1"}
	3062.1.1 = {add_trait=trained_warrior}
	3081.1.1 = {death="3081.1.1"}
}
20559161 = {
	name="Quent"	# a lord
	dynasty=559161

	religion="beyond_wall_old_gods"
	culture="wildling"

	father=19559161

	3069.1.1 = {birth="3069.1.1"}
	3085.1.1 = {add_trait=skilled_warrior}
	3115.1.1 = {death="3115.1.1"}
}
21559161 = {
	name="Wayn"	# not a lord
	dynasty=559161

	religion="beyond_wall_old_gods"
	culture="wildling"

	father=19559161

	3070.1.1 = {birth="3070.1.1"}
	3086.1.1 = {add_trait=poor_warrior}
	3123.1.1 = {death="3123.1.1"}
}
23559161 = {
	name="Owen"	# a lord
	dynasty=559161

	religion="beyond_wall_old_gods"
	culture="wildling"

	father=20559161

	3096.1.1 = {birth="3096.1.1"}
	3112.1.1 = {add_trait=poor_warrior}
	3170.1.1 = {death="3170.1.1"}
}
24559161 = {
	name="Lenyl"	# a lord
	dynasty=559161

	religion="beyond_wall_old_gods"
	culture="wildling"

	father=23559161

	3123.1.1 = {birth="3123.1.1"}
	3139.1.1 = {add_trait=trained_warrior}
	3183.1.1 = {death="3183.1.1"}
}
25559161 = {
	name="Del"	# not a lord
	dynasty=559161

	religion="beyond_wall_old_gods"
	culture="wildling"

	father=23559161

	3125.1.1 = {birth="3125.1.1"}
	3141.1.1 = {add_trait=poor_warrior}
	3187.1.1 = {death="3187.1.1"}
}
26559161 = {
	name="Doss"	# a lord
	dynasty=559161

	religion="beyond_wall_old_gods"
	culture="wildling"

	father=24559161

	3151.1.1 = {birth="3151.1.1"}
	3167.1.1 = {add_trait=trained_warrior}
	3192.1.1 = {death="3192.1.1"}
}
28559161 = {
	name="Briar"	# not a lord
	dynasty=559161

	religion="beyond_wall_old_gods"
	culture="wildling"

	father=24559161

	3156.1.1 = {birth="3156.1.1"}
	3172.1.1 = {add_trait=poor_warrior}
	3199.1.1 = {death="3199.1.1"}
}
31559161 = {
	name="Mors"	# a lord
	dynasty=559161

	religion="beyond_wall_old_gods"
	culture="wildling"

	father=26559161

	3180.1.1 = {birth="3180.1.1"}
	3196.1.1 = {add_trait=trained_warrior}
	3228.1.1 = {death="3228.1.1"}
}
32559161 = {
	name="Ryk"	# a lord
	dynasty=559161

	religion="beyond_wall_old_gods"
	culture="wildling"

	father=31559161

	3200.1.1 = {birth="3200.1.1"}
	3216.1.1 = {add_trait=skilled_warrior}
	3266.1.1 = {death="3266.1.1"}
}
33559161 = {
	name="Soren"	# a lord
	dynasty=559161

	religion="beyond_wall_old_gods"
	culture="wildling"

	father=31559161

	3202.1.1 = {birth="3202.1.1"}
	3218.1.1 = {add_trait=skilled_warrior}
	3273.1.1 = {death="3273.1.1"}
}
34559161 = {
	name="Toregg"	# not a lord
	dynasty=559161

	religion="beyond_wall_old_gods"
	culture="wildling"

	father=32559161

	3220.1.1 = {birth="3220.1.1"}
	3236.1.1 = {add_trait=trained_warrior}
	3262.1.1 = {death="3262.1.1"}
}
36559161 = {
	name="Eyron"	# a lord
	dynasty=559161

	religion="beyond_wall_old_gods"
	culture="wildling"

	father=33559161

	3232.1.1 = {birth="3232.1.1"}
	3248.1.1 = {add_trait=trained_warrior}
	3288.1.1 = {death="3288.1.1"}
}
38559161 = {
	name="Mors"	# a lord
	dynasty=559161

	religion="beyond_wall_old_gods"
	culture="wildling"

	father=33559161

	3237.1.1 = {birth="3237.1.1"}
	3253.1.1 = {add_trait=poor_warrior}
}
39559161 = {
	name="Ysilla"	# not a lord
	female=yes
	dynasty=559161

	religion="beyond_wall_old_gods"
	culture="wildling"

	father=36559161

	3263.1.1 = {birth="3263.1.1"}
}
40559161 = {
	name="Jyana"
	female=yes
	dynasty=559161
	
	religion="beyond_wall_old_gods"
	culture="wildling"

	father=38559161

	3265.1.1 = {birth="3265.1.1"}
}
41559161 = {
	name="Orell"
	dynasty=559161
	
	religion="beyond_wall_old_gods"
	culture="wildling"

	father=38559161

	3268.1.1 = {birth="3268.1.1"}
	3284.1.1 = {add_trait=trained_warrior}
}
42559161 = {
	name="Styr"
	dynasty=559161
	
	religion="beyond_wall_old_gods"
	culture="wildling"

	father=38559161

	3269.1.1 = {birth="3269.1.1"}
	3285.1.1 = {add_trait=poor_warrior}
}
###Free Vale
10559165 = {
	name="Henk"	# a lord
	dynasty=559165

	religion="beyond_wall_old_gods"
	culture="wildling"

	2971.1.1 = {birth="2971.1.1"}
	2987.1.1 = {add_trait=trained_warrior}
	3021.1.1 = {death="3021.1.1"}
}
12559165 = {
	name="Hareth"	# a lord
	dynasty=559165

	religion="beyond_wall_old_gods"
	culture="wildling"

	father=10559165

	2990.1.1 = {birth="2990.1.1"}
	3006.1.1 = {add_trait=trained_warrior}
	3024.1.1 = {death = {death_reason = death_battle}}
}
13559165 = {
	name="Walton"	# a lord
	dynasty=559165

	religion="beyond_wall_old_gods"
	culture="wildling"

	father=12559165

	3008.1.1 = {birth="3008.1.1"}
	3024.1.1 = {add_trait=trained_warrior}
	3053.1.1 = {death="3053.1.1"}
}
14559165 = {
	name="Arson"	# a lord
	dynasty=559165

	religion="beyond_wall_old_gods"
	culture="wildling"

	father=13559165

	3036.1.1 = {birth="3036.1.1"}
	3052.1.1 = {add_trait=poor_warrior}
	3089.1.1 = {death="3089.1.1"}
}
15559165 = {
	name="Doss"	# a lord
	dynasty=559165

	religion="beyond_wall_old_gods"
	culture="wildling"

	father=14559165

	3062.1.1 = {birth="3062.1.1"}
	3078.1.1 = {add_trait=poor_warrior}
	3118.1.1 = {death="3118.1.1"}
}
16559165 = {
	name="Mance"	# a lord
	dynasty=559165

	religion="beyond_wall_old_gods"
	culture="wildling"

	father=14559165

	3065.1.1 = {birth="3065.1.1"}
	3081.1.1 = {add_trait=skilled_warrior}
	3134.1.1 = {death="3134.1.1"}
}
18559165 = {
	name="Bodger"	# not a lord
	dynasty=559165

	religion="beyond_wall_old_gods"
	culture="wildling"

	father=15559165

	3084.1.1 = {birth="3084.1.1"}
	3100.1.1 = {add_trait=skilled_warrior}
	3133.1.1 = {death = {death_reason = death_battle}}
}
19559165 = {
	name="Beron"	# not a lord
	dynasty=559165

	religion="beyond_wall_old_gods"
	culture="wildling"

	father=15559165

	3087.1.1 = {birth="3087.1.1"}
	3103.1.1 = {add_trait=trained_warrior}
	3130.1.1 = {death = {death_reason = death_battle}}
}
20559165 = {
	name="Morna"	# not a lord
	female=yes
	dynasty=559165

	religion="beyond_wall_old_gods"
	culture="wildling"

	father=16559165

	3093.1.1 = {birth="3093.1.1"}
	3142.1.1 = {death="3142.1.1"}
}
22559165 = {
	name="Vayon"	# a lord
	dynasty=559165

	religion="beyond_wall_old_gods"
	culture="wildling"

	father=18559165

	3115.1.1 = {birth="3115.1.1"}
	3131.1.1 = {add_trait=skilled_warrior}
	3166.1.1 = {death="3166.1.1"}
}
23559165 = {
	name="Eyron"	# not a lord
	dynasty=559165

	religion="beyond_wall_old_gods"
	culture="wildling"

	father=22559165

	3139.1.1 = {birth="3139.1.1"}
	3155.1.1 = {add_trait=poor_warrior}
	3176.1.1 = {death="3176.1.1"}
}
24559165 = {
	name="Sigorn"	# a lord
	dynasty=559165

	religion="beyond_wall_old_gods"
	culture="wildling"

	father=22559165

	3142.1.1 = {birth="3142.1.1"}
	3158.1.1 = {add_trait=skilled_warrior}
	3191.1.1 = {death="3191.1.1"}
}
25559165 = {
	name="Lenyl"	# a lord
	dynasty=559165

	religion="beyond_wall_old_gods"
	culture="wildling"

	father=23559165

	3166.1.1 = {birth="3166.1.1"}
	3182.1.1 = {add_trait=trained_warrior}
	3213.1.1 = {death="3213.1.1"}
}
26559165 = {
	name="Ondrew"	# a lord
	dynasty=559165

	religion="beyond_wall_old_gods"
	culture="wildling"

	father=24559165

	3165.1.1 = {birth="3165.1.1"}
	3181.1.1 = {add_trait=skilled_warrior}
	3196.1.1 = {death="3196.1.1"}
}
27559165 = {
	name="Gretchel"	# not a lord
	female=yes
	dynasty=559165

	religion="beyond_wall_old_gods"
	culture="wildling"

	father=26559165

	3196.1.1 = {birth="3196.1.1"}
	3251.1.1 = {death="3251.1.1"}
}
28559165 = {
	name="Mance"	# a lord
	dynasty=559165

	religion="beyond_wall_old_gods"
	culture="wildling"

	father=25559165

	3194.1.1 = {birth="3194.1.1"}
	3210.1.1 = {add_trait=trained_warrior}
	3243.1.1 = {death="3243.1.1"}
}
30559165 = {
	name="Quort"	# a lord
	dynasty=559165

	religion="beyond_wall_old_gods"
	culture="wildling"

	father=28559165

	3221.1.1 = {birth="3221.1.1"}
	3237.1.1 = {add_trait=trained_warrior}
	3273.1.1 = {death="3273.1.1"}
}
32559165 = {
	name="Del"	# a lord
	dynasty=559165

	religion="beyond_wall_old_gods"
	culture="wildling"

	father=30559165

	3242.1.1 = {birth="3242.1.1"}
	3258.1.1 = {add_trait=poor_warrior}
	3290.1.1 = {death="3290.1.1"}
}
33559165 = {
	name="Vayon"	# a lord
	dynasty=559165

	religion="beyond_wall_old_gods"
	culture="wildling"

	father=32559165

	3270.1.1 = {birth="3270.1.1"}
	3286.1.1 = {add_trait=skilled_warrior}
}
35559165 = {
	name="Alfyn"	# not a lord
	dynasty=559165

	religion="beyond_wall_old_gods"
	culture="wildling"

	father=32559165

	3274.1.1 = {birth="3274.1.1"}
	3290.1.1 = {add_trait=poor_warrior}
}
###Antler Vale
10559301 = {
	name="Dryn"	# a lord
	dynasty=559301

	religion="beyond_wall_old_gods"
	culture="hornfoot"

	2955.1.1 = {birth="2955.1.1"}
	2971.1.1 = {add_trait=trained_warrior}
	3020.1.1 = {death="3020.1.1"}
}
11559301 = {
	name="Tormund"	# a lord
	dynasty=559301

	religion="beyond_wall_old_gods"
	culture="hornfoot"

	father=10559301

	2981.1.1 = {birth="2981.1.1"}
	2997.1.1 = {add_trait=trained_warrior}
	3038.1.1 = {death="3038.1.1"}
}
12559301 = {
	name="Toregg"	# not a lord
	dynasty=559301

	religion="beyond_wall_old_gods"
	culture="hornfoot"

	father=10559301

	2983.1.1 = {birth="2983.1.1"}
	2999.1.1 = {add_trait=trained_warrior}
	3039.1.1 = {death="3039.1.1"}
}
13559301 = {
	name="Jojen"	# a lord
	dynasty=559301

	religion="beyond_wall_old_gods"
	culture="hornfoot"

	father=11559301

	3009.1.1 = {birth="3009.1.1"}
	3025.1.1 = {add_trait=skilled_warrior}
	3067.1.1 = {death="3067.1.1"}
}
15559301 = {
	name="Calon"	# a lord
	dynasty=559301

	religion="beyond_wall_old_gods"
	culture="hornfoot"

	father=13559301

	3046.1.1 = {birth="3046.1.1"}
	3062.1.1 = {add_trait=trained_warrior}
	3101.1.1 = {death="3101.1.1"}
}
16559301 = {
	name="Stiv"	# a lord
	dynasty=559301

	religion="beyond_wall_old_gods"
	culture="hornfoot"

	father=15559301

	3075.1.1 = {birth="3075.1.1"}
	3091.1.1 = {add_trait=poor_warrior}
	3135.1.1 = {death="3135.1.1"}
}
17559301 = {
	name="Medger"	# a lord
	dynasty=559301

	religion="beyond_wall_old_gods"
	culture="hornfoot"

	father=15559301

	3076.1.1 = {birth="3076.1.1"}
	3092.1.1 = {add_trait=poor_warrior}
	3156.1.1 = {death="3156.1.1"}
}
18559301 = {
	name="Ysilla"	# not a lord
	female=yes
	dynasty=559301

	religion="beyond_wall_old_gods"
	culture="hornfoot"

	father=16559301

	3104.1.1 = {birth="3104.1.1"}
	3140.1.1 = {death="3140.1.1"}
}
19559301 = {
	name="Del"	# a lord
	dynasty=559301

	religion="beyond_wall_old_gods"
	culture="hornfoot"

	father=17559301

	3097.1.1 = {birth="3097.1.1"}
	3113.1.1 = {add_trait=trained_warrior}
	3166.1.1 = {death="3166.1.1"}
}
21559301 = {
	name="Lenn"	# not a lord
	dynasty=559301

	religion="beyond_wall_old_gods"
	culture="hornfoot"

	father=17559301

	3101.1.1 = {birth="3101.1.1"}
	3117.1.1 = {add_trait=trained_warrior}
	3155.1.1 = {death="3155.1.1"}
}
22559301 = {
	name="Bernarr"	# not a lord
	dynasty=559301

	religion="beyond_wall_old_gods"
	culture="hornfoot"

	father=19559301

	3116.1.1 = {birth="3116.1.1"}
	3132.1.1 = {add_trait=skilled_warrior}
	3140.1.1 = {death = {death_reason = death_battle}}
}
23559301 = {
	name="Brogg"	# a lord
	dynasty=559301

	religion="beyond_wall_old_gods"
	culture="hornfoot"

	father=22559301

	3140.1.1 = {birth="3140.1.1"}
	3156.1.1 = {add_trait=trained_warrior}
	3204.1.1 = {death="3204.1.1"}
}
25559301 = {
	name="Arson"	# a lord
	dynasty=559301

	religion="beyond_wall_old_gods"
	culture="hornfoot"

	father=23559301

	3171.1.1 = {birth="3171.1.1"}
	3187.1.1 = {add_trait=poor_warrior}
	3233.1.1 = {death="3233.1.1"}
}
26559301 = {
	name="Raymun"	# not a lord
	dynasty=559301

	religion="beyond_wall_old_gods"
	culture="hornfoot"

	father=23559301

	3172.1.1 = {birth="3172.1.1"}
	3188.1.1 = {add_trait=trained_warrior}
	3207.1.1 = {death="3207.1.1"}
}
29559301 = {
	name="Arnolf"	# not a lord
	dynasty=559301

	religion="beyond_wall_old_gods"
	culture="hornfoot"

	father=25559301

	3194.1.1 = {birth="3194.1.1"}
	3210.1.1 = {add_trait=trained_warrior}
	3228.1.1 = {death="3228.1.1"}
}
30559301 = {
	name="Howd"	# a lord
	dynasty=559301

	religion="beyond_wall_old_gods"
	culture="hornfoot"

	father=29559301

	3216.1.1 = {birth="3216.1.1"}
	3232.1.1 = {add_trait=trained_warrior}
	3273.1.1 = {death="3273.1.1"}
}
31559301 = {
	name="Soren"	# a lord
	dynasty=559301

	religion="beyond_wall_old_gods"
	culture="hornfoot"

	father=30559301

	3245.1.1 = {birth="3245.1.1"}
	3261.1.1 = {add_trait=skilled_warrior}
	3289.1.1 = {death="3289.1.1"}
}
32559301 = {
	name="Wallen"	# not a lord
	dynasty=559301

	religion="beyond_wall_old_gods"
	culture="hornfoot"

	father=30559301

	3246.1.1 = {birth="3246.1.1"}
	3262.1.1 = {add_trait=trained_warrior}
	3294.1.1 = {death="3294.1.1"}
}
33559301 = {
	name="Errok"	# a lord
	dynasty=559301

	religion="beyond_wall_old_gods"
	culture="hornfoot"

	father=31559301

	3264.1.1 = {birth="3264.1.1"}
	3280.1.1 = {add_trait=trained_warrior}
}
34559301 = {
	name="Harle"	# not a lord
	dynasty=559301

	religion="beyond_wall_old_gods"
	culture="hornfoot"

	father=31559301

	3265.1.1 = {birth="3265.1.1"}
	3281.1.1 = {add_trait=trained_warrior}
}
36559301 = {
	name="Ryk"	# not a lord
	dynasty=559301

	religion="beyond_wall_old_gods"
	culture="hornfoot"

	father=33559301

	3295.1.1 = {birth="3295.1.1"}
	3311.1.1 = {add_trait=trained_warrior}
}
###Night Valleys
10560345 = {
	name="Brogg"	# a lord
	dynasty=560345

	religion="beyond_wall_old_gods"
	culture="nightrunner"

	2975.1.1 = {birth="2975.1.1"}
	2991.1.1 = {add_trait=skilled_warrior}
	3021.1.1 = {death = {death_reason = death_battle}}
}
11560345 = {
	name="Torwynd"	# a lord
	dynasty=560345

	religion="beyond_wall_old_gods"
	culture="nightrunner"

	father=10560345

	2994.1.1 = {birth="2994.1.1"}
	3010.1.1 = {add_trait=skilled_warrior}
	3049.1.1 = {death="3049.1.1"}
}
12560345 = {
	name="Bump"	# a lord
	dynasty=560345

	religion="beyond_wall_old_gods"
	culture="nightrunner"

	father=10560345

	2997.1.1 = {birth="2997.1.1"}
	3013.1.1 = {add_trait=trained_warrior}
	3074.1.1 = {death="3074.1.1"}
}
13560345 = {
	name="Grisel"	# not a lord
	female=yes
	dynasty=560345

	religion="beyond_wall_old_gods"
	culture="nightrunner"

	father=11560345

	3018.1.1 = {birth="3018.1.1"}
	3050.1.1 = {death="3050.1.1"}
}
14560345 = {
	name="Yoren"	# not a lord
	dynasty=560345

	religion="beyond_wall_old_gods"
	culture="nightrunner"

	father=12560345

	3019.1.1 = {birth="3019.1.1"}
	3035.1.1 = {add_trait=trained_warrior}
	3073.1.1 = {death="3073.1.1"}
}
15560345 = {
	name="Brogg"	# a lord
	dynasty=560345

	religion="beyond_wall_old_gods"
	culture="nightrunner"

	father=12560345

	3020.1.1 = {birth="3020.1.1"}
	3036.1.1 = {add_trait=trained_warrior}
	3077.1.1 = {death="3077.1.1"}
}
16560345 = {
	name="Orell"	# not a lord
	dynasty=560345

	religion="beyond_wall_old_gods"
	culture="nightrunner"

	father=14560345

	3044.1.1 = {birth="3044.1.1"}
	3060.1.1 = {add_trait=trained_warrior}
	3074.1.1 = {death="3074.1.1"}
}
19560345 = {
	name="Ondrew"	# not a lord
	dynasty=560345

	religion="beyond_wall_old_gods"
	culture="nightrunner"

	father=14560345

	3050.1.1 = {birth="3050.1.1"}
	3066.1.1 = {add_trait=trained_warrior}
	3079.1.1 = {death = {death_reason = death_battle}}
}
20560345 = {
	name="Dormund"	# a lord
	dynasty=560345

	religion="beyond_wall_old_gods"
	culture="nightrunner"

	father=15560345

	3048.1.1 = {birth="3048.1.1"}
	3064.1.1 = {add_trait=trained_warrior}
	3108.1.1 = {death="3108.1.1"}
}
22560345 = {
	name="Ondrew"	# a lord
	dynasty=560345

	religion="beyond_wall_old_gods"
	culture="nightrunner"

	father=20560345

	3069.1.1 = {birth="3069.1.1"}
	3085.1.1 = {add_trait=poor_warrior}
	3132.1.1 = {death="3132.1.1"}
}
23560345 = {
	name="Jojen"	# a lord
	dynasty=560345

	religion="beyond_wall_old_gods"
	culture="nightrunner"

	father=22560345

	3102.1.1 = {birth="3102.1.1"}
	3118.1.1 = {add_trait=skilled_warrior}
	3166.1.1 = {death="3166.1.1"}
}
24560345 = {
	name="Bump"	# a lord
	dynasty=560345

	religion="beyond_wall_old_gods"
	culture="nightrunner"

	father=23560345

	3130.1.1 = {birth="3130.1.1"}
	3146.1.1 = {add_trait=skilled_warrior}
	3189.1.1 = {death="3189.1.1"}
}
25560345 = {
	name="Galbart"	# a lord
	dynasty=560345

	religion="beyond_wall_old_gods"
	culture="nightrunner"

	father=24560345

	3148.1.1 = {birth="3148.1.1"}
	3164.1.1 = {add_trait=trained_warrior}
	3200.1.1 = {death="3200.1.1"}
}
26560345 = {
	name="Medger"	# not a lord
	dynasty=560345

	religion="beyond_wall_old_gods"
	culture="nightrunner"

	father=24560345

	3149.1.1 = {birth="3149.1.1"}
	3165.1.1 = {add_trait=poor_warrior}
	3194.1.1 = {death="3194.1.1"}
}
28560345 = {
	name="Del"	# a lord
	dynasty=560345

	religion="beyond_wall_old_gods"
	culture="nightrunner"

	father=25560345

	3174.1.1 = {birth="3174.1.1"}
	3190.1.1 = {add_trait=trained_warrior}
	3219.1.1 = {death="3219.1.1"}
}
29560345 = {
	name="Bump"	# a lord
	dynasty=560345

	religion="beyond_wall_old_gods"
	culture="nightrunner"

	father=28560345

	3208.1.1 = {birth="3208.1.1"}
	3224.1.1 = {add_trait=skilled_warrior}
	3273.1.1 = {death="3273.1.1"}
}
30560345 = {
	name="Quort"	# not a lord
	dynasty=560345

	religion="beyond_wall_old_gods"
	culture="nightrunner"

	father=28560345

	3210.1.1 = {birth="3210.1.1"}
	3226.1.1 = {add_trait=poor_warrior}
	3279.1.1 = {death="3279.1.1"}
}
31560345 = {
	name="Errok"	# a lord
	dynasty=560345

	religion="beyond_wall_old_gods"
	culture="nightrunner"

	father=29560345

	3235.1.1 = {birth="3235.1.1"}
	3251.1.1 = {add_trait=trained_warrior}
	3286.1.1 = {death="3286.1.1"}
}
32560345 = {
	name="Raymun"	# not a lord
	dynasty=560345

	religion="beyond_wall_old_gods"
	culture="nightrunner"

	father=29560345

	3236.1.1 = {birth="3236.1.1"}
	3252.1.1 = {add_trait=poor_warrior}
	3257.1.1 = {death = {death_reason = death_battle}}
}
33560345 = {
	name="Frenya"	# not a lord
	female=yes
	dynasty=560345

	religion="beyond_wall_old_gods"
	culture="nightrunner"

	father=31560345

	3268.1.1 = {birth="3268.1.1"}
	3314.1.1 = {death="3314.1.1"}
}
34560345 = {
	name="Wallen"	# a lord
	dynasty=560345

	religion="beyond_wall_old_gods"
	culture="nightrunner"

	father=32560345

	3255.1.1 = {birth="3255.1.1"}
	3271.1.1 = {add_trait=trained_warrior}
}
36560345 = {
	name="Galbart"	# not a lord
	dynasty=560345

	religion="beyond_wall_old_gods"
	culture="nightrunner"

	father=32560345

	3257.1.1 = {birth="3257.1.1"}
	3273.1.1 = {add_trait=trained_warrior}
}
37560345 = {
	name="Bernarr"	# not a lord
	dynasty=560345

	religion="beyond_wall_old_gods"
	culture="nightrunner"

	father=34560345

	3282.1.1 = {birth="3282.1.1"}
	3298.1.1 = {add_trait=trained_warrior}
}
40560345 = {
	name="Sigorn"

	religion="beyond_wall_old_gods"
	culture="nightrunner"

	father=34560345

	3287.1.1 = {birth="3287.1.1"}
	3303.1.1 = {add_trait=poor_warrior}
}
