 # Triggers are in Province scope. The From Scope contains the settlement holder (character)
 # start trigger is in title scope.
 
 #<tag> = {
 #	desc = description used in the tooltip of the building
 #	trigger = used for tech requirement of the building, set to 0 if no requirement so it can be build automatically on new games
 #	gold_cost = cost to build the building
 #	build_time = time to build, in days
 #	
 #	ai_creation_factor = weight that the AI uses to determine what building to build
 #	extra_tech_building_start = when starting a new game this building will be pre-built if the province has higher tech than the requirement + this + random 0-1
 #}
 
 # Castle
castle = {
	# All cultural buildings follow the same pattern:
	# tech required is 0, 1, 2, 4 for the levels of the buildings
	# cost is 200 + 100 per level
	# 60 maintenance of troops + 20 per level
	# + 0.15 bonus in either offensive, defensive or morale sometimes split over different units or stats same on all levels
	
	# Culture building names MUST start with ca_culture

	# #Welsh and English Longbow archery range
	# ca_culture_saxon_english_1 = {
		# desc = ca_culture_saxon_english_1_desc
		# potential = {
			# OR = {
				# culture = english
				# culture = welsh
				# has_building = ca_culture_saxon_english_1
			# }
		# }
		# is_active_trigger = {
			# ROOT = {
				# OR = {
					# culture = english
					# culture = welsh
				# }
			# }
		# } 
		# trigger = { 
			# TECH_CASTLE_CONSTRUCTION = 0 
			# ROOT = {
				# OR = {
					# culture = english
					# culture = welsh
				# }
			# }
		# }
		# prerequisites = { ca_wall_2 }
		# gold_cost = 200
		# build_time = 730
		# archers_offensive = 0.15
		# archers = 60
		# ai_creation_factor = 101
		
		# extra_tech_building_start = 0.8
	# }
	# ca_culture_saxon_english_2 = {
		# desc = ca_culture_saxon_english_1_desc
		# potential = {
			# OR = {
				# culture = english
				# culture = welsh
				# has_building = ca_culture_saxon_english_1
				# has_building = ca_culture_saxon_english_2
			# }
		# }
		# is_active_trigger = {
			# ROOT = {
				# OR = {
					# culture = english
					# culture = welsh
				# }
			# }
		# } 
		# trigger = { 
			# TECH_CASTLE_CONSTRUCTION = 1 
			# ROOT = {
				# OR = {
					# culture = english
					# culture = welsh
				# }
			# }
		# }
		# upgrades_from = ca_culture_saxon_english_1
		# gold_cost = 300
		# build_time = 1095
		# archers_offensive = 0.15
		# archers = 80
		# ai_creation_factor = 100
		
		# extra_tech_building_start = 0.8
	# }
	# ca_culture_saxon_english_3 = {
		# desc = ca_culture_saxon_english_1_desc
		# potential = {
			# OR = {
				# culture = english
				# culture = welsh
				# has_building = ca_culture_saxon_english_1
				# has_building = ca_culture_saxon_english_2
				# has_building = ca_culture_saxon_english_3
			# }
		# }
		# is_active_trigger = {
			# ROOT = {
				# OR = {
					# culture = english
					# culture = welsh
				# }
			# }
		# } 
		# trigger = { 
			# TECH_CASTLE_CONSTRUCTION = 2 
			# ROOT = {
				# OR = {
					# culture = english
					# culture = welsh
				# }
			# }
		# }
		# upgrades_from = ca_culture_saxon_english_2
		# gold_cost = 400
		# build_time = 2190
		# archers_offensive = 0.15
		# archers = 100
		# ai_creation_factor = 99
		
		# extra_tech_building_start = 0.8
	# }
	# ca_culture_saxon_english_4 = {
		# desc = ca_culture_saxon_english_1_desc
		# potential = {
			# OR = {
				# culture = english
				# culture = welsh
				# has_building = ca_culture_saxon_english_1
				# has_building = ca_culture_saxon_english_2
				# has_building = ca_culture_saxon_english_3
				# has_building = ca_culture_saxon_english_4
			# }
		# }
		# is_active_trigger = {
			# ROOT = {
				# OR = {
					# culture = english
					# culture = welsh
				# }
			# }
		# } 
		# trigger = { 
			# TECH_CASTLE_CONSTRUCTION = 4 
			# ROOT = {
				# OR = {
					# culture = english
					# culture = welsh
				# }
			# }
		# }
		# upgrades_from = ca_culture_saxon_english_3
		# gold_cost = 500
		# build_time = 2190
		# archers_offensive = 0.15
		# archers = 120
		# ai_creation_factor = 98
		
		# extra_tech_building_start = 0.8
	# }

	# Animal Farm
	ca_culture_animal_1 = {
		desc = ca_culture_animal_desc
		potential = {
			OR = { 
				culture_group = horse_group 
				culture_group = cat_group 
				culture_group = bear_group 
				culture_group = hedgehog_group 
				culture_group = duck_group 
				culture_group = dog_group 
				culture_group = elephant_group 
				culture_group = dragon_group 
				has_building = ca_culture_animal_1
			}
		}
		is_active_trigger = {
			ROOT = {
				OR = { 
					culture_group = horse_group 
					culture_group = cat_group 
					culture_group = bear_group 
					culture_group = hedgehog_group 
					culture_group = duck_group 
					culture_group = dog_group 
					culture_group = elephant_group 
					culture_group = dragon_group 
				}
			}
		}
		trigger = { 
			TECH_CASTLE_CONSTRUCTION = 0 
			ROOT = {
				OR = { 
					culture_group = horse_group 
					culture_group = cat_group 
					culture_group = bear_group 
					culture_group = hedgehog_group 
					culture_group = duck_group 
					culture_group = dog_group 
					culture_group = elephant_group 
					culture_group = dragon_group 
				}
			}
		}
		prerequisites = { ca_wall_2 }
		gold_cost = 200
		build_time = 730
		heavy_infantry = 400
		heavy_infantry_defensive = 0.15
		ai_creation_factor = 101
		
		extra_tech_building_start = 100
	}
	ca_culture_animal_2 = {
		desc = ca_culture_animal_desc
		potential = {
			OR = { 
				culture_group = horse_group 
				culture_group = cat_group 
				culture_group = bear_group 
				culture_group = hedgehog_group 
				culture_group = duck_group 
				culture_group = dog_group 
				culture_group = elephant_group 
				culture_group = dragon_group 
				has_building = ca_culture_animal_1
				has_building = ca_culture_animal_2
			}
		}
		is_active_trigger = {
			ROOT = {
				OR = { 
					culture_group = horse_group 
					culture_group = cat_group 
					culture_group = bear_group 
					culture_group = hedgehog_group 
					culture_group = duck_group 
					culture_group = dog_group 
					culture_group = elephant_group 
					culture_group = dragon_group 
				}
			}
		}
		trigger = { 
			TECH_CASTLE_CONSTRUCTION = 1
			ROOT = {
				OR = { 
					culture_group = horse_group 
					culture_group = cat_group 
					culture_group = bear_group 
					culture_group = hedgehog_group 
					culture_group = duck_group 
					culture_group = dog_group 
					culture_group = elephant_group 
					culture_group = dragon_group 
				}
			}
		}
		upgrades_from = ca_culture_animal_1
		gold_cost = 300
		build_time = 1095
		heavy_infantry = 500
		heavy_infantry_defensive = 0.15
		ai_creation_factor = 101
		
		extra_tech_building_start = 0.8
	}
	ca_culture_animal_3 = {
		desc = ca_culture_animal_desc
		potential = {
			OR = { 
				culture_group = horse_group 
				culture_group = cat_group 
				culture_group = bear_group 
				culture_group = hedgehog_group 
				culture_group = duck_group 
				culture_group = dog_group 
				culture_group = elephant_group 
				culture_group = dragon_group 
				has_building = ca_culture_animal_1
				has_building = ca_culture_animal_2
				has_building = ca_culture_animal_3
			}
		}
		is_active_trigger = {
			ROOT = {
				OR = { 
					culture_group = horse_group 
					culture_group = cat_group 
					culture_group = bear_group 
					culture_group = hedgehog_group 
					culture_group = duck_group 
					culture_group = dog_group 
					culture_group = elephant_group 
					culture_group = dragon_group 
				}
			}
		}
		trigger = { 
			TECH_CASTLE_CONSTRUCTION = 2
			ROOT = {
				OR = { 
					culture_group = horse_group 
					culture_group = cat_group 
					culture_group = bear_group 
					culture_group = hedgehog_group 
					culture_group = duck_group 
					culture_group = dog_group 
					culture_group = elephant_group 
					culture_group = dragon_group 
				}
			}
		}
		upgrades_from = ca_culture_animal_2
		gold_cost = 400
		build_time = 2190
		heavy_infantry = 500
		heavy_infantry_defensive = 0.15
		ai_creation_factor = 101
		
		extra_tech_building_start = 0.8
	}
	ca_culture_animal_4 = {
		desc = ca_culture_animal_desc
		potential = {
			OR = { 
				culture_group = horse_group 
				culture_group = cat_group 
				culture_group = bear_group 
				culture_group = hedgehog_group 
				culture_group = duck_group 
				culture_group = dog_group 
				culture_group = elephant_group 
				culture_group = dragon_group 
				has_building = ca_culture_animal_1
				has_building = ca_culture_animal_2
				has_building = ca_culture_animal_3
				has_building = ca_culture_animal_4
			}
		}
		is_active_trigger = {
			ROOT = {
				OR = { 
					culture_group = horse_group 
					culture_group = cat_group 
					culture_group = bear_group 
					culture_group = hedgehog_group 
					culture_group = duck_group 
					culture_group = dog_group 
					culture_group = elephant_group 
					culture_group = dragon_group 
				}
			}
		}
		trigger = { 
			TECH_CASTLE_CONSTRUCTION = 4
			ROOT = {
				OR = { 
					culture_group = horse_group 
					culture_group = cat_group 
					culture_group = bear_group 
					culture_group = hedgehog_group 
					culture_group = duck_group 
					culture_group = dog_group 
					culture_group = elephant_group 
					culture_group = dragon_group 
				}
			}
		}
		upgrades_from = ca_culture_animal_3
		gold_cost = 500
		build_time = 2190
		heavy_infantry = 600
		heavy_infantry_defensive = 0.15
		ai_creation_factor = 101
		
		extra_tech_building_start = 0.8
	}
}


