### House Kataan
34555942 = {
	name="Zuyen"	# a lord
	dynasty=55942

	religion="yiti_gods"
	culture="asabhadi"
	
	7822.1.1 = {birth="7822.1.1"}
	7884.1.1 = {death="7884.1.1"}
}
34455942 = {
	name="Veikko"	# a lord
	dynasty=55942

	religion="yiti_gods"
	culture="asabhadi"

	father=34555942
	
	7847.1.1 = {birth="7847.1.1"}
	7902.1.1 = {death="7902.1.1"}
}
34355942 = {
	name="Pyrkoon"	# a lord
	dynasty=55942

	religion="yiti_gods"
	culture="asabhadi"

	father=34455942
	
	7872.1.1 = {birth="7872.1.1"}
	7930.1.1 = {death="7930.1.1"}
}
34255942 = {
	name="Kari"	# a lord
	dynasty=55942

	religion="yiti_gods"
	culture="asabhadi"

	father=34355942
	
	7895.1.1 = {birth="7895.1.1"}
	7951.1.1 = {death="7951.1.1"}
}
34155942 = {
	name="Duyen"	# a lord
	dynasty=55942

	religion="yiti_gods"
	culture="asabhadi"

	father=34255942
	
	7916.1.1 = {birth="7916.1.1"}
	7978.1.1 = {death="7978.1.1"}
}
34055942 = {
	name="Uljas"	# a lord
	dynasty=55942

	religion="yiti_gods"
	culture="asabhadi"

	father=34155942
	
	7939.1.1 = {birth="7939.1.1"}
	8000.1.1 = {death="8000.1.1"}
}
10055942 = {
	name="Wahab"	# a lord
	dynasty=55942

	religion="yiti_gods"
	culture="asabhadi"
	
	father=34055942

	7962.1.1 = {birth="7962.1.1"}
	7978.1.1 = {add_trait=poor_warrior}
	8026.1.1 = {death="8026.1.1"}
}
10355942 = {
	name="Jabir"	# a lord
	dynasty=55942

	religion="yiti_gods"
	culture="asabhadi"

	father=10055942

	7993.1.1 = {birth="7993.1.1"}
	8009.1.1 = {add_trait=poor_warrior}
	8052.1.1 = {death="8052.1.1"}
}
10455942 = {
	name="Ghalib"	# a lord
	dynasty=55942

	religion="yiti_gods"
	culture="asabhadi"

	father=10355942

	8014.1.1 = {birth="8014.1.1"}
	8030.1.1 = {add_trait=skilled_warrior}
	8067.1.1 = {death="8067.1.1"}
}
10855942 = {
	name="Ramadan"	# a lord
	dynasty=55942

	religion="yiti_gods"
	culture="asabhadi"

	father=10455942

	8041.1.1 = {birth="8041.1.1"}
	8057.1.1 = {add_trait=poor_warrior}
	8094.1.1 = {death="8094.1.1"}
}
11155942 = {
	name="Wahab"	# a lord
	dynasty=55942

	religion="yiti_gods"
	culture="asabhadi"

	father=10855942

	8060.1.1 = {birth="8060.1.1"}
	8076.1.1 = {add_trait=poor_warrior}
	8101.1.1 = {death="8101.1.1"}
}
11455942 = {
	name="Qawurd"	# a lord
	dynasty=55942

	religion="yiti_gods"
	culture="asabhadi"

	father=11155942

	8083.1.1 = {birth="8083.1.1"}
	8099.1.1 = {add_trait=trained_warrior}
	8128.1.1 = {death="8128.1.1"}
}
11655942 = {
	name="Hafiz"	# a lord
	dynasty=55942

	religion="yiti_gods"
	culture="asabhadi"

	father=11455942

	8110.1.1 = {birth="8110.1.1"}
	8126.1.1 = {add_trait=trained_warrior}
	8159.1.1 = {death="8159.1.1"}
}
12255942 = {
	name="Abdullah"	# a lord
	dynasty=55942

	religion="yiti_gods"
	culture="asabhadi"

	father=11655942

	8137.1.1 = {birth="8137.1.1"}
	8153.1.1 = {add_trait=trained_warrior}
	8190.1.1 = {death="8190.1.1"}
}
12755942 = {
	name="Ali"	# a lord
	dynasty=55942

	religion="yiti_gods"
	culture="asabhadi"

	father=12255942

	8164.1.1 = {birth="8164.1.1"}
	8180.1.1 = {add_trait=trained_warrior}
	8215.1.1 = {death="8215.1.1"}
}
12955942 = {
	name="Alim"	# a lord
	dynasty=55942

	religion="yiti_gods"
	culture="asabhadi"

	father=12755942

	8193.1.1 = {birth="8193.1.1"}
	8209.1.1 = {add_trait=skilled_warrior}
	8256.1.1 = {death="8256.1.1"}
}
13155942 = {
	name="Shamir"	# a lord
	dynasty=55942

	religion="yiti_gods"
	culture="asabhadi"

	father=12955942

	8221.1.1 = {birth="8221.1.1"}
	8237.1.1 = {add_trait=poor_warrior}
	8273.1.1 = {death="8273.1.1"}
}
13555942 = {
	name="Shamir"	# a lord
	dynasty=55942

	religion="yiti_gods"
	culture="asabhadi"

	father=13155942

	8240.1.1 = {birth="8240.1.1"}
	8256.1.1 = {add_trait=poor_warrior}
}
13655942 = {
	name="Youkhanna"	# not a lord
	dynasty=55942

	religion="yiti_gods"
	culture="asabhadi"

	father=13555942

	8264.1.1 = {birth="8264.1.1"}
	8280.1.1 = {add_trait=poor_warrior}
}

### House Issa
34555943 = {
	name="Ryku"	# a lord
	dynasty=55943

	religion="yiti_gods"
	culture="asabhadi"
	
	7807.1.1 = {birth="7807.1.1"}
	7869.1.1 = {death="7869.1.1"}
}
34455943 = {
	name="Esko"	# a lord
	dynasty=55943

	religion="yiti_gods"
	culture="asabhadi"

	father=34555943
	
	7830.1.1 = {birth="7830.1.1"}
	7899.1.1 = {death="7899.1.1"}
}
34355943 = {
	name="Juha"	# a lord
	dynasty=55943

	religion="yiti_gods"
	culture="asabhadi"

	father=34455943
	
	7856.1.1 = {birth="7856.1.1"}
	7914.1.1 = {death="7914.1.1"}
}
34255943 = {
	name="Ning"	# a lord
	dynasty=55943

	religion="yiti_gods"
	culture="asabhadi"

	father=34355943
	
	7888.1.1 = {birth="7888.1.1"}
	7960.1.1 = {death="7960.1.1"}
}
34155943 = {
	name="Touko"	# a lord
	dynasty=55943

	religion="yiti_gods"
	culture="asabhadi"

	father=34255943
	
	7919.1.1 = {birth="7919.1.1"}
	7973.1.1 = {death="7973.1.1"}
}
34055943 = {
	name="Puyen"	# a lord
	dynasty=55943

	religion="yiti_gods"
	culture="asabhadi"

	father=34155943
	
	7944.1.1 = {birth="7944.1.1"}
	7992.1.1 = {death="7992.1.1"}
}
100055943 = {
	name="Uways"	# a lord
	dynasty=55943

	religion="yiti_gods"
	culture="asabhadi"
	
	father=34055943

	7969.1.1 = {birth="7969.1.1"}
	7985.1.1 = {add_trait=poor_warrior}
	8036.1.1 = {death="8036.1.1"}
}
100155943 = {
	name="Muzaffaraddin"	# a lord
	dynasty=55943

	religion="yiti_gods"
	culture="asabhadi"

	father=100055943

	7995.1.1 = {birth="7995.1.1"}
	8011.1.1 = {add_trait=poor_warrior}
	8048.1.1 = {death="8048.1.1"}
}
100355943 = {
	name="Youkhanna"	# a lord
	dynasty=55943

	religion="yiti_gods"
	culture="asabhadi"

	father=100155943

	8014.1.1 = {birth="8014.1.1"}
	8030.1.1 = {add_trait=trained_warrior}
	8082.1.1 = {death="8082.1.1"}
}
100755943 = {
	name="Halil"	# a lord
	dynasty=55943

	religion="yiti_gods"
	culture="asabhadi"

	father=100355943

	8033.1.1 = {birth="8033.1.1"}
	8049.1.1 = {add_trait=trained_warrior}
	8089.1.1 = {death="8089.1.1"}
}
101255943 = {
	name="Muzaffaraddin"	# a lord
	dynasty=55943

	religion="yiti_gods"
	culture="asabhadi"

	father=100755943

	8051.1.1 = {birth="8051.1.1"}
	8067.1.1 = {add_trait=trained_warrior}
	8092.1.1 = {death="8092.1.1"}
}
101455943 = {
	name="Qawurd"	# a lord
	dynasty=55943

	religion="yiti_gods"
	culture="asabhadi"

	father=101255943

	8076.1.1 = {birth="8076.1.1"}
	8092.1.1 = {add_trait=trained_warrior}
	8130.1.1 = {death="8130.1.1"}
}
101655943 = {
	name="Mukhtar"	# a lord
	dynasty=55943

	religion="yiti_gods"
	culture="asabhadi"

	father=101455943

	8108.1.1 = {birth="8108.1.1"}
	8124.1.1 = {add_trait=poor_warrior}
	8169.1.1 = {death="8169.1.1"}
}
101755943 = {
	name="Sami"	# a lord
	dynasty=55943

	religion="yiti_gods"
	culture="asabhadi"

	father=101655943

	8136.1.1 = {birth="8136.1.1"}
	8152.1.1 = {add_trait=poor_warrior}
	8170.1.1 = {death="8170.1.1"}
}
101855943 = {
	name="Yahya"	# a lord
	dynasty=55943

	religion="yiti_gods"
	culture="asabhadi"

	father=101755943

	8159.1.1 = {birth="8159.1.1"}
	8175.1.1 = {add_trait=trained_warrior}
	8219.1.1 = {death="8219.1.1"}
}
101955943 = {
	name="Nizam"	# a lord
	dynasty=55943

	religion="yiti_gods"
	culture="asabhadi"

	father=101855943

	8191.1.1 = {birth="8191.1.1"}
	8207.1.1 = {add_trait=poor_warrior}
	8246.1.1 = {death = {death_reason = death_accident}}
}
102155943 = {
	name="Bakr"	# a lord
	dynasty=55943

	religion="yiti_gods"
	culture="asabhadi"

	father=101955943

	8214.1.1 = {birth="8214.1.1"}
	8230.1.1 = {add_trait=poor_warrior}
	8293.1.1 = {death="8293.1.1"}
}
102655943 = {
	name="Aghlab"	# a lord
	dynasty=55943

	religion="yiti_gods"
	culture="asabhadi"

	father=102155943

	8243.1.1 = {birth="8243.1.1"}
	8259.1.1 = {add_trait=trained_warrior}
}
102955943 = {
	name="Ramadan"	# not a lord
	dynasty=55943

	religion="yiti_gods"
	culture="asabhadi"

	father=102655943

	8261.1.1 = {birth="8261.1.1"}
	8277.1.1 = {add_trait=skilled_warrior}
	8279.1.1 = {add_spouse=402955943}
}
402955943 = {
	name="Faghira"
	female=yes

	religion="yiti_gods"
	culture="asabhadi"

	8261.1.1 = {birth="8261.1.1"}
}
103055943 = {
	name="Alim"	# not a lord
	dynasty=55943

	religion="yiti_gods"
	culture="asabhadi"

	father=102955943
	mother=402955943

	8294.1.1 = {birth="8294.1.1"}
}
103155943 = {
	name="Bakr"	# not a lord
	dynasty=55943

	religion="yiti_gods"
	culture="asabhadi"

	father=102955943
	mother=402955943

	8295.1.1 = {birth="8295.1.1"}
	8311.1.1 = {add_trait=poor_warrior}
}
103255943 = {
	name="Paymaneh"	# not a lord
	female=yes
	dynasty=55943

	religion="yiti_gods"
	culture="asabhadi"

	father=102955943
	mother=402955943

	8297.1.1 = {birth="8297.1.1"}
}
103355943 = {
	name="Nyawela"	# not a lord
	female=yes
	dynasty=55943

	religion="yiti_gods"
	culture="asabhadi"

	father=102955943
	mother=402955943

	8298.1.1 = {birth="8298.1.1"}
}

### House Kassis
34555944 = {
	name="Siq"	# a lord
	dynasty=55944

	religion="gods_bone_mountains"
	culture="asabhadi"
	
	7830.1.1 = {birth="7830.1.1"}
	7885.1.1 = {death="7885.1.1"}
}
34455944 = {
	name="Jyrki"	# a lord
	dynasty=55944

	religion="gods_bone_mountains"
	culture="asabhadi"

	father=34555944
	
	7849.1.1 = {birth="7849.1.1"}
	7904.1.1 = {death="7904.1.1"}
}
34355944 = {
	name="Panu"	# a lord
	dynasty=55944

	religion="gods_bone_mountains"
	culture="asabhadi"

	father=34455944
	
	7874.1.1 = {birth="7874.1.1"}
	7935.1.1 = {death="7935.1.1"}
}
34255944 = {
	name="Peng"	# a lord
	dynasty=55944

	religion="gods_bone_mountains"
	culture="asabhadi"

	father=34355944
	
	7899.1.1 = {birth="7899.1.1"}
	7955.1.1 = {death="7955.1.1"}
}
34155944 = {
	name="Muyen"	# a lord
	dynasty=55944

	religion="gods_bone_mountains"
	culture="asabhadi"

	father=34255944
	
	7920.1.1 = {birth="7920.1.1"}
	7977.1.1 = {death="7977.1.1"}
}
34055944 = {
	name="Armas"	# a lord
	dynasty=55944

	religion="gods_bone_mountains"
	culture="asabhadi"

	father=34155944
	
	7942.1.1 = {birth="7942.1.1"}
	7999.1.1 = {death="7999.1.1"}
}
100055944 = {
	name="Husam"	# a lord
	dynasty=55944

	religion="gods_bone_mountains"
	culture="asabhadi"
	
	father=34055944

	7965.1.1 = {birth="7965.1.1"}
	7981.1.1 = {add_trait=poor_warrior}
	8028.1.1 = {death="8028.1.1"}
}
100155944 = {
	name="Nizam"	# a lord
	dynasty=55944

	religion="gods_bone_mountains"
	culture="asabhadi"

	father=100055944

	7993.1.1 = {birth="7993.1.1"}
	8009.1.1 = {add_trait=poor_warrior}
	8034.1.1 = {death="8034.1.1"}
}
100355944 = {
	name="Alim"	# a lord
	dynasty=55944

	religion="gods_bone_mountains"
	culture="asabhadi"

	father=100155944

	8013.1.1 = {birth="8013.1.1"}
	8029.1.1 = {add_trait=poor_warrior}
	8093.1.1 = {death="8093.1.1"}
}
100555944 = {
	name="Ramadan"	# a lord
	dynasty=55944

	religion="gods_bone_mountains"
	culture="asabhadi"

	father=100355944

	8036.1.1 = {birth="8036.1.1"}
	8052.1.1 = {add_trait=skilled_warrior}
	8094.1.1 = {death="8094.1.1"}
}
100855944 = {
	name="Mansur"	# a lord
	dynasty=55944

	religion="gods_bone_mountains"
	culture="asabhadi"

	father=100555944

	8065.1.1 = {birth="8065.1.1"}
	8081.1.1 = {add_trait=trained_warrior}
	8123.1.1 = {death="8123.1.1"}
}
100955944 = {
	name="Bahir"	# a lord
	dynasty=55944

	religion="gods_bone_mountains"
	culture="asabhadi"

	father=100855944

	8087.1.1 = {birth="8087.1.1"}
	8103.1.1 = {add_trait=trained_warrior}
	8139.1.1 = {death="8139.1.1"}
}
101055944 = {
	name="Ramadan"	# a lord
	dynasty=55944

	religion="gods_bone_mountains"
	culture="asabhadi"

	father=100955944

	8112.1.1 = {birth="8112.1.1"}
	8128.1.1 = {add_trait=poor_warrior}
	8171.1.1 = {death="8171.1.1"}
}
101455944 = {
	name="Talib"	# a lord
	dynasty=55944

	religion="gods_bone_mountains"
	culture="asabhadi"

	father=101055944

	8137.1.1 = {birth="8137.1.1"}
	8153.1.1 = {add_trait=poor_warrior}
	8205.1.1 = {death="8205.1.1"}
}
101555944 = {
	name="Sadiq"	# a lord
	dynasty=55944

	religion="gods_bone_mountains"
	culture="asabhadi"

	father=101455944

	8166.1.1 = {birth="8166.1.1"}
	8182.1.1 = {add_trait=poor_warrior}
	8219.1.1 = {death="8219.1.1"}
}
102055944 = {
	name="Mirza"	# a lord
	dynasty=55944

	religion="gods_bone_mountains"
	culture="asabhadi"

	father=101555944

	8201.1.1 = {birth="8201.1.1"}
	8217.1.1 = {add_trait=trained_warrior}
	8250.1.1 = {death="8250.1.1"}
}
102155944 = {
	name="Talib"	# a lord
	dynasty=55944

	religion="gods_bone_mountains"
	culture="asabhadi"

	father=102055944

	8220.1.1 = {birth="8220.1.1"}
	8236.1.1 = {add_trait=poor_warrior}
	8266.1.1 = {death="8266.1.1"}
}
102455944 = {
	name="Azam"	# a lord
	dynasty=55944

	religion="gods_bone_mountains"
	culture="asabhadi"

	father=102155944

	8249.1.1 = {birth="8249.1.1"}
	8265.1.1 = {add_trait=poor_warrior}
	8286.1.1 = {death = {death_reason = death_murder}}
}
102555944 = {
	name="Sadiq"	# a lord
	dynasty=55944

	religion="gods_bone_mountains"
	culture="asabhadi"

	father=102455944

	8273.1.1 = {birth="8273.1.1"}
	8289.1.1 = {add_trait=trained_warrior}
}

### House Kalzarria
34569165 = {
	name="Kalevoon"	# a lord
	dynasty=69165

	religion="gods_bone_mountains"
	culture="asabhadi"
	
	7810.1.1 = {birth="7810.1.1"}
	7874.1.1 = {death="7874.1.1"}
}
34469165 = {
	name="Hannu"	# a lord
	dynasty=69165

	religion="gods_bone_mountains"
	culture="asabhadi"

	father=34569165
	
	7833.1.1 = {birth="7833.1.1"}
	7912.1.1 = {death="7912.1.1"}
}
34369165 = {
	name="Ai"	# a lord
	dynasty=69165

	religion="gods_bone_mountains"
	culture="asabhadi"

	father=34469165
	
	7862.1.1 = {birth="7862.1.1"}
	7924.1.1 = {death="7924.1.1"}
}
34269165 = {
	name="Orvo"	# a lord
	dynasty=69165

	religion="gods_bone_mountains"
	culture="asabhadi"

	father=34369165
	
	7885.1.1 = {birth="7885.1.1"}
	7946.1.1 = {death="7946.1.1"}
}
34169165 = {
	name="Raimo"	# a lord
	dynasty=69165

	religion="gods_bone_mountains"
	culture="asabhadi"

	father=34269165
	
	7911.1.1 = {birth="7911.1.1"}
	7977.1.1 = {death="7977.1.1"}
}
34069165 = {
	name="Nyilo"	# a lord
	dynasty=69165

	religion="gods_bone_mountains"
	culture="asabhadi"

	father=34169165
	
	7941.1.1 = {birth="7941.1.1"}
	7986.1.1 = {death="7986.1.1"}
}
100069165 = {
	name="Abdullah"	# a lord
	dynasty=69165

	religion="gods_bone_mountains"
	culture="asabhadi"

	father=34069165
	
	7963.1.1 = {birth="7963.1.1"}
	7979.1.1 = {add_trait=poor_warrior}
	8032.1.1 = {death="8032.1.1"}
}
100169165 = {
	name="Ghalib"	# a lord
	dynasty=69165

	religion="gods_bone_mountains"
	culture="asabhadi"

	father=100069165

	7988.1.1 = {birth="7988.1.1"}
	8004.1.1 = {add_trait=skilled_warrior}
	8041.1.1 = {death="8041.1.1"}
}
100269165 = {
	name="Fadl"	# a lord
	dynasty=69165

	religion="gods_bone_mountains"
	culture="asabhadi"

	father=100169165

	8009.1.1 = {birth="8009.1.1"}
	8025.1.1 = {add_trait=poor_warrior}
	8053.1.1 = {death="8053.1.1"}
}
100869165 = {
	name="Is'mail"	# a lord
	dynasty=69165

	religion="gods_bone_mountains"
	culture="asabhadi"

	father=100269165

	8038.1.1 = {birth="8038.1.1"}
	8054.1.1 = {add_trait=master_warrior}
	8112.1.1 = {death="8112.1.1"}
}
100969165 = {
	name="Youkhanna"	# a lord
	dynasty=69165

	religion="gods_bone_mountains"
	culture="asabhadi"

	father=100869165

	8071.1.1 = {birth="8071.1.1"}
	8087.1.1 = {add_trait=poor_warrior}
	8130.1.1 = {death="8130.1.1"}
}
101269165 = {
	name="Khaireddin"	# a lord
	dynasty=69165

	religion="gods_bone_mountains"
	culture="asabhadi"

	father=100969165

	8106.1.1 = {birth="8106.1.1"}
	8122.1.1 = {add_trait=trained_warrior}
	8145.1.1 = {death="8145.1.1"}
}
101369165 = {
	name="Muslihiddin"	# a lord
	dynasty=69165

	religion="gods_bone_mountains"
	culture="asabhadi"

	father=101269165

	8125.1.1 = {birth="8125.1.1"}
	8141.1.1 = {add_trait=poor_warrior}
	8175.1.1 = {death="8175.1.1"}
}
101669165 = {
	name="Jibril"	# a lord
	dynasty=69165

	religion="gods_bone_mountains"
	culture="asabhadi"

	father=101369165

	8153.1.1 = {birth="8153.1.1"}
	8169.1.1 = {add_trait=trained_warrior}
	8193.1.1 = {death="8193.1.1"}
}
101769165 = {
	name="Gafur"	# a lord
	dynasty=69165

	religion="gods_bone_mountains"
	culture="asabhadi"

	father=101669165

	8176.1.1 = {birth="8176.1.1"}
	8192.1.1 = {add_trait=poor_warrior}
	8251.1.1 = {death="8251.1.1"}
}
101869165 = {
	name="Yahya"	# a lord
	dynasty=69165

	religion="gods_bone_mountains"
	culture="asabhadi"

	father=101769165

	8202.1.1 = {birth="8202.1.1"}
	8218.1.1 = {add_trait=poor_warrior}
	8272.1.1 = {death="8272.1.1"}
}
102069165 = {
	name="Muzaffaraddin"	# a lord
	dynasty=69165

	religion="gods_bone_mountains"
	culture="asabhadi"

	father=101869165

	8229.1.1 = {birth="8229.1.1"}
	8245.1.1 = {add_trait=poor_warrior}
	8291.1.1 = {death="8291.1.1"}
}
102469165 = {
	name="Yusuf"	# a lord
	dynasty=69165

	religion="gods_bone_mountains"
	culture="asabhadi"

	father=102069165

	8247.1.1 = {birth="8247.1.1"}
	8263.1.1 = {add_trait=poor_warrior}
}
102969165 = {
	name="Nasr"	# not a lord
	dynasty=69165

	religion="gods_bone_mountains"
	culture="asabhadi"

	father=102469165

	8275.1.1 = {birth="8275.1.1"}
	8291.1.1 = {add_trait=poor_warrior}
	8293.1.1 = {add_spouse=402969165}
}
402969165 = {
	name="Shameem"
	female=yes

	religion="gods_bone_mountains"
	culture="asabhadi"

	8275.1.1 = {birth="8275.1.1"}
}