600.1.1={
	liege="d_songshan"
}
7995.1.1 = { holder=10069103 }
8034.1.1 = { holder=10169103 }
8039.1.1 = { holder=10369103 }
8075.1.1 = { holder=10769103 }
8109.1.1 = { holder=10869103 }
8115.1.1 = { holder=11169103 }
8124.1.1 = { holder=11269103 }
8140.1.1 = { holder=11669103 }
8182.1.1 = { holder=12269103 }
8199.1.1 = { holder=12669103 }
8208.1.1 = { holder=13069103 }
8250.1.1 = { holder=13169103 }
8291.1.1 = { holder=13369103 }
8295.1.1 = { holder=13569103 }

