name = "The Salt War"

casus_belli={
	casus_belli=embargo_cb
	actor=115174371
	recipient=10786017
	landed_title=k_chroyane
	date=7200.1.1
}

7200.1.1 = {
	add_defender = 10786017 # Chroyane
	add_attacker = 115174371 # Volantis
}

7201.1.1 = {
	rem_defender = 10786017 # Chroyane
	rem_attacker = 115174371 # Volantis
}                                                                                                                                                                                                                                                                                                                