##Meereen
##House Kandaq

150360009 = {
	name="Marghaz"	# a lord
	dynasty=360009

	religion="harpy"
	culture="ghiscari"

	6431.1.1 = {birth="6431.1.1"}
	6458.1.1 = {add_spouse=250360009}
	6503.1.1 = {death="6503.1.1"}
}
250360009 = {
	name="Gallaza"
	female=yes

	religion="harpy"
	culture="ghiscari"

	6431.1.1 = {birth="6431.1.1"}
	6468.1.1 = {death="6468.1.1"}
}

100360009 = {
	name="Grazdan"	# a lord
	dynasty=360009

	religion="harpy"
	culture="ghiscari"

	father=150360009
	mother=250360009

	6467.1.1 = {birth="6467.1.1"}
	6494.1.1 = {add_trait=poor_warrior}
	6496.1.1 = {add_spouse=200360009}
	6526.1.1 = {death="6526.1.1"}
}
200360009 = {
	name="Ezzara"
	female=yes

	religion="harpy"
	culture="ghiscari"

	6478.1.1 = {birth="6478.1.1"}
	6526.1.1 = {death="6526.1.1"}
}
101360009 = {
	name="Kraznys"	# a lord
	dynasty=360009

	religion="harpy"
	culture="ghiscari"

	father=100360009
	mother=200360009

	6507.1.1 = {birth="6507.1.1"}
	6523.1.1 = {add_trait=trained_warrior}
	6525.1.1 = {add_spouse=201360009}
	6540.1.1 = {death="6540.1.1"}
}
201360009 = {
	name="Dhazza"
	female=yes

	religion="harpy"
	culture="ghiscari"

	6507.1.1 = {birth="6507.1.1"}
	6540.1.1 = {death="6540.1.1"}
}
102360009 = {
	name="Skahaz"	# not a lord
	dynasty=360009

	religion="harpy"
	culture="ghiscari"

	father=100360009
	mother=200360009

	6509.1.1 = {birth="6509.1.1"}
	6525.1.1 = {add_trait=poor_warrior}
	6585.1.1 = {death="6585.1.1"}
}
103360009 = {
	name="Hazak"	# not a lord
	dynasty=360009

	religion="harpy"
	culture="ghiscari"

	father=100360009
	mother=200360009

	6502.1.1 = {birth="6502.1.1"}
	6518.1.1 = {add_trait=trained_warrior}
	6551.1.1 = {death="6551.1.1"}
}
104360009 = {
	name="Grazdan"	# not a lord
	dynasty=360009

	religion="harpy"
	culture="ghiscari"

	father=100360009
	mother=200360009

	6505.1.1 = {birth="6505.1.1"}
	6521.1.1 = {add_trait=poor_warrior}
	6551.1.1 = {death="6551.1.1"}
}
105360009 = {
	name="Gallaza"	# not a lord
	female=yes
	dynasty=360009

	religion="harpy"
	culture="ghiscari"

	father=100360009
	mother=200360009

	6507.1.1 = {birth="6507.1.1"}
	6576.1.1 = {death="6576.1.1"}
}
106360009 = {
	name="Maezon"	# a lord
	dynasty=360009

	religion="harpy"
	culture="ghiscari"

	father=101360009
	mother=201360009

	6527.1.1 = {birth="6527.1.1"}
	6543.1.1 = {add_trait=trained_warrior}
	6545.1.1 = {add_spouse=206360009}
	6561.1.1 = {death="6561.1.1"}
}
206360009 = {
	name="Qezza"
	female=yes

	religion="harpy"
	culture="ghiscari"

	6527.1.1 = {birth="6527.1.1"}
	6561.1.1 = {death="6561.1.1"}
}
107360009 = {
	name="Morghaz"	# not a lord
	dynasty=360009

	religion="harpy"
	culture="ghiscari"

	father=101360009
	mother=201360009

	6529.1.1 = {birth="6529.1.1"}
	6545.1.1 = {add_trait=poor_warrior}
	6588.1.1 = {death = {death_reason = death_accident}}
}
108360009 = {
	name="Gallaza"	# not a lord
	female=yes
	dynasty=360009

	religion="harpy"
	culture="ghiscari"

	father=101360009
	mother=201360009

	6531.1.1 = {birth="6531.1.1"}
	6585.1.1 = {death="6585.1.1"}
}
109360009 = {
	name="Reznako"	# not a lord
	dynasty=360009

	religion="harpy"
	culture="ghiscari"

	father=101360009
	mother=201360009

	6532.1.1 = {birth="6532.1.1"}
	6548.1.1 = {add_trait=trained_warrior}
	6574.1.1 = {death="6574.1.1"}
}
110360009 = {
	name="Skahaz"	# a lord
	dynasty=360009

	religion="harpy"
	culture="ghiscari"

	father=106360009
	mother=206360009

	6551.1.1 = {birth="6551.1.1"}
	6567.1.1 = {add_trait=poor_warrior}
	6569.1.1 = {add_spouse=210360009}
	6603.1.1 = {death="6603.1.1"}
}
210360009 = {
	name="Jezhane"
	female=yes

	religion="harpy"
	culture="ghiscari"

	6551.1.1 = {birth="6551.1.1"}
	6603.1.1 = {death="6603.1.1"}
}
111360009 = {
	name="Dhazza"	# not a lord
	female=yes
	dynasty=360009

	religion="harpy"
	culture="ghiscari"

	father=106360009
	mother=206360009

	6552.1.1 = {birth="6552.1.1"}
	6574.1.1 = {death="6574.1.1"}
}
112360009 = {
	name="Azzadora"	# not a lord
	female=yes
	dynasty=360009

	religion="harpy"
	culture="ghiscari"

	father=110360009
	mother=210360009

	6571.1.1 = {birth="6571.1.1"}
	6624.1.1 = {death="6624.1.1"}
}
113360009 = {
	name="Qezzama"	# not a lord
	female=yes
	dynasty=360009

	religion="harpy"
	culture="ghiscari"

	father=110360009
	mother=210360009

	6572.1.1 = {birth="6572.1.1"}
	6617.1.1 = {death="6617.1.1"}
}
114360009 = {
	name="Hizdahr"	# a lord
	dynasty=360009

	religion="harpy"
	culture="ghiscari"

	father=110360009
	mother=210360009

	6574.1.1 = {birth="6574.1.1"}
	6590.1.1 = {add_trait=skilled_warrior}
	6592.1.1 = {add_spouse=214360009}
	6618.1.1 = {death="6618.1.1"}
}
214360009 = {
	name="Gallaza"
	female=yes

	religion="harpy"
	culture="ghiscari"

	6574.1.1 = {birth="6574.1.1"}
	6618.1.1 = {death="6618.1.1"}
}
115360009 = {
	name="Hazzea"	# not a lord
	female=yes
	dynasty=360009

	religion="harpy"
	culture="ghiscari"

	father=110360009
	mother=210360009

	6576.1.1 = {birth="6576.1.1"}
	6648.1.1 = {death="6648.1.1"}
}
116360009 = {
	name="Ezzere"	# not a lord
	female=yes
	dynasty=360009

	religion="harpy"
	culture="ghiscari"

	father=114360009
	mother=214360009

	6603.1.1 = {birth="6603.1.1"}
	6644.1.1 = {death="6644.1.1"}
}
117360009 = {
	name="Maezon"	# a lord
	dynasty=360009

	religion="harpy"
	culture="ghiscari"

	father=114360009
	mother=214360009

	6606.1.1 = {birth="6606.1.1"}
	6618.1.1 = {}
	6622.1.1 = {add_trait=skilled_warrior}
	6624.1.1 = {add_spouse=217360009}
	6679.1.1 = {death="6679.1.1"}
}
217360009 = {
	name="Dhazza"
	female=yes

	religion="harpy"
	culture="ghiscari"

	6606.1.1 = {birth="6606.1.1"}
	6679.1.1 = {death="6679.1.1"}
}
118360009 = {
	name="Grazdan"	# not a lord
	dynasty=360009

	religion="harpy"
	culture="ghiscari"

	father=114360009
	mother=214360009

	6608.1.1 = {birth="6608.1.1"}
	6624.1.1 = {add_trait=poor_warrior}
	6656.1.1 = {death="6656.1.1"}
}
119360009 = {
	name="Skahaz"	# not a lord
	dynasty=360009

	religion="harpy"
	culture="ghiscari"

	father=114360009
	mother=214360009

	6610.1.1 = {birth="6610.1.1"}
	6626.1.1 = {add_trait=skilled_warrior}
	6655.1.1 = {death="6655.1.1"}
}
120360009 = {
	name="Gorzhak"	# a lord
	dynasty=360009

	religion="harpy"
	culture="ghiscari"

	father=117360009
	mother=217360009

	6633.1.1 = {birth="6633.1.1"}
	6649.1.1 = {add_trait=trained_warrior}
	6651.1.1 = {add_spouse=220360009}
	6679.1.1 = {}
	6701.1.1 = {death="6701.1.1"}
}
220360009 = {
	name="Ezzara"
	female=yes

	religion="harpy"
	culture="ghiscari"

	6633.1.1 = {birth="6633.1.1"}
	6701.1.1 = {death="6701.1.1"}
}
121360009 = {
	name="Qezza"	# not a lord
	female=yes
	dynasty=360009

	religion="harpy"
	culture="ghiscari"

	father=117360009
	mother=217360009

	6634.1.1 = {birth="6634.1.1"}
	6688.1.1 = {death="6688.1.1"}
}
122360009 = {
	name="Gallaza"	# not a lord
	female=yes
	dynasty=360009

	religion="harpy"
	culture="ghiscari"

	father=117360009
	mother=217360009

	6636.1.1 = {birth="6636.1.1"}
	6691.1.1 = {death="6691.1.1"}
}
123360009 = {
	name="Kraznysmo"	# not a lord
	dynasty=360009

	religion="harpy"
	culture="ghiscari"

	father=117360009
	mother=217360009

	6638.1.1 = {birth="6638.1.1"}
	6654.1.1 = {add_trait=poor_warrior}
	6683.1.1 = {death="6683.1.1"}
}
124360009 = {
	name="Reznak"	# not a lord
	dynasty=360009

	religion="harpy"
	culture="ghiscari"

	father=117360009
	mother=217360009

	6639.1.1 = {birth="6639.1.1"}
	6655.1.1 = {add_trait=poor_warrior}
	6696.1.1 = {death="6696.1.1"}
}
125360009 = {
	name="Yezza"	# not a lord
	female=yes
	dynasty=360009

	religion="harpy"
	culture="ghiscari"

	father=120360009
	mother=220360009

	6659.1.1 = {birth="6659.1.1"}
	6717.1.1 = {death="6717.1.1"}
}
126360009 = {
	name="Grazdan"	# a lord
	dynasty=360009

	religion="harpy"
	culture="ghiscari"

	father=120360009
	mother=220360009

	6660.1.1 = {birth="6660.1.1"}
	6676.1.1 = {add_trait=skilled_warrior}
	6678.1.1 = {add_spouse=226360009}
	6701.1.1 = {}
	6723.1.1 = {death="6723.1.1"}
}
226360009 = {
	name="Ezzara"
	female=yes

	religion="harpy"
	culture="ghiscari"

	6660.1.1 = {birth="6660.1.1"}
	6723.1.1 = {death="6723.1.1"}
}
127360009 = {
	name="Harghaz"	# a lord
	dynasty=360009

	religion="harpy"
	culture="ghiscari"

	father=126360009
	mother=226360009

	6686.1.1 = {birth="6686.1.1"}
	6702.1.1 = {add_trait=poor_warrior}
	6704.1.1 = {add_spouse=227360009}
	6723.1.1 = {}
	6753.1.1 = {death="6753.1.1"}
}
227360009 = {
	name="Ezzara"
	female=yes

	religion="harpy"
	culture="ghiscari"

	6686.1.1 = {birth="6686.1.1"}
	6753.1.1 = {death="6753.1.1"}
}

16571011 = {
	name="Skahaz" ## THE Shavepate
	dynasty=360009
	martial = 5
	diplomacy = 6
	intrigue = 2
	stewardship = 9
	learning = 4
	culture = meereenese
	religion = harpy 

	father=127360009
	mother=227360009		
	
	add_trait="elusive_shadow"
	add_trait="quick"
	add_trait="diligent"
	add_trait="ruthless"
	add_trait="deceitful"
	add_trait="cynical"
	add_trait="ugly"
	
	6732.1.1 = {
		birth="6732.1.1"
	}
	6748.1.1 = {
		add_trait = trained_warrior
	}
	6761.1.1 = {
		add_spouse = 46571011
	}
	6778.1.1 = {
		effect = {
			liege = {
				reverse_opinion = {
					modifier = opinion_loyal_servant
					who = ROOT
				}
			}	
		}
	}
}
46571011 = {
	name="Selezzqa"
	female=yes

	religion="harpy"
	culture="ghiscari"

	6732.1.1 = {
		birth="6732.1.1"
	}
}
16571111 = {
	name="Hazzea" 
	female = yes
	dynasty=360009
	
	culture = meereenese
	religion = harpy 

	father=16571011
	mother=46571011	
	
	6762.1.1 = {
		birth="6762.1.1"
	}
}
16571211 = {
	name="Galazza" 
	female = yes
	dynasty=360009
	
	culture = meereenese
	religion = harpy 

	father=16571011
	mother=46571011	
	
	6764.1.1 = {
		birth="6764.1.1"
	}
}
##House Reznak

150360008 = {
	name="Skahaz"	# a lord
	dynasty=360008

	religion="harpy"
	culture="ghiscari"

	6438.1.1 = {birth="6438.1.1"}
	6457.1.1 = {add_spouse=250360008}
	6505.1.1 = {death="6505.1.1"}
}
250360008 = {
	name="Tezzara"
	female=yes

	religion="harpy"
	culture="ghiscari"

	6438.1.1 = {birth="6438.1.1"}
	6501.1.1 = {death="6501.1.1"}
}
100360008 = {
	name="Reznak"	# a lord
	dynasty=360008

	religion="harpy"
	culture="ghiscari"

	father=150360008
	mother=250360008

	6474.1.1 = {birth="6474.1.1"}
	6494.1.1 = {add_trait=poor_warrior}
	6496.1.1 = {add_spouse=200360008}
	6505.1.1 = {}
	6523.1.1 = {death="6523.1.1"}
}
200360008 = {
	name="Tezzara"
	female=yes

	religion="harpy"
	culture="ghiscari"

	6478.1.1 = {birth="6478.1.1"}
	6514.1.1 = {death="6514.1.1"}
}
101360008 = {
	name="Gorhaz"	# a lord
	dynasty=360008

	religion="harpy"
	culture="ghiscari"

	father=100360008
	mother=200360008

	6507.1.1 = {birth="6507.1.1"}
	6523.1.1 = {add_trait=master_warrior}
	6523.1.1 = {}
	6525.1.1 = {add_spouse=201360008}
	6565.1.1 = {death="6565.1.1"}
}
201360008 = {
	name="Ezzara"
	female=yes

	religion="harpy"
	culture="ghiscari"

	6507.1.1 = {birth="6507.1.1"}
	6565.1.1 = {death="6565.1.1"}
}
102360008 = {
	name="Qezza"	# not a lord
	female=yes
	dynasty=360008

	religion="harpy"
	culture="ghiscari"

	father=100360008
	mother=200360008

	6509.1.1 = {birth="6509.1.1"}
	6564.1.1 = {death="6564.1.1"}
}
103360008 = {
	name="Grazdan"	# not a lord
	dynasty=360008

	religion="harpy"
	culture="ghiscari"

	father=100360008
	mother=200360008

	6512.1.1 = {birth="6512.1.1"}
	6528.1.1 = {add_trait=trained_warrior}
	6574.1.1 = {death="6574.1.1"}
}
104360008 = {
	name="Gallaza"	# not a lord
	female=yes
	dynasty=360008

	religion="harpy"
	culture="ghiscari"

	father=101360008
	mother=201360008

	6539.1.1 = {birth="6539.1.1"}
	6581.1.1 = {death="6581.1.1"}
}
105360008 = {
	name="Grazdan"	# a lord
	dynasty=360008

	religion="harpy"
	culture="ghiscari"

	father=101360008
	mother=201360008

	6540.1.1 = {birth="6540.1.1"}
	6556.1.1 = {add_trait=poor_warrior}
	6558.1.1 = {add_spouse=205360008}
	6565.1.1 = {}
	6606.1.1 = {death="6606.1.1"}
}
205360008 = {
	name="Qezza"
	female=yes

	religion="harpy"
	culture="ghiscari"

	6540.1.1 = {birth="6540.1.1"}
	6606.1.1 = {death="6606.1.1"}
}
106360008 = {
	name="Yezza"	# not a lord
	female=yes
	dynasty=360008

	religion="harpy"
	culture="ghiscari"

	father=101360008
	mother=201360008

	6541.1.1 = {birth="6541.1.1"}
	6600.1.1 = {death="6600.1.1"}
}
107360008 = {
	name="Maezonno"	# not a lord
	dynasty=360008

	religion="harpy"
	culture="ghiscari"

	father=101360008
	mother=201360008

	6543.1.1 = {birth="6543.1.1"}
	6559.1.1 = {add_trait=trained_warrior}
	6585.1.1 = {death="6585.1.1"}
}
108360008 = {
	name="Ferrego"	# not a lord
	dynasty=360008

	religion="harpy"
	culture="ghiscari"

	father=105360008
	mother=205360008

	6572.1.1 = {birth="6572.1.1"}
	6583.1.1 = {death="6583.1.1"}
}
109360008 = {
	name="Reznak"	# a lord
	dynasty=360008

	religion="harpy"
	culture="ghiscari"

	father=105360008
	mother=205360008

	6573.1.1 = {birth="6573.1.1"}
	6589.1.1 = {add_trait=poor_warrior}
	6598.1.1 = {add_spouse=209360008}
	6606.1.1 = {}
	6623.1.1 = {death="6623.1.1"}
}
209360008 = {
	name="Mezzara"
	female=yes

	religion="harpy"
	culture="ghiscari"

	6573.1.1 = {birth="6573.1.1"}
	6623.1.1 = {death="6623.1.1"}
}
110360008 = {
	name="Azzara"	# not a lord
	female=yes
	dynasty=360008

	religion="harpy"
	culture="ghiscari"

	father=105360008
	mother=205360008

	6559.1.1 = {birth="6559.1.1"}
	6582.1.1 = {death="6582.1.1"}
}
111360008 = {
	name="Qezza"	# not a lord
	female=yes
	dynasty=360008

	religion="harpy"
	culture="ghiscari"

	father=105360008
	mother=205360008

	6562.1.1 = {birth="6562.1.1"}
	6627.1.1 = {death="6627.1.1"}
}
113360008 = {
	name="Grazdan"	# not a lord
	dynasty=360008

	religion="harpy"
	culture="ghiscari"

	father=105360008
	mother=205360008

	6566.1.1 = {birth="6566.1.1"}
	6582.1.1 = {add_trait=skilled_warrior}
	6623.1.1 = {death="6623.1.1"}
}
114360008 = {
	name="Ghazdor"	# not a lord
	dynasty=360008

	religion="harpy"
	culture="ghiscari"

	father=105360008
	mother=205360008

	6569.1.1 = {birth="6569.1.1"}
	6585.1.1 = {add_trait=poor_warrior}
	6625.1.1 = {death="6625.1.1"}
}
115360008 = {
	name="Ezzara"	# not a lord
	female=yes
	dynasty=360008

	religion="harpy"
	culture="ghiscari"

	father=109360008
	mother=209360008

	6598.1.1 = {birth="6598.1.1"}
	6631.1.1 = {death="6631.1.1"}
}
116360008 = {
	name="Gorzhak"	# a lord
	dynasty=360008

	religion="harpy"
	culture="ghiscari"

	father=109360008
	mother=209360008

	6600.1.1 = {birth="6600.1.1"}
	6616.1.1 = {add_trait=master_warrior}
	6618.1.1 = {add_spouse=216360008}
	6623.1.1 = {}
	6649.1.1 = {death="6649.1.1"}
}
216360008 = {
	name="Yezzara"
	female=yes

	religion="harpy"
	culture="ghiscari"

	6600.1.1 = {birth="6600.1.1"}
	6649.1.1 = {death="6649.1.1"}
}
117360008 = {
	name="Skahaz"	# not a lord
	dynasty=360008

	religion="harpy"
	culture="ghiscari"

	father=109360008
	mother=209360008

	6603.1.1 = {birth="6603.1.1"}
	6619.1.1 = {add_trait=trained_warrior}
	6657.1.1 = {death="6657.1.1"}
}
118360008 = {
	name="Hizdahr"	# not a lord
	dynasty=360008

	religion="harpy"
	culture="ghiscari"

	father=109360008
	mother=209360008

	6606.1.1 = {birth="6606.1.1"}
	6622.1.1 = {add_trait=skilled_warrior}
	6638.1.1 = {death = {death_reason = death_battle}}
}
119360008 = {
	name="Yorka"	# not a lord
	female=yes
	dynasty=360008

	religion="harpy"
	culture="ghiscari"

	father=116360008
	mother=216360008

	6624.1.1 = {birth="6624.1.1"}
	6675.1.1 = {death="6675.1.1"}
}
120360008 = {
	name="Haznak"	# a lord
	dynasty=360008

	religion="harpy"
	culture="ghiscari"

	father=116360008
	mother=216360008

	6625.1.1 = {birth="6625.1.1"}
	6641.1.1 = {add_trait=trained_warrior}
	6643.1.1 = {add_spouse=220360008}
	6649.1.1 = {}
	6682.1.1 = {death="6682.1.1"}
}
220360008 = {
	name="Ezzara"
	female=yes

	religion="harpy"
	culture="ghiscari"

	6625.1.1 = {birth="6625.1.1"}
	6682.1.1 = {death="6682.1.1"}
}
121360008 = {
	name="Qezza"	# not a lord
	female=yes
	dynasty=360008

	religion="harpy"
	culture="ghiscari"

	father=116360008
	mother=216360008

	6628.1.1 = {birth="6628.1.1"}
	6639.1.1 = {death="6639.1.1"}
}
122360008 = {
	name="Mallazara"	# not a lord
	female=yes
	dynasty=360008

	religion="harpy"
	culture="ghiscari"

	father=116360008
	mother=216360008

	6630.1.1 = {birth="6630.1.1"}
	6687.1.1 = {death="6687.1.1"}
}
123360008 = {
	name="Mazdhak"	# a lord
	dynasty=360008

	religion="harpy"
	culture="ghiscari"

	father=120360008
	mother=220360008

	6645.1.1 = {birth="6645.1.1"}
	6661.1.1 = {add_trait=poor_warrior}
	6665.1.1 = {add_spouse=223360008}
	6682.1.1 = {}
	6711.1.1 = {death="6711.1.1"}
}
223360008 = {
	name="Gallaza"
	female=yes

	religion="harpy"
	culture="ghiscari"

	6645.1.1 = {birth="6645.1.1"}
	6711.1.1 = {death="6711.1.1"}
}
124360008 = {
	name="Mellaza"	# not a lord
	female=yes
	dynasty=360008

	religion="harpy"
	culture="ghiscari"

	father=120360008
	mother=220360008

	6647.1.1 = {birth="6647.1.1"}
	6694.1.1 = {death="6694.1.1"}
}
125360008 = {
	name="Bellonara"	# not a lord
	female=yes
	dynasty=360008

	religion="harpy"
	culture="ghiscari"

	father=123360008
	mother=223360008

	6674.1.1 = {birth="6674.1.1"}
	6708.1.1 = {death="6708.1.1"}
}
126360008 = {
	name="Marghaz"	# a lord
	dynasty=360008

	religion="harpy"
	culture="ghiscari"

	father=123360008
	mother=223360008

	6669.1.1 = {birth="6669.1.1"}
	6685.1.1 = {add_trait=poor_warrior}
	6687.1.1 = {add_spouse=226360008}
	6711.1.1 = {}
	6727.1.1 = {death="6727.1.1"}
}
226360008 = {
	name="Qezza"
	female=yes

	religion="harpy"
	culture="ghiscari"

	6669.1.1 = {birth="6669.1.1"}
	6727.1.1 = {death="6727.1.1"}
}
127360008 = {
	name="Qezza"	# not a lord
	female=yes
	dynasty=360008

	religion="harpy"
	culture="ghiscari"

	father=123360008
	mother=223360008

	6670.1.1 = {birth="6670.1.1"}
	6739.1.1 = {death = {death_reason = death_murder}}
}
128360008 = {
	name="Gallaza"	# not a lord
	female=yes
	dynasty=360008

	religion="harpy"
	culture="ghiscari"

	father=123360008
	mother=223360008

	6671.1.1 = {birth="6671.1.1"}
	6737.1.1 = {death="6737.1.1"}
}
129360008 = {
	name="Grazdan"	# a lord
	dynasty=360008

	religion="harpy"
	culture="ghiscari"

	father=126360008
	mother=226360008

	6704.1.1 = {birth="6704.1.1"}
	6720.1.1 = {add_trait=poor_warrior}
	6722.1.1 = {add_spouse=229360008}
	6727.1.1 = {}
	6757.1.1 = {death="6757.1.1"}
}
229360008 = {
	name="Rezzala"
	female=yes

	religion="harpy"
	culture="ghiscari"

	6704.1.1 = {birth="6704.1.1"}
	6746.1.1 = {death="6746.1.1"}
}
130360008 = {
	name="Maezar"	# not a lord
	female=yes
	dynasty=360008

	religion="harpy"
	culture="ghiscari"

	father=126360008
	mother=226360008

	6705.1.1 = {birth="6705.1.1"}
	6746.1.1 = {death="6746.1.1"}
}
16571012 = {
	name="Reznak" 
	dynasty=360008
	diplomacy = 12
	intrigue = 16
	stewardship = 9
	learning = 8
	culture = meereenese
	religion = harpy 

	father=129360008
	mother=229360008		
	

	add_trait="diligent"
	add_trait="patient"
	add_trait="deceitful"
	add_trait="cynical"
	
	6728.1.1 = {
		birth="6728.1.1"
	}
	6757.1.1 = {}
}

##House Loraq


150360003 = {
	name="Zharaq"	# famous citizen
	dynasty=360003
	
	stewardship = 6
	martial = 3
	diplomacy = 5
	intrigue = 4
	learning = 4
	
	add_trait = grey_eminence
	add_trait = ambitious
	add_trait = diligent

	religion="harpy"
	culture="ghiscari"

	6438.1.1 = {birth="6438.1.1"}
	6461.1.1 = {add_spouse=250360003}
	6494.1.1 = {death="6494.1.1"}
}
250360003 = {
	name="Qezza"
	female=yes

	religion="harpy"
	culture="ghiscari"

	6443.1.1 = {birth="6443.1.1"}
	6490.1.1 = {death="6490.1.1"}
}
100360003 = {
	name="Hizdahr"	# a lord
	dynasty=360003

	religion="harpy"
	culture="ghiscari"

	father=150360003
	mother=250360003

	6465.1.1 = {birth="6465.1.1"}
	6494.1.1 = {add_trait=poor_warrior}
	6494.1.1 = {}
	6496.1.1 = {add_spouse=200360003}
	6525.1.1 = {death="6525.1.1"}
}
200360003 = {
	name="Qezza"
	female=yes

	religion="harpy"
	culture="ghiscari"

	6471.1.1 = {birth="6471.1.1"}
	6510.1.1 = {death="6510.1.1"}
}
101360003 = {
	name="Tezza"
	female=yes
	dynasty=360003

	religion="harpy"
	culture="ghiscari"

	father=100360003
	mother=200360003

	6502.1.1 = {birth="6502.1.1"}
	6544.1.1 = {death = {death_reason = death_accident}}
}
102360003 = {
	name="Hizdahr"	# a lord
	dynasty=360003

	religion="harpy"
	culture="ghiscari"

	father=100360003
	mother=200360003

	6503.1.1 = {birth="6503.1.1"}
	6519.1.1 = {add_trait=poor_warrior}
	6521.1.1 = {add_spouse=202360003}
	6525.1.1 = {}
	6568.1.1 = {death="6568.1.1"}
}
202360003 = {
	name="Mezza"
	female=yes

	religion="harpy"
	culture="ghiscari"

	6503.1.1 = {birth="6503.1.1"}
	6568.1.1 = {death="6568.1.1"}
}
103360003 = {
	name="Azzara"	# not a lord
	female=yes
	dynasty=360003

	religion="harpy"
	culture="ghiscari"

	father=100360003
	mother=200360003

	6505.1.1 = {birth="6505.1.1"}
	6584.1.1 = {death="6584.1.1"}
}
104360003 = {
	name="Grazdan"	# not a lord
	dynasty=360003

	religion="harpy"
	culture="ghiscari"

	father=100360003
	mother=200360003

	6508.1.1 = {birth="6508.1.1"}
	6512.1.1 = {death="6512.1.1"}
}
105360003 = {
	name="Grazdan"	# a lord
	dynasty=360003

	religion="harpy"
	culture="ghiscari"

	father=102360003
	mother=202360003

	6525.1.1 = {birth="6525.1.1"}
	6541.1.1 = {add_trait=skilled_warrior}
	6543.1.1 = {add_spouse=205360003}
	6568.1.1 = {}
	6584.1.1 = {death = {death_reason = death_accident}}
}
205360003 = {
	name="Sezza"
	female=yes

	religion="harpy"
	culture="ghiscari"

	6525.1.1 = {birth="6525.1.1"}
	6584.1.1 = {death="6584.1.1"}
}
106360003 = {
	name="Yezzara"	# not a lord
	female=yes
	dynasty=360003

	religion="harpy"
	culture="ghiscari"

	father=102360003
	mother=202360003

	6526.1.1 = {birth="6526.1.1"}
	6597.1.1 = {death="6597.1.1"}
}
107360003 = {
	name="Gallaza"	# not a lord
	female=yes
	dynasty=360003

	religion="harpy"
	culture="ghiscari"

	father=102360003
	mother=202360003

	6528.1.1 = {birth="6528.1.1"}
	6567.1.1 = {death="6567.1.1"}
}
108360003 = {
	name="Marghazn"	# not a lord
	dynasty=360003

	religion="harpy"
	culture="ghiscari"

	father=102360003
	mother=202360003

	6529.1.1 = {birth="6529.1.1"}
	6545.1.1 = {add_trait=trained_warrior}
	6583.1.1 = {death="6583.1.1"}
}
109360003 = {
	name="Maezon"	# not a lord
	dynasty=360003

	religion="harpy"
	culture="ghiscari"

	father=102360003
	mother=202360003

	6530.1.1 = {birth="6530.1.1"}
	6546.1.1 = {add_trait=poor_warrior}
	6561.1.1 = {death="6561.1.1"}
}
110360003 = {
	name="Mellaza"	# not a lord
	female=yes
	dynasty=360003

	religion="harpy"
	culture="ghiscari"

	father=105360003
	mother=205360003

	6547.1.1 = {birth="6547.1.1"}
	6606.1.1 = {death="6606.1.1"}
}
111360003 = {
	name="Mazdhan"	# famous citizen
	dynasty=360003
	
	stewardship = 5
	martial = 2
	diplomacy = 4
	intrigue = 3
	learning = 5
	
	add_trait = fortune_builder
	add_trait = ambitious
	add_trait = diligent

	religion="harpy"
	culture="ghiscari"

	father=105360003
	mother=205360003

	6548.1.1 = {birth="6548.1.1"}
	6564.1.1 = {add_trait=poor_warrior}
	6566.1.1 = {add_spouse=211360003}
	6584.1.1 = {}
	6602.1.1 = {death="6602.1.1"}
}
211360003 = {
	name="Azza"
	female=yes

	religion="harpy"
	culture="ghiscari"

	6548.1.1 = {birth="6548.1.1"}
	6602.1.1 = {death="6602.1.1"}
}
112360003 = {
	name="Serala"	# not a lord
	female=yes
	dynasty=360003

	religion="harpy"
	culture="ghiscari"

	father=111360003
	mother=211360003

	6566.1.1 = {birth="6566.1.1"}
	6602.1.1 = {death="6602.1.1"}
}
113360003 = {
	name="Ezzere"	# not a lord
	female=yes
	dynasty=360003

	religion="harpy"
	culture="ghiscari"

	father=111360003
	mother=211360003

	6569.1.1 = {birth="6569.1.1"}
	6619.1.1 = {death="6619.1.1"}
}
114360003 = {
	name="Hazrak"	# famous citizen
	dynasty=360003
	
	stewardship = 7
	martial = 3
	diplomacy = 6
	intrigue = 7
	learning = 6
	
	add_trait = midas_touched
	add_trait = ambitious
	add_trait = diligent
	
	religion="harpy"
	culture="ghiscari"

	father=111360003
	mother=211360003

	6572.1.1 = {birth="6572.1.1"}
	6588.1.1 = {add_trait=trained_warrior}
	6590.1.1 = {add_spouse=214360003}
	6602.1.1 = {}
	6638.1.1 = {death="6638.1.1"}
}
214360003 = {
	name="Qezza"
	female=yes

	religion="harpy"
	culture="ghiscari"

	6572.1.1 = {birth="6572.1.1"}
	6638.1.1 = {death="6638.1.1"}
}
115360003 = {
	name="Grazdhan"	# not a lord
	dynasty=360003

	religion="harpy"
	culture="ghiscari"

	father=111360003
	mother=211360003

	6573.1.1 = {birth="6573.1.1"}
	6579.1.1 = {death = {death_reason = death_accident}}
}
117360003 = {
	name="Izella"	# not a lord
	female=yes
	dynasty=360003

	religion="harpy"
	culture="ghiscari"

	father=114360003
	mother=214360003

	6598.1.1 = {birth="6598.1.1"}
	6640.1.1 = {death="6640.1.1"}
}
118360003 = {
	name="Kraznys"	# a lord
	dynasty=360003

	religion="harpy"
	culture="ghiscari"

	father=114360003
	mother=214360003

	6601.1.1 = {birth="6601.1.1"}
	6617.1.1 = {add_trait=poor_warrior}
	6619.1.1 = {add_spouse=218360003}
	6638.1.1 = {}
	6657.1.1 = {death="6657.1.1"}
}
218360003 = {
	name="Gallaza"
	female=yes

	religion="harpy"
	culture="ghiscari"

	6601.1.1 = {birth="6601.1.1"}
	6657.1.1 = {death="6657.1.1"}
}
119360003 = {
	name="Grazdan"	# not a lord
	dynasty=360003

	religion="harpy"
	culture="ghiscari"

	father=114360003
	mother=214360003

	6603.1.1 = {birth="6603.1.1"}
	6619.1.1 = {add_trait=poor_warrior}
	6645.1.1 = {death="6645.1.1"}
}
120360003 = {
	name="Hizdahr"	# a lord
	dynasty=360003

	religion="harpy"
	culture="ghiscari"

	father=118360003
	mother=218360003

	6632.1.1 = {birth="6632.1.1"}
	6648.1.1 = {add_trait=poor_warrior}
	6650.1.1 = {add_spouse=220360003}
	6657.1.1 = {}
	6690.1.1 = {death="6690.1.1"}
}
220360003 = {
	name="Mezzala"
	female=yes

	religion="harpy"
	culture="ghiscari"

	6632.1.1 = {birth="6632.1.1"}
	6690.1.1 = {death="6690.1.1"}
}
121360003 = {
	name="Grazdan"	# not a lord
	dynasty=360003

	religion="harpy"
	culture="ghiscari"

	father=120360003
	mother=220360003

	6654.1.1 = {birth="6654.1.1"}
	6665.1.1 = {death="6665.1.1"}
}
122360003 = {
	name="Hizdahrio"	# a lord
	dynasty=360003

	religion="harpy"
	culture="ghiscari"

	father=120360003
	mother=220360003

	6651.1.1 = {birth="6651.1.1"}
	6667.1.1 = {add_trait=poor_warrior}
	6669.1.1 = {add_spouse=222360003}
	6690.1.1 = {}
	6716.1.1 = {death="6716.1.1"}
}
222360003 = {
	name="Ezzala"
	female=yes

	religion="harpy"
	culture="ghiscari"

	6651.1.1 = {birth="6651.1.1"}
	6716.1.1 = {death="6716.1.1"}
}
123360003 = {
	name="Qezza"	# not a lord
	female=yes
	dynasty=360003

	religion="harpy"
	culture="ghiscari"

	father=120360003
	mother=220360003

	6652.1.1 = {birth="6652.1.1"}
	6695.1.1 = {death="6695.1.1"}
}
124360003 = {
	name="Moredo"	# a lord
	dynasty=360003

	religion="harpy"
	culture="ghiscari"

	father=122360003
	mother=222360003

	6686.1.1 = {birth="6686.1.1"}
	6702.1.1 = {add_trait=skilled_warrior}
	6704.1.1 = {add_spouse=224360003}
	6716.1.1 = {}
	6728.1.1 = {death="6728.1.1"}
}
224360003 = {
	name="Ezzara"
	female=yes

	religion="harpy"
	culture="ghiscari"

	6686.1.1 = {birth="6686.1.1"}
	6728.1.1 = {death="6728.1.1"}
}
125360003 = {
	name="Gallaza"	# not a lord
	female=yes
	dynasty=360003

	religion="harpy"
	culture="ghiscari"

	father=122360003
	mother=222360003

	6689.1.1 = {birth="6689.1.1"}
	6732.1.1 = {death="6732.1.1"}
}
126360003 = {
	name="Skahaznaro"	# not a lord
	dynasty=360003

	religion="harpy"
	culture="ghiscari"

	father=122360003
	mother=222360003

	6690.1.1 = {birth="6690.1.1"}
	6706.1.1 = {add_trait=poor_warrior}
	6725.1.1 = {death="6725.1.1"}
}
127360003 = {
	name="Maez"	# not a lord
	female=yes
	dynasty=360003

	religion="harpy"
	culture="ghiscari"

	father=122360003
	mother=222360003

	6691.1.1 = {birth="6691.1.1"}
	6747.1.1 = {death="6747.1.1"}
}
128360003 = {
	name="Ellara"	# not a lord
	female=yes
	dynasty=360003

	religion="harpy"
	culture="ghiscari"

	father=124360003
	mother=224360003

	6704.1.1 = {birth="6704.1.1"}
	6774.1.1 = {death="6774.1.1"}
}
129360003 = {
	name="Barkhaz"	# a lord
	dynasty=360003

	religion="harpy"
	culture="ghiscari"

	father=124360003
	mother=224360003

	6707.1.1 = {birth="6707.1.1"}
	6723.1.1 = {add_trait=poor_warrior}
	6725.1.1 = {add_spouse=229360003}
	6728.1.1 = {}
	6764.1.1 = {death="6764.1.1"}
}
229360003 = {
	name="Yezza"
	female=yes

	religion="harpy"
	culture="ghiscari"

	6707.1.1 = {birth="6707.1.1"}
	#6764.1.1 = {death="6764.1.1"} #she was alive in books
}
130360003 = {
	name="Qezzala"	# not a lord
	female=yes
	dynasty=360003

	religion="harpy"
	culture="ghiscari"

	father=124360003
	mother=224360003

	6710.1.1 = {birth="6710.1.1"}
	6758.1.1 = {death="6758.1.1"}
}
131360003 = {
	name="Grazdan"	# not a lord
	dynasty=360003

	religion="harpy"
	culture="ghiscari"

	father=124360003
	mother=224360003

	6713.1.1 = {birth="6713.1.1"}
	6729.1.1 = {add_trait=poor_warrior}
	6731.1.1 = {add_spouse=231360003}
	6762.1.1 = {death="6762.1.1"}
}
231360003 = {
	name="Telleza"
	female=yes

	religion="harpy"
	culture="ghiscari"

	6713.1.1 = {birth="6713.1.1"}
	6764.1.1 = {death="6764.1.1"}
}

16571013 = {
	name="Hizdahr"  ##Marries Dany
	dynasty=360003
	martial = 4
	diplomacy = 5
	intrigue = 2
	stewardship = 6
	culture = meereenese
	religion = harpy 

	father=129360003
	mother=229360003		
	
	add_trait="ambitious"
	add_trait="patient"
	add_trait="deceitful"
	add_trait="cynical"
	
	6744.1.1 = {
		birth="6744.1.1"
	}
	6764.1.1 = {}
	6776.10.10 = {  # Drogo's death
		effect = {
			if = {
				limit = { ai = yes }
				add_trait = forbid_marriage
			}
		}
	}
	6778.1.1 = { 
		effect = {
			b_meereen = { ROOT = { capital = PREV } }
		}
	}
}
132360003 = { #king hazoo had two bastards
	name="Oznak"
	dynasty=360003
	
	father=16571013
	culture = meereenese
	religion = harpy 
	add_trait=bastard
	
	6765.1.1 = { birth="6765.1.1" }
}
133360003 = { #king hazoo had two bastards
	name="Tezza"
	dynasty=360003
	female=yes
	
	father=16571013
	culture = meereenese
	religion = harpy 
	add_trait=bastard
	
	6767.1.1 = { birth="6767.1.1" }
}
134360003 = { #hizdahr has some sisters
	name="Yezza"
	dynasty=360003
	female=yes
	culture = meereenese
	religion = harpy 
	father=129360003
	mother=229360003
	
	6750.1.1 = {
		birth="6750.1.1"
	}
}
135360003 = { #hizdahr has some sisters
	name="Lazzala"
	dynasty=360003
	female=yes
	culture = meereenese
	religion = harpy 
	father=129360003
	mother=229360003
	
	6755.1.1 = {
		birth="6755.1.1"
	}
}
136360003 = { #some female cousing of Hizdahr was hostage
	name="Ezzara"
	dynasty=360003
	female=yes
	culture = meereenese
	religion = harpy 
	father=131360003
	mother=231360003	
	
	6743.1.1 = {
		birth="6743.1.1"
	}
}
137360003 = { #canon
	name="Bhakaz"
	dynasty=360003
	culture = meereenese
	religion = harpy 
	father=16571014 #he is too young to be son of other zo loraq
	mother=237360003
	6770.1.1 = {
		birth="6770.1.1"
	}
}


##House Galare

150360004 = {
	name="Phaezdhar"	# a lord
	dynasty=360004

	religion="harpy"
	culture="ghiscari"

	6442.1.1 = {birth="6442.1.1"}
	6460.1.1 = {add_spouse=250360004}
	6498.1.1 = {death="6498.1.1"}
}
250360004 = {
	name="Yezza"
	female=yes

	religion="harpy"
	culture="ghiscari"

	6441.1.1 = {birth="6441.1.1"}
	6493.1.1 = {death="6493.1.1"}
}

100360004 = {
	name="Grazdan"	# a lord
	dynasty=360004

	religion="harpy"
	culture="ghiscari"

	father=150360004
	mother=250360004

	6462.1.1 = {birth="6462.1.1"}
	6494.1.1 = {add_trait=poor_warrior}
	6496.1.1 = {add_spouse=200360004}
	6498.1.1 = {}
	6531.1.1 = {death="6531.1.1"}
}
200360004 = {
	name="Lazzala"
	female=yes

	religion="harpy"
	culture="ghiscari"

	6462.1.1 = {birth="6462.1.1"}
	6516.1.1 = {death="6516.1.1"}
}
101360004 = {
	name="Miklaz"	# a lord
	dynasty=360004

	religion="harpy"
	culture="ghiscari"

	father=100360004
	mother=200360004

	6507.1.1 = {birth="6507.1.1"}
	6523.1.1 = {add_trait=poor_warrior}
	6525.1.1 = {add_spouse=201360004}
	6531.1.1 = {}
	6556.1.1 = {death="6556.1.1"}
}
201360004 = {
	name="Qezza"
	female=yes

	religion="harpy"
	culture="ghiscari"

	6507.1.1 = {birth="6507.1.1"}
	6556.1.1 = {death="6556.1.1"}
}
102360004 = {
	name="Azza"	# not a lord
	female=yes
	dynasty=360004

	religion="harpy"
	culture="ghiscari"

	father=100360004
	mother=200360004

	6509.1.1 = {birth="6509.1.1"}
	6558.1.1 = {death="6558.1.1"}
}
103360004 = {
	name="Grazdan"	# a lord
	dynasty=360004

	religion="harpy"
	culture="ghiscari"

	father=101360004
	mother=201360004

	6528.1.1 = {birth="6528.1.1"}
	6544.1.1 = {add_trait=poor_warrior}
	6546.1.1 = {add_spouse=203360004}
	6556.1.1 = {}
	6583.1.1 = {death="6583.1.1"}
}
203360004 = {
	name="Ezzara"
	female=yes

	religion="harpy"
	culture="ghiscari"

	6528.1.1 = {birth="6528.1.1"}
	6583.1.1 = {death="6583.1.1"}
}
104360004 = {
	name="Maezor"	# not a lord
	dynasty=360004

	religion="harpy"
	culture="ghiscari"

	father=101360004
	mother=201360004

	6530.1.1 = {birth="6530.1.1"}
	6546.1.1 = {add_trait=skilled_warrior}
	6587.1.1 = {death="6587.1.1"}
}
105360004 = {
	name="Skahaz"	# not a lord
	dynasty=360004

	religion="harpy"
	culture="ghiscari"

	father=101360004
	mother=201360004

	6533.1.1 = {birth="6533.1.1"}
	6549.1.1 = {add_trait=skilled_warrior}
	6602.1.1 = {death="6602.1.1"}
}
106360004 = {
	name="Hazzea"	# not a lord
	female=yes
	dynasty=360004

	religion="harpy"
	culture="ghiscari"

	father=101360004
	mother=201360004

	6535.1.1 = {birth="6535.1.1"}
	6552.1.1 = {death="6552.1.1"}
}
107360004 = {
	name="Azzak"	# a lord
	dynasty=360004

	religion="harpy"
	culture="ghiscari"

	father=103360004
	mother=203360004

	6547.1.1 = {birth="6547.1.1"}
	6563.1.1 = {add_trait=trained_warrior}
	6565.1.1 = {add_spouse=207360004}
	6583.1.1 = {}
	6596.1.1 = {death="6596.1.1"}
}
207360004 = {
	name="Nazza"
	female=yes

	religion="harpy"
	culture="ghiscari"

	6547.1.1 = {birth="6547.1.1"}
	6596.1.1 = {death="6596.1.1"}
}
108360004 = {
	name="Grazdan"	# not a lord
	dynasty=360004

	religion="harpy"
	culture="ghiscari"

	father=103360004
	mother=203360004

	6548.1.1 = {birth="6548.1.1"}
	6564.1.1 = {add_trait=poor_warrior}
	6571.1.1 = {death="6571.1.1"}
}
109360004 = {
	name="Ezzala"	# not a lord
	female=yes
	dynasty=360004

	religion="harpy"
	culture="ghiscari"

	father=103360004
	mother=203360004

	6550.1.1 = {birth="6550.1.1"}
	6619.1.1 = {death="6619.1.1"}
}
110360004 = {
	name="Reznak"	# not a lord
	dynasty=360004

	religion="harpy"
	culture="ghiscari"

	father=103360004
	mother=203360004

	6551.1.1 = {birth="6551.1.1"}
	6567.1.1 = {add_trait=poor_warrior}
	6612.1.1 = {death="6612.1.1"}
}
111360004 = {
	name="Ulezza"	# not a lord
	female=yes
	dynasty=360004

	religion="harpy"
	culture="ghiscari"

	father=107360004
	mother=207360004

	6575.1.1 = {birth="6575.1.1"}
	6605.1.1 = {death="6605.1.1"}
}
112360004 = {
	name="Marghaz"	# a lord
	dynasty=360004

	religion="harpy"
	culture="ghiscari"

	father=107360004
	mother=207360004

	6577.1.1 = {birth="6577.1.1"}
	6593.1.1 = {add_trait=skilled_warrior}
	6595.1.1 = {add_spouse=212360004}
	6596.1.1 = {}
	6644.1.1 = {death="6644.1.1"}
}
212360004 = {
	name="Mezzara"
	female=yes

	religion="harpy"
	culture="ghiscari"

	6577.1.1 = {birth="6577.1.1"}
	6644.1.1 = {death="6644.1.1"}
}
113360004 = {
	name="Qezza"	# not a lord
	female=yes
	dynasty=360004

	religion="harpy"
	culture="ghiscari"

	father=107360004
	mother=207360004

	6579.1.1 = {birth="6579.1.1"}
	6608.1.1 = {death = {death_reason = death_accident}}
}
114360004 = {
	name="Yurkhazo"	# not a lord
	dynasty=360004

	religion="harpy"
	culture="ghiscari"

	father=107360004
	mother=207360004

	6581.1.1 = {birth="6581.1.1"}
	6597.1.1 = {add_trait=poor_warrior}
	6642.1.1 = {death="6642.1.1"}
}
115360004 = {
	name="Jaqea"	# not a lord
	female=yes
	dynasty=360004

	religion="harpy"
	culture="ghiscari"

	father=112360004
	mother=212360004

	6605.1.1 = {birth="6605.1.1"}
	6660.1.1 = {death="6660.1.1"}
}
116360004 = {
	name="Gorzhak"	# a lord
	dynasty=360004

	religion="harpy"
	culture="ghiscari"

	father=112360004
	mother=212360004

	6606.1.1 = {birth="6606.1.1"}
	6622.1.1 = {add_trait=poor_warrior}
	6624.1.1 = {add_spouse=216360004}
	6644.1.1 = {}
	6657.1.1 = {death="6657.1.1"}
}
216360004 = {
	name="Hazzea"
	female=yes

	religion="harpy"
	culture="ghiscari"

	6606.1.1 = {birth="6606.1.1"}
	6657.1.1 = {death="6657.1.1"}
}
117360004 = {
	name="Azlak"	# not a lord
	dynasty=360004

	religion="harpy"
	culture="ghiscari"

	father=112360004
	mother=212360004

	6607.1.1 = {birth="6607.1.1"}
	6623.1.1 = {add_trait=poor_warrior}
	6662.1.1 = {death="6662.1.1"}
}
118360004 = {
	name="Syrea"	# not a lord
	female=yes
	dynasty=360004

	religion="harpy"
	culture="ghiscari"

	father=116360004
	mother=216360004

	6635.1.1 = {birth="6635.1.1"}
	6668.1.1 = {death = {death_reason = death_execution}}
}
119360004 = {
	name="Dhazak"	# a lord
	dynasty=360004

	religion="harpy"
	culture="ghiscari"

	father=116360004
	mother=216360004

	6636.1.1 = {birth="6636.1.1"}
	6652.1.1 = {add_trait=trained_warrior}
	6654.1.1 = {add_spouse=219360004}
	6657.1.1 = {}
	6678.1.1 = {death="6678.1.1"}
}
219360004 = {
	name="Dalla"
	female=yes

	religion="harpy"
	culture="ghiscari"

	6636.1.1 = {birth="6636.1.1"}
	6678.1.1 = {death="6678.1.1"}
}
120360004 = {
	name="Skahaz"	# not a lord
	dynasty=360004

	religion="harpy"
	culture="ghiscari"

	father=116360004
	mother=216360004

	6639.1.1 = {birth="6639.1.1"}
	6655.1.1 = {add_trait=poor_warrior}
	6692.1.1 = {death="6692.1.1"}
}
121360004 = {
	name="Yurkhaz"	# not a lord
	dynasty=360004

	religion="harpy"
	culture="ghiscari"

	father=116360004
	mother=216360004

	6640.1.1 = {birth="6640.1.1"}
	6656.1.1 = {add_trait=poor_warrior}
	6676.1.1 = {death="6676.1.1"}
}
122360004 = {
	name="Marghazo"	# not a lord
	dynasty=360004

	religion="harpy"
	culture="ghiscari"

	father=116360004
	mother=216360004

	6641.1.1 = {birth="6641.1.1"}
	6657.1.1 = {add_trait=trained_warrior}
	6676.1.1 = {death = {death_reason = death_execution}}
}
123360004 = {
	name="Paezhar"	# a lord
	dynasty=360004

	religion="harpy"
	culture="ghiscari"

	father=119360004
	mother=219360004

	6658.1.1 = {birth="6658.1.1"}
	6677.1.1 = {add_spouse=223360004}
	6678.1.1 = {}
	6687.1.1 = {add_trait=skilled_warrior}
	6707.1.1 = {death="6707.1.1"}
}
223360004 = {
	name="Ezzara"
	female=yes

	religion="harpy"
	culture="ghiscari"

	6658.1.1 = {birth="6658.1.1"}
	6707.1.1 = {death="6707.1.1"}
}
124360004 = {
	name="Reznak"	# not a lord
	dynasty=360004

	religion="harpy"
	culture="ghiscari"

	father=119360004
	mother=219360004

	6673.1.1 = {birth="6673.1.1"}
	6689.1.1 = {add_trait=trained_warrior}
	6720.1.1 = {add_spouse=228360004}
	6742.1.1 = {death="6742.1.1"}
}
125360004 = {
	name="Mallaza"	# not a lord
	female=yes
	dynasty=360004

	religion="harpy"
	culture="ghiscari"

	father=119360004
	mother=219360004

	6674.1.1 = {birth="6674.1.1"}
	6741.1.1 = {death = {death_reason = death_accident}}
}
126360004 = {
	name="Bharkaz"	# not a lord
	dynasty=360004

	religion="harpy"
	culture="ghiscari"

	father=119360004
	mother=219360004

	6675.1.1 = {birth="6675.1.1"}
	6691.1.1 = {add_trait=trained_warrior}
	#6714.1.1 = {death="6714.1.1"} #not dead cause Galazza Galare have very young cousins
	6754.1.1 = { add_spouse = 226360004 }
	6768.1.1 = { death="6768.1.1" }	
}
130360004 = {
	name="Grazhar" #canon
	dynasty=360004
	
	religion="harpy"
	culture="ghiscari"
	
	add_trait=temperate
	add_trait=ambitious
	
	father=126360004
	mother=226360004
	
	6765.1.1 = { birth="6765.1.1" }
}
131360004 = {
	name="Qezza" #canon
	dynasty=360004
	female=yes
		
	religion="harpy"
	culture="ghiscari"
	
	father=126360004
	mother=226360004
	
	6767.1.1 = { birth="6767.1.1" }
}
127360004 = {
	name="Grazdan"	# a lord
	dynasty=360004

	religion="harpy"
	culture="ghiscari"

	father=123360004
	mother=223360004

	6681.1.1 = {birth="6681.1.1"}
	6707.1.1 = {}
	6716.1.1 = {add_trait=poor_warrior}
	6721.1.1 = {death = {death_reason = death_accident}}
}
151360004 = {
	name="Galazza"	# The green Grace
	female=yes
	dynasty=360004
	
	dna="dkclkolades"
	properties="mj0eak"
	
	martial = 1
	stewardship = 3
	learning = 11
	diplomacy = 13
	intrigue = 13
	
	add_trait = scholarly_theologian
	add_trait = honorable
	add_trait = kind
	add_trait = chaste
	add_trait = patient

	religion="harpy"
	culture="ghiscari"

	father=123360004
	mother=223360004
	
	6695.1.1 = {
		birth="6695.1.1"
		effect = { health = 4.5 }
	}
	6721.1.1 = {
		add_trait = grace
		effect = {
			if = {
				limit = { is_ruler = no }
				b_graces = { holder_scope = { ROOT = { move_character = PREV } } }
			}
		}	
	}
}
128360004 = {
	name="Gorzhak"	# a lord
	dynasty=360004

	religion="harpy"
	culture="ghiscari"

	father=123360004
	mother=223360004

	6703.1.1 = {birth="6703.1.1"}
	6719.1.1 = {add_trait=poor_warrior}
	#6720.1.1 = {add_spouse=228360004}
	6721.1.1 = {}
	6765.1.1 = {death="6765.1.1"}
}
228360004 = {
	name="Bellaza"
	female=yes

	religion="harpy"
	culture="ghiscari"

	6703.1.1 = {birth="6703.1.1"}
	6765.1.1 = {death="6765.1.1"}
}
129360004 = {
	name="Zaraq"	# not a lord
	dynasty=360004

	religion="harpy"
	culture="ghiscari"

	father=123360004
	mother=223360004

	6706.1.1 = {birth="6706.1.1"}
	6722.1.1 = {add_trait=trained_warrior}
	6742.1.1 = {death="6742.1.1"}
}

16571015 = {
	name="Grazdan"  ## Canon, brother of the Green Grace.
	dynasty=360004
	martial = 4
	diplomacy = 5
	intrigue = 2
	stewardship = 9
	culture = meereenese
	religion = harpy 

	father=124360004 #128360004 #he was cousin not nephew of Galazza
	mother=228360004		
	

	add_trait="diligent"
	add_trait="patient"
	add_trait="deceitful"
	add_trait="cynical"
	add_trait="greedy" #his former slaves case
	
	6738.1.1 = {
		birth="6738.1.1"
	}
	6765.1.1 = {}
}


####  House Pahl

150360007 = {
	name="Gorzhak"	# a lord
	dynasty=360007

	religion="harpy"
	culture="ghiscari"

	6445.1.1 = {birth="6445.1.1"}
	6463.1.1 = {add_spouse=250360007}
	6495.1.1 = {death="6495.1.1"}
}
250360007 = {
	name="Ezza"
	female=yes

	religion="harpy"
	culture="ghiscari"

	6447.1.1 = {birth="6447.1.1"}
	6500.1.1 = {death="6500.1.1"}
}

100360007 = {
	name="Marghaz"	# a lord
	dynasty=360007

	religion="harpy"
	culture="ghiscari"

	father=150360007
	mother=250360007

	6472.1.1 = {birth="6472.1.1"}
	6494.1.1 = {add_trait=poor_warrior}
	6495.1.1 = {}
	6496.1.1 = {add_spouse=200360007}
	6524.1.1 = {death="6524.1.1"}
}
200360007 = {
	name="Ezzara"
	female=yes

	religion="harpy"
	culture="ghiscari"

	6478.1.1 = {birth="6478.1.1"}
	6518.1.1 = {death="6518.1.1"}
}
101360007 = {
	name="Maezon"	# a lord
	dynasty=360007

	religion="harpy"
	culture="ghiscari"

	father=100360007
	mother=200360007

	6507.1.1 = {birth="6507.1.1"}
	6523.1.1 = {add_trait=trained_warrior}
	6524.1.1 = {}
	6525.1.1 = {add_spouse=201360007}
	6557.1.1 = {death="6557.1.1"}
}
201360007 = {
	name="Azza"
	female=yes

	religion="harpy"
	culture="ghiscari"

	6507.1.1 = {birth="6507.1.1"}
	6557.1.1 = {death="6557.1.1"}
}
102360007 = {
	name="Hizlak"	# not a lord
	dynasty=360007

	religion="harpy"
	culture="ghiscari"

	father=100360007
	mother=200360007

	6510.1.1 = {birth="6510.1.1"}
	6526.1.1 = {add_trait=skilled_warrior}
	6528.1.1 = {add_spouse=202360007}
	6559.1.1 = {death = {death_reason = death_accident}}
}
202360007 = {
	name="Yezza"
	female=yes

	religion="harpy"
	culture="ghiscari"

	6510.1.1 = {birth="6510.1.1"}
	6559.1.1 = {death="6559.1.1"}
}
103360007 = {
	name="Grazdan"	# not a lord
	dynasty=360007

	religion="harpy"
	culture="ghiscari"

	father=100360007
	mother=200360007

	6516.1.1 = {birth="6516.1.1"}
	6532.1.1 = {add_trait=poor_warrior}
	6560.1.1 = {death="6560.1.1"}
}
104360007 = {
	name="Hizdahr"	# a lord
	dynasty=360007

	religion="harpy"
	culture="ghiscari"

	father=101360007
	mother=201360007

	6531.1.1 = {birth="6531.1.1"}
	6547.1.1 = {add_trait=poor_warrior}
	6549.1.1 = {add_spouse=204360007}
	6557.1.1 = {}
	6590.1.1 = {death="6590.1.1"}
}
204360007 = {
	name="Tellara"
	female=yes

	religion="harpy"
	culture="ghiscari"

	6531.1.1 = {birth="6531.1.1"}
	6590.1.1 = {death="6590.1.1"}
}
105360007 = {
	name="Qezza"	# not a lord
	female=yes
	dynasty=360007

	religion="harpy"
	culture="ghiscari"

	father=104360007
	mother=204360007

	6559.1.1 = {birth="6559.1.1"}
	6627.1.1 = {death = {death_reason = death_accident}}
}
106360007 = {
	name="Gallaza"	# not a lord
	female=yes
	dynasty=360007

	religion="harpy"
	culture="ghiscari"

	father=104360007
	mother=204360007

	6561.1.1 = {birth="6561.1.1"}
	6611.1.1 = {death="6611.1.1"}
}
107360007 = {
	name="Grazdan"	# a lord
	dynasty=360007

	religion="harpy"
	culture="ghiscari"

	father=104360007
	mother=204360007

	6564.1.1 = {birth="6564.1.1"}
	6580.1.1 = {add_trait=poor_warrior}
	6582.1.1 = {add_spouse=207360007}
	6590.1.1 = {}
	6620.1.1 = {death="6620.1.1"}
}
207360007 = {
	name="Ezza"
	female=yes

	religion="harpy"
	culture="ghiscari"

	6564.1.1 = {birth="6564.1.1"}
	6598.1.1 = {death="6598.1.1"}
}
108360007 = {
	name="Marghaz"	# not a lord
	dynasty=360007

	religion="harpy"
	culture="ghiscari"

	father=104360007
	mother=204360007

	6567.1.1 = {birth="6567.1.1"}
	6583.1.1 = {add_trait=skilled_warrior}
	6585.1.1 = {add_spouse=208360007}
	6633.1.1 = {death="6633.1.1"}
}
208360007 = {
	name="Gallaza"
	female=yes

	religion="harpy"
	culture="ghiscari"

	6567.1.1 = {birth="6567.1.1"}
	6633.1.1 = {death="6633.1.1"}
}
109360007 = {
	name="Arraq"	# not a lord
	dynasty=360007

	religion="harpy"
	culture="ghiscari"

	father=104360007
	mother=204360007

	6570.1.1 = {birth="6570.1.1"}
	6586.1.1 = {add_trait=poor_warrior}
	6650.1.1 = {death="6650.1.1"}
}
110360007 = {
	name="Grazdan"	# a lord
	dynasty=360007

	religion="harpy"
	culture="ghiscari"

	father=107360007
	mother=207360007

	6587.1.1 = {birth="6587.1.1"}
	6603.1.1 = {add_trait=poor_warrior}
	6605.1.1 = {add_spouse=210360007}
	6620.1.1 = {}
	6664.1.1 = {death="6664.1.1"}
}
210360007 = {
	name="Sallara"
	female=yes

	religion="harpy"
	culture="ghiscari"

	6587.1.1 = {birth="6587.1.1"}
	6664.1.1 = {death="6664.1.1"}
}
111360007 = {
	name="Phaezdhar"	# not a lord
	dynasty=360007

	religion="harpy"
	culture="ghiscari"

	father=107360007
	mother=207360007

	6590.1.1 = {birth="6590.1.1"}
	6606.1.1 = {add_trait=master_warrior}
	6648.1.1 = {death="6648.1.1"}
}
112360007 = {
	name="Hazzea"	# not a lord
	female=yes
	dynasty=360007

	religion="harpy"
	culture="ghiscari"

	father=107360007
	mother=207360007

	6592.1.1 = {birth="6592.1.1"}
	6635.1.1 = {death = {death_reason = death_accident}}
}
113360007 = {
	name="Mezzara"	# not a lord
	female=yes
	dynasty=360007

	religion="harpy"
	culture="ghiscari"

	father=107360007
	mother=207360007

	6595.1.1 = {birth="6595.1.1"}
	6614.1.1 = {death="6614.1.1"}
}
114360007 = {
	name="Qezza"	# not a lord
	female=yes
	dynasty=360007

	religion="harpy"
	culture="ghiscari"

	father=110360007
	mother=210360007

	6616.1.1 = {birth="6616.1.1"}
	6651.1.1 = {death="6651.1.1"}
}
115360007 = {
	name="Ezzara"	# not a lord
	female=yes
	dynasty=360007

	religion="harpy"
	culture="ghiscari"

	father=110360007
	mother=210360007

	6618.1.1 = {birth="6618.1.1"}
	6674.1.1 = {death = {death_reason = death_murder}}
}
116360007 = {
	name="Haznak"	# a lord
	dynasty=360007

	religion="harpy"
	culture="ghiscari"

	father=110360007
	mother=210360007

	6621.1.1 = {birth="6621.1.1"}
	6637.1.1 = {add_trait=skilled_warrior}
	6639.1.1 = {add_spouse=216360007}
	6664.1.1 = {}
	6701.1.1 = {death="6701.1.1"}
}
216360007 = {
	name="Mezzala"
	female=yes

	religion="harpy"
	culture="ghiscari"

	6621.1.1 = {birth="6621.1.1"}
	6701.1.1 = {death="6701.1.1"}
}
117360007 = {
	name="Yezzara"	# not a lord
	female=yes
	dynasty=360007

	religion="harpy"
	culture="ghiscari"

	father=110360007
	mother=210360007

	6624.1.1 = {birth="6624.1.1"}
	6655.1.1 = {death="6655.1.1"}
}
118360007 = {
	name="Harghaz"	# not a lord
	dynasty=360007

	religion="harpy"
	culture="ghiscari"

	father=110360007
	mother=210360007

	6625.1.1 = {birth="6625.1.1"}
	6641.1.1 = {add_trait=skilled_warrior}
	6681.1.1 = {death="6681.1.1"}
}
119360007 = {
	name="Mazdhan"	# a lord
	dynasty=360007

	religion="harpy"
	culture="ghiscari"

	father=116360007
	mother=216360007

	6650.1.1 = {birth="6650.1.1"}
	6666.1.1 = {add_trait=trained_warrior}
	6668.1.1 = {add_spouse=219360007}
	6701.1.1 = {}
	6716.1.1 = {death="6716.1.1"}
}
219360007 = {
	name="Dellaza"
	female=yes

	religion="harpy"
	culture="ghiscari"

	6650.1.1 = {birth="6650.1.1"}
	6716.1.1 = {death="6716.1.1"}
}
120360007 = {
	name="Dezza"	# not a lord
	female=yes
	dynasty=360007

	religion="harpy"
	culture="ghiscari"

	father=116360007
	mother=216360007

	6652.1.1 = {birth="6652.1.1"}
	6698.1.1 = {death="6698.1.1"}
}
121360007 = {
	name="Ghazdor"	# a lord
	dynasty=360007

	religion="harpy"
	culture="ghiscari"

	father=119360007
	mother=219360007

	6682.1.1 = {birth="6682.1.1"}
	6698.1.1 = {add_trait=trained_warrior}
	6700.1.1 = {add_spouse=221360007}
	6716.1.1 = {}
	6745.1.1 = {death="6745.1.1"}
}
221360007 = {
	name="Qezza"
	female=yes

	religion="harpy"
	culture="ghiscari"

	6682.1.1 = {birth="6682.1.1"}
	6745.1.1 = {death="6745.1.1"}
}
122360007 = {
	name="Skahaz"	# a lord
	dynasty=360007

	religion="harpy"
	culture="ghiscari"

	father=121360007
	mother=221360007

	6707.1.1 = {birth="6707.1.1"}
	6723.1.1 = {add_trait=poor_warrior}
	6725.1.1 = {add_spouse=222360007}
	6745.1.1 = {}
	6776.1.1 = {death="6776.1.1"}
}
222360007 = {
	name="Mellara"
	female=yes

	religion="harpy"
	culture="ghiscari"

	6707.1.1 = {birth="6707.1.1"}
	6776.1.1 = {death="6776.1.1"}
}
123360007 = {
	name="Ezzara"	# not a lord
	female=yes
	dynasty=360007

	religion="harpy"
	culture="ghiscari"

	father=121360007
	mother=221360007

	6708.1.1 = {birth="6708.1.1"}
	6764.1.1 = {death="6764.1.1"}
}
124360007 = {
	name="Grazdan"	# not a lord
	dynasty=360007

	religion="harpy"
	culture="ghiscari"

	father=121360007
	mother=221360007

	6709.1.1 = {birth="6709.1.1"}
	6725.1.1 = {add_trait=master_warrior}
	6732.1.1 = {death="6732.1.1"}
}
125360007 = {
	name="Miklaz"	# a lord
	dynasty=360007

	religion="harpy"
	culture="ghiscari"

	father=122360007
	mother=222360007

	6732.1.1 = {birth="6732.1.1"}
	6741.1.1 = {add_trait=trained_warrior }
	6748.1.1 = { add_trait=midas_touched  } #brown ben plumm said that he was richest man in meereen.
	6752.1.1 = { add_spouse=225360007 }
	6776.1.1 = {}
}
225360007 = {
	name="Tellezzara"
	female=yes

	religion="harpy"
	culture="ghiscari"

	6738.1.1 = {birth="6738.1.1"}
	6768.1.1 = {
		death = {
			death_reason = death_accident
		}
	}
}
128360007 = {
	name="Yuznak" # commander of watch, father of Oznak zo Pahl
	dynasty=360007
	
	religion="harpy"
	culture="ghiscari"
	
	martial=8 #so he will be master-at-arms
	
	father=122360007
	mother=222360007
	
	6736.1.1 = {birth="6736.1.1"}
	6752.1.1 = { 
		add_trait = skilled_warrior
		add_trait = skilled_tactician #skills to be commander of city watch
	}
	6754.1.1 = { add_spouse=228360007 }
	6768.1.1 = { employer=16571013 } #master at arms in meereen
	6778.1.1 = {
		death = {death_reason = death_battle}
	}
}
129360007 = {
	name="Oznak" # champion of meereen. canon.
	dynasty=360007
	dna="cdbmeclcaae"
	properties="kj0dek00000"
	
	religion="harpy"
	culture="ghiscari"
	
	father=128360007
	mother=228360007
	
	add_trait = proud
	add_trait = rude #he insulted Dany
	add_trait = brave #some bravery he had...
	
	6755.1.1 = {birth="6755.1.1"}
	6768.1.1 = { employer=16571013 } #champion of meereen later
	6771.1.1 = {
		add_trait = trained_warrior
		add_trait = misguided_warrior 
		add_trait = duelist
	}
	6778.1.1 = {
		death = {
			death_reason = death_duel 
			killer = 12300101 
		}
	}
}
130360007 = {
	name="Daznak"
	dynasty=360007
	
	religion="harpy"
	culture="ghiscari"
	
	father=122360007
	mother=222360007
	
	6740.1.1 = {birth="6740.1.1"}
	6766.1.1 = {add_spouse=230360007}
}
131360007 = {
	name="Reznak"
	dynasty=360007
	
	religion="harpy"
	culture="ghiscari"
	
	father=122360007
	mother=222360007
	
	6745.1.1 = {birth="6745.1.1"} #old enough to be crucified, young enough to have no sons
}
132360007 = {
	name="Kezmya" #canon
	dynasty=360007
	female=yes
	dna="ajbgahafaan"
	properties="ck0cak00000"
	religion="harpy"
	culture="ghiscari"
	
	add_trait = proud
	add_trait = fair
	add_trait = fashionable
	
	father=130360007
	mother=230360007
	
	6768.1.1 = {birth="6768.1.1"} 
}
133360007 = {
	name="Selezzqa" #random daughter of zo pahls cause its no fully female house
	dynasty=360007
	female=yes
	
	religion="harpy"
	culture="ghiscari"
	
	father=125360007
	mother=225360007
	
	6753.1.1 = {birth="6753.1.1"}
	6778.1.1 = {
		effect = {
			k_meereen = {
				holder_scope = {
					ROOT = {
						opinion = {
							who = PREVPREV
							modifier = opinion_vengeance
							years = 2400
						}
					}
				}
			}
		}
	}
}
134360007 = {
	name="Ezzara" #random daughter of zo pahls cause its no fully female house
	dynasty=360007
	female=yes
	
	religion="harpy"
	culture="ghiscari"
	
	father=125360007
	mother=225360007
	
	6756.1.1 = {birth="6756.1.1"}
	6778.1.1 = {
		effect = {
			k_meereen = {
				holder_scope = {
					ROOT = {
						opinion = {
							who = PREVPREV
							modifier = opinion_vengeance
							years = 2400
						}
					}
				}
			}
		}
	}
}
135360007 = {
	name="Tezza"	# not a lord #Bitter old women with a taste for blood
	dynasty=360007
	female=yes
	
	religion="harpy"
	culture="ghiscari"

	father=121360007
	mother=221360007

	add_trait=ruthless
	add_trait=familyperson
	add_trait=cruel
	add_trait=envious
	add_trait=proud
	add_trait=wroth 
	
	6712.1.1 = {birth="6712.1.1"}
	6728.1.1 = { add_trait = intricate_webweaver }
	6778.1.1 = { #66 years old during crucification of whole family
		effect = {
			k_meereen = {
				holder_scope = {
					ROOT = {
						opinion = {
							who = PREVPREV
							modifier = opinion_vengeance
							years = 2400
						}
					}
				}
			}
		}
	}
	
}
126360007 = {
	name="Quella"	# not a lord
	female=yes
	dynasty=360007

	religion="harpy"
	culture="ghiscari"

	father=122360007
	mother=222360007

	6733.1.1 = {birth="6733.1.1"}
	6770.1.1 = {death="6770.1.1"}
}
127360007 = {
	name="Hazzea"	# not a lord #Bitter old women with a taste for blood
	female=yes
	dynasty=360007

	religion="harpy"
	culture="ghiscari"

	father=122360007
	mother=222360007

	add_trait=ruthless
	add_trait=cruel
	add_trait=familyperson
	add_trait=proud
	
	6735.1.1 = {birth="6735.1.1"} #43 years. So second in command in zo pahl familly
	6741.1.1 = { add_trait = intricate_webweaver }
	6778.1.1 = {
		effect = {
			k_meereen = {
				holder_scope = {
					ROOT = {
						opinion = {
							who = PREVPREV
							modifier = opinion_vengeance
							years = 2400
						}
					}
				}
			}
		}
	}
}


#### House Zhak

101360016 = {
	name="Hizdahr"
	
	dynasty=360016

	religion="harpy"
	culture="ghiscari"
	
	6688.1.1 = {birth="6688.1.1"}
	6707.1.1 = {add_spouse=201360016}
	6730.1.1 = {death="6730.1.1"}
	
}
201360016 = {
	name="Mezzara"
	female=yes
	
	religion="harpy"
	culture="ghiscari"
	
	6688.1.1 = { birth="6688.1.1"} #meereen is supposed to be filled with crones and grandpas
}
111360016 = {
	name="Azzea"
	female=yes
	
	dynasty=360016
	
	religion="harpy"
	culture="ghiscari"
	
	father=101360016
	mother=201360016
	
	6703.1.1 = { birth="6703.1.1"}
	6759.1.1 = { death="6759.1.1"}
}
102360016 = {
	name="Prendahl"
	
	dynasty=360016
	
	religion="harpy"
	culture="ghiscari"
	
	father=101360016
	mother=201360016
	employer = 101360016
	6710.1.1 = {birth="6710.1.1"}
	6730.1.1 = { employer = 102360016 }
	6732.1.1 = { add_spouse = 104360005 }
}
106360016 = {
	name="Zaraq"
	
	dynasty=360016
	
	father=102360016
	mother=104360005	
	
	religion="harpy"
	culture="ghiscari"
	employer = 102360016
	6734.1.1 = {birth="6734.1.1"}
	
	6758.1.1 = { add_spouse = 103360011 }
}
107360016 = {
	name="Draqaz" #hostage #1
	
	dynasty=360016
	
	father=106360016
	mother= 103360011

	religion="harpy"
	culture="ghiscari"
	employer = 102360016
	6766.1.1 = { birth="6766.1.1" }
	
}
109360016 = {
	name="Haznak"
	
	dynasty=360016
	
	father=102360016
	mother=104360005	
	
	religion="harpy"
	culture="ghiscari"
	employer = 102360016
	6744.1.1 = {birth="6744.1.1"}
	6774.1.1 = { add_spouse = 107360010 }
}
110360016 = {
	name="Marghaz" #the one accused of rape on his bedslave
	
	dynasty=360016
	
	father=102360016
	mother=104360005	
	
	add_trait = lustful 
	
	religion="harpy"
	culture="ghiscari"
	employer = 102360016
	6751.1.1 = {birth="6751.1.1"}
	6778.1.1 = { employer = 109360016 }
}
230360007 = {
	name="Azzea"
	dynasty=360016
	female=yes
	
	religion="harpy"
	culture="ghiscari"
	
	father=102360016
	mother=104360005	
	
	add_trait = fair #so Kezmya may be fair after someone
	
	6752.1.1 = {birth="6752.1.1"}
	6766.1.1 = {add_spouse=130360007}
	6778.1.1 = {
		effect = {
			k_meereen = {
				holder_scope = {
					ROOT = {
						opinion = {
							who = PREVPREV
							modifier = opinion_vengeance
							years = 2400
						}
					}
				}
			}
		}
	}
	
}
199360016 = {
	name = "Tezza"
	female=yes
	
	dynasty=360016
	father=109360016
	mother= 107360010

	religion="harpy"
	culture="ghiscari"
	
	6775.1.1 = { birth="6775.1.1" }
}
103360016 = {
	name="Fendahl"
	
	dynasty=360016
	
	religion="harpy"
	culture="ghiscari"
	
	father=101360016
	mother=201360016
	employer = 101360016
	6721.1.1 = {birth="6721.1.1"}
	
	6730.1.1 = { employer = 102360016 }
	6749.1.1 = { add_spouse = 203360016 }
}
203360016 = {
	name="Sezqa"
	female=yes
	
	religion="harpy"
	culture="ghiscari"
	
	6721.1.1 = {birth="6721.1.1"}
}
104360016 = { #There is supposed to be more than one alive Zhak
	name="Faezdhar"
	
	dynasty=360016
	
	religion="harpy"
	culture="ghiscari"
	
	father=101360016
	mother=201360016
	employer = 102360016 
	6730.1.1 = {birth="6730.1.1"}	
	6758.1.1 = {add_spouse=204360016}
	6778.1.1 = { employer = 109360016 }
}

105360016 = {
	name="Jezhane"
	female=yes
	
	dynasty=360016
	
	religion="harpy"
	culture="ghiscari"
	
	father=104360016
	mother=204360016
	
	6762.1.1 = {birth="6762.1.1"} 
	6776.1.1 = { add_spouse = 106360010 }
}
108360016 = {
	name="Gezzella"
	female=yes
	
	dynasty=360016
	
	religion="harpy"
	culture="ghiscari"
	
	father=104360016
	mother=204360016
	
	6770.1.1 = {birth="6770.1.1"} 
}
#### Merreq house

101360005 = {
	name="Merreq"
	
	dynasty=360005

	religion="harpy"
	culture="ghiscari"
	
	6689.1.1 = { birth="6689.1.1"}
	6722.1.1 = { add_spouse=111360016 }
	6743.1.1 = { death="6743.1.1"}
}
104360005 = {
	name="Jezhane"
	female=yes
	
	dynasty=360005
	
	father=101360005
	mother=111360016
	
	religion="harpy"
	culture="ghiscari"
	
	6718.1.1 = { birth="6718.1.1"}
}
	
102360005 = {
	name="Kraznys"
	
	dynasty=360005
	
	religion="harpy"
	culture="ghiscari"
	
	father=101360005
	mother=111360016
	employer = 101360005
	6723.1.1 = { birth="6723.1.1"}
	
	6737.1.1 = { add_spouse=202360005 }
	6743.1.1 = { employer = 102360005 }
}
202360005 = {
	name="Mellezzara"
	female=yes
	
	religion="harpy"
	culture="ghiscari"
	
	6721.1.1 = { birth="6721.1.1"}
	6770.1.1 = { death="6770.1.1"}
}
228360007 = {
	name="Sezqa" 
	female=yes
	
	dynasty=360005
	
	religion="harpy"
	culture="ghiscari"
	
	father=102360005
	mother=202360005
	
	6738.1.1 = {birth="6738.1.1"}
	6778.1.1 = {
		effect = {
			k_meereen = {
				holder_scope = {
					ROOT = {
						opinion = {
							who = PREVPREV
							modifier = opinion_vengeance
							years = 2400
						}
					}
				}
			}
		}
	}
}
103360005 = {
	name="Yarkhaz"
	dynasty=360005
	
	father=102360005
	mother=202360005
	
	religion="harpy"
	culture="ghiscari"
	employer = 101360005
	6742.1.1 = { birth="6742.1.1"}
	6743.1.1 = { employer = 102360005 }
}
105360005 = {
	name="Yurkhaz"
	dynasty=360005
	
	father=102360005
	mother=202360005
	
	religion="harpy"
	culture="ghiscari"
	employer = 102360005
	
	6752.1.1 = { birth="6752.1.1"}
	6770.1.1 = { add_spouse=105360010 }
	6778.1.1 = { employer = 105360005 }
}
106360005 = {
	name="Mezzara" #little hostage girl #canon 
	dynasty=360005
	female=yes
	
	add_trait=kind
	add_trait=shy
	
	religion="harpy"
	culture="ghiscari"
	
	father=105360005
	mother=105360010

	6771.1.1 = { birth="6771.1.1" }
}
107360005 = {
	name="Ghazdor" #little hostage boy
	dynasty=360005
	
	religion="harpy"
	culture="ghiscari"
	
	father=105360005
	mother=105360010
	employer = 102360005
	6772.1.1 = { birth="6772.1.1" }
}

### House Quazzar

101360010 = {
	name="Paezhar"
	dynasty=360010
	
	religion="harpy"
	culture="ghiscari"
	
	6698.1.1 = { birth="6698.1.1"}
	6728.1.1 = { add_spouse=135360007 }
	6764.1.1 = { death="6764.1.1"}
	
}
102360010 = {
	name="Azzak"
	dynasty=360010
	
	religion="harpy"
	culture="ghiscari"
	
	father=101360010
	mother=135360007
	employer=101360010
	6732.1.1 = { birth="6732.1.1"}
	
	6746.1.1 = { add_spouse=127360007 }	
	6764.1.1 = { employer=102360010 }
}
103360010 = {
	name="Yuznak"
	dynasty=360010
	
	religion="harpy"
	culture="ghiscari"
	
	father=102360010
	mother=127360007
	employer=101360010
	6748.1.1 = { birth="6748.1.1"}
	
	6764.1.1 = { employer=102360010 }
	
	6770.1.1 = { add_spouse = 203360010 }
}
203360010 = {
	name="Hazzea"
	female=yes
	
	religion="harpy"
	culture="ghiscari"
	
	6753.1.1 = { birth="6753.1.1"}
}
104360010 = {
	name="Miklaz" #canon but not specified which family is he member
	
	religion="harpy"
	culture="ghiscari"
	
	add_trait=slothful
	employer=102360010
	6748.1.1 = { birth="6748.1.1"}
	
}
105360010 = {
	name="Tellezzara"
	dynasty=360010
	female = yes
	
	religion="harpy"
	culture="ghiscari"
	
	father=102360010
	mother=127360007

	6751.1.1 = { birth="6751.1.1"}
}
106360010 = {
	name="Bharkaz"
	dynasty=360010
	
	religion="harpy"
	culture="ghiscari"
	
	father=102360010
	mother=127360007
	employer=101360010
	6755.1.1 = { birth="6755.1.1"}
	
	6764.1.1 = { employer=102360010 }
	6778.1.1 = { employer=109360010 }
}	
107360010 = {
	name="Sezza"
	female=yes
	dynasty=360010
	
	religion="harpy"
	culture="ghiscari"
	
	father=102360010
	mother=127360007

	6758.1.1 = { birth="6758.1.1"}
}	
109360010 = {
	name="Morghaz"
	dynasty=360010
	
	religion="harpy"
	culture="ghiscari"
	
	father=102360010
	mother=127360007
	employer=101360010
	6753.1.1 = { birth="6753.1.1"}
	6764.1.1 = { employer=102360010 }
	6772.1.1 = { add_spouse = 133360007 }
	6778.1.1 = { employer=109360010 }
}
108360010 = {
	name="Yezza"
	female=yes
	dynasty=360010
	
	religion="harpy"
	culture="ghiscari"
	
	father=102360010
	mother=127360007
	employer=102360010
	6769.1.1 = { birth="6769.1.1"}
	
}	

### House Hazkar

101360011 = {
	name="Hizdahr"
	dynasty=360011 
	
	religion="harpy"
	culture="ghiscari"
	
	6690.1.1 = { birth="6690.1.1"}
	6718.1.1 = { add_spouse=201360011 }
}
201360011 = {
	name="Mezzara"
	female=yes
	religion="harpy"
	culture="ghiscari"
	
	6701.1.1 = { birth="6701.1.1"}
	6749.1.1 = { death="6749.1.1"}
}
102360011 = {
	name="Fendahl"
	dynasty=360011
	
	religion="harpy"
	culture="ghiscari"
	
	father=101360011
	mother=201360011
	
	employer = 101360011
	
	6720.1.1 = { birth="6720.1.1"}
	6749.1.1 = { add_spouse=202360011 }
}
202360011 = {
	name="Ezzara"
	female=yes
	religion="harpy"
	culture="ghiscari"
	
	6720.1.1 = { birth="6720.1.1"}
}
104360011 = {
	name="Yarkhaz"
	dynasty=360011
	religion="harpy"
	culture="ghiscari"
	
	father=102360011
	mother=202360011
	employer = 101360011
	6750.1.1 = { birth="6750.1.1" }
	
}
105360011 = {
	name="Prendahl"
	dynasty=360011
	religion="harpy"
	culture="ghiscari"
	
	father=102360011
	mother=202360011
	
	employer = 101360011
	6764.1.1 = { birth="6764.1.1" }
	
}
106360011 = {
	name="Ellezzara"
	dynasty=360011
	female=yes
	religion="harpy"
	culture="ghiscari"
	
	father=102360011
	mother=202360011
	employer = 101360011
	6769.1.1 = { birth="6769.1.1" }
}
103360011 = {
	name="Hazzea"
	dynasty=360011
	female=yes
	religion="harpy"
	culture="ghiscari"
	
	father=101360011
	mother=201360011
	
	6737.1.1 = { birth="6737.1.1" }
}
204360016 = {
	name="Galazza"
	female=yes
	dynasty=360011
	father=101360011
	mother=201360011
	
	religion="harpy"
	culture="ghiscari"
	
	6742.1.1 = {birth="6742.1.1"} 
}
### House Rhazdar
101360014 = {
	name="Haznak"
	dynasty=360014
	
	religion="harpy"
	culture="ghiscari"
	
	6723.1.1 = { birth="6723.1.1" }
}
201360014 = {
	name="Azzara"
	female=yes
	dynasty=360030

	father=101360030
	mother=201360030

	religion="harpy"
	culture="ghiscari"
	6739.1.1 = { birth="6739.1.1" }
	6761.1.1 = { add_spouse=101360014 }
}
102360014 = {
	name="Kraznys"
	dynasty=360014
	
	religion="harpy"
	culture="ghiscari"
	
	father=101360014
	mother=201360014
	
	employer=101360014
	6762.1.1 = { birth="6762.1.1" }
}
103360014 = {
	name="Ghazdor"
	dynasty=360014
	
	religion="harpy"
	culture="ghiscari"
	
	father=101360014
	mother=201360014
	
	employer=101360014
	6768.1.1 = { birth="6768.1.1" }
}
104360014 = {
	name="Tezza"
	dynasty=360014
	female=yes
	
	religion="harpy"
	culture="ghiscari"
	
	father=101360014
	mother=201360014
	
	employer=101360014
	6769.1.1 = { birth="6769.1.1" }
}
### House Ghazeen

101360030 = {
	name="Azzak"
	dynasty=360030
	
	religion="harpy"
	culture="ghiscari"
	
	6716.1.1 = { birth="6716.1.1" }
	6738.1.1 = { add_spouse = 201360030 }
}
201360030 = {
	name="Azzea"
	female=yes
	
	religion="harpy"
	culture="ghiscari"
	
	6719.1.1 = { birth="6719.1.1" }
}

102360030 = {
	name="Miklaz"
	dynasty=360030
	
	father=101360030
	mother=201360030
	
	religion="harpy"
	culture="ghiscari"
	
	employer=101360030
	6748.1.1 = { birth="6748.1.1" }
}
202360030 = {
	name="Mezzala"
	dynasty=360006
	female=yes
	
	father=101360006
	mother=201360006
	
	
	religion="harpy"
	culture="ghiscari"
	
	employer=101360030
	6750.1.1 = { birth="6750.1.1" }
	6769.1.1 = { add_spouse=102360030 }
}
103360030 = {
	name="Azzak"
	dynasty=360030
	
	father=102360030
	mother=202360030
	
	religion="harpy"
	culture="ghiscari"
	employer=101360030
	6770.1.1 = { birth="6770.1.1" }
}
### house Yherizan
101360006 = {
	name="Mazdhan"
	dynasty=360006

	religion="harpy"
	culture="ghiscari"
	
	6710.1.1 = { birth="6710.1.1" }
}
201360006 = {
	name="Hazzaara"
	female=yes
	dynasty=360015
	
	religion="harpy"
	culture="ghiscari"
	
	father=101360015
	mother=201360015
	
	6724.1.1 = { birth="6724.1.1" }
	6748.1.1 = { add_spouse=101360006 }
}
102360006 = {
	name="Gezzella"
	female=yes
	dynasty=360006
	
	father=101360006
	mother=201360006
	
	religion="harpy"
	culture="ghiscari"
	employer=101360006
	6751.1.1 = { birth="6751.1.1" }
	6754.1.1 = { death="6754.1.1" }
}
103360006 = {
	name="Grazdhar"
	dynasty=360006
	
	father=101360006
	mother=201360006
	
	religion="harpy"
	culture="ghiscari"
	
	employer=101360006
	6753.1.1 = { birth="6753.1.1" }
}
104360006 = {
	name="Bharkaz"
	dynasty=360006
	
	father=101360006
	mother=201360006
	
	religion="harpy"
	culture="ghiscari"
	employer=101360006
	6755.1.1 = { birth="6755.1.1" }
}
105360006 = {
	name="Haznak"
	dynasty=360006
	
	father=104360006

	add_trait=bastard
	
	religion="harpy"
	culture="ghiscari"
	employer=101360006
	6769.1.1 = { birth="6769.1.1" }
}
106360006 = {
	name="Hizdahr"
	dynasty=360006
	
	father=101360006
	mother=201360006
	
	religion="harpy"
	culture="ghiscari"
	employer=101360006
	6768.1.1 = { birth="6768.1.1" }
}
107360006 = {
	name="Gorzhak"
	dynasty=360006
	
	father=101360006
	mother=201360006
	
	religion="harpy"
	culture="ghiscari"
	employer=101360006
	6763.1.1 = { birth="6763.1.1" }
	6765.1.1 = { death="6765.1.1" }
}
### house Uhlez

101360015 = {
	name="Miklaz"
	dynasty=360015 
	
	religion="harpy"
	culture="ghiscari"
	
	6682.1.1 = { birth="6682.1.1" }
	6759.1.1 = { death="6759.1.1" }
}
201360015 = {
	name="Jezhane"
	female=yes
	
	religion="harpy"
	culture="ghiscari"
	
	6693.1.1 = { birth="6693.1.1" }
	6710.1.1 = { add_spouse=101360015 }
	6750.1.1 = { death="6750.1.1" }
}
102360015 = {
	name="Skahaz"
	dynasty=360015
	
	religion="harpy"
	culture="ghiscari"
	
	father=101360015
	mother=201360015
	
	6713.1.1 = { birth="6713.1.1" }
	6747.1.1 = { add_spouse=102360012 }
}
226360004 = {
	name="Jezhane"
	dynasty=360015
	female=yes
	
	religion="harpy"
	culture="ghiscari"
	
	father=101360015
	mother=201360015
	
	6729.1.1 = { birth="6729.1.1" }
}
103360015 = {
	name="Zaraq"
	dynasty=360015
	
	religion="harpy"
	culture="ghiscari"
	
	father=102360015
	mother=102360012

	6749.1.1 = { birth="6749.1.1"}
}
104360015 = {
	name="Yezza"
	dynasty=360015
	female=yes
	
	religion="harpy"
	culture="ghiscari"
	
	father=103360015
	
	add_trait = bastard
	
	6770.1.1 = { birth="6770.1.1" }
}

### House Dhazak #mentioned ONCE in books. Confirmed at least one child

101360012 = {
	name="Dhazak" #Dhazak zo Dhazak sounds badass
	dynasty=360012 
	
	religion="harpy"
	culture="ghiscari"
	
	6700.1.1 = { birth="6700.1.1" }
}
201360012 = {
	name="Mellezzara"
	female=yes
	
	religion="harpy"
	culture="ghiscari"
	
	6709.1.1 = { birth="6709.1.1" }
	6728.1.1 = { add_spouse=101360012 }
	6769.1.1 = { death="6769.1.1" }
}
102360012 = {
	name="Gezzella"
	dynasty=360012
	female=yes
	
	father=101360012
	mother=201360012
	
	religion="harpy"
	culture="ghiscari"
	
	6730.1.1 = { birth="6730.1.1" }
	6772.1.1 = { death="6772.1.1" }
}
103360012 = {
	name="Mazdhan"
	dynasty=360012
	
	religion="harpy"
	culture="ghiscari"
	
	father=101360012
	mother=201360012
	
	6753.1.1 = { birth="6753.1.1" }
}
104360012 = {
	name="Dhazzar" #canon
	dynasty=360012
	
	religion="harpy"
	culture="ghiscari"
	
	father=101360012
	mother=201360012
	
	6769.1.1 = { birth="6769.1.1" }
}
109360029 = {
	name="Tommen"
	
	dna=bgaffuicgas
	properties=ai0cck000000
	
	religion="moonsingers"
	culture="braavosi"
	
	add_trait=trusting 
	add_trait=gluttonous
	add_trait=slow
	add_trait=proud 
	add_trait=wroth
	
	6757.1.1 = { birth="6757.1.1" }
	6773.1.1 = { add_trait=poor_warrior add_trait=indulgent_wastrel add_trait=depressed give_nickname=nick_the_new_one }
}
####PITFIGHTERS####

101360029 = {
	name="Khrazz" #canon
	
	religion="harpy"
	culture="ghiscari"
	dna="bekdjzlkaav"
	properties="kk0ebk00000"
			
	add_trait=strong
	add_trait=honorable
	add_trait=proud
	add_trait=honest
	
	6755.1.1 = {birth="6755.1.1" add_trait=slave }
	6755.1.1 = { 
		employer=16571013
		add_trait=slave
		effect = {
			b_loraq = {
				holder_scope = {
				ROOT = { move_character = PREV }
				reverse_opinion = { who = ROOT modifier = opinion_my_owner }
				reverse_opinion = { who = ROOT modifier = opinion_loyal_servant }
				opinion = { who = ROOT modifier = opinion_my_slave }
				}
			}
		}
	}
	6755.1.1 = { employer=16571013 } #i dont know if he was in his collection from very beggining but he was meereenese so its possible
	6765.1.1 = { add_trait=trained_warrior add_trait=brave }
	6768.1.1 = { remove_trait=trained_warrior add_trait=skilled_warrior add_trait=duelist }
	6771.1.1 = { add_trait=master_warrior remove_trait=skilled_warrior add_trait=misguided_warrior }
	6778.1.1 = { remove_trait=slave  add_trait=former_slave }
}
102360029 = {
	name="Goghor" #canon
	
	religion="harpy"
	culture="ghiscari"
	
	add_trait=strong
	add_trait=tall
	add_trait=proud
	add_trait=greedy
	
	6751.1.1 = { birth="6751.1.1" }
	6751.1.1 = {
		employer=16571013
		add_trait = slave
		effect = {
			b_loraq = {
				holder_scope = {
				ROOT = { move_character = PREV }
				reverse_opinion = { who = ROOT modifier = opinion_my_owner }
				opinion = { who = ROOT modifier = opinion_my_slave }
				}
			}
		}
	}
	6754.1.1 = { add_trait=poor_warrior }
	6757.1.1 = { remove_trait=poor_warrior add_trait=trained_warrior }
	6767.1.1 = { remove_trait=trained_warrior add_trait=skilled_warrior add_trait=misguided_warrior give_nickname=nick_the_giant add_trait=scarred } #to ensure that they have martial education
	6776.1.1 = { employer=16571013 }
	6778.1.1 = { remove_trait=slave  add_trait=former_slave }
}
103360029 = {
	name="Barsena" #canon
	female=yes
	
	dna="bldlgzffgfd"
	properties="cl0chk00000"
	
	add_trait=strong
	add_trait=brave
	
	religion="harpy"
	culture="qohorik"
	
	6748.1.1 = { birth="6748.1.1" }
	6748.1.1 = { effect = { culture="ghiscari" } }
	6748.1.1 = { 
		employer=16571013
		add_trait = slave
		add_trait = scarred
		effect = {
			b_loraq = {
				holder_scope = {
				ROOT = { move_character = PREV }
				reverse_opinion = { who = ROOT modifier = opinion_my_owner }
				opinion = { who = ROOT modifier = opinion_my_slave }
				}
			}
		}
	}
	6764.1.1 = { add_trait=skilled_warrior add_trait=misguided_warrior give_nickname=nick_blackhair } #ensure that she have martial education and not steward or diplomate
	6773.1.1 = { remove_trait=skilled_warrior add_trait=master_warrior }
	6776.1.1 = { employer=16571013 }
	6778.1.1 = { remove_trait=slave  add_trait=former_slave }
}
104360029 = {
	name="Camarron" #canon
	
	religion="harpy"
	culture="ghiscari"
	
	add_trait=deceitful
	add_trait=brave
	
	6753.1.1 = { birth="6753.1.1" }
	6753.1.1 = { 
		employer=16571013
		add_trait = slave
		effect = {
			b_loraq = {
				holder_scope = {
				ROOT = { move_character = PREV }
				reverse_opinion = { who = ROOT modifier = opinion_my_owner }
				opinion = { who = ROOT modifier = opinion_my_slave }
				}
			}
		}
	}
	6765.1.1 = { add_trait = trained_warrior give_nickname=nick_of_the_count }
	6769.1.1 = { remove_trait = trained_warrior add_trait = skilled_warrior add_trait = flamboyant_schemer } #he had plan to attack yunkaii from rear with stealing some boats...
	6776.1.1 = { employer=16571013 }
	6778.1.1 = { remove_trait=slave  add_trait=former_slave }
}
105360029 = {
	name="Ghazdor" #canon but name is uncanon
	
	religion="rhllor"
	culture="volantene" #tigers and other wild cats...
	
	add_trait=cruel
	add_trait=ruthless
	add_trait=brave
	
	6747.1.1 = { birth="6747.1.1" }
	6759.1.1 = { 
		employer=16571013
		add_trait = trained_warrior
		add_trait = slave
		effect = {
			religion="harpy"
			b_loraq = {
				holder_scope = {
				ROOT = { move_character = PREV }
				reverse_opinion = { who = ROOT modifier = opinion_my_owner }
				opinion = { who = ROOT modifier = opinion_my_slave }
				}
			}
		}
	}
	6763.1.1 = {
		remove_trait = trained_warrior
		add_trait = master_warrior
		give_nickname=nick_the_spotted_cat
	}
	6776.1.1 = { employer=16571013 }
	6778.1.1 = { remove_trait=slave  add_trait=former_slave }
}
106360029 = {
	name="Ithoke" #canon
	
	religion="lion_night" #not canon but Ithoke sounds so weird that i put him here
	culture="lengi"
	
	add_trait=brave
	
	6758.1.1 = { birth="6758.1.1" }
	6764.1.1 = {
		employer=16571013
		add_trait = trained_warrior
		add_trait = slave
		effect = {
			religion="harpy"
			b_loraq = {
				holder_scope = {
				ROOT = { move_character = PREV }
				reverse_opinion = { who = ROOT modifier = opinion_my_owner }
				opinion = { who = ROOT modifier = opinion_my_slave }
				}
			}
		}
	}
	6774.1.1 = {
		remove_trait = trained_warrior
		add_trait = skilled_warrior
		give_nickname=nick_the_fearless
	}
	6776.1.1 = { employer=16571013 }
	6778.1.1 = { remove_trait=slave  add_trait=former_slave }
}
107360029 = {
	name="Belaquo"
	
	dna="bcffhykbgbg"
	properties="cc0dik00000"
	
	religion="moonsingers"
	culture="braavosi"
	
	add_trait=strong
	add_trait=ruthless 
	
	6751.1.1 = { birth="6751.1.1" }
	6764.1.1 = {
		employer=16571013
		add_trait = trained_warrior
		add_trait = slave
		effect = {
			religion="harpy"
			b_loraq = {
				holder_scope = {
				ROOT = { move_character = PREV }
				reverse_opinion = { who = ROOT modifier = opinion_my_owner }
				opinion = { who = ROOT modifier = opinion_my_slave }
				}
			}
		}
	}
	6767.1.1 = {
		remove_trait = trained_warrior
		add_trait = master_warrior
		add_trait = duelist
		give_nickname=nick_bonebreaker
	}
	6776.1.1 = { employer=16571013 }
	6778.1.1 = { remove_trait=slave  add_trait=former_slave }
}
108360029 = {
	name="Vargo" #canon but name is uncanon. He was known as Steelskin
	
	religion="bearded_priests"
	culture="norvosi" #used longaxe... not so hard proof but they cant be all meereenese
	
	add_trait=tall
	
	6760.1.1 = { birth="6760.1.1" }
	6762.1.1 = {
		employer=16571013
		add_trait = slave
		effect = {
			culture="ghiscari"
			religion="harpy"
			b_loraq = {
				holder_scope = {
				ROOT = { move_character = PREV }
				reverse_opinion = { who = ROOT modifier = opinion_my_owner }
				reverse_opinion = { who = ROOT modifier = opinion_loyal_servant }
				opinion = { who = ROOT modifier = opinion_my_slave }
				}
			}
		}
	}
	6766.1.1 = {
		add_trait = trained_warrior
	}
	6776.1.1 = {
		remove_trait = trained_warrior
		add_trait = skilled_warrior
		add_trait = scarred
		give_nickname=nick_the_steelskin
	}
	6776.1.1 = { employer=16571013 }
	6778.1.1 = { remove_trait=slave  add_trait=former_slave }
}

	
