namespace = co_armours
###################################

character_event = {
	id = co_armours.1
	desc = "EVTDESCmbs_armours.1"
	min_age = 12
	picture = GFX_smith
	
	is_triggered_only = yes
	
	option = {
		name = "EVTOPTAmbs_armours.1"
		ai_chance = {
			factor = 100
		}
		
		add_artifact = drace_armour
		wealth = -150
	}		
}