##############################
# STEWARD
#
# Job: action_squeeze_peasants
# 	920: The Steward collects a tithe and sends it to his liege
# 	921: The peasants attempt to kill the Steward (Gets away, is wounded, is maimed, is killed)
#
# Job: action_oversee_construction
# 	923: Good Master Builder
# 	924: Sabotage
#
# Job: action_settle_tribe
# 	925: Local culture changes
# 	926: Steward wounded
# 	927: Steward maimed
# 	928: Steward killed
#
##############################


##############################
# STEWARD
# JOB: action_squeeze_peasants
##############################

# 920: The Steward collects a tithe and sends it to his liege
character_event = {
	id = 920
	title = "EVTNAME920"
	desc = "EVTDESC920"
	picture = GFX_evt_carriage
	border = GFX_event_normal_frame_economy

	#only_men = yes
	capable_only = yes
	prisoner = no
	has_job_title = yes
	
	trigger = {
		OR = {	
			has_job_title = job_castellan
			has_job_title = job_treasurer
		}
		OR = {	
			has_job_action = action_squeeze_peasants
			has_job_action = action_oversee_province
		}
		NOT = { is_inaccessible_trigger = yes }
		location = {
			county = {
				is_occupied = no
			}
			any_province_lord = {
				is_liege_of = ROOT		
			}
		}
		OR = { #Dothraki, jogos nhai, wildlings cant do this in homeland
			liege = { 
				is_nomadic = no
				NOT = { trait = wildling } 
			}
			location = {
				NOT = { traditional_nomad_territory_trigger = yes }
				NOT = { wildling_culture_trigger = yes }
			}
		}
	}
	
	mean_time_to_happen = {
		months = 360
		
		modifier = {
			factor = 2
			has_job_title = job_castellan
		}
		modifier = {
			factor = 1.25
			NOT = { stewardship = 2 }
		}
		modifier = {
			factor = 1.25
			NOT = { stewardship = 3 }
		}
		modifier = {
			factor = 1.25
			NOT = { stewardship = 5 }
		}
		modifier = {
			factor = 1.25
			NOT = { stewardship = 7 }
		}
		modifier = {
			factor = 0.9
			stewardship = 10
		}
		modifier = {
			factor = 0.9
			stewardship = 11
		}
		modifier = {
			factor = 0.8
			stewardship = 12
		}
		modifier = {
			factor = 0.8
			stewardship = 13
		}
		modifier = {
			factor = 0.8
			stewardship = 14
		}
		modifier = {
			factor = 0.8
			stewardship = 16
		}
		modifier = {
			factor = 0.8
			stewardship = 18
		}
		modifier = {
			factor = 0.8
			stewardship = 20
		}
		modifier = {
			factor = 0.8
			stewardship = 22
		}
		modifier = {
			factor = 0.8
			stewardship = 24
		}
		modifier = {
			factor = 0.8
			stewardship = 26
		}
		modifier = {
			factor = 0.8
			stewardship = 28
		}
		modifier = {
			factor = 2
			has_character_flag = job_action_sabotage
			NOT = {
				had_character_flag = {
					flag = job_action_sabotage
					days = 1825
				}
			}	
		}
	}
	
	option = {
		name = "EVTOPTA920"
		liege = { 
			opinion = {
				modifier = opinion_service_rendered
				who = FROM
				years = 3
			}
			letter_event = { id = 20200  tooltip = "EVTTOOLTIP20200" } 
		}
		hidden_tooltip = { change_variable = { which = "services_rendered" value = 1 } }
	}
}

# 20200: The liege is informed
letter_event = {
	id = 20200
	desc = "EVTDESC20200"
	border = GFX_event_letter_frame_economy
	
	is_triggered_only = yes
	
	option = {
		name = "EVTOPTA20200"
		scaled_wealth = { value = 0.5 min = 5 max = 300 }
	}
}

# 921: The peasants attempt to kill the Steward (Gets away, is wounded, is killed)
character_event = {
	id = 921
	title = "EVTNAME921"
	desc = "EVTDESC921"
	picture = GFX_evt_peasants

	#only_men = yes
	capable_only = yes
	prisoner = no
	has_job_title = yes
	
	trigger = {
		OR = {	
			has_job_title = job_castellan
			has_job_title = job_treasurer
		}
		OR = {	
			has_job_action = action_squeeze_peasants
			has_job_action = action_oversee_province
		}
		NOT = { is_inaccessible_trigger = yes }
		location = {
			county = {
				is_occupied = no
			}
			any_province_lord = {
				is_liege_of = ROOT		
			}
		}
		OR = { #Dothraki, jogos nhai, wildlings cant do this in homeland
			liege = { 
				is_nomadic = no
				NOT = { trait = wildling } 
			}
			location = {
				NOT = { traditional_nomad_territory_trigger = yes }
				NOT = { wildling_culture_trigger = yes }
			}
		}
	}
	
	mean_time_to_happen = {
		months = 480
	
		modifier = {
			factor = 2
			has_job_title = job_castellan
		}
		modifier = {
			factor = 0.75
			NOT = { stewardship = 2 }
		}
		modifier = {
			factor = 0.75
			NOT = { stewardship = 3 }
		}
		modifier = {
			factor = 0.75
			NOT = { stewardship = 5 }
		}
		modifier = {
			factor = 0.75
			NOT = { stewardship = 7 }
		}
		modifier = {
			factor = 1.25
			stewardship = 10
		}
		modifier = {
			factor = 1.25
			stewardship = 11
		}
		modifier = {
			factor = 1.25
			stewardship = 12
		}
		modifier = {
			factor = 1.25
			stewardship = 13
		}
		modifier = {
			factor = 1.1
			stewardship = 14
		}
		modifier = {
			factor = 1.1
			stewardship = 16
		}
		modifier = {
			factor = 1.1
			stewardship = 18
		}
		modifier = {
			factor = 1.1
			stewardship = 20
		}
		modifier = {
			factor = 1.1
			stewardship = 22
		}
		modifier = {
			factor = 1.1
			stewardship = 24
		}
		modifier = {
			factor = 1.1
			stewardship = 26
		}
		modifier = {
			factor = 1.1
			stewardship = 28
		}
		modifier = {
			factor = 2
			location = {
				NOT = { revolt_risk = 0.01 }
			}
		}
		modifier = {
			factor = 0.75
			location = {
				revolt_risk = 0.02
			}
		}
		modifier = {
			factor = 0.75
			location = {
				revolt_risk = 0.04
			}
		}
		modifier = {
			factor = 0.75
			location = {
				revolt_risk = 0.06
			}
		}
		modifier = {
			factor = 0.75
			location = {
				revolt_risk = 0.08
			}
		}
		modifier = {
			factor = 0.75
			location = {
				revolt_risk = 0.1
			}
		}
		modifier = {
			factor = 0.75
			location = {
				NOT = { culture = ROOT }
			}
		}
	}
	
	option = {
		name = "EVTOPTA921"
		trigger = {
			NOT = { stewardship = 5 }
		}
		random_list = {
			40 = { character_event = { id = 20210 tooltip = "EVTTOOLTIP20210" } }
			50 = {
				character_event = { id = 20211 tooltip = "EVTTOOLTIP20211" }
				hidden_tooltip = {
					liege = { letter_event = { id = 20212 } }
				}
			}
			10 = {
				death = {
					death_reason = death_rabble
				}
				hidden_tooltip = {
					liege = { character_event = { id = 20213 } }
				}
			}
		}
	}
	option = {
		name = "EVTOPTA921"
		tooltip_info = stewardship
		trigger = {
			stewardship = 5
			NOT = { stewardship = 10 }
		}
		random_list = {
			65 = { character_event = { id = 20210 tooltip = "EVTTOOLTIP20210" } }
			30 = {
				character_event = { id = 20211 tooltip = "EVTTOOLTIP20211" }
				hidden_tooltip = {
					liege = { letter_event = { id = 20212 } }
				}
			}
			5 = {
				death = {
					death_reason = death_rabble
				}
				hidden_tooltip = {
					liege = { character_event = { id = 20213 } }
				}
			}
		}
	}
	option = {
		name = "EVTOPTA921"
		tooltip_info = stewardship
		trigger = {
			stewardship = 10
		}
		random_list = {
			79 = { character_event = { id = 20210 tooltip = "EVTTOOLTIP20210" } }
			20 = {
				character_event = { id = 20211 tooltip = "EVTTOOLTIP20211" }
				hidden_tooltip = {
					liege = { letter_event = { id = 20212 } }
				}
			}
			1 = {
				death = {
					death_reason = death_rabble
				}
				hidden_tooltip = {
					liege = { character_event = { id = 20213 } }
				}
			}
		}
	}
}

# 20210: Lord Spiritual gets away
character_event = {
	id = 20210
	desc = "EVTDESC20210"
	picture = GFX_evt_peasants
	
	is_triggered_only = yes
	
	option = {
		name = "EVTOPTA20210"
		prestige = -10
	}
}

# 20211: Lord Spiritual gets wounded
character_event = {
	id = 20211
	desc = "EVTDESC20211"
	picture = GFX_evt_peasants
	
	is_triggered_only = yes
	
	option = {
		name = "EVTOPTA20211"
		add_trait_silently_wounded_effect = yes
		liege = { letter_event = { id = 20212  tooltip = "EVTTOOLTIP20200" } }
	}
}

# 20212: Inform the Liege about wounding
letter_event = {
	id = 20212
	desc = "EVTDESC20212"
	
	is_triggered_only = yes
	
	option = {
		name = "EVTOPTA20212"
		prestige = -10
	}
}

# 20213: Inform the Liege about death
character_event = {
	id = 20213
	desc = "EVTDESC20213"
	picture = GFX_evt_death
	
	is_triggered_only = yes
	
	option = {
		name = "EVTOPTA20213"
		prestige = -15
	}
}

# # 20513: Inform the Liege about death (hand)
# character_event = {
	# id = 20513
	# desc = "EVTDESC20513"
	# picture = GFX_evt_death
	
	# is_triggered_only = yes
	
	# option = {
		# name = "EVTOPTA20213"
		# prestige = -15
	# }
# }

# 20214: Increased revolt risk
character_event = {
	id = 20214
	title = "EVTNAME20214"
	desc = "EVTDESC20214"
	picture = GFX_evt_peasants

	#only_men = yes
	capable_only = yes
	prisoner = no
	has_job_title = yes
	
	trigger = {
		OR = {	
			has_job_title = job_castellan
			has_job_title = job_treasurer
		}
		OR = {	
			has_job_action = action_squeeze_peasants
			has_job_action = action_oversee_province			
		}
		NOT = { is_inaccessible_trigger = yes }
		location = {
			NOT = { has_province_modifier = high_taxes }
			county = { is_occupied = no }
			owner = { is_liege_of = ROOT }
		}
		OR = { #Dothraki, jogos nhai, wildlings cant do this in homeland
			liege = { 
				is_nomadic = no
				NOT = { trait = wildling } 
			}
			location = {
				NOT = { traditional_nomad_territory_trigger = yes }
				NOT = { wildling_culture_trigger = yes }
			}
		}
	}
	
	mean_time_to_happen = {
		months = 240
		
		modifier = {
			factor = 2
			has_job_title = job_castellan
		}
		modifier = {
			factor = 0.75
			NOT = { stewardship = 2 }
		}
		modifier = {
			factor = 0.75
			NOT = { stewardship = 3 }
		}
		modifier = {
			factor = 0.75
			NOT = { stewardship = 4 }
		}
		modifier = {
			factor = 0.75
			NOT = { stewardship = 5 }
		}
		modifier = {
			factor = 1.25
			stewardship = 10
		}
		modifier = {
			factor = 1.25
			stewardship = 11
		}
		modifier = {
			factor = 1.25
			stewardship = 12
		}
		modifier = {
			factor = 1.25
			stewardship = 13
		}
		modifier = {
			factor = 1.1
			stewardship = 14
		}
		modifier = {
			factor = 1.1
			stewardship = 16
		}
		modifier = {
			factor = 1.1
			stewardship = 18
		}
		modifier = {
			factor = 1.1
			stewardship = 20
		}
		modifier = {
			factor = 1.1
			stewardship = 22
		}
		modifier = {
			factor = 1.1
			stewardship = 24
		}
		modifier = {
			factor = 1.1
			stewardship = 26
		}
		modifier = {
			factor = 1.1
			stewardship = 28
		}
		modifier = {
			factor = 0.75
			location = {
				revolt_risk = 0.01
			}
		}
		modifier = {
			factor = 0.75
			location = {
				revolt_risk = 0.02
			}
		}
		modifier = {
			factor = 0.75
			location = {
				NOT = { culture = ROOT }
			}
		}
		modifier = {
			factor = 0.75
			location = {
				NOT = { religion = ROOT }
			}
		}
	}

	option = {
		name = "EVTOPTA20214"
		hidden_tooltip = {
			location = {
				# Inform barons about the rebels
				any_province_lord = {
					limit = {
						NOT = { is_liege_of = ROOT }
						ai = no
					}
					character_event = { id = 20215 days = 1 }
				}
				# Inform liege
				ROOT = {
					liege = { letter_event = { id = 20216 days = 1 } }
					clr_character_flag = liege_informed
				}
			}
		}
	}
}

# 20215: Inform province lords
character_event = {
	id = 20215
	desc = "EVTDESC20215"
	picture = GFX_evt_peasants
	
	is_triggered_only = yes
	
	option = {
		name = "EVTOPTA20215"
	}
}

# 20214: Inform liege
letter_event = {
	id = 20216
	desc = "EVTDESC20216"
	border = GFX_event_letter_frame_economy
	
	is_triggered_only = yes
	
	option = {
		name = "EVTOPTA20216"
		FROM = {
			location = {
				# Increase revolt risk
				add_province_modifier = {
					name = high_taxes
					duration = 365
				}
				# Province barons
				any_province_lord = {
					limit = {
						NOT = { character = ROOT }
						NOT = { character = FROM }
					}
					opinion = {
						who = ROOT
						modifier = opinion_irritated
						months = 12
					}
				}
			}
		}
	}
}


##############################
# STEWARD
# JOB: action_oversee_construction
##############################

# 923: Good Master Builder
character_event = {
	id = 923
	title = "EVTNAME923"
	desc = "EVTDESC923"
	picture = GFX_evt_castle_construction
	border = GFX_event_normal_frame_economy

	#only_men = yes
	capable_only = yes
	prisoner = no
	has_job_title = yes
	
	trigger = {
		has_job_action = action_oversee_construction
		NOT = { has_character_modifier = master_builder }
		NOT = { is_inaccessible_trigger = yes }
		location = {
			owner = {
				job_treasurer = {
					character = ROOT
				}
			}
		}
	}
	
	mean_time_to_happen = {
		months = 480
		
		modifier = {
			factor = 1.25
			NOT = { stewardship = 2 }
		}
		modifier = {
			factor = 1.25
			NOT = { stewardship = 3 }
		}
		modifier = {
			factor = 1.25
			NOT = { stewardship = 4 }
		}
		modifier = {
			factor = 1.25
			NOT = { stewardship = 5 }
		}
		modifier = {
			factor = 0.75
			stewardship = 10
		}
		modifier = {
			factor = 0.75
			stewardship = 11
		}
		modifier = {
			factor = 0.75
			stewardship = 12
		}
		modifier = {
			factor = 0.75
			stewardship = 13
		}
		modifier = {
			factor = 0.9
			stewardship = 14
		}
		modifier = {
			factor = 0.9
			stewardship = 16
		}
		modifier = {
			factor = 0.9
			stewardship = 18
		}
		modifier = {
			factor = 0.9
			stewardship = 20
		}
		modifier = {
			factor = 0.9
			stewardship = 22
		}
		modifier = {
			factor = 0.9
			stewardship = 24
		}
		modifier = {
			factor = 0.9
			stewardship = 26
		}
		modifier = {
			factor = 0.9
			stewardship = 28
		}
		modifier = {
			factor = 2
			has_character_flag = job_action_sabotage
			NOT = {
				had_character_flag = {
					flag = job_action_sabotage
					days = 1825
				}
			}	
		}
	}
	
	option = {
		name = "EVTOPTA923"
		tooltip = { location = { add_character_modifier = { name = master_builder duration = -1 } } }
		liege = { letter_event = { id = 20230  tooltip = "EVTTOOLTIP20230" } }
		hidden_tooltip = { change_variable = { which = "services_rendered" value = 1 } }
	}
}

# 20230: Liege get a letter
letter_event = {
	id = 20230
	desc = "EVTDESC20230"
	border = GFX_event_letter_frame_economy
	
	is_triggered_only = yes
	
	option = {
		name = "EVTOPTA20230"
		hidden_tooltip = {
			FROM = {
				location = { remove_province_modifier = master_builder }
			}
			opinion = {
				modifier = opinion_service_rendered
				who = FROM
				years = 3
			}
		}
		FROM = {
			location = {
				add_province_modifier = {
					name = master_builder
					duration = -1
				}
				if = {
					limit = {
						has_dlc = "Reapers"
					}
					custom_tooltip = {
						text = increase_prosperity_custom_tooltip
						hidden_tooltip = {
							FROM = {
								location = {
									change_variable = { which = prosperity_value value = 6 }
								}
							}
						}
					}
				}
			}	
		}
	}
}


# 924: Sabotage
character_event = {
	id = 924
	title = "EVTNAME924"
	desc = "EVTDESC924"
	picture = GFX_evt_castle_construction
	border = GFX_event_normal_frame_economy
	
	#only_men = yes
	capable_only = yes
	prisoner = no
	has_job_title = yes
	
	trigger = {
		has_job_action = action_oversee_construction
		NOT = { is_inaccessible_trigger = yes }
		location = {
			any_province_lord = {
				independent = no
				NOT = { is_liege_of = ROOT }
				liege = {
					NOT = { reverse_opinion = { who = ROOT value = -20 } }
				}
			}
		}
	}
	
	mean_time_to_happen = {
		months = 120
		
		modifier = {
			factor = 0.75
			NOT = { stewardship = 2 }
		}
		modifier = {
			factor = 0.75
			NOT = { stewardship = 3 }
		}
		modifier = {
			factor = 0.75
			NOT = { stewardship = 4 }
		}
		modifier = {
			factor = 0.75
			NOT = { stewardship = 5 }
		}
		modifier = {
			factor = 1.25
			stewardship = 10
		}
		modifier = {
			factor = 1.25
			stewardship = 11
		}
		modifier = {
			factor = 1.25
			stewardship = 12
		}
		modifier = {
			factor = 1.25
			stewardship = 13
		}
		modifier = {
			factor = 1.1
			stewardship = 14
		}
		modifier = {
			factor = 1.1
			stewardship = 16
		}
		modifier = {
			factor = 1.1
			stewardship = 18
		}
		modifier = {
			factor = 1.1
			stewardship = 20
		}
		modifier = {
			factor = 1.1
			stewardship = 22
		}
		modifier = {
			factor = 1.1
			stewardship = 24
		}
		modifier = {
			factor = 1.1
			stewardship = 26
		}
		modifier = {
			factor = 1.1
			stewardship = 28
		}
	}
	
	option = {
		name = "EVTOPTA924"
		location = {
			random_province_lord = {
				limit = {
					independent = no
					NOT = { is_liege_of = ROOT }
					liege = {
						NOT = { reverse_opinion = { who = ROOT value = -20 } }
					}
				}
				character_event = { id = 20240 tooltip = "EVTTOOLTIP20240" }
			}
		}
	}
}

# 20240: Noble sabotages building
character_event = {
	id = 20240
	desc = "EVTDESC20240"
	picture = GFX_evt_castle_construction
	border = GFX_event_normal_frame_economy
	
	is_triggered_only = yes
	
	option = {
		name = "EVTOPTA20240"
		ai_chance = { factor = 100 }
		hidden_tooltip = {
			if = {
				limit = {
					FROM = {
						liege = {
							job_spymaster = {
								intrigue = 12
							}
						}
					}
				}
				FROM = {
					liege = {
						job_spymaster = {
							character_event = { id = 20243 days = 14 }
						}
					}
				}
			}
		}
		FROM = {
			character_event = { id = 20241 days = 4 tooltip = "EVTTOOLTIP20241"	}
		}
	}
	option = {
		name = "EVTOPTB20240"
		ai_chance = { factor = 0 }
		prestige = 5
	}
}

# 20241: Sabotage!
character_event = {
	id = 20241
	desc = "EVTDESC20241"
	picture = GFX_evt_castle_construction
	border = GFX_event_normal_frame_economy
	
	is_triggered_only = yes
	
	option = {
		name = "EVTOPTA20241"
		liege = { letter_event = { id = 20242 days = 3 tooltip = "EVTTOOLTIP20242" } }
	}
}

# 20242: The liege is informed
letter_event = {
	id = 20242
	desc = "EVTDESC20242"
	border = GFX_event_letter_frame_economy
	
	is_triggered_only = yes
	
	option = {
		name = "EVTOPTA20242"
		FROM = {
			add_character_modifier = {
				name = sabotaged_building
				duration = 365
			}
		}
	}
}

# 20243: Spymaster finds out who's behind the sabotage
character_event = {
	id = 20243
	desc = "EVTDESC20243"
	picture = GFX_evt_castle_construction
	border = GFX_event_normal_frame_intrigue
	
	is_triggered_only = yes
	
	option = {
		name = "EVTOPTA20243"
		liege = { letter_event = { id = 20244  tooltip = "EVTTOOLTIP20244" } }
	}
}

# 20244: The liege is informed by his spymaster who is behind the sabotage
letter_event = {
	id = 20244
	desc = "EVTDESC20244"
	border = GFX_event_letter_frame_intrigue
	
	is_triggered_only = yes
	
	option = {
		name = "EVTOPTA20244"
		ai_chance = { factor = 100 }
		FROM = {
			FROM = {
				reverse_opinion = {
					modifier = opinion_dishonorable
					who = ROOT
					years = 2
				}
			}
		}
	}
	option = {
		name = "EVTOPTB20244"
		ai_chance = { factor = 0 }
	}
}
##############################
# STEWARD
# JOB: action_build_legend
##############################

# 20208: The Steward has managed to raise an eager force of warriors
character_event = {
	id = 20208
	title = EVTNAME20208
	desc = EVTDESC20208
	picture = GFX_evt_viking_battle_oldgods
	border = GFX_event_normal_frame_war

	capable_only = yes
	prisoner = no
	has_job_title = yes
	
	trigger = {
		has_job_title = job_treasurer
		has_job_action = action_build_legend	
		NOT = { is_inaccessible_trigger = yes }
		liege = {
			OR = { # The AI pretty much always just let their warriors stand around, getting a prestige hit when they disband
				war = yes
				ai = no
			}
			OR = {
				culture = dothraki
				culture = jogos_nhai
				trait = wildling
				culture = moon_clansman
			}
			NOT = { trait = nightswatch }
			
			is_adult = yes
			prisoner = no
			prestige = 10
			NOT = { trait = incapable }
			OR = {
				NOT = { has_character_flag = tribal_build_legend_troops }
				had_character_flag = { flag = tribal_build_legend_troops days = 1825 }
			}
		}	
		location = {
			county = {
				is_occupied = no
			}
			ROOT = {
				liege = {
					is_capital = PREVPREV
				}
			}
		}
	}
	
	mean_time_to_happen = {
		months = 120
		
		modifier = {
			factor = 3.0
			liege = {
				tier = count
			}
		}
		
		modifier = {
			factor = 1.25
			NOT = { stewardship = 2 }
		}
		modifier = {
			factor = 1.25
			NOT = { stewardship = 3 }
		}
		modifier = {
			factor = 1.25
			NOT = { stewardship = 4 }
		}
		modifier = {
			factor = 1.25
			NOT = { stewardship = 5 }
		}
		modifier = {
			factor = 0.75
			stewardship = 9
		}
		modifier = {
			factor = 0.75
			stewardship = 10
		}
		modifier = {
			factor = 0.75
			stewardship = 11
		}
		modifier = {
			factor = 0.75
			stewardship = 12
		}
		modifier = {
			factor = 0.75
			stewardship = 13
		}
	}
	
	option = {
		name = EVTOPTA20208
		
		prestige = 50
		hidden_tooltip  = {
			liege = { character_event = { id = 20209 } }
			change_variable = { which = "services_rendered" value = 1 }
		}
	}
}

# 20209: The liege is informed
character_event = {
	id = 20209
	desc = EVTDESC20209
	picture = GFX_evt_viking_battle_oldgods
	border = GFX_event_normal_frame_war
	
	is_triggered_only = yes
	
	immediate = {
		opinion = {
			modifier = opinion_service_rendered
			who = FROM
			years = 3
		}
		capital_scope = {
			ROOT = {
				spawn_unit = {
					province = PREV
					home = PREV
					owner = THIS
					#leader = none
					match_character = THIS
					match_mult = 0.075
					match_min = 100
					match_max = 3000
					attrition = 1.0
					earmark = tribal_build_legend
					disband_on_peace = yes
					can_toggle_looting = no
				}
				spawn_unit = {
					province = PREV
					home = PREV
					owner = THIS
					#leader = none
					match_character = THIS
					match_mult = 0.075
					match_min = 100
					match_max = 3000
					attrition = 1.0
					earmark = tribal_build_legend
					disband_on_peace = yes
					can_toggle_looting = no
				}
				spawn_unit = {
					province = PREV
					home = PREV
					owner = THIS
					#leader = none
					match_character = THIS
					match_mult = 0.075
					match_min = 100
					match_max = 3000
					attrition = 1.0
					earmark = tribal_build_legend
					disband_on_peace = yes
					can_toggle_looting = no
				}
			}
		}
		
		clr_character_flag = tribal_build_legend_troops
		set_character_flag = tribal_build_legend_troops
		
		character_event = { id = 20217 days = 365 random = 90 }
	}
	
	option = {
		name = EVTOPTA20209
		if = {
			limit = { ai = yes }
			prestige = 20
		}
		opinion = {
			who = FROM
			modifier = opinion_grateful
			months = 60
		}
	}
}

# 20217: The men are displeased and disband
character_event = {
	id = 20217
	desc = EVTDESC20217
	picture = GFX_evt_viking_battle_oldgods
	border = GFX_event_normal_frame_war
	
	is_triggered_only = yes
	
	trigger = {
		has_earmarked_regiments = tribal_build_legend
		war = no
	}
	
	option = {
		name = EVTOPTA20217
		if = {
			limit = { ai = no }
			prestige = -50
		}
		clr_character_flag = tribal_build_legend_troops
		disband_event_forces = tribal_build_legend
	}
}

##############################
# STEWARD
# JOB: action_collect_tribute
##############################

# 20225: The Steward demands extra funds from the ruler
character_event = {
	id = 20225
	title = EVTNAME20225
	desc = EVTDESC20225
	picture = GFX_evt_carriage
	border = GFX_event_normal_frame_economy

	capable_only = yes
	prisoner = no
	has_job_title = yes
	
	trigger = {
		OR = {
			has_job_action = action_collect_tribute
			has_job_action = action_oversee_province_nomadic
		}	
		NOT = { is_inaccessible_trigger = yes }
		liege = {
			ROOT = {
				location = {
					county = {
						is_occupied = no
					}
					any_province_lord = {
						NOT = { character = ROOT }
						NOT = { character = PREVPREVPREV }
						OR = {
							vassal_of = PREVPREVPREV
							pays_tribute_to = PREVPREVPREV
						}
						capital_scope = {
							province = PREVPREV
						}
						NOT = { has_character_modifier = hidden_extra_tribute }
					}
				}
			}
		}
	}
	
	mean_time_to_happen = {
		months = 60
		
		modifier = {
			factor = 2
			has_job_title = job_castellan
		}
		modifier = {
			factor = 1.25
			NOT = { stewardship = 2 }
		}
		modifier = {
			factor = 1.25
			NOT = { stewardship = 3 }
		}
		modifier = {
			factor = 1.25
			NOT = { stewardship = 4 }
		}
		modifier = {
			factor = 1.25
			NOT = { stewardship = 5 }
		}
		modifier = {
			factor = 0.75
			stewardship = 9
		}
		modifier = {
			factor = 0.75
			stewardship = 10
		}
		modifier = {
			factor = 0.75
			stewardship = 11
		}
		modifier = {
			factor = 0.75
			stewardship = 12
		}
		modifier = {
			factor = 0.75
			stewardship = 13
		}
	}
	
	immediate = {
		liege = {
			save_event_target_as = tribute_asker
			ROOT = {
				location = {
					random_province_lord = {
						limit = {
							NOT = { character = PREVPREVPREV }
							OR = {
								vassal_of = PREVPREVPREV
								pays_tribute_to = PREVPREVPREV
							}
							capital_scope = {
								province = PREVPREV
							}
							NOT = { has_character_modifier = hidden_extra_tribute }
						}
						save_event_target_as = tribute_giver
					}
				}
			}
		}
	}
	
	option = {
		name = EVTOPTA20225 # Demand more tribute
		
		ai_chance = { factor = 100 }
		
		event_target:tribute_giver = {
			character_event = { id = 20226 days = 3 tooltip = EVTTOOLTIP_20226 }
		}
	}
	
	option = {
		name = EVTOPTB20225 # I don't dare ask
		ai_chance = { factor = 0 }
	}
}

# 20226: The Steward demands extra funds from the ruler. Ruler response event.
character_event = {
	id = 20226
	title = EVTNAME20225
	desc = EVTDESC20226
	picture = GFX_evt_carriage
	border = GFX_event_normal_frame_economy
	
	is_triggered_only = yes
	
	immediate = {
		add_character_modifier = {
			name = hidden_extra_tribute
			hidden = yes
			days = 1825 # 5 years
		}
	}
	
	option = {
		name = EVTOPTA20226 # Accept demand
		ai_chance = {
			factor = 100
			modifier = {
				factor = 3.0
				trait = charitable
			}
			modifier = {
				factor = 3.0
				trait = content
			}
			modifier = {
				factor = 5.0
				trait = craven
			}
			modifier = {
				factor = 2.0
				opinion = {
					who = event_target:tribute_asker
					value = 25
				}
			}
			modifier = {
				factor = 2.0
				opinion = {
					who = event_target:tribute_asker
					value = 50
				}
			}
			modifier = {
				factor = 2.0
				opinion = {
					who = event_target:tribute_asker
					value = 75
				}
			}
		}
		
		tooltip = {
			transfer_scaled_wealth = {
				to = event_target:tribute_asker
				min = 5
				value = 1.0 # One year's income
			}
		}
		
		opinion = {
			who = event_target:tribute_asker
			modifier = squeezed_for_extra_tribute
			years = 10
		}
		
		opinion = {
			who = FROM
			modifier = squeezed_for_extra_tribute
			years = 10
		}
		
		hidden_tooltip = {
			FROM = { character_event = { id = 20227 } } # Notifications
		}
	}
	
	option = {
		name = EVTOPTB20226 # Refuse
		ai_chance = {
			factor = 100
			modifier = {
				factor = 5.0
				trait = greedy
			}
			modifier = {
				factor = 2.0
				NOT = {
					opinion = {
						who = event_target:tribute_asker
						value = -24
					}
				}
			}
			modifier = {
				factor = 2.0
				NOT = {
					opinion = {
						who = event_target:tribute_asker
						value = -49
					}
				}
			}
			modifier = {
				factor = 2.0
				NOT = {
					opinion = {
						who = event_target:tribute_asker
						value = -74
					}
				}
			}
		}
		
		opinion = {
			who = event_target:tribute_asker
			modifier = squeezed_for_extra_tribute
			years = 5
		}
		
		hidden_tooltip = {
			FROM = { character_event = { id = 20229 } } # Notifications
		}
	}
}

# 20227: The target accepts to pay extra tribute. Steward notified.
character_event = {
	id = 20227
	title = EVTNAME20225
	desc = EVTDESC20227
	picture = GFX_evt_carriage
	border = GFX_event_normal_frame_economy
	
	is_triggered_only = yes
	
	immediate = {
		liege = {
			 character_event = { id = 20228 } # Liege notified
		}
		change_variable = { which = "services_rendered" value = 1 }
	}
	
	option = {
		name = EXCELLENT
	}
}

# 20228: The target accepts to pay extra tribute. Liege notified.
character_event = {
	id = 20228
	title = EVTNAME20225
	desc = EVTDESC20228
	picture = GFX_evt_carriage
	border = GFX_event_normal_frame_economy
	
	is_triggered_only = yes
	
	immediate = {
		opinion = {
			modifier = opinion_service_rendered
			who = FROM
			years = 3
		}
	}	
	
	option = {
		name = EXCELLENT
		
		transfer_scaled_wealth = {
			from = FROMFROM
			min = 5
			value = 1.0 # One year's income
		}
		
		tooltip = {
			reverse_opinion = {
				who = FROMFROM
				modifier = squeezed_for_extra_tribute
				years = 10
			}
		}
	}
}

# 20229: The target refuses to pay extra tribute. Steward notified.
character_event = {
	id = 20229
	title = EVTNAME20225
	desc = EVTDESC20229
	picture = GFX_evt_emissary
	border = GFX_event_normal_frame_economy
	
	is_triggered_only = yes
	
	immediate = {
		liege = {
			 character_event = { id = 20231 } # Liege notified
		}
	}
	
	option = {
		name = EVTOPTA20229
	}
}

# 20231: The target refuses to pay extra tribute. Liege notified.
character_event = {
	id = 20231
	title = EVTNAME20225
	desc = EVTDESC20231
	picture = GFX_evt_emissary
	border = GFX_event_normal_frame_economy
	
	is_triggered_only = yes
	
	option = {
		name = EVTOPTA20231
		
		opinion = {
			who = FROMFROM
			modifier = refused_extra_tribute
			years = 5
		}
	}
}
