###########################################
#                                         #
# ZE Alliance Events                      #
# ID ZE.8000-ZE.8099                      #
#                                         #
###########################################

# Written by Markus Olsén

namespace = ZE

#A friendly visit from spouse can result in non-aggression pact
character_event = {
	id = ZE.8000
	picture = GFX_evt_feast
	border = GFX_event_normal_frame_diplomacy
	desc = EVTDESC_ZE_8000

	only_rulers = yes
	capable_only = yes
	prisoner = no
	only_independent = yes

	is_triggered_only = yes

	trigger = {
		mercenary = no
		primary_title = {
			is_landless_type_title = no
		}
		controls_religion = no
		holy_order = no
		NOT = { is_inaccessible_trigger = yes }
		has_regent = no
		any_independent_ruler = {
			NOR = { 
				is_inaccessible_trigger = yes
				trait = incapable
				has_non_aggression_pact_with = ROOT
				war_with = ROOT
			}
			primary_title = {
				is_landless_type_title = no
			}
			controls_religion = no
			holy_order = no
			mercenary = no
			is_landed = yes
			prisoner = no
			is_married = yes
			has_regent = no
			is_within_diplo_range = ROOT
			opinion = { who = ROOT value = -24 }
			reverse_opinion = { who = ROOT value = -24 }
			spouse = {
				NOR = { 
					trait = incapable
					is_inaccessible_trigger = yes
					prisoner = yes
				}
				is_alive = yes
				NOT = { character = ROOT }
			}
			NOT_mythical_creature_trigger = yes
		}
	}

	immediate = {
		ROOT = { capital_scope = { save_event_target_as = capital } }
		random_independent_ruler = {
			limit = {
				NOR = { 
					is_inaccessible_trigger = yes
					trait = incapable
					has_non_aggression_pact_with = ROOT
					war_with = ROOT
				}

				primary_title = {
					is_landless_type_title = no
				}
				controls_religion = no
				holy_order = no
				mercenary = no
				is_landed = yes
				prisoner = no
				is_married = yes
				has_regent = no
				is_within_diplo_range = ROOT
				opinion = { who = ROOT value = -24 }
				reverse_opinion = { who = ROOT value = -24 }
				spouse = {
					NOR = { 
						trait = incapable
						is_inaccessible_trigger = yes
						prisoner = yes
					}
					is_alive = yes
					NOT = { character = ROOT }
				}
				NOT_mythical_creature_trigger = yes
			}
			spouse = { save_event_target_as = target_spouse }
			save_event_target_as = target_ruler
		}
	}
	
	option = {
		name = EVTOPTA_ZE_8000
		ai_chance = { 
			factor = 50
			
			modifier = {
				factor = 0
				trait = zealous
				event_target:target_ruler = { NOT = { religion = ROOT } }
			}
			modifier = {
				factor = 3
				trait = trusting
			}
			modifier = {
				factor = 3
				trait = honorable
			}
			modifier = {
				factor = 3
				trait = gregarious
			}
			modifier = {
				factor = 2
				opinion = { who = event_target:target_ruler value = 25 }
			}
			modifier = {
				factor = 2
				opinion = { who = event_target:target_ruler value = 50 }
			}
			modifier = {
				factor = 2
				opinion = { who = event_target:target_ruler value = 75 }
			}
			modifier = {
				factor = 2
				opinion = { who = event_target:target_ruler value = 100 }
			}
		}
		show_portrait = event_target:target_ruler
		custom_tooltip = {
			text = EVTOPTA_ZE_8000_TOOLTIP
			hidden_tooltip = {
				event_target:target_ruler = {
					letter_event = { id = ZE.8001 days = 3 }
				}
			}
		}
	}

	option = {
		name = EVTOPTB_ZE_8000
		ai_chance = { 
			factor = 50
			
			modifier = {
				factor = 2
				event_target:target_ruler = { NOT = { religion = ROOT } }
			}
			modifier = {
				factor = 2
				event_target:target_ruler = { NOT = { culture_group = ROOT } }
			}
			modifier = {
				factor = 3
				trait = paranoid
			}
			modifier = {
				factor = 3
				trait = ruthless
			}
			modifier = {
				factor = 3
				trait = shy
			}
			modifier = {
				factor = 2
				NOT = { opinion = { who = event_target:target_ruler value = 0 } }
			}
		}
	}
}

#Suggestion to form non-aggression pact
letter_event = {
	id = ZE.8001
	desc = EVTDESC_ZE_8001

	is_triggered_only = yes

	#accept
	option = {
		name = EVTOPTA_ZE_8001
		ai_chance = { 
			factor = 50
			
			modifier = {
				factor = 0
				trait = zealous
				FROM = { NOT = { religion = ROOT } }
			}
			modifier = {
				factor = 3
				trait = trusting
			}
			modifier = {
				factor = 3
				trait = honorable
			}
			modifier = {
				factor = 3
				trait = gregarious
			}
			modifier = {
				factor = 2
				opinion = { who = FROM value = 25 }
			}
			modifier = {
				factor = 2
				opinion = { who = FROM value = 50 }
			}
			modifier = {
				factor = 2
				opinion = { who = FROM value = 75 }
			}
			modifier = {
				factor = 2
				opinion = { who = FROM value = 100 }
			}
		}
		custom_tooltip = {
			text = EVTOPTA_ZE_8001_TOOLTIP
			hidden_tooltip = {
				FROM = {
					letter_event = { id = ZE.8002 days = 3 }
				}
			}
			opinion = {
				modifier = in_non_aggression_pact
				years = 3
				who = FROM
				origin_description = EVTTITLE_ZE_8001
			}
			FROM = {
				opinion = {
					modifier = in_non_aggression_pact
					years = 3
					who = ROOT
					origin_description = EVTTITLE_ZE_8001
				}
			}
		}
	}
	#decline
	option = {
		name = EVTOPTB_ZE_8001
		ai_chance = { 
			factor = 50
			
			modifier = {
				factor = 2
				FROM = { NOT = { religion = ROOT } }
			}
			modifier = {
				factor = 2
				FROM = { NOT = { culture_group = ROOT } }
			}
			modifier = {
				factor = 3
				trait = paranoid
			}
			modifier = {
				factor = 3
				trait = ruthless
			}
			modifier = {
				factor = 3
				trait = shy
			}
			modifier = {
				factor = 2
				NOT = { opinion = { who = FROM value = 0 } }
			}
		}
		custom_tooltip = {
			text = EVTOPTB_ZE_8001_TOOLTIP
			FROM = {
				letter_event = { id = ZE.8003 days = 3 }
			}
		}
	}
}

#respone that accepted the offer
letter_event = {
	id = ZE.8002
	desc = EVTDESC_ZE_8002

	is_triggered_only = yes

	#accept
	option = {
		name = EVTOPTA_ZE_8002
		custom_tooltip = {
			text = EVTOPTA_ZE_8002_TOOLTIP
		}
	}
}

#respone that declined the offer
letter_event = {
	id = ZE.8003
	desc = EVTDESC_ZE_8003

	is_triggered_only = yes

	#accept
	option = {
		name = EVTOPTA_ZE_8003
	}
}

#imposter noble is behaving badly in other realm
character_event = {
	id = ZE.8010
	picture = GFX_evt_council
	border = GFX_event_normal_frame_diplomacy
	desc = EVTDESC_ZE_8010

	only_rulers = yes
	capable_only = yes
	prisoner = no
	only_independent = yes

	is_triggered_only = yes

	trigger = {
		mercenary = no
		is_tributary = no
		NOT = { 
			is_inaccessible_trigger = yes
		}
		OR = {
			any_non_aggression_pact_character = {
				mercenary = no
				is_tributary = no
				independent = yes
				is_within_diplo_range = ROOT
			}
			any_allied_character = {
				mercenary = no
				is_tributary = no
				independent = yes
				is_within_diplo_range = ROOT
			}
		}
	}

	immediate = {
		ROOT = { capital_scope = { save_event_target_as = capital } }
		if = {
			limit = {
				any_allied_character = {
					mercenary = no
					is_tributary = no
					is_within_diplo_range = ROOT
					independent = yes 
				}
			}
			random_allied_character = {
				limit = { 
					mercenary = no
					is_within_diplo_range = ROOT 
					independent = yes 
					is_tributary = no 
				}
				save_event_target_as = target_ruler
				capital_scope = { save_event_target_as = target_ruler_capital }
			}
			break = yes
		}
		if = {
			limit = {
				any_non_aggression_pact_character = {
					mercenary = no
					is_tributary = no
					is_within_diplo_range = ROOT
					independent = yes 
				}
			}
			random_non_aggression_pact_character = {
				limit = { 
					mercenary = no
					is_within_diplo_range = ROOT 
					independent = yes 
					is_tributary = no 
				}
				save_event_target_as = target_ruler
				capital_scope = { save_event_target_as = target_ruler_capital }
			}
		}
	}
	#write a formal complaint to ruler
	option = {
		name = EVTOPTA_ZE_8010
		ai_chance = {
			factor = 75
			modifier = {
				factor = 0
				OR = {
					trait = patient
					trait = content
					opinion = { who = event_target:target_ruler value = 50 }
				}
			}
			modifier = {
				factor = 4
				trait = wroth
			}
			modifier = {
				factor = 4
				trait = proud
			}
			modifier = {
				factor = 4
				trait = ruthless
			}
			modifier = {
				factor = 2
				NOT = { opinion = { who = event_target:target_ruler value = 0 } }
			}
			modifier = {
				factor = 2
				NOT = { opinion = { who = event_target:target_ruler value = -33 } }
			}
			modifier = {
				factor = 2
				NOT = { opinion = { who = event_target:target_ruler value = -66 } }
			}
		}
		prestige = 50
		custom_tooltip = {
			text = EVTOPTA_ZE_8010_TOOLTIP
			hidden_tooltip = {
				event_target:target_ruler = {
					letter_event = { id = ZE.8011 days = 3 }
				}
			}
		}
	}
	#ignore your courtiers complaints
	option = {
		name = EVTOPTB_ZE_8010
		ai_chance = {
			factor = 25
			modifier = {
				factor = 4
				trait = patient
			}
			modifier = {
				factor = 4
				trait = humble
			}
			modifier = {
				factor = 4
				trait = honorable
			}
			modifier = {
				factor = 2
				opinion = { who = event_target:event_target:target_ruler value = 25 }
			}
		}
		custom_tooltip = {
			text = EVTOPTB_ZE_8010_TOOLTIP
			hidden_tooltip = {
				any_courtier = {
					opinion = {
						modifier = opinion_disappointed
						who = ROOT
						months = 24
					}
				}
			}
		}
	}
	#take care of him
	option = {
		trigger = {
			intrigue = 15
		}
		name = EVTOPTC_ZE_8010
		ai_chance = {
			factor = 9999
		}	
		custom_tooltip = {
			text = EVTOPTC_ZE_8010_TOOLTIP
		}
		tooltip_info = intrigue
	}
}

#Complaint sent to ruler where noble claim to be from
letter_event = {
	id = ZE.8011
	desc = EVTDESC_ZE_8011

	is_triggered_only = yes

	#explain he's not from our capital
	option = {
		trigger = {
			diplomacy = 15
		}
		name = EVTOPTA_ZE_8011
		ai_chance = {
			factor = 9999
		}
		custom_tooltip = {
			text = EVTOPTA_ZE_8011_TOOLTIP
			hidden_tooltip = {
				FROM = { letter_event = { id = ZE.8012 days = 3 } }
			}
		}
		tooltip_info = diplomacy
	}

	#take blame
	option = {
		name = EVTOPTB_ZE_8011
		ai_chance = {
			factor = 75
			modifier = {
				factor = 4
				trait = patient
			}
			modifier = {
				factor = 4
				trait = humble
			}
			modifier = {
				factor = 4
				trait = honorable
			}
			modifier = {
				factor = 2
				opinion = { who = FROM value = 25 }
			}
		}
		prestige = -100
		custom_tooltip = {
			text = EVTOPTB_ZE_8011_TOOLTIP
			hidden_tooltip = {
				FROM = { letter_event = { id = ZE.8016 days = 3 } }
			}
		}
	}

	#answer rudely
	option = {
		name = EVTOPTC_ZE_8011
		ai_chance = {
			factor = 25
			modifier = {
				factor = 0
				OR = {
					trait = patient
					trait = content
					opinion = { who = FROM value = 50 }
				}
			}
			modifier = {
				factor = 4
				trait = wroth
			}
			modifier = {
				factor = 4
				trait = proud
			}
			modifier = {
				factor = 4
				trait = ruthless
			}
			modifier = {
				factor = 2
				NOT = { opinion = { who = FROM value = 0 } }
			}
			modifier = {
				factor = 2
				NOT = { opinion = { who = FROM value = -33 } }
			}
			modifier = {
				factor = 2
				NOT = { opinion = { who = FROM value = -66 } }
			}
		}
		prestige = 100
		
		custom_tooltip = {
			text = EVTOPTC_ZE_8011_TOOLTIP
			hidden_tooltip = {
				FROM = { letter_event = { id = ZE.8013 days = 3 } }
			}
		}
	}
}

#Explanation and word of warning about imposter
letter_event = {
	id = ZE.8012
	desc = EVTDESC_ZE_8012

	is_triggered_only = yes

	#deal with impostor and apologize
	option = {
		name = EVTOPTA_ZE_8012
		ai_chance = {
			factor = 60
		}
		prestige = -100
		custom_tooltip = {
			text = EVTOPTA_ZE_8012_TOOLTIP
			hidden_tooltip = {
				FROM = { letter_event = { id = ZE.8014 days = 3 } }
			}
		}
	}
	#persist in accusation
	#break pact
	option = {
		name = EVTOPTB_ZE_8012
		ai_chance = {
			factor = 10
		}
		custom_tooltip = {
			text = EVTOPTA_ZE_8013_TOOLTIP
			hidden_tooltip = {
				if = {
					limit = {
						is_allied_with = FROM
					}
					break_alliance = FROM
				}
				remove_opinion = { modifier = in_non_aggression_pact who = FROM }
				FROM = { letter_event = { id = ZE.8015 days = 3 } }
				opinion = {
					modifier = broken_non_aggression_pact
					who = FROM
					years = 3
				}
			}
		}
	}
	#leave it
	option = {
		name = EVTOPTC_ZE_8012
		ai_chance = {
			factor = 30
		}
		FROM = {
			opinion = {
				modifier = insulted
				who = ROOT
				years = 3
			}
		}
	}
}

#Rude answer to the initiator ridiculing them
letter_event = {
	id = ZE.8013
	desc = EVTDESC_ZE_8013

	is_triggered_only = yes

	option = {
		name = EVTOPTA_ZE_8013
		ai_chance = {
			factor = 60
		}
		custom_tooltip = {
			text = EVTOPTA_ZE_8013_TOOLTIP
			hidden_tooltip = {
				if = {
					limit = {
						is_allied_with = FROM
					}
					break_alliance = FROM
				}
				remove_opinion = { modifier = in_non_aggression_pact who = FROM }
				opinion = {
					modifier = broken_non_aggression_pact
					who = FROM
					years = 3
				}
			}
		}
	}

	#let it slide
	option = {
		name = EVTOPTB_ZE_8013
		prestige = -200
		ai_chance = {
			factor = 40
		}
	}
}

#apology sent by initiator
letter_event = {
	id = ZE.8014
	desc = EVTDESC_ZE_8014

	is_triggered_only = yes

	#OK
	option = {
		prestige = 150
		name = EVTOPTA_ZE_8014
		opinion = {
			modifier = opinion_improved_relations
			who = FROM
			years = 2
		}
	}
}

#Rude answer by initiator
letter_event = {
	id = ZE.8015
	desc = EVTDESC_ZE_8015

	is_triggered_only = yes

	#end non aggression/alliance
	option = {
		name = EVTOPTA_ZE_8015
		custom_tooltip = {
			text = EVTOPTA_ZE_8013_TOOLTIP
			if = {
				limit = {
					is_allied_with = FROM
				}
				break_alliance = FROM
			}
			remove_opinion = { modifier = in_non_aggression_pact who = FROM }
			opinion = {
				modifier = broken_non_aggression_pact
				who = FROM
				years = 3
			}
		}
	}
}

#taking the blame
letter_event = {
	id = ZE.8016
	desc = EVTDESC_ZE_8016

	is_triggered_only = yes

	#liege is pleased
	option = {
		name = EVTOPTA_ZE_8016
		opinion = {
			modifier = opinion_improved_relations
			who = FROM
			years = 2
		}
	}
}

###########################################
# Ally in war fails to contribute         #
###########################################

character_event = {
	id = ZE.9000
	desc = EVTDESC_ZE_9000
	picture = GFX_evt_large_army
	border = GFX_event_normal_frame_war

	is_triggered_only = yes	
	only_playable = yes
	only_capable = yes
	prisoner = no
	has_dlc = "Zeus"
	war = yes
	
	trigger = {
		OR = {
			is_primary_war_attacker = yes
			is_primary_war_defender = yes
		}
		any_player = {
			is_allied_with = ROOT
			NOR = {
				AND = {
					is_tributary = yes
					suzerain = {
						OR = {
							character = ROOT
							any_liege = {
								character = ROOT
							}
						}
					}
				}
				AND = {
					ROOT = {
						is_tributary = yes
						suzerain = {
							OR = {
								character = PREV
								any_liege = {
									character = PREV
								}
							}
						}
					}
				}
				AND = {
					is_tribal = yes
					same_realm = ROOT
					ROOT = {
						is_tribal = yes
					}
				}
				AND = {
					is_nomadic = yes
					same_realm = ROOT
					ROOT = {
						is_nomadic = yes
					}
				}
			}
			war = yes
			ROOT = {
				any_war = {
					OR = {
						AND = {
							attacker = { character = ROOT }
							defender = { war_with = PREVPREVPREV }
						}
						AND = {
							defender = { character = ROOT }
							attacker = { war_with = PREVPREVPREV }
						}					
					}
					days_since_last_hostile_action = {
						who = PREVPREV     # The character whose activity is being checked
						days = 730    # Number of days since last battle participation or offensive siege (4 years)
					}
				}
			}
		}
	}
	
	immediate = {
		random_player = {
			limit = {
				is_allied_with = ROOT
				NOR = {
					AND = {
						is_tributary = yes
						suzerain = {
							OR = {
								character = ROOT
								any_liege = {
									character = ROOT
								}
							}
						}
					}
					AND = {
						ROOT = {
							is_tributary = yes
							suzerain = {
								OR = {
									character = PREV
									any_liege = {
										character = PREV
									}
								}
							}
						}
					}
					AND = {
						is_tribal = yes
						same_realm = ROOT
						ROOT = {
							is_tribal = yes
						}
					}
					AND = {
						is_nomadic = yes
						same_realm = ROOT
						ROOT = {
							is_nomadic = yes
						}
					}
				}
				war = yes
				ROOT = {
					any_war = {
						OR = {
							AND = {
								attacker = { character = ROOT }
								defender = { war_with = PREVPREVPREV }
							}
							AND = {
								defender = { character = ROOT }
								attacker = { war_with = PREVPREVPREV }
							}					
						}
						days_since_last_hostile_action = {
							who = PREVPREV     # The character whose activity is being checked
							days = 730    # Number of days since last battle participation or offensive siege (4 years)
						}
					}
				}
			}
			save_event_target_as = ally_not_active_in_war
		}
	}
	
	option = {
		name = EVTOPTA_ZE_9000  # Send angry letter and break alliance
		ai_chance = {
			factor = 50
			modifier = {
				factor = 4
				trait = wroth
			}
			modifier = {
				factor = 4
				trait = proud
			}
			modifier = {
				factor = 4
				trait = ruthless
			}
			modifier = {
				factor = 2
				NOT = { opinion = { who = event_target:ally_not_active_in_war value = 0 } }
			}
			modifier = {
				factor = 2
				NOT = { opinion = { who = event_target:ally_not_active_in_war value = -33 } }
			}
			modifier = {
				factor = 2
				NOT = { opinion = { who = event_target:ally_not_active_in_war value = -66 } }
			}
		}
		event_target:ally_not_active_in_war = {			
			ROOT = { 
				if = {
					limit = {
						is_allied_with = PREV
					}
					break_alliance = PREV
				} 
			}
			custom_tooltip = { text = ze_9000_letter_sent }
			hidden_tooltip = { letter_event = { id = ZE.9001 } }
		}
	}
	option = {
		name = EVTOPTB_ZE_9000	# Forgive and forget
		ai_chance = {
			factor = 50
			modifier = {
				factor = 2
				trait = patient
			}
			modifier = {
				factor = 2
				trait = content
			}
			modifier = {
				factor = 2
				trait = humble
			}
			modifier = {
				factor = 2
				trait = honorable
			}
			modifier = {
				factor = 2
				opinion = { who = event_target:ally_not_active_in_war value = 25 }
			}
			modifier = {
				factor = 2
				opinion = { who = event_target:ally_not_active_in_war value = 50 }
			}
		}
		event_target:ally_not_active_in_war = {
			reverse_opinion = {
				who = ROOT
				modifier = opinion_disappointed
				years = 3
			}
		}
	}
}

# If FROM chose to break alliance, failing ally receives alliance-breaking letter
letter_event = {
	id = ZE.9001
	desc = EVTDESC_ZE_9001
	border = GFX_event_letter_frame_war

	is_triggered_only = yes
	
	option = {
		name = EVTOPTA_ZE_9001
		tooltip = { break_alliance = FROM }
		FROM = {
			opinion = {
				who = ROOT
				modifier = ally_inactive_in_war
				years = 5
			}
		}
		prestige = -100
		if = { #If this happens more than once, add dishonour
			limit = { has_character_flag = known_alliance_dishonor }
			change_variable = { which = "dishonorable" value = 10 } 
			hidden_tooltip = { character_event = { id = maintenance.3 } } #dishonour trait
		}
		set_character_flag = known_alliance_dishonor
	}
}

###########################################
# Pirates!						          #
###########################################

# Pirates operate on seas - rumors say other realm's ruler is behind it
character_event = {
	id = ZE.9100
	desc = EVTDESC_ZE_9100
	picture = GFX_evt_large_army
	border = GFX_event_normal_frame_war

	is_triggered_only = yes
	
	only_independent = yes
	only_capable = yes
	prisoner = no
	has_dlc = "Zeus"
	war = no
	
	trigger = {
		is_tributary = no		
		any_realm_province = {
			port = yes
		}
		any_independent_ruler = {
			NOR = {
				AND = {
					is_tributary = yes
					suzerain = {
						OR = {
							character = ROOT
							any_liege = {
								character = ROOT
							}
						}
					}
				}
				AND = {
					ROOT = {
						is_tributary = yes
						suzerain = {
							OR = {
								character = PREV
								any_liege = {
									character = PREV
								}
							}
						}
					}
				}
			}
			OR = {
				has_non_aggression_pact_with = ROOT
				is_allied_with = ROOT
			}
			is_within_diplo_range = ROOT
			war = no
			any_realm_province = {
				port = yes
			}
		}
	}
	
	immediate = {
		random_independent_ruler = {
			limit = {
				NOR = {
					AND = {
						is_tributary = yes
						suzerain = {
							OR = {
								character = ROOT
								any_liege = {
									character = ROOT
								}
							}
						}
					}
					AND = {
						ROOT = {
							is_tributary = yes
							suzerain = {
								OR = {
									character = PREV
									any_liege = {
										character = PREV
									}
								}
							}
						}
					}
				}
				OR = {
					has_non_aggression_pact_with = ROOT
					is_allied_with = ROOT
				}
				is_within_diplo_range = ROOT
				war = no
			}
			save_event_target_as = pirate_alliance_friction_ally
		}
	}
	
	option = {
		name = EVTOPTA_ZE_9100	# Send letter with suspicion
		custom_tooltip = {
			text = EVTOPTA_ZE_9100_TOOLTIP
			hidden_tooltip = {
				event_target:pirate_alliance_friction_ally = {
					letter_event = { id = ZE.9101 }
				}
				any_realm_province = {
					limit = {
						port = yes
					}
					add_province_modifier = {
						name = marauding_pirates
						years = 5
					}
				}
			}
		}
	}
}


# Ally receives first letter
letter_event = {
	id = ZE.9101
	desc = EVTDESC_ZE_9101
	border = GFX_event_letter_frame_diplomacy

	is_triggered_only = yes

	only_capable = yes
	
	option = {
		name = EVTOPTA_ZE_9101 # Answer cordially
		ai_chance = {
			factor = 1
			modifier = {
				factor = 2
				trait = trusting
			}
		}
		prestige = -50
		hidden_tooltip = { FROM = { letter_event = { id = ZE.9110 days = 20 } } }
		custom_tooltip = { text = ze_9101_cordial }
	}
	option = {
		name = EVTOPTB_ZE_9101 # Answer with countersuspicion
		ai_chance = {
			factor = 1
			modifier = {
				factor = 2
				trait = paranoid
			}
		}
		prestige = 50
		hidden_tooltip = { FROM = { letter_event = { id = ZE.9120 days = 20 } } }
		custom_tooltip = { text = ze_9101_angry}
	}
}

# A receives cordial answer
letter_event = {
	id = ZE.9110
	desc = EVTDESC_ZE_9110
	border = GFX_event_letter_frame_diplomacy

	is_triggered_only = yes

	only_capable = yes
	
	option = {
		name = EVTOPTA_ZE_9110 # Accept
		ai_chance = {
			factor = 1
			modifier = {
				factor = 2
				trait = trusting
			}
		}
		prestige = -50
	}
	option = {
		name = EVTOPTB_ZE_9110 # They are playing dumb. Break pact
		ai_chance = {
			factor = 1
			modifier = {
				factor = 2
				trait = paranoid
			}
		}
		custom_tooltip = { text = ze_9121_break_pact }
		hidden_tooltip = { FROM = { letter_event = { id = ZE.9111 } } }
		if = {
			limit = {
				is_allied_with = FROM
			}
			tooltip = { break_alliance = FROM }
		}
		if = {
			limit = {
				has_non_aggression_pact_with = FROM
			}
			tooltip = {
				reverse_opinion = {
					who = FROM
					years = 5
					modifier = broken_non_aggression_pact
				}
			}
		}
	}
}

# Notify ally of broken pact
letter_event = {
	id = ZE.9111
	desc = EVTDESC_ZE_9111
	border = GFX_event_letter_frame_diplomacy

	is_triggered_only = yes
	
	option = {
		name = EVTOPTA_ZE_9111 # Accept
		prestige = -50
		if = {
			limit = {
				is_allied_with = FROM
			}
			break_alliance = FROM
		}
		if = {
			limit = {
				has_non_aggression_pact_with = FROM
			}
			opinion = {
				who = FROM
				years = 5
				modifier = broken_non_aggression_pact
			}
		}
	}
}

# A receives suspicious answer
letter_event = {
	id = ZE.9120
	desc = EVTDESC_ZE_9120
	border = GFX_event_letter_frame_diplomacy

	is_triggered_only = yes

	only_capable = yes
	
	option = {
		name = EVTOPTA_ZE_9120 # Try to repair it
		ai_chance = {
			factor = 1
			modifier = {
				factor = 2
				diplomacy = 15
			}
		}
		prestige = -50
		custom_tooltip = { text = ze_9120_soothing }
		hidden_tooltip = { FROM = { letter_event = { id = ZE.9121 days = 20 } } }
	}
	option = {
		name = EVTOPTB_ZE_9120 # Answer with counter-countersuspicion
		ai_chance = {
			factor = 1
			modifier = {
				factor = 2
				trait = paranoid
			}
		}
		prestige = 50
		custom_tooltip = { text = ze_9101_angry }
		hidden_tooltip = { FROM = { letter_event = { id = ZE.9130 days = 20 } } }
	}
}

# Ally receives repair attempt
letter_event = {
	id = ZE.9121
	desc = EVTDESC_ZE_9121
	border = GFX_event_letter_frame_diplomacy

	is_triggered_only = yes

	only_capable = yes
	
	option = {
		name = EVTOPTA_ZE_9121 # Accept
		ai_chance = {
			factor = 1
			modifier = {
				factor = 2
				diplomacy = 15
			}
		}
		prestige = -50
		custom_tooltip = { text = ze_9121_accept_apology }
		hidden_tooltip = { FROM = { letter_event = { id = ZE.9122 } } }
	}
	option = {
		name = EVTOPTB_ZE_9121 # Pact broken
		ai_chance = {
			factor = 1
			modifier = {
				factor = 2
				trait = paranoid
			}
		}
		prestige = 50
		custom_tooltip = { text = ze_9121_break_pact }
		hidden_tooltip = { FROM = { letter_event = { id = ZE.9123 } } }
		if = {
			limit = {
				is_allied_with = FROM
			}
			tooltip = { break_alliance = FROM }
		}
		if = {
			limit = {
				has_non_aggression_pact_with = FROM
			}
			tooltip = {
				reverse_opinion = {
					who = FROM
					years = 5
					modifier = broken_non_aggression_pact
				}
			}
		}
	}
}

# Notify accept repair
letter_event = {
	id = ZE.9122
	desc = EVTDESC_ZE_9122
	border = GFX_event_letter_frame_diplomacy

	is_triggered_only = yes
	
	option = {
		name = EVTOPTA_ZE_9122
		prestige = 50
	}
}

# Notify broken pact
letter_event = {
	id = ZE.9123
	desc = EVTDESC_ZE_9123
	border = GFX_event_letter_frame_diplomacy

	is_triggered_only = yes
	
	option = {
		name = EVTOPTA_ZE_9123
		prestige = -50
		if = {
			limit = {
				is_allied_with = FROM
			}
			break_alliance = FROM
		}
		if = {
			limit = {
				has_non_aggression_pact_with = FROM
			}
			opinion = {
				who = FROM
				years = 5
				modifier = broken_non_aggression_pact
			}
		}
	}
}

# Ally receives counter-countersuspicion
letter_event = {
	id = ZE.9130
	desc = EVTDESC_ZE_9130
	border = GFX_event_letter_frame_diplomacy

	is_triggered_only = yes
	
	only_capable = yes

	option = {
		name = EVTOPTA_ZE_9130 # Swallow it and shut up
		ai_chance = {
			factor = 1
			modifier = {
				factor = 2
				diplomacy = 15
			}
		}
		prestige = -50
		custom_tooltip = { text = ze_9130_apology }
		hidden_tooltip = { FROM = { letter_event = { id = ZE.9131 } } }
	}
	option = {
		name = EVTOPTB_ZE_9130 # Pact broken
		ai_chance = {
			factor = 1
			modifier = {
				factor = 2
				trait = paranoid
			}
		}
		prestige = 50
		custom_tooltip = { text = ze_9121_break_pact }
		hidden_tooltip = { FROM = { letter_event = { id = ZE.9132 } } }
		if = {
			limit = {
				is_allied_with = FROM
			}
			tooltip = { break_alliance = FROM }
		}
		if = {
			limit = {
				has_non_aggression_pact_with = FROM
			}
			tooltip = {
				reverse_opinion = {
					who = FROM
					years = 5
					modifier = broken_non_aggression_pact
				}
			}
		}
	}
}

# Notify ally swallowed pride
letter_event = {
	id = ZE.9131
	desc = EVTDESC_ZE_9131
	border = GFX_event_letter_frame_diplomacy

	is_triggered_only = yes
	
	option = {
		name = EVTOPTA_ZE_9131
		prestige = 50
	}
}

# Notify broken pact
letter_event = {
	id = ZE.9132
	desc = EVTDESC_ZE_9132
	border = GFX_event_letter_frame_diplomacy

	is_triggered_only = yes
	
	option = {
		name = GOOD_RIDDANCE
		prestige = -50
		if = {
			limit = {
				is_allied_with = FROM
			}
			break_alliance = FROM
		}
		if = {
			limit = {
				has_non_aggression_pact_with = FROM
			}
			opinion = {
				who = FROM
				years = 5
				modifier = broken_non_aggression_pact
			}
		}
	}
}
