decisions = {

	conscript_merchant_ships = {
		#is_high_prio = yes
		ai = no
		potential = {
			is_ruler = yes
			ai = no #ai uses event maintenance.66 for optimisation
			NOT = {
				has_earmarked_regiments = conscripted_merchant_ships
			}			
			war = yes
			any_realm_province = { port = yes }		
			has_tribal_or_nomadic_government_trigger = no			
		}
		allow = {
			war = yes
			wealth = 100
		}
		effect = {
			wealth = -100
			spawn_fleet = {
				province = closest # closest sea zone
				owner = ROOT
				disband_on_peace = yes
				earmark = conscripted_merchant_ships
				troops =
				{
					galleys = { 100 100 }
				}
			}
			capital_scope = {
				if = {
					limit = { port = yes }
					add_province_modifier = {
						name = merchant_ships_conscripted
						duration = 1825
					}
					break = yes
				}
			}
			if = {
				limit = { NOT = { capital_scope = { port = yes } } }
				random_demesne_province = {
					limit = { port = yes }
					add_province_modifier = {
						name = merchant_ships_conscripted
						duration = 1825
					}
					break = yes
				}
				if = {
					limit = { NOT = { any_demesne_province = { port = yes } } }
					random_realm_province = {
						limit = { port = yes }
						add_province_modifier = {
							name = merchant_ships_conscripted
							duration = 1825
						}
						break = yes
					}
				}
			}
		}
		ai_will_do = {
			factor = 0
		}
	}
	
	raise_tribal_units = {
		only_playable = yes
		is_high_prio = yes
		is_mercenary = yes
		ai_check_interval = 6
		potential = {
			is_playable = yes
			is_tribal = yes
			is_landed = yes
			OR = {
				ai = no
				is_primary_war_defender = yes
				is_primary_war_attacker = yes
			}
		}
		allow = {
			war = yes
			prestige = 500
		}
		effect = {
			prestige = -500
			capital_scope = {
				PREV = {
					spawn_unit = {
						owner = ROOT
						province = PREV
						home = PREV
						troops = {
							archers = { 500 500 }
							light_infantry = { 1500 1500 }
							heavy_infantry = { 300 300 }
							light_cavalry = { 200 200 }
						}
						attrition = 1.0
						disband_on_peace = yes
						maintenance_multiplier = 0.5
					}
				}
			}
		}
		ai_will_do = {
			factor = 0 # decisions with the "is_mercenary" will not be calculated from the script
		}
	}

	# raise_defensive_unit = {
		# only_playable = yes
		# is_high_prio = yes
		# is_mercenary = yes

		# potential = {
			# has_dlc = "The Old Gods"
			# is_playable = yes
			# is_tribal = yes
			# is_landed = yes
			# OR = {
				# religion = finnish_pagan
				# religion = finnish_pagan_reformed
				# religion = west_african_pagan
				# religion = west_african_pagan_reformed
				# religion = baltic_pagan
				# religion = baltic_pagan_reformed
				# religion = slavic_pagan
				# religion = slavic_pagan_reformed
			# }
		# }

		# allow = {
			# war = yes
			
			# custom_tooltip = {
				# text = raise_defensive_unit_tooltip

				# hidden_tooltip = {
					# any_war = {
						# is_primary_war_defender = yes

						# #Defending against heathen
						# OR = {
							# #Defender is finnish pagan but attacker is not
							# AND = {
								# ROOT = {
									# OR = {
										# religion = finnish_pagan
										# religion = finnish_pagan_reformed
									# }
								# }
								# attacker = {
									# NOR = {
										# religion = finnish_pagan
										# religion = finnish_pagan_reformed
									# }
								# }
							# }

							# #Defender is west african pagan but attacker is not
							# AND = {
								# ROOT = {
									# OR = {
										# religion = west_african_pagan
										# religion = west_african_pagan_reformed
									# }
								# }
								# attacker = {
									# NOR = {
										# religion = west_african_pagan
										# religion = west_african_pagan_reformed
									# }
								# }
							# }

							# #Defender is baltic pagan but attacker is not
							# AND = {
								# ROOT = {
									# OR = {
										# religion = baltic_pagan
										# religion = baltic_pagan_reformed
									# }
								# }
								# attacker = {
									# NOR = {
										# religion = baltic_pagan
										# religion = baltic_pagan_reformed
									# }
								# }
							# }

							# #Defender is slavic pagan but attacker is not
							# AND = {
								# ROOT = {
									# OR = {
										# religion = slavic_pagan
										# religion = slavic_pagan_reformed
									# }
								# }
								# attacker = {
									# NOR = {
										# religion = slavic_pagan
										# religion = slavic_pagan_reformed
									# }
								# }
							# }
						# }
					# }
				# }
			# }
			# piety = 200	
		# }

		# effect = {
			# custom_tooltip = { text = summon_defensive_unit }
			# piety = -200

			# hidden_tooltip = {
				# capital_scope = {
					# ROOT = {
						# spawn_unit = {
							# owner = ROOT
							# home = PREV
							# province = PREV
							# disband_on_peace = yes
							# maintenance_multiplier = 0.25
							# attrition = 1.0 

							# troops = {
								# archers = { 400 400 }
								# light_infantry = { 1000 1000 }
								# heavy_infantry = { 350 350 }
								# light_cavalry = { 250 250 }
							# }
						# }
					# }
				# }
			# }
		# }
		# ai_will_do = {
			# factor = 0
		# }
	# }
}
