#Jogos Nhai also use these CBs
dothraki_invasion = {
	name = CB_NAME_DOTHRAKI_INVASION
	war_name = WAR_NAME_DOTHRAKI_INVASION
	sprite = 8
	truce_days = 365
	hostile_against_others = yes
	is_permanent = yes
	press_claim = yes
	can_ask_to_join_war = no
	allowed_to_target_tributaries = no
	defender_unoccupied_warscore = yes

	infamy_modifier = 0
	
	sort_priority = 8000
	
	can_use_gui = {
		custom_tooltip = {
			text = TOOLTIPCBENFORCEDTRUCE
			hidden_tooltip = {
				FROM = {
					NOT = { has_opinion_modifier = { who = ROOT modifier = opinion_enforced_truce } }
				}	
			}
		}
		conditional_tooltip = { #jogos nhai do not make war on eachother
			trigger = { 
				ROOT = { has_jogos_nhai_war_block_trigger = yes } 
			}
			custom_tooltip = {
				text = TOOLTIPJOGOSWARPROHIBITION
				hidden_tooltip = { NOT = { FROM = { has_jogos_nhai_war_block_trigger = yes } } }
			}
		}
		OR = { #Either...
			FROM = { culture = ROOT } #target is same culture
			ROOT = { #has unified the nomads
				independent = yes
				OR = {
					has_character_modifier = greatest_of_khans
					has_character_modifier = jhattar_of_jogos_nhai
				}	
			}
			has_game_rule = { name = nomad_invasions value = unrestricted } #game rule allows this
		}
	}
	
	can_use_title = {	
		universal_cb_restrictions_trigger = yes
		# Dothraki/Jogos Nhai Only
		ROOT = {
			is_nomadic = yes
			NAND = { 
				has_landed_title = c_dosh_khaleen 
				trait = dosh_khaleen
			}
			top_liege = {
				is_nomadic = yes
			}
		}		
		FROM = { 
			has_landed_title = PREV 
			NAND = { 
				has_landed_title = c_dosh_khaleen 
				trait = dosh_khaleen
			}
			NOT = { same_realm = ROOT }
		}
		is_primary_holder_title = yes
		controls_religion = no	
		NOT = { title = d_nightswatch }	
		NOT = { title = d_kingsguard }
		# Can only invade neighbors
		ROOT = {
			any_realm_province = {
				has_owner = yes
				owner = {
					OR = {
						character = ROOT
						is_liege_or_above = ROOT
					}
				}
				any_neighbor_province = {
					has_owner = yes
					owner = {
						OR = {
							character = FROM
							is_liege_or_above = FROM
						}
					}
				}
			}
		}	
		ROOT = { NOT = { primary_title = { title = d_kingsguard } } }
		FROM = { NOT = { primary_title = { title = d_kingsguard } } }
		FROM = { NOT = { primary_title = { title = d_nightswatch } } }
	}
	
	is_valid_title = {		
		universal_cb_valid_restrictions_trigger = yes
		# Dothraki Only
		ROOT = {
			is_nomadic = yes
			top_liege = {
				is_nomadic = yes
			}
		}
		FROM = { has_landed_title = PREV }
		OR = {
			FROM = { 
				OR = {
					culture = ROOT 
					is_nomadic = yes
				}	
			}
			ROOT = { 
				independent = yes
				OR = {
					has_character_modifier = greatest_of_khans
					has_character_modifier = jhattar_of_jogos_nhai
				}	
			}
		}
	}
	
	on_add_title = {
		hidden_tooltip = { FROM = { character_event = { id = diplomatic.3099 } } } #call for aid?
		e_rebels = {
			persistent_event_target:chronicle_player = {
				if = {
					limit = { character = ROOT }
					chronicle = {
						entry = CHRONICLE_WAR_INVASION_ATTACKER
						portrait = [From.GetID]
					}
					break = yes
				}
				if = {
					limit = { character = FROM }
					chronicle = {
						entry = CHRONICLE_WAR_INVASION_DEFENDER
						portrait = [Root.GetID]
					}
					break = yes
				}
				if = {
					limit = { is_liege_or_above = ROOT }
					chronicle = {
						entry = CHRONICLE_WAR_INVASION_ATTACKER_LIEGE
						portrait = [Root.GetID]
					}
					break = yes
				}
				if = {
					limit = { is_liege_or_above = FROM }
					chronicle = {
						entry = CHRONICLE_WAR_INVASION_DEFENDER_LIEGE
						portrait = [From.GetID]
					}
				}
			}
		}	
	}
	
	on_success_title = {
		hidden_tooltip = { 
			holder_scope = { save_event_target_as = old_usurped_title_holder }
			ROOT = { add_character_modifier = { name = victory_timer duration = 3 } } 
			ROOT = { #Improve Clan Opinion
				clan_title = {
					save_event_target_as = liege_clan
				}
				any_vassal = {
					limit = { is_nomadic = yes }
					clan_title = {
						clan_opinion = {
							who = event_target:liege_clan
							modifier = opinion_won_nomad_war
							years = 2
						}
					}
				}
			}
		}
		if = { #If enemy is not nomad, and has no dothraki sea territory, subjugate
			limit = {
				FROM = { 
					NOT = { is_nomadic = yes } 
					NOT = { any_realm_province = { traditional_nomad_territory_trigger = yes } }
				} 
			}
			hidden_tooltip = {
				if = {
					limit = { ROOT = { tier = KING } }
					FROM = {
						any_vassal = {
							limit = { tier = DUKE }
							set_defacto_liege = ROOT
						}
						if = {
							limit = { government = alliance_government } #disband alliance
							set_character_flag = conquest
							character_event = { id = free_cities.15 tooltip = TOOLTIPfree_cities.15 } 
						}
						any_demesne_title = {
							limit = { 
								tier = KING
								controls_religion = no
							}
							usurp_title = { target = ROOT type = invasion }
						}
					}
				}
				if = {
					limit = { ROOT = { tier = EMPEROR } }
					FROM = {
						any_vassal = {
							limit = { tier = KING }
							set_defacto_liege = ROOT
						}						
						if = {
							limit = { government = alliance_government } #disband alliance
							set_character_flag = conquest
							character_event = { id = free_cities.15 tooltip = TOOLTIPfree_cities.15 } 
						}
						any_demesne_title = {
							limit = { 
								tier = EMPEROR 
								controls_religion = no
							}
							usurp_title = { target = ROOT type = invasion }
						}
					}
				}
			}
			FROM = { 
				set_defacto_liege = ROOT 
				hidden_tooltip = { character_event = { id = maintenance.25 } }#Subjugation flag maintenance
			}
		}
		if = { #If enemy is not nomad, and has dothraki sea territory, sack occupied land
			limit = {
				FROM = { 
					NOT = { is_nomadic = yes } 
					any_realm_province = { traditional_nomad_territory_trigger = yes }
				} 
			}
			custom_tooltip = {
				text = dothraki_invasion_succ_tipB
				hidden_tooltip = {
					FROM = {
						any_realm_province = {
							limit = {
								any_province_holding = {
									controller = { 
										OR = {
											character = ROOT 
											is_liege_or_above = ROOT
										}	
									}
									NOT = { holding_type = trade_post }
								}
							}
							random_province_holding = { #spoils usually goes to nomad controller
								limit = {
									controller = { 
										OR = {
											character = ROOT 
											is_liege_or_above = ROOT
										}	
									}
									NOT = { holding_type = trade_post }
								}
								controller = { 
									if = {
										limit = { is_nomadic = yes }
										save_event_target_as = nomad_pillager
									}	
									if = {
										limit = { is_nomadic = no }
										ROOT = { save_event_target_as = nomad_pillager }
									}
								}	
							}
							if = { #gain slaves and gold, liege gets 50%
								limit = {
									NOT = { has_province_modifier = rampaging_nomads }
								}	
								if = {
									limit = { any_province_holding = { base_value_6_trigger = yes } }
									event_target:nomad_pillager = {
										wealth = 125
										character_event = { id = slavery.1000 tooltip = "EVTTOOLTIPSLAVERY1000" } 
									}
									ROOT = { wealth = 125 } 
								}
								if = {
									limit = { 
										any_province_holding = { base_value_5_trigger = yes }
										NOT = { any_province_holding = { base_value_6_trigger = yes } }
									}
									event_target:nomad_pillager = {
										wealth = 100
										character_event = { id = slavery.1000 tooltip = "EVTTOOLTIPSLAVERY1000" } 
									}
									ROOT = { wealth = 100 } 
								}
								if = {
									limit = { 
										any_province_holding = { base_value_4_trigger = yes }
										NOT = { any_province_holding = { base_value_5_trigger = yes } }
									}
									event_target:nomad_pillager = { wealth = 75 }
									ROOT = { wealth = 75 } 
								}
								if = {
									limit = { 
										any_province_holding = { base_value_3_trigger = yes }
										NOT = { any_province_holding = { base_value_4_trigger = yes } }
									}
									event_target:nomad_pillager = { wealth = 50 }
									ROOT = { wealth = 50 } 
								}
								if = {
									limit = { 
										any_province_holding = { base_value_2_trigger = yes }
										NOT = { any_province_holding = { base_value_3_trigger = yes } }
									}
									event_target:nomad_pillager = { wealth = 25 }
									ROOT = { wealth = 25 } 
								}
								if = {
									limit = { 
										any_province_holding = { base_value_1_trigger = yes }
										NOT = { any_province_holding = { base_value_2_trigger = yes } }
									}
									event_target:nomad_pillager = { wealth = 13 }
									ROOT = { wealth = 12 } 
								}
								if = {
									limit = { 
										NOT = { any_province_holding = { base_value_1_trigger = yes } }
									}
									event_target:nomad_pillager = { wealth = 5 }
									ROOT = { wealth = 5 } 
								}
							}	
							if = { #dothraki sea territory is taken
								limit = { traditional_nomad_territory_trigger = yes }
								owner = {
									any_courtier = {
										limit = {
											location = { province_id = PREVPREVPREV }
											NOR = {
												trait = in_hiding
												trait = wikid
												trait = on_reaving
											}
											prisoner = no
											NOT_mythical_creature_trigger = yes
											NOT = { character = ROOT }
											NOT = { is_child_of = ROOT }	
											NOT = { father = { is_child_of = ROOT } }
											NOT = { mother = { is_child_of = ROOT } } 
											NOT = { character = event_target:nomad_pillager }
											NOT = { is_child_of = event_target:nomad_pillager }	
											NOT = { father = { is_child_of = event_target:nomad_pillager } }
											NOT = { mother = { is_child_of = event_target:nomad_pillager } } 
										}
										imprison = event_target:nomad_pillager
									}
								}
								county = { gain_title = event_target:nomad_pillager }
								province_event = { id = dothraki.610 } #province maintenance
							}	
							if = { #non-dothraki sea territory is just sacked
								limit = { NOT = { traditional_nomad_territory_trigger = yes } }
								county = {
									any_de_jure_vassal_title = {
										limit = { 
											controller = { 
												OR = {
													character = ROOT 
													is_liege_or_above = ROOT
												}
											} 
										}	
										add_holding_modifier = {
											modifier = recently_burnt_the_land
											months = 7
										}
									}
								}	
								add_province_modifier = {
									modifier = rampaging_nomads
									years = 10
								}
								add_province_modifier = {
									modifier = burnt_the_land
									years = 10
								}
								if = {
									limit = { has_dlc = "Reapers" }
									if = {
										limit = { check_variable = { which = prosperity_value value = 50 } }
										change_variable = { which = prosperity_value value = -50 }
									}
									if = {
										limit = { NOT = { check_variable = { which = prosperity_value value = 50 } } }
										set_variable = { which = prosperity_value value = 0 }
									}
									if = {
										limit = {
											has_province_modifier = prosperity_modifier_3
											NOT = { check_variable = { which = prosperity_value value = 500 } }	
										}
										remove_province_modifier = prosperity_modifier_3
										add_province_modifier = { name = prosperity_modifier_2 duration = -1 }
									}
									if = {
										limit = {
											has_province_modifier = prosperity_modifier_2
											NOT = { check_variable = { which = prosperity_value value = 250 } }	
										}
										remove_province_modifier = prosperity_modifier_2
										add_province_modifier = { name = prosperity_modifier_1 duration = -1 }
									}
									if = {
										limit = {
											has_province_modifier = prosperity_modifier_1
											NOT = { check_variable = { which = prosperity_value value = 100 } }	
										}
										remove_province_modifier = prosperity_modifier_1
									}					
								}
							}	
						}
					}
				}
			}
		}
		if = { #If enemy is fellow nomad of same culture, absorb
			limit = { 
				FROM = { 
					is_nomadic = yes 
					culture = ROOT
				} 
			}
			custom_tooltip = {
				text = dothraki_invasion_succ_tip
				hidden_tooltip = {
					FROM = { #Subjugate any vassals
						any_vassal = {
							limit = { 
								lower_tier_than = ROOT 
								NOT = { tier = BARON }
							}
							any_demesne_title = { #take any occupied titles
								limit = {
									tier = BARON
									controller = { 
										OR = {
											character = ROOT 
											is_liege_or_above = ROOT
										}
									}
								}
								county = { usurp_title = { target = ROOT type = invasion } }
							}
							set_defacto_liege = ROOT
						}
					}	
					ROOT = { #take rest of occupied titles
						occupy_minors_of_occupied_settlements = FROM
						gain_all_occupied_titles = { who = FROM type = invasion }
					}
					FROM = { #Take high tier titles
						if = {
							limit = { ROOT = { tier = KING } }
							any_demesne_title = {
								limit = { 
									tier = KING
									controls_religion = no
									NOT = { holder_scope = { clan_title = { title = PREVPREV } } }
								}
								usurp_title = { target = ROOT type = invasion }
							}
						}
						if = {
							limit = { ROOT = { tier = EMPEROR } }
							any_demesne_title = {
								limit = { 
									tier = EMPEROR
									controls_religion = no
								}
								destroy_landed_title = THIS
							}						
							any_demesne_title = {
								limit = { tier = EMPEROR }
								usurp_title = { target = ROOT type = invasion }
							}
						}					
						set_defacto_liege = ROOT
						hidden_tooltip = { reverse_opinion = { who = ROOT modifier = opinion_defeated_khal } } #can freely executed defeated khals
					}
				}
			}
			FROM = { imprison = ROOT clr_character_flag = captured_in_battle }
		}
		if = { #If enemy is nomad of different culture, make tributary
			limit = { 
				FROM = { 
					is_nomadic = yes 
					NOT = { culture = ROOT }
				} 
			}
			ROOT = { make_tributary = { who = FROM tributary_type = default } }
		}
		ROOT = { 
			hidden_tooltip = {
				character_event = { id = maintenance.21 } #Take dejure vassals (AGOT)
			}	
		}
		any_attacker = {
			participation_scaled_prestige = 200
		}
		FROM = {
			prestige = -200
		}
		clear_event_target = old_usurped_title_holder
		
		
	}
	
	on_success = {
		#To handle Warrior Lodge mission "Wage War" completion...
		attacker = { save_event_target_as = attacker_target }
		defender = { save_event_target_as = defender_target }

		if = { 
			limit = {
				event_target:attacker_target = { has_quest = quest_warrior_lodge_war }
				is_quest_target_of = event_target:attacker_target
			}
			event_target:attacker_target = {
				show_scope_change = no
				tooltip = { clr_quest = quest_warrior_lodge_war }
				set_character_flag = won_war@event_target:defender_target
				#character_event = { id = HF.10514 days = 3 } #Sent from on_action instead
			}
		}
	}

	on_fail = {
		ROOT = {
			prestige = -100
		}
		any_defender = {
			participation_scaled_prestige = 50
		}
	}

	on_reverse_demand = {
		hidden_tooltip = { FROM = { add_character_modifier = { name = victory_timer duration = 3 } } }
		ROOT = {
			prestige = -200
			transfer_scaled_wealth = {
				to = FROM
				value = 4.0
			}
		}
		any_defender = {
			participation_scaled_prestige = 100
		}
	}

	attacker_ai_victory_worth = {
		factor = 100
	}
	
	attacker_ai_defeat_worth = {
		factor = 100
	}

	defender_ai_victory_worth = {
		factor = -1 # always accept
	}
	
	defender_ai_defeat_worth = {
		factor = 100
	}
	
	# ai importance placed on this CB: scope is the targeted title, ROOT is the attacking character, FROM is the defending character
	ai_will_do = { 
		factor = 2
		#Dragon intimidation
		modifier = {
			factor = 0
			ROOT = { 
				NOT = { can_use_dragon_abilities_trigger = yes } 
				NOT = { relative_power = { who = FROM power = 6 } }	
			}
			FROM = { 
				can_use_dragon_abilities_trigger = yes 
				OR = {
					any_friend = { trait = dragon martial = 60 }
					AND = {  graphical_culture = dragongfx martial = 60 }
				}
				is_incapable = no
			}
		}	
	}
}
dothraki_raid = {
	name = CB_NAME_DOTHRAKI_RAID
	war_name = WAR_NAME_DOTHRAKI_RAID
	sprite = 7
	truce_days = 3650
	hostile_against_others = yes
	can_ask_to_join_war = no
	is_permanent = yes
	press_claim = yes
	
	allow_distant = yes # AI parameter
	allowed_to_target_tributaries = no
	att_ticking_war_score_multiplier = 5.0
	def_ticking_war_score_multiplier = 5.0
	defender_unoccupied_warscore = yes
	max_attacker_battle_score = 90
	capturing_defender_is_complete_victory = no
	
	infamy_modifier = 0
	
	sort_priority = 3500
	
	can_use_gui = {
		#FROM = { 
			#NOT = { has_opinion_modifier = { who = ROOT modifier = dothraki_raid_truce } }
		#}
		NAND = { #jogos nhai do not make war on eachother
			ROOT = { culture = jogos_nhai }
			FROM = { culture = jogos_nhai }
		}
	}
	
	can_use = {
		universal_cb_restrictions_trigger = yes
		ROOT = { 
			is_nomadic = yes
			NAND = { 
				has_landed_title = c_dosh_khaleen 
				trait = dosh_khaleen
			}
		}
		FROM = { 
			NOT = { is_nomadic = yes }
			NOT = { tier = BARON }
		}
		FROM = { NOT = { primary_title = { title = d_kingsguard } } }
	}
	
	can_use_title = {
		is_primary_holder_title = yes
		FROM = {
			has_landed_title = PREV
			NAND = { 
				has_landed_title = c_dosh_khaleen 
				trait = dosh_khaleen
			}
			# One of the following must be true:
			# The enemy borders the attacker's realm/demesne
			# The enemies capital is in the same region as my capital
			# I am leader of all Dothraki
			OR = {
				ROOT = {
					tier = EMPEROR
					OR = {
						has_character_modifier = greatest_of_khans
						has_character_modifier = jhattar_of_jogos_nhai
					}	
				}
				AND = { #Free City targets
					capital_scope = { region = world_free_cities }
					ROOT = { capital_scope = { region = world_free_cities } }
				}
				AND = { #Summer Sea
					capital_scope = { region = world_summer_sea }
					ROOT = { capital_scope = { region = world_summer_sea } }
				}
				AND = { #Westeros
					capital_scope = { region = world_westeros }
					ROOT = { capital_scope = { region = world_westeros } }
				}
				AND = { #East/Bone Mountains/Slaver's Bay
					capital_scope = {
						OR = {
							region = world_ghiscar
							region = world_dothraki_sea
							region = world_qarth
							region = world_bone_mountains
							region = world_lhazar
						}
					}	
					ROOT = { 
						capital_scope = {
							OR = {
								region = world_ghiscar
								region = world_dothraki_sea
								region = world_qarth
								region = world_bone_mountains
								region = world_lhazar
							}
						}
					}
				}
				AND = { #Ibben
					capital_scope = {
						OR = {
							region = world_ibben
							region = world_dothraki_sea
						}
					}	
					ROOT = { capital_scope = { region = world_ibben } }
				}
				AND = { #Far East
					capital_scope = { region = world_far_east }
					ROOT = { capital_scope = { region = world_far_east } }
				}
				AND = { #Jade Sea
					capital_scope = { region = world_jade_sea }
					ROOT = { capital_scope = { region = world_jade_sea } }
				}
				any_realm_province = {		
					any_neighbor_province = {
						owner = {
							OR = {
								character = ROOT
								is_liege_or_above = ROOT
							}
						}
					}
				}
			}	
		}		
	}
	
	is_valid = {	
		universal_cb_valid_restrictions_trigger = yes
	}
	
	is_valid_title = {
		FROM = {
			has_landed_title = PREV
		}	
	}
	
	on_add_title = {
		e_rebels = {
			persistent_event_target:chronicle_player = {
				if = {
					limit = { character = ROOT }
					chronicle = {
						entry = CHRONICLE_WAR_RAID_ATTACKER
						portrait = [From.GetID]
					}
					break = yes
				}
				if = {
					limit = { character = FROM }
					chronicle = {
						entry = CHRONICLE_WAR_RAID_DEFENDER
						portrait = [Root.GetID]
					}
					break = yes
				}
				if = {
					limit = { is_liege_or_above = ROOT }
					chronicle = {
						entry = CHRONICLE_WAR_RAID_ATTACKER_LIEGE
						portrait = [Root.GetID]
					}
					break = yes
				}
				if = {
					limit = { is_liege_or_above = FROM }
					chronicle = {
						entry = CHRONICLE_WAR_RAID_DEFENDER_LIEGE
						portrait = [From.GetID]
					}
				}
			}
		}	
	}
	
	on_add = {
		hidden_tooltip = {
			FROM = { 
				character_event = { id = dothraki.607 days = 7 } #surrender and offer tribute?
			}
		}
	}
	
	on_success = {
		ROOT = {
			participation_scaled_prestige = 100
		}
		any_attacker = {
			limit = { NOT = { character = ROOT } }
			hidden_tooltip = { participation_scaled_prestige = 100 }
		}
	}
	
	on_success_title = {
		# Sack occupied provinces
		FROM = {
			transfer_scaled_wealth = {
				to = ROOT
				value = 3.0
			}
			capital_scope = {
				# The attacker gains a slave camp level
				ROOT = { character_event = { id = slavery.1000 tooltip = "EVTTOOLTIPSLAVERY1000" } }
				slave_raid_gain_slaves_effect = yes		
			}
		}	
			
		# Auto-enslave all prisoners of war
		FROM = {
			any_realm_character = {
				limit = {
					prisoner = yes
					host = { character = ROOT }
					is_liege_or_above = FROM
					NOT = { trait = slave }
				}
				add_trait = slave
				hidden_tooltip = {
					prisoner = no
					clr_character_flag = captured_in_battle
					clr_character_flag = lost_trial_by_combat
					clr_character_flag = imprisoned_for_relatives_crimes
					ROOT = { reverse_banish = PREV }
					#give_minor_title = title_slave
					opinion = { who = ROOT modifier = opinion_my_owner }
					reverse_opinion = { who = ROOT modifier = opinion_my_slave }
					opinion = { who = ROOT modifier = opinion_enslaved_me }
				}
			}
		}
	}
	
	on_fail = {
		# Auto-enslave all prisoners of war
		FROM = {
			any_realm_character = {
				limit = {
					prisoner = yes
					host = { character = ROOT }
					is_liege_or_above = FROM
					NOT = { trait = slave }
				}
				add_trait = slave
				hidden_tooltip = {
					prisoner = no
					clr_character_flag = captured_in_battle
					clr_character_flag = lost_trial_by_combat
					clr_character_flag = imprisoned_for_relatives_crimes
					ROOT = { reverse_banish = PREV }
					#give_minor_title = title_slave
					opinion = { who = ROOT modifier = opinion_my_owner }
					reverse_opinion = { who = ROOT modifier = opinion_my_slave }
					opinion = { who = ROOT modifier = opinion_enslaved_me }
				}
			}
		}
		ROOT = { prestige = -100 }
	}
	
	on_reverse_demand = {
		FROM = {
			participation_scaled_prestige = 100
		}
		any_defender = {
			limit = { NOT = { character = FROM } }
			hidden_tooltip = { participation_scaled_prestige = 100 }
		}
		# Free all prisoners
		FROM = {
			any_realm_character = {
				limit = {
					is_liege_or_above = FROM
					prisoner = yes
					host = { character = ROOT }
				}
				prisoner = no
				clr_character_flag = captured_in_battle
				clr_character_flag = lost_trial_by_combat
				clr_character_flag = imprisoned_for_relatives_crimes
			}
		}
		ROOT = { 
			prestige = -200
			transfer_scaled_wealth = {
				to = FROM
				value = 3.0
			}
		}
	}
	
	on_reverse_demand_title = {
		location = {
			ROOT = {
				# Free and repatriate all slaves that are:
				#	- of the target province's culture
				#	- of the defender's culture
				#	- of the defender's dynasty
				#	- of the defender's spouse's dynasty
				any_courtier = {
					limit = {
						trait = slave
						has_opinion_modifier = { who = ROOT modifier = opinion_my_owner }
						OR = {
							culture = PREVPREV
							culture = FROM
							dynasty = FROM
							FROM = { spouse = { dynasty = PREVPREV } }
							is_close_relative = FROM
							FROM = { spouse = { is_close_relative = PREVPREV } }
						}
					}
					character_event = { id = slavery.0 tooltip = "EVTTOOLTIPSLAVERY0" }
					hidden_tooltip = { FROM = { reverse_banish = PREV } }
				}
			}
		}
	}
	
	attacker_ai_victory_worth = {
		factor = -1 # Always accept
	}
	attacker_ai_defeat_worth = {
		factor = 75
	}
	defender_ai_victory_worth = {
		factor = -1 # Always accept
	}
	defender_ai_defeat_worth = {
		factor = 75
	}
	
	ai_will_do = {
		factor = 1
		#Dragon intimidation
		modifier = {
			factor = 0
			ROOT = { 
				NOT = { can_use_dragon_abilities_trigger = yes } 
				NOT = { relative_power = { who = FROM power = 6 } }	
			}
			FROM = { 
				can_use_dragon_abilities_trigger = yes 
				OR = {
					any_friend = { trait = dragon martial = 60 }
					AND = {  graphical_culture = dragongfx martial = 60 }
				}
				is_incapable = no
			}
		}
	}
}
acquire_grazing_lands = {
	name = CB_NAME_ACQUIRE_LANDS
	war_name = WAR_NAME_ACQUIRE_LANDS
	sprite = 7
	truce_days = 1825
	hostile_against_others = yes
	can_ask_to_join_war = no
	is_permanent = yes
	check_all_titles = yes # if permanent, setting this to true will check against all of someones titles, including vassal held titles
	press_claim = yes
	allowed_to_target_tributaries = no
	defender_unoccupied_warscore = yes
	
	infamy_modifier = 0
	
	sort_priority = 1500
	
	can_use_gui = {
		custom_tooltip = {
			text = TOOLTIPCBENFORCEDTRUCE
			hidden_tooltip = {
				FROM = {
					NOT = { has_opinion_modifier = { who = ROOT modifier = opinion_enforced_truce } }
				}	
			}
		}
		FROM = { 
			NAND = { 
				has_landed_title = c_dosh_khaleen 
				trait = dosh_khaleen
			}
		}
		conditional_tooltip = { #jogos nhai do not make war on eachother
			trigger = { ROOT = { has_jogos_nhai_war_block_trigger = yes } }
			custom_tooltip = {
				text = TOOLTIPJOGOSWARPROHIBITION
				hidden_tooltip = { NOT = { FROM = { has_jogos_nhai_war_block_trigger = yes } } }
			}
		}
	}
	
	can_use = {
		universal_cb_restrictions_trigger = yes
		ROOT = { 
			is_nomadic = yes
			NAND = { 
				has_landed_title = c_dosh_khaleen 
				trait = dosh_khaleen
			}
			NAND = { 
				independent = yes
				OR = {
					has_character_modifier = greatest_of_khans
					has_character_modifier = jhattar_of_jogos_nhai
				}	
			}
			NOT = { has_game_rule = { name = nomad_invasions value = unrestricted } }
		}
		FROM = { 
			NOT = { is_nomadic = yes }
		}
	}
	
	can_use_title = {
		tier = COUNT		
		location = { traditional_nomad_territory_trigger = yes } #If traditional dothraki province can be used against anyone
		
		OR = {
			holder = FROM
			holder_scope = {
				is_liege_or_above = FROM
			}
		}
		
		location = {
			any_neighbor_province = {
				has_owner = yes
				owner = {
					OR = {
						character = ROOT
						is_liege_or_above = ROOT
					}
				}
			}
		}
	}
	
	is_valid = {
		ROOT = { 
			is_nomadic = yes
		}
	}
	
	is_valid_title = {
		location = { traditional_nomad_territory_trigger = yes } #If traditional dothraki province can be used against anyone

		OR = {
			holder = FROM
			holder_scope = {
				is_liege_or_above = FROM
			}
		}
	}
	
	on_add = {
		hidden_tooltip = { 
			FROM = { 
				if = {
					limit = {
						OR = {
							is_theocracy = yes
							is_republic = yes
						}
					}
					character_event = { id = diplomatic.3099 } #call for aid?
				}	
			} 
		}
	}
	
	on_success = {
		if = {
			limit = { FROM = { NOT = { culture = ruin } } }
			ROOT = {
				participation_scaled_prestige = 100
			}
			any_attacker = {
				limit = { NOT = { character = ROOT } }
				hidden_tooltip = { participation_scaled_prestige = 100 }
			}
		}	
		#To handle Warrior Lodge mission "Wage War" completion...
		attacker = { save_event_target_as = attacker_target }
		defender = { save_event_target_as = defender_target }

		if = { 
			limit = {
				event_target:attacker_target = { has_quest = quest_warrior_lodge_war }
				is_quest_target_of = event_target:attacker_target
			}
			event_target:attacker_target = {
				show_scope_change = no
				tooltip = { clr_quest = quest_warrior_lodge_war }
				set_character_flag = won_war@event_target:defender_target
				#character_event = { id = HF.10514 days = 3 } #Sent from on_action instead
			}
		}
	}
	
	on_success_title = {
		gain_title = ROOT
		hidden_tooltip = {
			location = {
				province_event = { id = dothraki.610 } #province maintenance
			}
		}	
	}
	
	on_fail = {
		ROOT = { prestige = -100 }
	}
	
	on_reverse_demand = {
		FROM = {
			participation_scaled_prestige = 100
		}
		any_defender = {
			limit = { NOT = { character = FROM } }
			hidden_tooltip = { participation_scaled_prestige = 100 }
		}
		ROOT = { 
			prestige = -200
			transfer_scaled_wealth = {
				to = FROM
				value = 3.0
			}
		}	
	}
	
	attacker_ai_victory_worth = {
		factor = -1 # Always accept
	}
	attacker_ai_defeat_worth = {
		factor = 100
	}
	defender_ai_victory_worth = {
		factor = -1 # Always accept
	}
	defender_ai_defeat_worth = {
		factor = 100
	}
	
	ai_will_do = {
		factor = 0.4
		#Dragon intimidation
		modifier = {
			factor = 0
			ROOT = { 
				NOT = { can_use_dragon_abilities_trigger = yes } 
				NOT = { relative_power = { who = FROM power = 6 } }	
			}
			FROM = { 
				can_use_dragon_abilities_trigger = yes 
				OR = {
					any_friend = { trait = dragon martial = 60 }
					AND = {  graphical_culture = dragongfx martial = 60 }
				}
				is_incapable = no
			}
		}
		modifier = {
			factor = 3
			FROM = { NOT = { is_nomadic = yes } }
		}

		# Account for value of land
		modifier = {
			factor = 2
			location = {
				OR = {
					terrain = plains
					terrain = steppe
					terrain = farmlands
				}
			}
		}
		modifier = {
			factor = 0.5
			location = {
				OR = {
					terrain = marsh
					terrain = jungle
					terrain = desert
					terrain = coastal_desert
					terrain = mountainpass
					terrain = marshroad
					terrain = highroad
					terrain = moatcailin
				}
			}
		}
		modifier = {
			factor = 0.2
			location = {
				OR = {
					terrain = arctic
					terrain = mountain
					terrain = impassable_mountains
				}
			}
		}
	}
}
nomad_dispute = {
	name = CB_NAME_DISPUTE
	war_name = CB_NAME_DISPUTE
	sprite = 16
	truce_days = 1095
	hostile_against_others = yes
	is_permanent = yes
	check_all_titles = yes
	can_ask_to_join_war = no
	
	allow_distant = yes
	allowed_to_target_tributaries = no
	max_attacker_battle_score = 100

	infamy_modifier = 0
	
	sort_priority = 5000
	
	can_use_gui = {
		custom_tooltip = {
			text = TOOLTIPCBENFORCEDTRUCE
			hidden_tooltip = {
				FROM = {
					NOT = { has_opinion_modifier = { who = ROOT modifier = opinion_enforced_truce } }
				}	
			}
		}
		conditional_tooltip = { #jogos nhai do not make war on eachother
			trigger = { ROOT = { has_jogos_nhai_war_block_trigger = yes } }
			custom_tooltip = {
				text = TOOLTIPJOGOSWARPROHIBITION
				hidden_tooltip = { NOT = { FROM = { has_jogos_nhai_war_block_trigger = yes } } }
			}
		}
	}
	
	can_use = {
		has_dlc = "Horse Lords"
		FROM = {
			is_nomadic = yes
		}
		ROOT = {
			is_nomadic = yes
			same_realm = FROM
			has_feud_with = FROM
			mercenary = no
		}
	}

	can_use_title = {
		tier = count
		location = {
			NOT = { num_of_settlements = 1 }
		}
		FROM = {
			has_landed_title = PREV
		}
	}

	is_valid_title = {
		location = {
			NOT = { num_of_settlements = 1 }
		}
		FROM = {
			has_landed_title = PREV
		}
	}

	on_success_title = {
		usurp_title_plus_barony_if_unlanded = { target = ROOT type = invasion }
		
		ROOT = {
			participation_scaled_prestige = 100
			participation_scaled_piety = 50
		}
		any_attacker = {
			limit = { NOT = { character = ROOT } }
			hidden_tooltip = { 
				participation_scaled_prestige = 100 
				participation_scaled_piety = 50
			}
		}
	}
	on_success = {
		#To handle Warrior Lodge mission "Wage War" completion...
		attacker = { save_event_target_as = attacker_target }
		defender = { save_event_target_as = defender_target }

		if = { 
			limit = {
				event_target:attacker_target = { has_quest = quest_warrior_lodge_war }
				is_quest_target_of = event_target:attacker_target
			}
			event_target:attacker_target = {
				show_scope_change = no
				tooltip = { clr_quest = quest_warrior_lodge_war }
				set_character_flag = won_war@event_target:defender_target
				#character_event = { id = HF.10514 days = 3 } #Sent from on_action instead
			}
		}
	}

	on_fail_title = {
		ROOT = {
			prestige = -100
		}
		FROM = {
			participation_scaled_prestige = 50
		}
		any_defender = {
			limit = { NOT = { character = FROM } }
			hidden_tooltip = { participation_scaled_prestige = 50 }
		}
	}

	on_reverse_demand = {
		ROOT = {
			prestige = -200
			transfer_scaled_wealth = {
				to = FROM
				value = 4.0
			}
		}
		FROM = {
			participation_scaled_prestige = 100
			participation_scaled_piety = 50
		}
		any_defender = {
			limit = { NOT = { character = FROM } }
			hidden_tooltip = {
				participation_scaled_prestige = 100 
				participation_scaled_piety = 50
			}
		}
	}

	attacker_ai_victory_worth = {
		factor = -1 # always accept
	}
	
	attacker_ai_defeat_worth = {
		factor = 100
	}

	defender_ai_victory_worth = {
		factor = -1 # always accept
	}
	
	defender_ai_defeat_worth = {
		factor = 100
	}
	
	ai_will_do = {
		factor = 1
		#Dragon intimidation
		modifier = {
			factor = 0
			ROOT = { 
				NOT = { can_use_dragon_abilities_trigger = yes } 
				NOT = { relative_power = { who = FROM power = 6 } }	
			}
			FROM = { 
				can_use_dragon_abilities_trigger = yes 
				OR = {
					any_friend = { trait = dragon martial = 60 }
					AND = {  graphical_culture = dragongfx martial = 60 }
				}
				is_incapable = no
			}
		}
	}
	
}

# 59: Anti Nomad CB
cb_liberate_nomad_duchy = {
	name = CB_NAME_LIBERATE_NOMAD
	war_name = WAR_NAME_LIBERATE_NOMAD
	sprite = 8
	truce_days = 3650
	
	is_permanent = yes
	hostile_against_others = yes
	can_ask_to_join_war = yes
	allowed_to_target_tributaries = no
	defender_unoccupied_warscore = yes
	max_attacker_battle_score = 100
	
	infamy_modifier = 0
	
	sort_priority = 5000
	
	can_use_gui = {
		ROOT = {
			NOT = { pacifist = yes }
			OR = {
				has_opinion_modifier = { who = FROM modifier = opinion_vengeance }
				has_opinion_modifier = { who = FROM modifier = opinion_looted }
				has_opinion_modifier = { who = FROM modifier = declared_war }
				FROM = {
					independent = yes
					OR = {
						has_character_modifier = greatest_of_khans
						has_character_modifier = jhattar_of_jogos_nhai
					}
				}
			}	
		}
		conditional_tooltip = { #jogos nhai do not make war on eachother
			trigger = { ROOT = { has_jogos_nhai_war_block_trigger = yes } }
			custom_tooltip = {
				text = TOOLTIPJOGOSWARPROHIBITION
				hidden_tooltip = { NOT = { FROM = { has_jogos_nhai_war_block_trigger = yes } } }
			}
		}
	}
	
	can_use = {
		universal_cb_restrictions_trigger = yes
		FROM = {
			is_nomadic = yes
		}
		ROOT = {
			NOT = { is_nomadic = yes }		
			NOT = { same_realm = FROM }
			mercenary = no
		}
	}
	
	is_valid = {
		FROM = {
			is_nomadic = yes
		}
		ROOT = {
			NOT = { is_nomadic = yes }
			NOT = { pacifist = yes }
			NOT = { same_realm = FROM }
			mercenary = no
		}
	}
	
	on_add = {
		e_rebels = {
			persistent_event_target:chronicle_player = {
				if = {
					limit = { character = ROOT }
					chronicle = {
						entry = CHRONICLE_WAR_ANTI_NOMAD_ATTACKER
						portrait = [From.GetID]
					}
					break = yes
				}
				if = {
					limit = { character = FROM }
					chronicle = {
						entry = CHRONICLE_WAR_ANTI_NOMAD_DEFENDER
						portrait = [Root.GetID]
					}
					break = yes
				}
				if = {
					limit = { is_liege_or_above = ROOT }
					chronicle = {
						entry = CHRONICLE_WAR_ANTI_NOMAD_ATTACKER_LIEGE
						portrait = [Root.GetID]
					}
					break = yes
				}
				if = {
					limit = { is_liege_or_above = FROM }
					chronicle = {
						entry = CHRONICLE_WAR_ANTI_NOMAD_DEFENDER_LIEGE
						portrait = [From.GetID]
					}
				}
			}
		}	
	}
	
	on_success = {
		hidden_tooltip = { ROOT = { add_character_modifier = { name = victory_timer duration = 3 } } }
		FROM = {			
			custom_tooltip = {
				text = TOOLTIPanti_nomadSUCCESS
				hidden_tooltip = {
					opinion = { who = ROOT modifier = forbidden_raid_target months = 120 } #forbid further raids
					any_vassal = {
						limit = { is_nomadic = yes }
						set_defacto_liege = THIS
					}
					character_event = { id = raid_events.99 } #slaves and swords returned
					set_character_flag = post_war_desertion
					character_event = { id = dothraki.401 days = 1 } #a warrior deserts
				}
			}
			any_demesne_title = { 
				limit = { 
					higher_tier_than = DUKE
					controls_religion = no
					is_landless_type_title = no
					is_primary_holder_title = no
					NOT = { holder_scope = { clan_title = { title = PREVPREV } } }
				}
				destroy_landed_title = yes 
			}	
			#Manage Empire Titles
			any_demesne_title = {
				limit = {
					tier = EMPEROR
					OR = {
						title = e_khalasar
						title = e_jkhalasar
					}
				}
				destroy_landed_title = THIS
			}
			hidden_tooltip = { set_defacto_liege = THIS }
			imprison = ROOT 
			clr_character_flag = captured_in_battle
			transfer_scaled_wealth = {
				to = ROOT
				value = 3.0
			}
			if = {
				limit = { has_character_modifier = greatest_of_khans }
				remove_character_modifier = greatest_of_khans
				hidden_tooltip = { remove_special_character_title = yes }
			}
			if = {
				limit = { has_character_modifier = jhattar_of_jogos_nhai }
				remove_character_modifier = jhattar_of_jogos_nhai
				hidden_tooltip = { remove_special_character_title = yes }
			}
		}
		ROOT = {
			participation_scaled_prestige = 500
		}
		any_attacker = {
			limit = { NOT = { character = ROOT } }
			hidden_tooltip = { 
				participation_scaled_prestige = 500
			}
		}
		
		FROM = { prestige = -500 }
	}

	on_fail = {
		ROOT = { 
			prestige = -200
		}
	}

	on_reverse_demand = {
		hidden_tooltip = { FROM = { add_character_modifier = { name = victory_timer duration = 3 } } }
		ROOT = {
			transfer_scaled_wealth = {
				to = FROM
				value = 4.0
			}
			prestige = -400
		}
		FROM = {
			participation_scaled_prestige = 300
		}
		any_defender = {
			limit = { NOT = { character = FROM } }
			hidden_tooltip = { 
				participation_scaled_prestige = 300
			}
		}
	}

	attacker_ai_victory_worth = {
		factor = -1 # always accept
	}
	
	attacker_ai_defeat_worth = {
		factor = 100
	}

	defender_ai_victory_worth = {
		factor = -1 # always accept
	}
	
	defender_ai_defeat_worth = {
		factor = 100
	}
	
	ai_will_do = {
		factor = 1.5
		#Dragon intimidation
		modifier = {
			factor = 0
			ROOT = { 
				NOT = { can_use_dragon_abilities_trigger = yes } 
				NOT = { relative_power = { who = FROM power = 6 } }	
			}
			FROM = { 
				can_use_dragon_abilities_trigger = yes 
				OR = {
					any_friend = { trait = dragon martial = 60 }
					AND = {  graphical_culture = dragongfx martial = 60 }
				}
				is_incapable = no
			}
		}	
	}
}

# 60: The CB used by "Minor Clan" revolters in Horse Lords
cb_minor_clan_revolt = {
	name = CB_NAME_MINOR_CLAN_REVOLT
	war_name = WAR_NAME_MINOR_CLAN_REVOLT
	sprite = 16
	truce_days = 365
	hostile_against_others = no
	is_permanent = no
	check_all_titles = yes # if permanent, setting this to true will check against all of someones titles, including vassal held titles
	press_claim = yes
	
	attacker_can_call_allies = no
	defender_can_call_allies = no
	can_ask_to_join_war = no
	
	is_independence = yes
	max_attacker_battle_score = 100
	
	infamy_modifier = 0
	
	can_use = {
		ROOT = {
			primary_title = { temporary = yes } # Revolter or adventurer trigger
			war = no
			NOT = { is_liege_or_above = FROM }
			mercenary = no
		}
	}

	can_use_title = {
		tier = count
	}

	is_valid_title = {
		OR = {
			holder = FROM
			holder_scope = {
				is_liege_or_above = FROM
			}
		}
	}

	on_success_title = {
		usurp_title_plus_barony_if_unlanded = { target = ROOT type = revolt }
		
		ROOT = {
			primary_title = {
				set_title_nomad = { title = THIS status = no }
			}
			
			set_government_type = feudal_government
		}
	
		ROOT = {		
			set_government_type = nomadic_government
			set_defacto_liege = FROM
			
			hidden_tooltip = {
				remove_opinion = {
					who = FROM
					modifier = opinion_evil_tyrant
				}
			}
		}
		FROM = {
			prestige = -100
		}
	}

	on_fail_title = {
		FROM = {
			prestige = 10
			hidden_tooltip = {
				opinion = {
					modifier = opinion_rebel_traitor 
					who = ROOT
					months = 1200
				}
			}
		}
		ROOT = {
			clear_wealth = yes
			imprison = FROM
			clr_character_flag = captured_in_battle
			hidden_tooltip = {
				primary_title = {
					activate_title = { title = THIS status = no }
					destroy_landed_title = THIS
				}
				move_character = FROM
				add_character_modifier = { 
					name = broken_spirit
					days = -1
				}
			}
		}
	}

	on_reverse_demand = {
		FROM = {
			prestige = 20
			hidden_tooltip = {
				opinion = {
					modifier = opinion_rebel_traitor 
					who = ROOT
					months = 1200
				}
				add_character_modifier = { 
					name = crushed_revolt
					days = 3650
				}
			}
		}
		ROOT = {
			clear_wealth = yes
			imprison = FROM 
			clr_character_flag = captured_in_battle
			hidden_tooltip = {
				primary_title = {
					activate_title = { title = THIS status = no }
					destroy_landed_title = THIS
				}
				add_character_modifier = { 
					name = broken_spirit
					days = -1
				}
			}
		}
	}
	
	on_attacker_leader_death = {
		end_war = invalid
		ROOT = {
			clear_wealth = yes
			hidden_tooltip = {
				primary_title = {
					activate_title = { title = THIS status = no }
					destroy_landed_title = THIS
				}
			}
		}
	}

	attacker_ai_victory_worth = {
		factor = -1 # always accept
	}
	
	attacker_ai_defeat_worth = {
		factor = 100
	}

	defender_ai_victory_worth = {
		factor = -1 # always accept
	}
	
	defender_ai_defeat_worth = {
		factor = 100
	}
}
nomad_humiliate_cb = {
	name = CB_NAME_HUMILIATE
	war_name = WAR_NAME_HUMILIATE
	sprite = 1
	truce_days = 3650
	is_permanent = yes
	hostile_against_others = yes
	can_ask_to_join_war = no
	display_on_map = no
	allowed_to_target_tributaries = no
	max_attacker_battle_score = 100
	
	infamy_modifier = 0
	
	sort_priority = 3500
	
	can_use_gui = {
		custom_tooltip = {
			text = TOOLTIPCBENFORCEDTRUCE
			hidden_tooltip = {
				FROM = {
					NOT = { has_opinion_modifier = { who = ROOT modifier = opinion_enforced_truce } }
				}	
			}
		}
		conditional_tooltip = { #jogos nhai do not make war on eachother
			trigger = { ROOT = { has_jogos_nhai_war_block_trigger = yes } }
			custom_tooltip = {
				text = TOOLTIPJOGOSWARPROHIBITION
				hidden_tooltip = { NOT = { FROM = { has_jogos_nhai_war_block_trigger = yes } } }
			}
		}
	}
	
	can_use = {
		has_dlc = "Horse Lords"
		universal_cb_restrictions_trigger = yes
		FROM = {
			is_nomadic = yes
		}
		ROOT = {
			is_nomadic = yes
			mercenary = no
			OR = {
				AND = {
					same_realm = FROM
					has_feud_with = FROM
				}
				FROM = {
					is_nomadic = yes
					independent = yes
				}
			}
		}
		
		# The attacker needs a border, or be at most two sea zones away from one of the target's counties
		FROM = {
			any_realm_province = {
				any_neighbor_province = {
					OR = {
						AND = {
							has_owner = yes
							owner = {
								OR = {
									character = ROOT
									is_liege_or_above = ROOT
								}
							}
						}
						AND = {
							is_land = no
							any_neighbor_province = {
								OR = {
									AND = {
										has_owner = yes
										owner = {
											OR = {
												character = ROOT
												is_liege_or_above = ROOT
											}
										}
									}
									AND = {
										is_land = no
										any_neighbor_province = {
											owner = {
												OR = {
													character = ROOT
													is_liege_or_above = ROOT
												}
											}
										}
									}
								}
							}
						}
					}
				}
			}
		}
	}

	on_success = {
		hidden_tooltip = { 
			ROOT = { 
				add_character_modifier = { name = victory_timer duration = 3 } 
			}
		}	
		ROOT = {
			prestige = 300
			steal_population_scaled = {
				target = FROM
				percentage = 0.25
			}
		}
		FROM = {
			prestige = -300
		}
	}

	on_fail = {
		ROOT = {
			prestige = -100
		}
		FROM = {
			prestige = 100
		}
	}

	on_reverse_demand = {
		hidden_tooltip = { 
			FROM = { 
				add_character_modifier = { name = victory_timer duration = 3 } 
			}
		}
		ROOT = {
			prestige = -200
			transfer_scaled_wealth = {
				to = FROM
				value = 4.0
			}
		}

		FROM = {
			prestige = 200
		}
	}
	
	on_attacker_leader_death = {
		end_war = invalid
	}

	attacker_ai_victory_worth = {
		factor = -1 # always accept
	}
	
	attacker_ai_defeat_worth = {
		factor = 100
	}

	defender_ai_victory_worth = {
		factor = -1 # always accept
	}
	
	defender_ai_defeat_worth = {
		factor = 100
		
		modifier = {
			factor = 2
			FROM = {
				trait = proud
			}
		}
		
		modifier = {
			factor = 2
			FROM = {
				trait = brave
			}
		}
		
		modifier = {
			factor = 2
			FROM = {
				trait = greedy
			}
		}
		
		modifier = {
			factor = 3
			FROM = {
				tier = KING
			}
		}

		modifier = {
			factor = 0.85
			ROOT = {
				relative_power = { who = FROM power = 1.2 }
			}
		}

		modifier = {
			factor = 0.85
			ROOT = {
				relative_power = { who = FROM power = 1.5 }
			}
		}

		modifier = {
			factor = 0.8
			ROOT = {
				relative_power = { who = FROM power = 2.0 }
			}
		}

		modifier = {
			factor = 0.8
			ROOT = {
				relative_power = { who = FROM power = 2.5 }
			}
		}

		modifier = {
			factor = 0.8
			ROOT = {
				relative_power = { who = FROM power = 3 }
			}
		}

		modifier = {
			factor = 0.75
			ROOT = {
				relative_power = { who = FROM power = 4 }
			}
		}

		modifier = {
			factor = 0.75
			ROOT = {
				relative_power = { who = FROM power = 5 }
			}
		}

		modifier = {
			factor = 0.75
			ROOT = {
				relative_power = { who = FROM power = 6 }
			}
		}

		modifier = {
			factor = 0.5
			ROOT = {
				relative_power = { who = FROM power = 8 }
			}
		}

		modifier = {
			factor = 0.25
			ROOT = {
				relative_power = { who = FROM power = 10 }
			}
		}

		modifier = {
			factor = 2
			ROOT = {
				distance_from_realm = { who = FROM value = 20 }
			}
		}

		modifier = {
			factor = 2
			ROOT = {
				distance_from_realm = { who = FROM value = 40 }
			}
		}
		
		modifier = {
			factor = 3
			ROOT = {
				distance_from_realm = { who = FROM value = 80 }
			}
		}
		
		modifier = {
			factor = 4
			ROOT = {
				distance_from_realm = { who = FROM value = 120 }
			}
		}
	}

	ai_will_do = {
		factor = 1
		
		modifier = {
			factor = 0.1 # Low prio CB
		}
		
		#Dragon intimidation
		modifier = {
			factor = 0
			ROOT = { 
				NOT = { can_use_dragon_abilities_trigger = yes } 
				NOT = { relative_power = { who = FROM power = 6 } }	
			}
			FROM = { 
				can_use_dragon_abilities_trigger = yes 
				OR = {
					any_friend = { trait = dragon martial = 60 }
					AND = {  graphical_culture = dragongfx martial = 60 }
				}
				is_incapable = no
			}
		}
		
		modifier = {
			factor = 0.1 # Target has almost no money
			FROM = {
				OR = {
					is_nomadic = yes
					is_tribal = yes
				}
			}
		}

		modifier = {
			factor = 4
			ROOT = {
				trait = greedy
			}
		}
	}
}