202.1.1 = { 
	liege="d_blackhaven"
	de_jure_liege = d_blackhaven
}
7994.1.1 = { holder = 300303 } # Alaric Dondarrion (nc)
8006.1.1 = { holder = 301303 } # Donnel Dondarrion (nc)
8040.1.1 = { holder = 302303 } # Harbert Dondarrion (nc)
8059.1.1 = { holder = 303303 } # Simon Dondarrion (C)
8086.1.1 = { holder = 304303 } # Damon Dondarrion (nc)
8117.1.1 = { holder = 36303 } # Denys Dondarrion (nc)
8133.1.1 = { holder = 306303 } # Manfred Dondarrion (nc)
8161.1.1 = { holder = 307303 } # Ryman Dondarrion (nc)
8176.1.1 = { holder = 200303 } # Leslyn Dondarrion (C)
8212.1.1 = { holder = 201303 } # Manfred Dondarrion (C)
8241.1.1 = { holder = 310303 } # Gulian Dondarrion (nc)
8271.1.1 = { holder = 303 } # Edric Dondarrion (nc)
8296.1.1 = { holder = 1303 } # Beric Dondarrion (C)
8298.10.28={ holder = 2303 } 