7600.1.1={
	liege="e_riverlands"
	de_jure_liege = d_greenfork
	law = succ_primogeniture
}
7970.1.1={
	holder=18140
}
7998.2.1={
	liege="k_riverlands"
}
8010.1.1={
	holder=16140
}
8023.1.1={
	holder=15140
}
8039.1.1={
	holder=14140
}
8059.1.1={
	holder=13140
}
8068.1.1={
	holder=12140
}
8093.1.1={
	holder=11140
}
8125.1.1={
	holder=17140
}
8139.1.1={
	holder=9140
}
8166.1.1={
	holder=7140
}
8193.1.1={
	holder=6140
}
8230.1.1={
	holder=5140
}
8261.1.1={
	holder=140
}
8283.7.1={
	liege="k_riverlands"
}