6000.1.1={
	liege="e_riverlands"
	de_jure_liege = d_harrenhal
	law = succ_primogeniture
}
7962.1.1={
	holder=28143
}
7998.2.1={
	liege="k_riverlands"
}
8005.1.1={
	holder=25143
}
8018.1.1={
	holder=24143
}
8033.1.1={
	holder=23143
}
8044.6.1={
	liege="d_esgaroth"
}
8082.1.1={
	holder=22143
}
8098.1.1={
	holder=21143
}
8107.1.1={
	holder=20143
}
8132.1.1={
	holder=19143
}
8154.1.1={
	holder=17143
}
8180.1.1={
	holder=13143
}
8182.1.1={
	holder=3143
}
8212.1.1={
	liege = d_harrenhal
}
8236.1.1={
	holder=1143
}
8273.1.1={
	holder=143
}
8299.1.1={
	liege = k_riverlands
}
8299.11.5 = {
	liege = d_harrenhal
}