6000.1.1={
	liege="d_banefort"
	de_jure_liege = d_banefort
}
#House Algood
7976.1.1 = { holder=25224 }
8012.1.1 = { holder=16224 } # Alyn (nc)
8023.1.1 = { holder=17224 } # Lyle (nc)
8051.1.1 = { holder=18224 } # Quentyn (nc)
8073.1.1 = { holder=19224 } # Osbert (nc)
8101.1.1 = { holder=20224 } # Philip (nc)
8128.1.1 = { holder=21224 } # Addam (nc)
8154.1.1 = { holder=22224 } # Halman (nc)
8203.1.1 = { holder=23224 } # Sandor (nc)
8224.1.1 = { holder=24224 } # Regenald (nc)
8233.1.1 = { holder=10224 } # Daven (nc)
8284.1.1 = { holder=11224 } # Robert (nc)
8292.1.1 = { holder=12224 } # Ben (nc)
