6000.1.1={
	liege="d_deepwood_motte"
	de_jure_liege = d_wolfswood
	law = succ_primogeniture
}

7967.1.1 = { holder=11446 } # Garth (nc)
7993.1.1 = { holder=21446 } # Ramsay (nc)
8025.1.1 = { holder=31446 } # Roose (nc)
8039.1.1= { holder=41446 } # Mikken (nc)
8054.1.1 = { holder=61446 } # Meliana (nc)
8100.1.1 = { holder=121446 } # Bernarr (nc)
8107.1.1 = { holder=141446 } # Benjen (nc)
8143.1.1 = { holder=161446 } # Barbrey (nc)
8158.1.1 = { holder=171446 } # Donnis (nc)
8205.1.1 = { holder=191446 } # Bass (nc)
8228.1.1 = { holder=211446 } # Torren (nc)
8251.1.1 = { holder=221446 } # Hugo (nc)
8284.1.1 = { holder=241446 } # Porther (nc)
8296.1.1 = { holder=291446 } # Yoren (nc)
