6000.1.1={
	liege="d_willowwood"
	de_jure_liege = d_willowwood
	law = succ_primogeniture
}
7965.1.1={
	holder=60000135
}
8012.1.1={
	holder=60100135
}
8024.1.1={
	holder=25135
}
8036.1.1={
	holder=24135
}
8048.1.1={
	holder=23135
}
8060.1.1={
	holder=22135
}
8106.1.1={
	holder=21135
}
8143.1.1={
	holder=19135
}
8192.1.1={
	holder=16135
}
8227.1.1={
	holder=15135
}
8237.1.1={
	holder=14135
}
8253.1.1={
	holder=13135
}
8278.1.1={
	holder=135
}
8283.7.1={
	liege = k_riverlands #Rygers stripped of power
}