900.1.1={ law=succ_primogeniture law=cognatic_succession
	liege="d_oldtown"
	de_jure_liege = d_uplands
}
7870.1.1 = { 
	holder=300295 # Colin (nc)
	effect = {
		holder_scope = {
			set_dynasty_flag = is_cadet_house
			c_88171 = { #gardener father
				set_dynasty_flag = has_cadet_house
				set_dynasty_flag = owned_cadet_house_@PREV 
				ROOT = { holder_scope = { set_dynasty_flag = cadet_house_@PREVPREV } }
			}
		}
	}
} 
7920.1.1 = { holder=301295 } # Merrell (nc)
7937.1.1 = { holder=302295 } # Jon (nc)
7959.1.1 = { holder=304295 } # Garth (nc)
7985.1.1 = { holder=305295 } # Merrell (nc)
8030.1.1 = { holder=306295 } # Ryam (nc)
8046.1.1 = { holder=307295 } # Paxter (nc)
8074.1.1 = { holder=309295 } # Amelryc (nc)
8088.1.1 = { holder=310295 } # Garse (nc)
8107.1.1 = { holder=313295 } # Reynard (nc)
8116.1.1 = { holder=317295 } # Medwick (nc)
8176.1.1 = { holder=320295 } # Alyn (nc)
8199.1.1 = { holder=323295 } # Mark (nc)
8238.1.1 = { holder=328295 } # Florian (nc)
8278.1.1 = { holder=332295 } # Anslem (nc)
8282.1.1={
	holder=295
}




