1.1.1 = {
	liege="d_starpike"
	de_jure_liege = d_starpike
}
40.1.1 = { holder=4510281 } # Mervyn (nc)
74.1.1 = { holder=65400298 } # Gormon (nc)

120.1.1 = { holder=0 }
7140.1.1 = { holder=88000465 } # Pykewood (nc)
7200.1.1 = { holder=88000463 } # Meryn (C)
7245.1.1 = { holder=88000462 } # Yrma (C)
7280.1.1 = { holder=65600298 } # Eddison (C)
7320.1.1 = { holder=65700298 } # Eddison (C)
7335.1.1 = { holder=65800298 } # Emerick (C)
7345.1.1 = { holder=65900298 } # Lorimar (C) # Time of Manderly exile
7382.1.1 = { holder=0 }
7850.1.1 = { holder=6100298 } # Gwayne (nc)
7887.1.1 = { holder=6200298 } # Mervyn (nc)
7895.1.1 = { holder=65000298 } # Perceon (nc)
7930.1.1 = { holder=65100298 } # Galadon (nc)
7984.1.1 = { holder=65200298 } # Gareth (nc)
7988.1.1 = { holder=3000298 } # Mern (nc)
7998.6.6 = { holder=3001298 } # Tania (nc)
8017.1.1 = { holder=3004298 } # Mathis (nc)
8045.1.1 = { holder=3008298 } # Morm (nc)
8080.1.1 = { holder=3010298 } # Martyn (nc)
8124.1.1 = { holder=3011298 } # Arryn (nc)
8146.1.1 = { holder=3015298 } # Franklyn (nc)
8170.1.1 = { holder=3019298 } # Horas (nc)
8194.1.1 = { holder=3022298 } # Gormon (C)
#8196 Gormon Peake loses castle after balckfyre rebellion, house yelshire takes over
8196.1.1 = { 
	holder=3017257
	liege = k_reach
} # Amelryc (nc)
8205.1.1 = { holder=3020257 } # Mathis (nc)
8209.1.1 = { holder=3022257 } # Gerold (nc)
8235.1.1 = { holder=3025257 } # Mark (nc)
8282.1.1={
	holder=257
}



