#c_banefort
100.1.1={	
	liege="k_banefortTK"
	de_jure_liege = k_westerlands
	law = succ_primogeniture
}

235.1.1 = { holder = 152200 } #King Morgon (C)
258.1.1 = { holder = 0 liege="e_westerlands" }

7926.1.1 = { holder = 154200 }
7972.1.1 = { holder = 155200 }
7990.1.1 = { holder=325200 } # Sebaston (nc)
7998.7.6 = {
	liege="k_westerlands"
}
8000.6.6 = { holder=321200 } # Sarya (nc)
8067.1.1 = { holder=318200 } # Willem (nc)
8088.1.1 = { holder=314200 } # Sebaston (nc)
8104.1.1 = { holder=313200 } # Gareth (nc)
8126.1.1 = { holder=310200 } # Quenten (nc)
8130.1.1 = {holder=307200 } # Qarlon (nc)
8140.1.1 = { holder=305200 } # Quentyn (nc)
8196.1.1 = { holder=301200 } # Jaime (nc)
8203.1.1 = { holder=327200 } # Gerion (nc)
8221.1.1 = { holder=331200 } # Sebaston (nc)
8260.1.1 = { holder=12200 } # Symond (nc)
8276.1.1 = { holder=200 } # Quenten (c)