1.1.1={ law=succ_primogeniture law=cognatic_succession
	liege="e_reach"
}

50.1.1 = { holder=61000261 } # Foss the Archer (C)
80.1.1 = { holder=62000261 } # Egremont (nc) son of Foss
110.1.1 = { holder=0 }

7838.1.1 = { holder=64000261 } # Lambourne (nc)
7850.1.1 = { holder=65000261 } # Garlan (nc)
7888.1.1 = { holder=67000261 } # Edmund (nc)
7913.1.1 = { holder=68000261 } # Pearmain (nc)
7969.1.1 = { holder=69000261 } # Cortlan (nc)
7979.1.1 = { holder=61300261 } # Elstar (nc)
7994.1.1 = { holder=60000261 } # Alfiston Fossoway
7998.6.6={
	liege="k_reach"
}
8008.1.1={
	holder=26261 # Hectyr Fossoway
}
8043.1.1={
	holder=25261
}
8074.1.1={
	holder=23261
}
8107.1.1={
	holder=22261 # Owen Fossoway (C)
}
8130.5.8={
	holder=21261
}
8166.1.1={
	holder=20261
}
8184.1.1={
	holder=1262
}
8195.1.1={
	holder=3262
}
8215.1.1={
	holder=4262
}
8236.1.1={
	holder=6262
}
8256.1.1={
	holder=7262
}
8279.1.1={
	holder=262
}



