#d_gold_road
900.1.1={ liege = "e_westerlands" }
7957.1.1 = { holder=300208 } # Ilyn (nc)
7998.6.6 = { holder=301208 } # Gerold (nc)
7998.7.6 = {
	liege="k_westerlands"
}
8008.1.1 = { holder=304208 } # Steffon (nc)
8037.1.1 = { holder=308208 } # Regenard (nc)
8065.1.1 = { holder=309208 } # Quenten (nc)
8084.1.1 = { holder=314208 } # Roland (nc)
8121.1.1 = { holder=318208 } # Philip (nc)
8146.1.1 = { holder=319208 } # Tya (nc)
8162.1.1 = { holder=324208 } # Tyrek (nc)
8189.1.1 = { holder=327208 } # Lorent (nc)
8200.1.1 = { holder=328208 } # Rolder (nc)	
8225.1.1 = { holder=5208 } # Pollen (nc)
8259.2.8 = { holder=208 } # Taubert (nc)