6546.1.1 = {
	holder = 150049 #Togarion Bar Emmon
	law = succ_primogeniture
	de_jure_liege = k_stormlands
}
6558.1.1 = { holder = 0 liege="e_stormlands" }

7950.1.1 = { holder = 152049 }
7988.1.1 = { holder = 153049 }
7995.1.1 = {
	holder=3000049
	liege="k_dragonstone"
	de_jure_liege = k_dragonstone
} # Robin Bar Emmon (nc)
8031.1.1 = { holder=3002049 } # Rorge Bar Emmon (nc)
8049.1.1 = { holder=3007049 } # Alliser Bar Emmon (nc)
8059.2.1 = { holder=3006049 } # Lucifer Emmon (nc)
8081.1.1 = { holder=3005049 } # Gormon Bar Emmon (nc)
8092.1.1 = { holder=3009049 } # Enfren Bar Emmon (nc)
8119.1.1 = { holder=3012049 } # Duram Bar Emmon (nc)
8145.1.1 = { holder=3014049 } # Kaeron Bar Emmon (nc)
8188.1.1 = { holder=3016049 } # Enfren Bar Emmon (nc)
8200.1.1 = { holder=3019049 } # Robin Bar Emmon (nc)
8235.1.1 = { holder=3021049 } # Ardrian Bar Emmon (nc)
8269.1.1 = { holder=3027049 } # Devan Bar Emmon (nc)
8277.1.1 = { holder=3028049 } # Guncer Bar Emmon (nc)
8296.1.1 = { holder=3029049 } # Duram Bar Emmon (C)