900.1.1 = {liege="e_stormlands"}
7960.1.1={
	holder=60000319
	name = c_bronzegate
} # Edric Buckler (nc)
7998.2.27={
	liege = k_stormlands
}
8002.1.1={ holder=3000319 } # Rickard Buckler (nc)
8028.1.1={ holder=3001319 } # Edric Buckler (nc)
8055.1.1={ holder=3002319 } # Orys Buckler (nc)
8073.1.1={ holder=3003319 } # Rickard Buckler (nc)
8087.1.1={ holder=3004319 } # Maric Buckler (nc)
8103.1.1={ holder=60100319 } # Barristan Buckler (nc)
8129.8.1={ holder=60200319 } # Brienne Buckler (nc)
8133.12.1={ holder=3006319 } # Regenard Buckler (nc)
8154.1.1={ holder=3007319 } # Kennald Buckler (nc)
8175.1.1={ holder=3008319 } # Halion Buckler (nc)
8201.1.1={ holder=3010319 } # Rickard Buckler (nc)
8222.1.1={ holder=3011319 } # Orys Buckler (nc)
8254.1.1={ holder=3012319 } # Oryk Buckler (nc)
8281.1.1={ holder=319 } # Ralph Buckler (C)
8299.7.1 = { liege = 0 }