900.1.1 ={
	law = succ_turkish_succession
	law = agnatic_succession
	law = centralization_0
	law = slavery_0
	holder = 0
	de_jure_liege = e_winter
}

1000.1.1 ={
	holder = 904347			# Joramun
	law = centralization_2
}

1025.1.1 ={
	holder = 0
	law = centralization_0
}

4000.1.1 ={
	holder = 903347			# The Horned King
	law = centralization_2
}

4025.1.1 ={
	holder = 0
	law = centralization_0
}

5000.1.1 ={
	holder = 901347			# Gorne
	law = centralization_2
}

5024.6.1 ={
	holder = 902347			# Gendel
}

5025.1.1 ={
	holder = 0
	law = centralization_0
}

7270.1.1 ={
	holder = 20359			# Bael the Bard
	law = centralization_2
}

7374.1.1 ={
	holder = 0
	law = centralization_0
}

8213.1.1={
	holder = 21359			# Raymun Redbeard
	law = centralization_2
}

8226.9.9={
	holder = 0
	law = centralization_0
}

8297.1.1={
	holder = 174347			# Mance Rayder
	law = centralization_2
}

8300.3.1={
	holder = 0
	law = centralization_0
}