1.1.1={
	#liege="e_iron_throne"
	law = succ_primogeniture
	law = agnatic_succession
	law = centralization_2
	law = slavery_0
	de_jure_liege = e_winter
}
128.1.1 = {
	holder=830059 #The Night's King
}
141.1.1 = {
	holder = 0
}