623.1.1={ 
	liege="c_lys"
}
7087.1.1 = { holder=150300546 } # Vaelar (nc)
7136.1.1 = { holder=100300523 } # Beqqo (nc)
7180.1.1 = { holder=102300523 } # Allaquo (nc)
7186.1.1 = { holder=107300540 } # Syrio (nc)
7198.1.1 = { holder=106300539 } # Oro (nc)
7215.1.1 = { holder=106300546 } # Cossoma (nc)
7229.1.1 = { holder=106300523 } # Sharako (canon)
7230.1.1 = { holder=108300539 } # Lysandro Rogare(C)
7240.1.1 = { holder=110300539 } # Lysaro Rogare(C)
7245.1.1 = { holder=111300523 } # Tregar (nc)
7260.1.1 = { holder=114300539 } # Orbelo (nc)
7309.1.1 = { holder=10231386 } # Collio (nc)
7321.1.1 = { holder=10271386 } # Roro (nc)
7334.1.1 = { holder=118300546 } # Izembaro (nc)
7349.1.1 = { holder=124300540 } # Brusco (nc)
7354.1.1 = { holder=121300523 } # Gyleno (nc)

7377.1.1={
	holder=88108 #Tregar Ormollen
}



