6100.1.1 = {
	liege = d_norvos
	holding_dynasty = 300522 #Nyelossos
}
7074.1.1 = { holder=100300522 } # Roggo (nc)
7121.1.1 = { holder=101300522 } # Gyloro (nc)
7126.1.1 = { holder=103300522 } # Terro (nc)
7172.1.1 = { holder=105300522 } # Byan (nc)
7192.1.1 = { holder=106300522 } # Ordello (nc)
7195.1.1 = { holder=107300522 } # Ollo (nc)
7207.1.1 = { holder=116300522 } # Terro (nc)
7223.1.1 = { holder=119300522 } # Byan (nc)
7269.1.1 = { holder=123300522 } # Moreo (nc)
7277.1.1 = { holder=127300522 } # Noho (nc)
7278.1.1 = { holder=129300522 } # Myrmello (nc)
7331.1.1 = { holder=130300522 } # Lotho (nc)
7345.1.1 = { holder=134300522 } # Ternesio (nc)
7377.1.1 = { holder=139300522 } # Moredo (nc)



