1.1.1={ 
	liege="c_pebbleton"
	law=succ_primogeniture 
	law = agnatic_succession
}
7095.1.1 = { holder=6000110 }
7098.2.1 = { holder=6002110 }
7146.1.1 = { holder=6003110 }
7183.1.1 = { holder=6004110 }
7215.1.1 = { holder=6008110 }
7224.1.1 = { holder=6011110 }
7252.1.1 = { holder=6012110 }
7296.1.1 = { holder=6018110 }

