623.1.1 = {
	law = succ_turkish_succession
	law = agnatic_succession
}
7075.1.1 = { holder=101559112 } # Lenn (nc)
7108.1.1 = { holder=102559112 } # Orell (nc)
7141.1.1 = { holder=103559112 } # Torwynd (nc)
7173.1.1 = { holder=106559112 } # Arnolf (nc)
7191.1.1 = { holder=107559112 } # Beron (nc)
7244.1.1 = { holder=109559112 } # Halleck (nc)
7270.1.1={
	liege="k_beyond_wall"
}
7274.1.1={
	liege="0"
}
7276.1.1 = { holder=114559112 } # Lenn (nc)
7299.1.1 = { holder=117559112 } # Soren (nc)
7311.1.1 = { holder=118559112 } # Dryn (nc)
7347.1.1 = { holder=119559112 } # Ondrew (nc)
7362.1.1 = { holder=121559112 } # Borroq (nc)
7378.1.1={
	holder=157008
}


