623.1.1={
	liege="d_linqi"
}
7095.1.1 = { holder=10069196 } # Mahdi (nc)
7126.1.1 = { holder=10169196 } # Jibril (nc)
7151.1.1 = { holder=10569196 } # Akin (nc)
7183.1.1 = { holder=10969196 } # Talib (nc)
7197.1.1 = { holder=11369196 } # Bakr (nc)
7244.1.1 = { holder=11569196 } # Ali_Ali (nc)
7264.1.1 = { holder=11869196 } # Shaiban (nc)
7271.1.1 = { holder=12069196 } # Hasan_Hasan (nc)
7323.1.1 = { holder=12569196 } # Abdul (nc)
7337.1.1 = { holder=12969196 } # Mahdi (nc)
7359.1.1 = { holder=13169196 } # Najib (nc)
7382.1.1 = { holder=13369196 } # Shokouh (nc)



