7075.1.1 = { holder=10559133 } # Mikken (nc)
7107.1.1 = { holder=11559133 } # Orell (nc)
7120.1.1 = { holder=14559133 } # Hareth (nc)
7167.1.1 = { holder=17559133 } # Henk (nc)
7179.1.1 = { holder=20559133 } # Alfyn (nc)
7227.1.1 = { holder=21559133 } # Gariss (nc)
7246.1.1 = { holder=23559133 } # Hallis (nc)
7247.1.1 = { holder=24559133 } # Calon (nc)
7284.1.1 = { holder=26559133 } # Bernarr (nc)
7339.1.1 = { holder=29559133 } # Torwynd (nc)
7356.1.1 = { holder=31559133 } # Gerrick (nc)
7363.1.1 = { holder=32559133 } # Devyn (nc)


