623.1.1={
	liege="k_leng"
}

7079.1.1 = { holder=10055988 } # Shathak (nc)
7116.1.1 = { holder=10155988 } # Vibur (nc)
7122.1.1 = { holder=10255988 } # Yakthoob (nc)
7174.1.1 = { holder=10555988 } # Japhet (nc)
7190.1.1 = { holder=11055988 } # Pharol (nc)
7224.1.1 = { holder=11155988 } # Hastalyk (nc)
7243.1.1 = { holder=11555988 } # Summanus (nc)
7275.1.1 = { holder=11755988 } # Kaalut (nc)
7282.1.1 = { holder=11855988 } # Kassogtha (nc)
7337.1.1 = { holder=12055988 } # Abdul (nc)
7362.1.1 = { holder=12255988 } # Chaugnar (nc)
7378.1.1 = { holder=12355988 } # Byatis (nc)



