#c_drox_castle
1.1.1={
	liege="d_goldroad"
}
7092.1.1 = { holder=300198 } # Addison (nc)
7113.1.1 = { holder=301198 } # Lester (nc)
7120.1.1 = { holder=302198 } # Preston (nc)
7136.1.1 = { holder=304198 } # Florian (nc)
7177.1.1 = { holder=306198 } # Dunaver (nc)
7187.1.1 = { holder=309198 } # Damon (nc)
7211.1.1 = { holder=310198 } # Gerion (nc)
7229.1.1 = { holder=311198 } # Jaime (nc)
7279.1.1 = { holder=314198 } # Polliver (nc)
7289.1.1 = { holder=319198 } # Dunsen (nc)
7324.1.1 = { holder=321198 } # Lester (nc)
7363.1.1 = { holder=323198 } # Tyford (nc)
