7083.1.1 = { holder=10559354 } # Gerrick (nc)
7119.1.1 = { holder=11559354 } # Bump (nc)
7135.1.1 = { holder=13559354 } # Beron (nc)
7166.1.1 = { holder=17559354 } # Gerrick (nc)
7201.1.1 = { holder=18559354 } # Dan (nc)
7220.1.1 = { holder=19559354 } # Stiv (nc)
7241.1.1 = { holder=20559354 } # Torghen (nc)
7274.1.1 = { holder=21559354 } # Harlon (nc)
7277.1.1 = { holder=25559354 } # Qhorin (nc)
7307.1.1 = { holder=27559354 } # Alfyn (nc)
7313.1.1={
	liege="k_beyond_wall"
}
7326.9.9={
	liege="0"
}
7331.1.1 = { holder=29559354 } # Halys (nc)
7367.1.1 = { holder=30559354 } # Dorren (nc)
7378.1.1 = { holder=32559354 } # Raymun (nc)
7398.1.1={
	liege="k_beyond_wall"
}
7400.1.1={
	holder=999000666
}
