623.1.1={ law=succ_primogeniture law=cognatic_succession
	liege="e_reach"
}
7070.1.1 = { holder=6000277 } # Olymer (nc)
7085.1.1={
	liege=e_iron_isles #Qhored Hoare
}
7120.1.1 = { holder=6001277 } # Edwyn (nc)
7125.1.1 = { holder=6002277 } # Desmond (nc)
7145.1.1 = { holder=6003277 } # Dareon (nc)
7153.1.1 = { holder=6005277 } # Alester (nc)
7166.1.1 = { holder=6007277 } # Victor (nc)
7215.1.1 = { holder=6010277 } # Byren (nc)
7240.1.1 = { holder=6011277 } # Mervyn (nc)
7255.1.1 = { holder=6013277 } # Paxter (nc)
7280.1.1 = { holder=6014277 } # Wendell (nc)
7300.1.1={
	liege=e_reach
}
7347.1.1 = { holder=6015277 } # Aemon (nc)
7356.1.1 = { holder=6020277 } # Runceford (nc)
7365.1.1={
	holder=277
}




