4100.1.1 = {
	liege = k_norvos
}

7095.1.1 = { holder=100069122 } # Pynto (nc)
7136.1.1 = { holder=100169122 } # Roggo (nc)
7146.1.1 = { holder=100269122 } # Jaqen (nc)
7152.1.1 = { holder=100569122 } # Ordello (nc)
7195.1.1 = { holder=100769122 } # Tycho (nc)
7219.1.1 = { holder=101169122 } # Ferrego (nc)
7239.1.1 = { holder=101569122 } # Collio (nc)
7262.1.1 = { holder=101669122 } # Joss (nc)
7290.1.1 = { holder=101769122 } # Noho (nc)
7331.1.1 = { holder=101969122 } # Izembaro (nc)
7336.1.1 = { holder=102069122 } # Roggo (nc)
7351.1.1 = { holder=102569122 } # Areo (nc)
7372.1.1 = { holder=102769122 } # Denyo (nc)
