#House Tomburu
7070.1.1 = { 
	holder=100304032 
	law = succ_seniority
	law = cognatic_succession
} # Tapuhuru (nc)
7095.1.1 = { holder=103304032 } # Paro (nc)
7116.1.1 = { holder=104304032 } # Simbhar (nc)
7141.1.1 = { holder=107304032 } # Lusaxharo (nc)
7168.1.1 = { holder=111304032 } # Quhuru (nc)
7194.1.1 = { holder=113304032 } # Makhan (nc)
7222.1.1 = { holder=121304032 } # Quhuru (nc)
7242.1.1 = { holder=122304032 } # Udo (nc)
7255.1.1 = { holder=125304032 } # Jalataya (nc)
7289.1.1 = { holder=129304032 } # Isodo (nc)
7321.1.1 = { holder=130304032 } # Isodo (nc)
7329.1.1 = { holder=131304032 } # Jalabhar (nc)
7359.1.1 = { holder=137304032 } # Jalabhar (nc)
7395.1.1 = { holder=141304032 } # Gatubhar (nc)


