#c_kayce
1.1.1={
	liege="e_westerlands"
}
5957.1.1 = {
	holder = 150195 #Herrock Whoreson
}
5987.1.1 = { holder = 0 }

6980.1.1 = { holder = 315195 } # Kenning of Kayce, fourth son of Harlaw.
7005.1.1 = { holder = 314195 } 
7045.1.1 = { holder = 313195 }
7075.1.1 = { holder = 312195 }
7082.1.1 = { holder = 311195 }
7098.6.6 = { holder = 310195 }
7136.1.1 = { holder = 309195 }
7140.1.1 = { holder = 308195 }
7193.1.1 = { holder = 307195 }
7216.1.1 = { holder = 306195 }
7229.4.9 = { holder = 305195 }
7273.1.1 = { holder = 304195 }
7296.5.5 = { holder = 303195 }
7336.1.1 = { holder = 302195 }
7361.1.1 = { holder = 300195 }	
7373.1.1 = { holder = 195  }
