1.1.1={ law=succ_primogeniture law=cognatic_succession
	liege="e_reach"
}
7096.1.1 = { holder=6000299 } # Igon (nc)
7125.1.1 = { holder=6001299 } # Talla (nc)
7159.1.1 = { holder=6004299 } # Morm (nc)
7171.1.1 = { holder=6008299 } # Gerold (nc)
7188.1.1 = { holder=6009299 } # Normund (nc)
7224.1.1 = { holder=6011299 } # Luthor (nc)
7236.1.1 = { holder=6015299 } # Moryn (nc)
7283.1.1 = { holder=6017299 } # Florian (nc)
7300.1.1 = { holder=6018299 } # Elyas (nc)

7324.1.1={
	holder=88276
}
7350.1.1={
	holder=88277
}
7373.1.1={
	holder=88278
}






