623.1.1={
	liege="d_leng_ma"
	law = succ_primogeniture
	law = enatic_succession
}

7095.1.1 = { holder=10055963 } # Shogofa (nc)
7131.1.1 = { holder=10255963 } # Nyawela (nc)
7139.1.1 = { holder=10655963 } # Simin (nc)
7175.1.1 = { holder=10755963 } # Alim (nc)
7196.1.1 = { holder=10855963 } # Rasa (nc)
7226.1.1 = { holder=11255963 } # Semeah (nc)
7247.1.1 = { holder=11655963 } # Reshawna (nc)
7277.1.1 = { holder=11855963 } # Shola (nc)
7297.1.1 = { holder=12055963 } # Layla (nc)
7321.1.1 = { holder=12255963 } # Paywand (nc)
7365.1.1 = { holder=12555963 } # Jahaira (nc)


