#c_maunhill
623.1.1={
	liege="e_westerlands"
}
7085.1.1={
	liege=e_iron_isles #Qhored Hoare
}
7094.1.1 = {	
holder=312226
}
7100.6.6 = {	
holder=309226 
}
7137.1.1 = {	
holder=308226
}
7154.1.1 = {	
holder=307226
}
7187.1.1 = {	
holder=306226
}
7215.1.1 = {	
holder=305226
}
7221.1.1 = {	
holder=304226
}
7247.1.1 = {	
holder=303226
}
7250.1.1={
	liege=e_westerlands
}
7268.1.1 = {	
holder=203226
}
7276.6.3 = {	
holder=3050226
}
7295.1.1 = {	
holder=202226
}
7331.1.1 = {	
holder=302226
}
7346.1.1 = {	
holder=301226
}	
7367.1.1 = {	
holder=20266
}
