623.1.1={
	liege = k_valyria
}

7095.1.1 = { holder=1000496 } # Jaehaerys (nc)
7131.1.1 = { holder=1001496 } # Aelix (nc)
7161.1.1 = { holder=1003496 } # Orys (nc)
7177.1.1 = { holder=1007496 } # Aenys (nc)
7210.1.1 = { holder=1008496 } # Orys (nc)
7216.1.1 = { holder=1012496 } # Maekar (nc)
7235.1.1 = { holder=1015496 } # Vaekar (nc)
7270.1.1 = { holder=1016496 } # Aenar (nc)
7284.1.1 = { holder=1018496 } # Aegor (nc)
7317.1.1 = { holder=1023496 } # Jaehaerys (nc)
7324.1.1 = { holder=1025496 } # Baelor (nc)
7359.1.1 = { holder=1026496 } # Baelon (nc)
7401.1.1 = { holder=1029496 } # Qoherys (nc)

