623.1.1={
	liege="d_pentos"
}
7064.1.1 = { holder=100300012 } # Yorko (nc)
7106.1.1 = { holder=100300526 } # Gyleno (nc)
7115.1.1 = { holder=101300526 } # Jaqen (nc)
7154.1.1 = { holder=102174360 } # Narbo (nc)
7157.1.1 = { holder=104174366 } # Denyo (nc)
7189.1.1 = { holder=109174360 } # Izembaro (nc)
7194.1.1 = { holder=110174360 } # Ezzelyno (nc)
7209.1.1 = { holder=112300012 } # Izembaro (nc)
7228.1.1 = { holder=114300012 } # Denyo (nc)
7230.1.1 = { holder=119300526 } # Izembaro (nc)
7243.1.1 = { holder=114174366 } # Lotho (nc)
7271.1.1 = { holder=116174366 } # Gyloro (nc)
7275.1.1 = { holder=121174360 } # Izembaro (nc)
7298.1.1 = { holder=125174366 } # Brusco (nc)
7300.1.1 = { holder=126174356 } # Daario (nc)
7312.1.1 = { holder=128174356 } # Noho (nc)
7317.1.1 = { holder=130300012 } # Ordello (nc)
7331.1.1 = { holder=132300012 } # Meralyn (nc)
7340.1.1 = { holder=126174366 } # Ternesio (nc)
7358.1.1 = { holder=129174366 } # Terro (nc)
7385.1.1 = { holder=134174356 } # Ternesio (nc)
7390.1.1={ holder=600000040 } # Illyrio
