5100.1.1={
	liege="d_riverrun"
}
#tullys
6648.1.1 = { holder=561159 } # Axel (C)
6660.1.1 = { holder=0 }

7002.1.1 = { holder=550159 } # Tommen (C)
7040.1.1 = { holder=551159 } # Lymond (nc)
7054.1.1 = { holder=553159 } # Ben (nc)

7082.1.1 = {
	holder=17159 #Edmyn
}
7135.1.1={
	holder=16159 #melwys
}
7157.1.1={
	holder=150159 #Edmyn
}
7181.1.1={
	holder=15159 #Grover
}
7230.3.5 = {
	holder=14159 # Elmo Tully
}
7230.4.14 = {
	holder=13159 # Kermit Tully
}
7270.1.1={
	holder=19159 # Edmure Tully
}
7282.1.1={
    holder=2280159 # Edmund Tully
}	
7295.12.10={
	holder=1159 # Medgar Tully
}
7310.1.1={
	holder=10159
}
7358.1.1={
	holder=175159
}


