#House Xhurabo
7080.1.1 = { 
	holder=100304035 
	liege=d_indigo_straits
	law = succ_seniority
	law = cognatic_succession
} # Simbhar (nc)
7124.1.1 = { holder=101304035 } # Xhelimo (nc)
7153.1.1 = { holder=105304035 } # Gwalahuru (nc)
7180.1.1 = { holder=107304035 } # Kwasdo (nc)
7213.1.1 = { holder=109304035 } # Jiradhar (nc)
7218.1.1 = { holder=110304035 } # Abrafo (nc)
7231.1.1 = { holder=113304035 } # Udo (nc)
7253.1.1 = { holder=116304035 } # Odingaxho (nc)
7256.1.1 = { holder=117304035 } # Koraxha (nc)
7283.1.1 = { holder=118304035 } # Makhan (nc)
7315.1.1 = { holder=120304035 } # Xhelimo (nc)
7362.1.1 = { holder=124304035 } # Udo (nc)
7388.1.1 = { holder=126304035 } # Orengo (nc)

