1.1.1={
	liege="d_lorath"
}
7075.1.1 = { holder=100300528 } # Denyo (nc)
7124.1.1 = { holder=102300528 } # Jaqen (nc)
7140.1.1 = { holder=104300528 } # Mero (nc)
7164.1.1 = { holder=105300528 } # Collio (nc)
7173.1.1 = { holder=111300528 } # Gyleno (nc)
7196.1.1 = { holder=112300528 } # Tagganaro (nc)
7211.1.1 = { holder=115300528 } # Ezzelyno (nc)
7240.1.1 = { holder=119300528 } # Ordello (nc)
7244.1.1 = { holder=120300528 } # Illyrio (nc)
7289.1.1 = { holder=123300528 } # Ezzelyno (nc)
7296.1.1 = { holder=124300528 } # Lotho (nc)
7322.1.1 = { holder=127300528 } # Pynto (nc)
7333.1.1 = { holder=130300528 } # Mellario (nc)
7342.1.1 = { holder=131300528 } # Gyleno (nc)
