623.1.1 = {
	law = succ_turkish_succession
	law = agnatic_succession
}
7082.1.1 = { holder=101559122 } # Hareth (nc)
7113.1.1 = { holder=103559122 } # Dywen (nc)
7151.1.1 = { holder=105559122 } # Dormund (nc)
7165.1.1 = { holder=107559122 } # Lenn (nc)
7193.1.1={
	holder=109559122 # Ryk (nc)
}
7230.1.1 = { holder=112559122 } # Mikken (nc)
7270.1.1={
	liege="k_beyond_wall"
}
7274.1.1={
	liege="0"
}
7291.1.1 = { holder=114559122 } # Torwynd (nc)
7330.1.1 = { holder=116559122 } # Gerrick (nc)
7353.1.1 = { holder=119559122 } # Arthor (nc)
7380.1.1 = {
	holder=120559122
}
7400.1.1={
	holder=999000666
}
