623.1.1={
	liege="d_harlaw"
	law=succ_primogeniture law=cognatic_succession
}
7094.1.1 = { holder=6000120 } # Lucimore (nc)
7140.1.1 = { holder=6001120 } # Donnel (nc)
7144.1.1 = { holder=6004120 } # Aeron (nc)
7186.1.1 = { holder=6007120 } # Gevin (nc)
7209.1.1 = { holder=6011120 } # Adrack (nc)
7229.1.1 = { holder=6017120 } # Harmund (nc)
7259.1.1 = { holder=6019120 } # Urras (nc)
7305.1.1 = { holder=6021120 } # Ragnor (nc)
7349.1.1 = { holder=9120 }
7360.1.1 = {	
	holder=120
}
