623.1.1={ 
	liege="d_oldtown"
}

7055.1.1 = { holder=88000200 }  
7125.1.1 = { holder=88000201 } 
7131.1.1 = { holder=88000202 } 
7145.1.1 = { holder=88000203 } 
7200.1.1 = { holder=88000204 } 
7225.1.1 = { holder=88000205 } 
7263.1.1 = { holder=88000206 } 
7293.1.1 = { holder=88000207 } 
7321.1.1 = { holder=88000208 } 
7340.1.1 = { holder=88000209 } 
7353.1.1 = { holder=88000210 } 
7385.1.1 = { holder=88000211 } 





