623.1.1={
	liege="d_orange_shore"
}

7095.1.1 = { holder=100086003 } # Gerrys (nc)
7118.1.1 = { holder=100386003 } # Allar (nc)
7141.1.1 = { holder=100686003 } # Garyn (nc)
7172.1.1 = { holder=100786003 } # Daemyn (nc)
7187.1.1 = { holder=101186003 } # Garyn (nc)
7226.1.1 = { holder=101586003 } # Yandry (nc)
7255.1.1 = { holder=101986003 } # Trystane (nc)

7295.1.1 = { 
	holder=0 
	liege=0
}

