623.1.1 = { 
	law=succ_primogeniture 
	law=cognatic_succession
	liege = d_painted_mountains
}
7095.1.1 = { holder=100062901 } # Colloquo (nc)
7132.1.1 = { holder=100262901 } # Aelix (nc)
7135.1.1 = { holder=100462901 } # Moqorro (nc)
7194.1.1 = { holder=100962901 } # Vaekar (nc)
7211.1.1 = { holder=101362901 } # Jaekar (nc)
7232.1.1 = { holder=101562901 } # Alios (nc)
7256.1.1 = { holder=101962901 } # Nyessos (nc)
7275.1.1 = { holder=102062901 } # Methyso (nc)
7276.1.1 = { holder=102262901 } # Jaekar (nc)
7344.1.1 = { holder=102362901 } # Belicho (nc)
7352.1.1 = { holder=102662901 } # Nyessos (nc)
7375.1.1 = { holder=102962901 } # Vaekar (nc)

