1.1.1={
	liege="d_lorath"
}

7095.1.1 = { holder=100069139 } # Noho (nc)
7128.1.1 = { holder=100469139 } # Narbo (nc)
7150.1.1 = { holder=100569139 } # Beqqo (nc)
7178.1.1 = { holder=100769139 } # Roggo (nc)
7230.1.1 = { holder=101069139 } # Moredo (nc)
7253.1.1 = { holder=101269139 } # Tormo (nc)
7269.1.1 = { holder=101469139 } # Moredo (nc)
7296.1.1 = { holder=101869139 } # Ollo (nc)
7321.1.1 = { holder=102069139 } # Roggo (nc)
7342.1.1 = { holder=102169139 } # Denyo (nc)
7378.1.1 = { holder=102569139 } # Moredo (nc)
