1.1.1={
	liege="d_yin"
}

2100.1.1 = { 
	holder=10055956
}
2135.1.1 = { holder=0 }

2256.1.1 = { 
	holder=10055957

}
2293.1.1 = { holder=0 }

2800.1.1 = { holder=10055961 } # Qaun (nc)
2819.1.1 = { holder=10155961 } # An (nc)
2839.1.1 = { holder=10355961 } # Gai (nc)
2858.1.1 = { holder=10455961 } # Mao (nc)
2866.1.1 = { holder=10555961 } # Tho (nc)
2881.1.1 = { holder=10655961 } # Kim (nc)
2905.1.1 = { holder=10755961 } # Dong (nc)
2931.1.1 = { holder=10855961 } # Quan (nc)
2940.1.1 = { holder=10955961 } # Huu (nc)
2945.1.1 = { holder=0 }

7095.1.1 = { holder=10065962  } # Duq (c)
7126.1.1 = { holder=100565962 } # Bao (nc)
7178.1.1 = { holder=100665962 } # Thanh (nc)
7190.1.1 = { holder=101065962 } # Duq (nc)
7218.1.1 = { holder=101165962 } # Ba (nc)
7240.1.1 = { holder=101365962 } # Phong (nc)
7252.1.1 = { holder=101765962 } # Minh (nc)
7263.1.1 = { holder=102165962 } # Zuang (nc)
7279.1.1 = { holder=102665962 } # Dong (nc)
7332.1.1 = { holder=102965962 } # Zuang (nc)
7349.1.1 = { holder=103265962 } # Chinh (nc)
7368.1.1 = { holder=103465962 } # Chen (nc)
7384.1.1 = { holder=103665962 } # Bu (nc)
7410.1.1 = { holder=104165962 } # Gai (nc)
7446.1.1 = { holder=104465962 } # Chen (nc)


