623.1.1={ law=succ_primogeniture law=cognatic_succession
	liege="e_reach"
}
45.1.1 = { holder=6000250 } # Rowan Gold-tree (C)
70.1.1 = { holder=0 }
6900.1.1 = { holder=6200250 } # Ronard (nc)
6955.1.1 = { holder=6300250 } # Theodore (nc)
6965.1.1 = { holder=6400250 } # Ryelle (nc)
6993.1.1 = { holder=6500250 } # Perceon (nc)
7004.1.1 = { holder=6800250 } # Linden (nc)
7039.1.1 = { holder=6900250 } # Titus (nc)
7054.1.1 = { holder=6110250 } # Theo (nc)

7090.1.1={
	holder=21250
}
7147.1.1={
	holder=20250
}
7175.1.1={
	holder=19250
}
7197.1.1={
	holder=18250
}
7214.1.1={
	holder=17250
}
7246.1.1={
	holder=16250
}
7257.1.1={
	holder=15250
}
7260.1.1={
	holder=13250
}
7296.1.1={
	holder=12250
}
7324.1.1={
	holder=11250
}
7364.1.1={
	holder=88106
}
7390.1.1={
	holder=88033
}
