1100.1.1 = {
	liege = e_new_valyria
	law = succ_primogeniture
	law = agnatic_succession
}	
7054.1.1 = { holder=100570136 } # Vaekar (nc)
7112.1.1 = { holder=102570136 } # Malaquo (nc)
7138.1.1 = { holder=103570136 } # Belicho (nc)
7140.1.1 = { holder=108570136 } # Vaermon (nc)
7159.1.1 = { holder=110570136 } # Parquello (nc)
7190.1.1 = { holder=115570136 } # Alios (nc)
7196.1.1 = { holder=117570136 } # Orys (nc)
7220.1.1 = { holder=118570136 } # Colloquo (nc)
7258.1.1 = { holder=119570136 } # Moqorro (nc)
7262.1.1 = { holder=121570136 } # Aenar (nc)
7290.1.1 = { holder=122570136 } # Qavo (nc)
7314.1.1 = { holder=128570136 } # Alios (nc)
7356.1.1 = { holder=130570136 } # Qoherys (nc)
7378.1.1 = { holder=136570136 } # Methyso (nc)
7385.1.1 = { holder=140570136 } # Doniphos (nc)
