623.1.1={
	liege = e_new_valyria
}

7095.1.1 = { holder=10000350 } # Maegor (nc)
7124.1.1 = { holder=10020350 } # Rhaekar (nc)
7178.1.1 = { holder=10060350 } # Rhaekar (nc)
7205.1.1 = { holder=10120350 } # Rhaekar (nc)
7207.1.1 = { holder=10140350 } # Aelix (nc)
7262.1.1 = { holder=10170350 } # Maekar (nc)
7264.1.1 = { holder=10200350 } # Valarr (nc)
7276.1.1 = { holder=10230350 } # Qoherys (nc)
7301.1.1 = { holder=10280350 } # Rhaegar (nc)
7346.1.1 = { holder=10300350 } # Matarys (nc)
7369.1.1 = { holder=10340350 } # Aemond (nc)
7437.1.1 = { holder=10370350 } # Aenys (nc)

