1.1.1={
	liege="k_lorath"
}
7090.1.1 = { holder=200300528} 
7126.1.1 = { holder=102300549 }
7153.1.1 = { holder=114300560 }
7170.1.1 = { holder=111300549 }
7214.1.1 = { holder=122300560 }
7225.1.1 = { holder=115300548 }
7260.1.1 = { holder=127300549 }
7285.1.1 = { holder=129300537 }
7344.1.1 = { holder=133300528 }
7370.1.1 = { holder=142300560 }

