6700.1.1={
	liege="k_southstoneTK"
	law = succ_primogeniture
}


6997.1.1={holder=60400149} # Gerold Bracken
7016.8.1={holder=60300149} # Lothar Bracken (C)
7033.6.1 = {holder=60200149} # Otho Bracken
7052.1.1={holder=60000149} # Jonos Bracken
7086.1.1={holder=22149} # Addam Bracken

7113.1.1={
	holder=21149
}
7149.1.1={
	holder=19149
}
7173.1.1={
	holder=18149
}
7200.1.1={
    	liege="e_riverlands"
}
7202.1.1={
	holder=17149
}
7217.1.1={
	holder=16149
}
7263.1.1={
	holder=15149
}
7278.6.1={
	holder=11149
}
7299.1.1={
	holder=10149
}
7314.1.1={
	holder=9149
}
7343.1.1={
	holder=8149
}
7378.1.1={
	holder=149
}
