#House Luxho
7072.1.1 = { 
	holder=100304007
	law = succ_seniority
	law = cognatic_succession
} 
7112.1.1 = { holder=102304007 } 
7132.1.1 = { holder=106304007 } 
7149.1.1 = { holder=108304007 } 
7221.1.1 = { holder=113304007 } 
7265.1.1 = { holder=119304007 } 
7272.1.1 = { holder=121304007 } 
7324.1.1 = { holder=124304007 } 
7335.1.1 = { holder=128304007 } 
7351.1.1 = { holder=129304007 } 
7354.1.1 = { holder=131304007 } 
7391.1.1 = { holder=138304007 } 

