623.1.1={
	liege = e_vale
	law = succ_primogeniture
}
7070.1.1 = { holder=3050363 } # Robert (nc)
7095.1.1 = { holder=3000363 } # Marla (C)
7100.6.1 = { holder=3051363 } # Denys (nc)
7128.1.1 = { holder=3003363 } # Mandon (nc)
7129.1.1 = { holder=3004363 } # Jon (nc)
7180.1.1 = { holder=3006363 } # Wallace (nc)
7189.1.1 = { holder=3009363 } # Robert (nc)
7223.1.1 = { 
	holder=3012363 # Wyl (nc)
} 
7248.1.1 = { holder=3016363 } # Elbert (nc)
7275.1.1 = { holder=3017363 } # Horton (nc)
7293.1.1 = { holder=3019363 } # Rolland (nc)
7303.1.1 = { holder=3020363 } # Osmund (nc)
7332.1.1 = { holder=3023363 } # Eustace (nc)
7340.1.1 = { holder=3024363 } # Mandon (nc)

