6340.1.1={
	liege="k_vaithTK"
	law = cognatic_succession
	law = succ_primogeniture
}

7080.1.1 = { holder=35008 } # Myles (nc)
7102.1.1 = { holder=35018 } # Ellaria (nc)
7119.1.1 = { holder=35038 } # Franklyn (nc)
7144.1.1 = { holder=35068 } # Oberyn (nc)
7171.1.1 = { holder=35098 } # Harmen (nc)
7208.1.1 = { holder=35118 } # Perros (nc)
7243.1.1 = { holder=35128 } # Senelle (nc)
7259.1.1 = { holder=35138 } # Franklyn (nc)
7277.1.1 = { holder=35148 } # Cassella (C)
7319.1.1 = { holder=35158 } # Janyce (nc)
7338.1.1 = { holder=35168 } # Theodan (nc)
7359.2.8 = { holder=8 } # Taubert (nc)
7392.3.5 = { holder=2008} # Daeron (c)
