623.1.1={
	liege="k_qarth"
}
7065.1.1 = { holder=88000600 } # Sybassion (nc)
7122.1.1 = { holder=88000601 } # Wullon (nc)
7145.1.1 = { holder=88000602 } # Ognos (nc)
7162.1.1 = { holder=88000603 } # Methyso (nc)
7203.1.1 = { holder=88000604 } # Wullon (nc)
7225.1.1 = { holder=88000605 } # Mundello (nc)
7257.1.1 = { holder=88000606 } # Zathor (nc)
7299.1.1 = { holder=88000607 } # Ognos (nc)
7335.1.1 = { holder=88000608 } # Urrathon (nc)
7352.1.1 = { holder=88000609 } # Wendello (nc)
7364.1.1 = { holder=88000610 } # Regon (nc)
7382.1.1={
	holder=600000063 # Pyatt Pree
}
