1.1.1 = { 
	law = slavery_2
	law = succ_primogeniture
	law = centralization_0
}
2000.1.1 = { 
	holder=100777308 #Bloodstone Emperor
}
2010.1.1 = { holder = 0 }

2100.1.1 = { 
	holder=10055956 #Har Loi, grey emperor
	effect = {
		dead_target = {	
			limit = { character = 10055956 }
			remove_trait = dead_target
			set_special_character_title = nick_grey_emperor
		}
	}	
}
2135.1.1 = { holder=0 }

2256.1.1 = { 
	holder=10055957 #Choq Choq, indigo emperor
	effect = {
		dead_target = {	
			limit = { character = 10055957 }
			remove_trait = dead_target
			set_special_character_title = nick_indigo_emperor
		}
	}
}
2293.1.1 = { holder=0 }

2360.1.1 = { 
	holder=10055955 #Mengo Quen, jade-green emperor
	effect = {
		dead_target = {	
			limit = { character = 10055955 }
			remove_trait = dead_target
			set_special_character_title = nick_jadegreen_emperor
		}
	}
}
2391.1.1 = { holder=0 }


#Nine Eunuchs
2800.1.1 = { 
	holder=10055961 
	effect = {
		dead_target = {	
			limit = { character = 10055961 }
			remove_trait = dead_target
			set_special_character_title = nick_pearlwhite_emperor
		}
	}
} # Qaun (nc)
2819.1.1 = { 
	holder=10155961 
	effect = {
		dead_target = {	
			limit = { character = 10155961 }
			remove_trait = dead_target
			set_special_character_title = nick_pearlwhite_emperor
		}
	}
} # An (nc)
2839.1.1 = {
	holder=10355961 
	effect = {
		dead_target = {	
			limit = { character = 10355961 }
			remove_trait = dead_target
			set_special_character_title = nick_pearlwhite_emperor
		}
	}
} # Gai (nc)
2858.1.1 = { 
	holder=10455961 
	effect = {
		dead_target = {	
			limit = { character = 10455961 }
			remove_trait = dead_target
			set_special_character_title = nick_pearlwhite_emperor
		}
	}
} # Mao (nc)
2866.1.1 = { 
	holder=10555961 
	effect = {
		dead_target = {	
			limit = { character = 10555961 }
			remove_trait = dead_target
			set_special_character_title = nick_pearlwhite_emperor
		}
	}
} # Tho (nc)
2881.1.1 = { 
	holder=10655961 
	effect = {
		dead_target = {	
			limit = { character = 10655961 }
			remove_trait = dead_target
			set_special_character_title = nick_pearlwhite_emperor
		}
	}
} # Kim (nc)
2905.1.1 = { 
	holder=10755961 
	effect = {
		dead_target = {	
			limit = { character = 10755961 }
			remove_trait = dead_target
			set_special_character_title = nick_pearlwhite_emperor
		}
	}
} # Dong (nc)
2931.1.1 = { 
	holder=10855961 
	effect = {
		dead_target = {	
			limit = { character = 10855961 }
			remove_trait = dead_target
			set_special_character_title = nick_pearlwhite_emperor
		}
	}
} # Quan (nc)
2940.1.1 = { 
	holder=10955961 
	effect = {
		dead_target = {	
			limit = { character = 10955961  }
			remove_trait = dead_target
			set_special_character_title = nick_pearlwhite_emperor
		}
	}
} # Huu (nc)
2945.1.1 = { holder=0 }
##


2950.1.1 = { 
	holder=10055958 #Jar Har, sixth sea-green emperor
	effect = {
		dead_target = {	
			limit = { character = 10055958  }
			remove_trait = dead_target
			set_special_character_title = nick_seagreen_emperor
		}
	}
}
2993.1.1 = { 
	holder=20055958 #Jar Joq, seventh sea-green emperor
	effect = {
		dead_target = {	
			limit = { character = 20055958  }
			remove_trait = dead_target
			set_special_character_title = nick_seagreen_emperor
		}
	}
}
3017.1.1 = { 
	holder=30055958 #Jar Han, eight sea-green emperor
	effect = {
		dead_target = {	
			limit = { character = 30055958  }
			remove_trait = dead_target
			set_special_character_title = nick_seagreen_emperor
		}
	}
}
3038.1.1 = { holder=0 }

#Scarlet Emperors
6380.1.1 = { 
	holder=10065961 #Lo Tho, twenty-second of the scarlet emperors
	effect = {
		dead_target = {	
			limit = { character = 10065961 }
			remove_trait = dead_target
			set_special_character_title = nick_scarlet_emperor
		}
	}
}
6429.1.1 = { holder=0 }
6506.1.1 = { 
	holder=10365961 #Lo Doq, thirty-fourth scarlet emperor
	effect = {
		dead_target = {	
			limit = { character = 10365961 }
			remove_trait = dead_target
			set_special_character_title = nick_scarlet_emperor
		}
	}
}
6520.1.1 = { holder=0 }
6670.1.1 = { 
	holder=10065963 #Lo Han, forty-second scarlet emperor
	effect = {
		dead_target = {	
			limit = { character = 10065963 }
			remove_trait = dead_target
			set_special_character_title = nick_scarlet_emperor
		}
	}
}
6698.1.1 = { 
	holder=10165963 #Lo HBu, forty-third and last scarlet emperor
	effect = {
		dead_target = {	
			limit = { character = 10165963 }
			remove_trait = dead_target
			set_special_character_title = nick_scarlet_emperor
		}
	}
}
6700.1.1 = { holder=0 }

7095.1.1 = { 
	holder= 10065962  # Duq (c)
	effect = {
		set_title_flag = yellow_emperor
		set_global_flag = yellow_emperor_invasion #prevent yellow emperor invasion in this bookmark
		holder_scope = {
			set_special_character_title = nick_yellow_emperor
			set_dynasty_flag = yellow_emperor
			set_dynasty_flag = yi_ti_emperor_colour_assigned
			any_dynasty_member_even_if_dead = {
				limit = { primary_title = { title = e_yi_ti } }
				set_dynasty_flag = yi_ti_emperor_colour_assigned
			}
		}	
	}
} 
7126.1.1 = { holder=100565962 } # Bao (nc)
7178.1.1 = { holder=100665962 } # Thanh (nc)
7190.1.1 = { holder=101065962 } # Duq (nc)
7218.1.1 = { holder=101165962 } # Ba (nc)
7240.1.1 = { holder=101365962 } # Phong (nc)
7252.1.1 = { holder=101765962 } # Minh (nc)
7263.1.1 = { holder=102165962 } # Zuang (nc)
7279.1.1 = { holder=102665962 } # Dong (nc)
7332.1.1 = { holder=102965962 } # Zuang (nc)
7349.1.1 = { holder=103265962 } # Chinh (nc)
7368.1.1 = { holder=103465962 } # Chen (nc)
7384.1.1 = { holder=103665962 } # Bu (nc)
7410.1.1 = { holder=104165962 } # Gai (nc)
7446.1.1 = { holder=104465962 } # Chen (nc)
