623.1.1={
	law = succ_primogeniture
	law = agnatic_succession
	law = privilege_vassal_king
	law = slavery_2
	effect = {
		add_law = privilege_vassal_king
	}
}
7096.1.1 = { holder=10055942 } # Wahab (nc)
7126.1.1 = { holder=10355942 } # Jabir (nc)
7152.1.1 = { holder=10455942 } # Ghalib (nc)
7167.1.1 = { holder=10855942 } # Ramadan (nc)
7194.1.1 = { holder=11155942 } # Wahab (nc)
7201.1.1 = { holder=11455942 } # Qawurd (nc)
7228.1.1 = { holder=11655942 } # Hafiz (nc)
7259.1.1 = { holder=12255942 } # Abdullah (nc)
7290.1.1 = { holder=12755942 } # Ali_Ali (nc)
7315.1.1 = { holder=12955942 } # Alim (nc)
7356.1.1 = { holder=13155942 } # Shamir (nc)
7373.1.1 = { holder=13555942 } # Shamir (nc)


