623.1.1={
	law = succ_primogeniture
	law = cognatic_succession
}
7073.1.1={
	holder=501138 #Florian I
}
7110.1.1 = {
	holder=502138 #Florian II
}
7127.1.1 = {
	holder=503138 #Florian III
}
7149.1.1 = {
	holder=504138 #Florian IV
}
7160.1.1 = {
	holder=505138 #Florian V
}
7162.1.1 = {
	holder=507138 #Humfrey
}

7172.1.1={
	holder=20138 # Ryger Mooton
}
7200.1.1={
    holder=0
}
