623.1.1={
	liege="e_new_valyria"
}
7095.1.1 = { holder=150360003 } # Hizdhar (nc)
7116.1.1 = { holder=100360003 } # Hizdhar (nc)
7147.1.1 = { holder=102360003 } # Hizdhar (nc)
7190.1.1 = { holder=105360003 } # Grazdan (nc)
7206.1.1 = { holder=111360003 } # Hizdhar (nc)
7224.1.1 = { holder=114360003 } # Hizdhar (nc)
7260.1.1 = { holder=118360003 } # Kraznys (nc)
7279.1.1 = { holder=120360003 } # Hizdhar (nc)
7312.1.1 = { holder=122360003 } # Hizdhario (nc)
7338.1.1 = { holder=124360003 } # Moredo (nc)
7350.1.1 = { holder=129360003 } # Barkhaz (nc)
7386.1.1={
	holder=16571013 # Hizdhar
}
