623.1.1={
	law = succ_primogeniture
	law = cognatic_succession
	law = centralization_1
	law = privilege_vassal_king
	effect = {
		add_law = privilege_vassal_king
	}
}
2079.1.1={ holder=174405 }	#The Griffin King
2100.1.1={ 
	holder=0 
	active = no
}
