set_dynamic_coa_effect = {
	################
	###Crownlands###
	################
	if = {
		limit = { holder_scope = { dynasty = 496 } }	
		if = {
			limit = { holder_scope = { has_character_flag = targaryen_green } }
			set_coa = c_targaryen_green
		}	
		else_if = {
			limit = { holder_scope = { has_character_flag = targaryen_black } }
			set_coa = c_targaryen_black
		}	
		else_if = {
			limit = { holder_scope = { has_character_flag = targaryen_martial } }
			set_coa = c_targaryen_martial
		}	
		else_if = {
			limit = { holder_scope = { has_character_flag = targaryen_second } }
			set_coa = c_targaryen_second
		}	
		else_if = {
			limit = { holder_scope = { has_character_flag = targaryen_third } }
			set_coa = c_targaryen_third
		}	
		else_if = {
			limit = { holder_scope = { has_character_flag = targaryen_fourth } }
			set_coa = c_targaryen_fourth
		}	
		else_if = {
			limit = { holder_scope = { has_character_flag = targaryen_arryn } }
			set_coa = c_targaryen_arryn
		}
		else_if = {
			limit = { holder_scope = { has_character_flag = targaryen_baratheon } }
			set_coa = c_targaryen_baratheon
		}	
		else_if = {
			limit = { holder_scope = { has_character_flag = targaryen_blackfyre } }
			set_coa = c_targaryen_blackfyre
		}	
		else_if = {
			limit = { holder_scope = { has_character_flag = targaryen_gardener } }
			set_coa = c_targaryen_gardener
		}	
		else_if = {
			limit = { holder_scope = { has_character_flag = targaryen_greyjoy } }
			set_coa = c_targaryen_greyjoy
		}	
		else_if = {
			limit = { holder_scope = { has_character_flag = targaryen_hightower } }
			set_coa = c_targaryen_hightower
		}	
		else_if = {
			limit = { holder_scope = { has_character_flag = targaryen_hoare } }
			set_coa = c_targaryen_hoare
		}	
		else_if = {
			limit = { holder_scope = { has_character_flag = targaryen_lannister } }
			set_coa = c_targaryen_lannister
		}	
		else_if = {
			limit = { holder_scope = { has_character_flag = targaryen_martell } }
			set_coa = c_targaryen_martell
		}	
		else_if = {
			limit = { holder_scope = { has_character_flag = targaryen_reyne } }
			set_coa = c_targaryen_reyne
		}	
		else_if = {
			limit = { holder_scope = { has_character_flag = targaryen_royce } }
			set_coa = c_targaryen_royce
		}	
		else_if = {
			limit = { holder_scope = { has_character_flag = targaryen_stark } }
			set_coa = c_targaryen_stark
		}		
		else_if = {
			limit = { holder_scope = { has_character_flag = targaryen_tully } }
			set_coa = c_targaryen_tully
		}	
		else_if = {
			limit = { holder_scope = { has_character_flag = targaryen_tyrell } }
			set_coa = c_targaryen_tyrell
		}	
		else_if = {
			limit = { holder_scope = { has_character_flag = targaryen_yronwood } }
			set_coa = c_targaryen_yronwood
		}	
		else_if = {
			limit = { holder_scope = { has_character_flag = targaryen_velaryon } }
			set_coa = c_targaryen_velaryon
		}	
		else = {
			set_coa = d_daemons_host #Targaryen
		}
	}
	else_if = {
		limit = { holder_scope = { dynasty = 497 } } #Aegon VI
		set_coa = d_daemons_host #Targaryen
	}	
	else_if = {
		limit = { holder_scope = { dynasty = 57 } }
		if = {
			limit = { holder_scope = { has_character_flag = blackfyre_martial } }
			set_coa = c_blackfyre_martial
		}	
		else_if = {
			limit = { holder_scope = { has_character_flag = blackfyre_second } }
			set_coa = c_blackfyre_second
		}	
		else_if = {
			limit = { holder_scope = { has_character_flag = blackfyre_third } }
			set_coa = c_blackfyre_third
		}	
		else_if = {
			limit = { holder_scope = { has_character_flag = blackfyre_fourth } }
			set_coa = c_blackfyre_fourth
		}	
		else = {
			set_coa = k_daemon_blackfyres_host #Blackfyre
		}
	}
	else_if = {
		limit = { holder_scope = { dynasty = 7000 } } #Bittersteel
		set_coa = c_bittersteel
	}
	else_if = {
		limit = { holder_scope = { dynasty = 501 } } #Truefyre
		set_coa = c_truefyre
	}
	else_if = {
		limit = { holder_scope = { dynasty = 502 } } #Hugh the Hammer
		set_coa = c_targaryen_hammer
	}
	else_if = {
		limit = { holder_scope = { dynasty = 503 } } #Ulf the White
		set_coa = c_targaryen_white
	}	
	else_if = {
		limit = { holder_scope = { dynasty = 52 } }
		if = {
			limit = { holder_scope = { has_character_flag = velaryon_second } }
			set_coa = c_velaryon_second
		}	
		else_if = {
			limit = { holder_scope = { has_character_flag = velaryon_third } }
			set_coa = c_velaryon_third
		}	
		else_if = {
			limit = { holder_scope = { has_character_flag = velaryon_fourth } }
			set_coa = c_velaryon_fourth
		}	
		else = {
			set_coa = c_velaryon
		}
	}
	else_if = {
		limit = { holder_scope = { dynasty = 1575 } } #Baratheon-Lannister
		set_coa = c_lannister_baratheon
	}
	else_if = {
		limit = { holder_scope = { dynasty = 364 } } #Darklyn
		set_coa = c_darklyn
	}
	else_if = {
		limit = { holder_scope = { dynasty = 38 } } #Rosby
		set_coa = c_rosbycoa
	}
	else_if = {
		limit = { holder_scope = { dynasty = 30 } } #Thorne
		set_coa = c_thorne
	}
	else_if = {
		limit = { holder_scope = { dynasty = 1440 } } #Blackwater
		set_coa = c_blackwater
	}
	else_if = {
		limit = { holder_scope = { dynasty = 36 } } #Rykker
		set_coa = c_rykker
	}
	else_if = {
		limit = { holder_scope = { dynasty = 50 } } #Celtigar
		set_coa = c_celtigar
	}
	else_if = {
		limit = { holder_scope = { dynasty = 41 } } #Staunton
		set_coa = c_staunton
	}
	else_if = {
		limit = { holder_scope = { dynasty = 174411 } } #Cave
		set_coa = c_cave
	}
	else_if = {
		limit = { holder_scope = { dynasty = 42 } } #Brune
		set_coa = c_brune
	}
	else_if = {
		limit = { holder_scope = { dynasty = 1197 } } #Crabb
		set_coa = c_crabb
	}
	else_if = {
		limit = { holder_scope = { dynasty = 174410 } } #Boggs
		set_coa = c_boggs
	}
	else_if = {
		limit = { holder_scope = { dynasty = 51 } } #Sunglass
		set_coa = c_sunglass
	}
	else_if = {
		limit = { holder_scope = { dynasty = 49 } } #Bar Emmon
		set_coa = c_bar_emmon
	}
	else_if = {
		limit = { holder_scope = { dynasty = 45 } } #Bywater
		set_coa = c_bywatercoa
	}
	else_if = {
		limit = { holder_scope = { dynasty = 46 } } #Massey
		set_coa = c_massey
	}
	else_if = {
		limit = { holder_scope = { dynasty = 35 } } #Stokeworth
		set_coa = c_stokeworthcoa
	}
	else_if = {
		limit = { holder_scope = { dynasty = 32 } } #Hayford
		set_coa = c_hayfordcoa
	}
	else_if = {
		limit = { holder_scope = { dynasty = 21 } } #Follard
		set_coa = c_follard
	}
	else_if = {
		limit = { holder_scope = { dynasty = 22 } } #Blount
		set_coa = c_blount
	}
	else_if = {
		limit = { holder_scope = { dynasty = 23 } } #Gaunt
		set_coa = c_gaunt
	}
	else_if = {
		limit = { holder_scope = { dynasty = 24 } } #Farring
		set_coa = c_farring
	}
	else_if = {
		limit = { holder_scope = { dynasty = 25 } } #Chelsted
		set_coa = c_chelsted
	}
	else_if = {
		limit = { holder_scope = { dynasty = 26 } } #Mallery
		set_coa = c_mallery
	}
	else_if = {
		limit = { holder_scope = { dynasty = 27 } } #Cressey
		set_coa = c_cressey
	}
	else_if = {
		limit = { holder_scope = { dynasty = 28 } } #Chyttering
		set_coa = c_chyttering
	}
	else_if = {
		limit = { holder_scope = { dynasty = 29 } } #Rollingford
		set_coa = c_rollingfordcoa
	}
	else_if = {
		limit = { holder_scope = { dynasty = 33 } } #Harte
		set_coa = c_harte
	}
	else_if = {
		limit = { holder_scope = { dynasty = 34 } } #Buckwell
		set_coa = c_buckwell
	}
	else_if = {
		limit = { holder_scope = { dynasty = 37 } } #Hollard
		set_coa = c_hollard
	}
	else_if = {
		limit = { holder_scope = { dynasty = 39 } } #Byrch
		set_coa = c_byrch
	}
	else_if = {
		limit = { holder_scope = { dynasty = 40 } } #Edgerton
		set_coa = c_edgertoncoa
	}
	else_if = {
		limit = { holder_scope = { dynasty = 48 } } #Langward
		set_coa = c_langward
	}
	else_if = {
		limit = { holder_scope = { dynasty = 55 } } #Pyle
		set_coa = c_pyle
	}
	else_if = {
		limit = { holder_scope = { dynasty = 352 } } #Kettleblack
		set_coa = c_kettleblack
	}
	else_if = {
		limit = { holder_scope = { dynasty = 353 } } #Slynt
		set_coa = c_slynt
	}
	else_if = {
		limit = { holder_scope = { dynasty = 43 } } #Manning
		set_coa = c_manning
	}
	else_if = {
		limit = { holder_scope = { dynasty = 44 } } #Wendwater
		set_coa = c_wendwater
	}
	else_if = {
		limit = { holder_scope = { dynasty = 1523 } } #Suggs
		set_coa = c_suggs
	}
	else_if = {
		limit = { holder_scope = { dynasty = 1521 } } #Cargyll
		set_coa = c_cargyll
	}
	else_if = {
		limit = { holder_scope = { dynasty = 47 } } #Hardy
		set_coa = c_hardy
	}
	else_if = {
		limit = { holder_scope = { dynasty = 1524 } } #Tallad the Tall
		set_coa = c_talltallad
	}
	else_if = {
		limit = { holder_scope = { dynasty = 1509 } } #Duncan the Tall
		set_coa = c_tallduncan
	}
	else_if = {
		limit = { holder_scope = { dynasty = 1520 } } #Deem
		set_coa = c_deem
	}
	else_if = {
		limit = { holder_scope = { dynasty = 1522 } } #Blackberry
		set_coa = c_blackberry
	}
	else_if = {
		limit = { holder_scope = { dynasty = 1442 } } #Tallyhill
		set_coa = c_tallyhill
	}
	else_if = {
		limit = { holder_scope = { dynasty = 1543 } } #Winters
		set_coa = c_winters
	}
	else_if = {
		limit = { holder_scope = { dynasty = 1525 } } #Straw
		set_coa = c_straw
	}
	else_if = {
		limit = { holder_scope = { dynasty = 1526 } } #Tanner
		set_coa = c_tanner
	}
	else_if = {
		limit = { holder_scope = { dynasty = 1527 } } #Foxglove
		set_coa = c_foxglove
	}
	else_if = {
		limit = { holder_scope = { dynasty = 1528 } } #Darke
		set_coa = c_darke
	}
	else_if = {
		limit = { holder_scope = { dynasty = 1529 } } #Darkwood
		set_coa = c_darkwood
	}
	else_if = {
		limit = { holder_scope = { dynasty = 1530 } } #Dargood
		set_coa = c_dargood
	}
	else_if = {
		limit = { holder_scope = { dynasty = 1531 } } #Quince
		set_coa = c_quince
	}
	else_if = {
		limit = { holder_scope = { dynasty = 1532 } } #Largent
		set_coa = c_largent
	}
	else_if = {
		limit = { holder_scope = { dynasty = 1533 } } #Correy
		set_coa = c_correy
	}
	else_if = {
		limit = { holder_scope = { dynasty = 1534 } } #Goode
		set_coa = c_goode
	}
	else_if = {
		limit = { holder_scope = { dynasty = 1535 } } #Belgrave
		set_coa = c_belgrave
	}
	else_if = {
		limit = { holder_scope = { dynasty = 1514 } } #Bush
		set_coa = c_bush
	}
	else_if = {
		limit = { holder_scope = { dynasty = 1513 } } #Bean
		set_coa = c_bean
	}
	else_if = {
		limit = { holder_scope = { dynasty = 1512 } } #Blackhull
		set_coa = c_blackhull
	}
	else_if = {
		limit = { holder_scope = { dynasty = 504 } } #Nettles
		set_coa = c_farseed
	}
	else_if = {
		limit = { holder_scope = { dynasty = 1472 } } #Bourney
		set_coa = c_bourney
	}
	else_if = {
		limit = { holder_scope = { dynasty = 1473 } } #Corne
		set_coa = c_corne
	}
	else_if = {
		limit = { holder_scope = { dynasty = 1873 } } #Branfield
		set_coa = c_branfield
	}
	else_if = {
		limit = { holder_scope = { dynasty = 1479 } } #Scales
		set_coa = c_scales
	}
	else_if = {
		limit = { holder_scope = { dynasty = 174412 } } #Pyne
		set_coa = c_pyne
	}
	else_if = {
		limit = { holder_scope = { dynasty = 1875 } } #Longwaters
		set_coa = c_longwaters
	}
	
	###########
	###North###
	###########
	else_if = {
		limit = { holder_scope = { dynasty = 59 } }
		if = {
			limit = { holder_scope = { has_character_flag = stark_martial } }
			set_coa = c_stark_martial
		}	
		else_if = {
			limit = { holder_scope = { has_character_flag = stark_second } }
			set_coa = c_stark_second
		}	
		else_if = {
			limit = { holder_scope = { has_character_flag = stark_third } }
			set_coa = c_stark_third
		}	
		else_if = {
			limit = { holder_scope = { has_character_flag = stark_fourth } }
			set_coa = c_stark_fourth
		}	
		else_if = {
			limit = { holder_scope = { has_character_flag = stark_arryn } }
			set_coa = c_stark_arryn
		}	
		else_if = {
			limit = { holder_scope = { has_character_flag = stark_baratheon } }
			set_coa = c_stark_baratheon
		}	
		else_if = {
			limit = { holder_scope = { has_character_flag = stark_blackfyre } }
			set_coa = c_stark_blackfyre
		}	
		else_if = {
			limit = { holder_scope = { has_character_flag = stark_gardener } }
			set_coa = c_stark_gardener
		}	
		else_if = {
			limit = { holder_scope = { has_character_flag = stark_greyjoy } }
			set_coa = c_stark_greyjoy
		}	
		else_if = {
			limit = { holder_scope = { has_character_flag = stark_hightower } }
			set_coa = c_stark_hightower
		}	
		else_if = {
			limit = { holder_scope = { has_character_flag = stark_hoare } }
			set_coa = c_stark_hoare
		}	
		else_if = {
			limit = { holder_scope = { has_character_flag = stark_lannister } }
			set_coa = c_stark_lannister
		}	
		else_if = {
			limit = { holder_scope = { has_character_flag = stark_martell } }
			set_coa = c_stark_martell
		}	
		else_if = {
			limit = { holder_scope = { has_character_flag = stark_reyne } }
			set_coa = c_stark_reyne
		}	
		else_if = {
			limit = { holder_scope = { has_character_flag = stark_royce } }
			set_coa = c_stark_royce
		}	
		else_if = {
			limit = { holder_scope = { has_character_flag = stark_targaryen1 } }
			set_coa = c_stark_targaryen1
		}	
		else_if = {
			limit = { holder_scope = { has_character_flag = stark_tully } }
			set_coa = c_stark_tully
		}	
		else_if = {
			limit = { holder_scope = { has_character_flag = stark_tyrell } }
			set_coa = c_stark_tyrell
		}	
		else_if = {
			limit = { holder_scope = { has_character_flag = stark_yronwood } }
			set_coa = c_stark_yronwood
		}	
		else_if = {
			limit = { holder_scope = { has_character_flag = stark_velaryon } }
			set_coa = c_stark_velaryon
		}	
		else = {
			set_coa = c_stark
		}
	}
	else_if = {
		limit = { holder_scope = { dynasty = 1559 } }
		set_coa = c_stark_targaryen
	}
	else_if = {
		limit = { holder_scope = { dynasty = 87 } }
		set_coa = c_bolton
	}	
	else_if = {
		limit = { holder_scope = { dynasty = 93 } }
		set_coa = c_umber #Umber
	}
	else_if = {
		limit = { holder_scope = { dynasty = 89 } }
		set_coa = c_karstark #Karstark
	}
	else_if = {
		limit = { holder_scope = { dynasty = 80 } }
		set_coa = c_manderly #Manderly
	}
	else_if = {
		limit = { holder_scope = { dynasty = 62 } }
		set_coa = c_glover #Glover
	}
	else_if = {
		limit = { holder_scope = { dynasty = 68 } }  #Ryswell
		if = {
			limit = { holder_scope = { has_character_flag = dustin_ryswell } }
			set_coa = c_ryswell_dustin
		}
		else = {
			set_coa = c_ryswell
		}
	}
	else_if = {
		limit = { holder_scope = { dynasty = 79 } }
		set_coa = c_dustin #Dustin
	}
	else_if = {
		   limit = { holder_scope = { dynasty = 84 } }
		   set_coa = c_flint #Flint
	}
	else_if = {
		limit = { holder_scope = { dynasty = 126 } }
		set_coa = c_reed #Reed
	}
	else_if = {
		limit = { holder_scope = { dynasty = 102 } }
		set_coa = c_mormont #Mormont
	}
	else_if = {
		limit = { holder_scope = { dynasty = 63859 } }
		set_coa = c_greystark #Greystark
	}
	else_if = {
		limit = { holder_scope = { dynasty = 1443 } }
		set_coa = c_forrester #Forrester
	}
	else_if = {
		limit = { holder_scope = { dynasty = 70 } }
		set_coa = c_whitehill #Whitehill
	}
	else_if = {
		limit = { holder_scope = { dynasty = 83 } }
		set_coa = c_hornwood_coa #Hornwood
	}
	else_if = {
		limit = { holder_scope = { dynasty = 101 } }
		set_coa = c_tallhart #Tallhart
	}
	else_if = {
		limit = { holder_scope = { dynasty = 60 } } #Cassel
		set_coa = c_cassel
	}
	else_if = {
		limit = { holder_scope = { dynasty = 61 } } #Cerwyn
		set_coa = c_cerwyn
	}
	else_if = {
		limit = { holder_scope = { dynasty = 88 } } #Locke
		set_coa = c_locke
	}
	else_if = {
		limit = { holder_scope = { dynasty = 104 } } #Magnar
		set_coa = c_magnar
	}
	else_if = {
		limit = { holder_scope = { dynasty = 105 } } #Crowl
		set_coa = c_crowl
	}
	else_if = {
		limit = { holder_scope = { dynasty = 106 } } #Stane
		set_coa = c_stane
	}
	else_if = {
		limit = { holder_scope = { dynasty = 174831 } } #Warrick
		set_coa = c_warrick
	}
	
	else_if = {
		limit = { holder_scope = { dynasty = 800867 } } #Silverfield
		set_coa = c_silverfield
	}
	else_if = {
		limit = { holder_scope = { dynasty = 65 } } #Fisher
		set_coa = c_fisher_north
	}
	else_if = {
		limit = { holder_scope = { dynasty = 69 } } #Stout
		set_coa = c_stout
	}
	else_if = {
		limit = { holder_scope = { dynasty = 71 } } #Slate
		set_coa = c_slate
	}
	else_if = {
		limit = { holder_scope = { dynasty = 76 } } #Hayes
		set_coa = c_hayes
	}
	else_if = {
		limit = { holder_scope = { dynasty = 81 } } #Wells
		set_coa = c_wells
	}
	else_if = {
		limit = { holder_scope = { dynasty = 82 } } #Woolfield
		set_coa = c_woolfield
	}
	else_if = {
		limit = { holder_scope = { dynasty = 85 } } #Overton
		set_coa = c_overton_coa
	}
	else_if = {
		limit = { holder_scope = { dynasty = 86 } } #Mollen
		set_coa = c_mollen
	}
	else_if = {
		limit = { holder_scope = { dynasty = 90 } } #Waterman
		set_coa = c_waterman
	}
	else_if = {
		limit = { holder_scope = { dynasty = 91 } } #Lightfoot
		set_coa = c_lightfoot
	}
	else_if = {
		limit = { holder_scope = { dynasty = 94 } } #Lake
		set_coa = c_lake_north
	}
	else_if = {
		limit = { holder_scope = { dynasty = 95 } } #Poole
		set_coa = c_poole
	}
	else_if = {
		limit = { holder_scope = { dynasty = 350 } } #Ironsmith
		set_coa = c_ironsmith
	}
	else_if = {
		limit = { holder_scope = { dynasty = 351 } } #Condon
		set_coa = c_condon
	}
	else_if = {
		limit = { holder_scope = { dynasty = 1444 } } #Woods
		set_coa = c_woods
	}
	else_if = {
		limit = { holder_scope = { dynasty = 1445 } } #Branch
		set_coa = c_branch
	}
	else_if = {
		limit = { holder_scope = { dynasty = 1446 } } #Bole
		set_coa = c_bole
	}
	else_if = {
		limit = { holder_scope = { dynasty = 800833 } } #Ryder
		set_coa = c_ryder
	}
	else_if = {
		limit = { holder_scope = { dynasty = 800839 } } #Ashwood
		set_coa = c_ashwood
	}
	else_if = {
		limit = { holder_scope = { dynasty = 800840 } } #Holt
		set_coa = c_holt_north
	}
	else_if = {
		limit = { holder_scope = { dynasty = 800841 } } #Long
		set_coa = c_long_north
	}
	else_if = {
		limit = { holder_scope = { dynasty = 1872 } } #Tuttle
		set_coa = c_tuttle
	}
	else_if = {
		limit = { holder_scope = { dynasty = 1874 } } #Glenmore
		set_coa = c_glenmore
	}
	else_if = {
		limit = { holder_scope = { dynasty = 1876 } } #Brownbarrow
		set_coa = c_brownbarrow
	}
	else_if = {
		limit = { holder_scope = { dynasty = 1877 } } #Elliver
		set_coa = c_elliver
	}
	else_if = {
		limit = { holder_scope = { dynasty = 1878 } } #Grayson
		set_coa = c_grayson
	}
	else_if = {
		limit = { holder_scope = { dynasty = 800838 } } #Degore
		set_coa = c_degore
	}
	else_if = {
		limit = { holder_scope = { dynasty = 800834 } } #Greenwood
		set_coa = c_greenwood_coa
	}
	else_if = {
		limit = { holder_scope = { dynasty = 800835 } } #Towers
		set_coa = c_towers_north
	}
	else_if = {
		limit = { holder_scope = { dynasty = 800836 } } #Amber
		set_coa = c_amber
	}
	else_if = {
		limit = { holder_scope = { dynasty = 800837 } } #Frost
		set_coa = c_frost
	}
	else_if = {
		limit = { holder_scope = { dynasty = 882175 } } #Woodfoot
		set_coa = c_woodfoot
	}
	else_if = {
		limit = { holder_scope = { dynasty = 800842 } } #Goodmen
		set_coa = c_goodmen
	}
	else_if = {
		limit = { holder_scope = { dynasty = 1880 } } #Dormund
		set_coa = c_dormund
	}
	else_if = {
		limit = { holder_scope = { dynasty = 1452 } } #Boggs
		set_coa = c_boggs_north
	}
	else_if = {
		limit = { holder_scope = { dynasty = 72 } } #Moss
		set_coa = c_moss
	}
	else_if = {
		limit = { holder_scope = { dynasty = 73 } } #Fenn
		set_coa = c_fenn
	}
	else_if = {
		limit = { holder_scope = { dynasty = 74 } } #Blackmyre
		set_coa = c_blackmyre
	}
	else_if = {
		limit = { holder_scope = { dynasty = 78 } } #Marsh
		set_coa = c_marsh
	}
	else_if = {
		limit = { holder_scope = { dynasty = 1448 } } #Cray
		set_coa = c_cray
	}
	else_if = {
		limit = { holder_scope = { dynasty = 1449 } } #Greengood
		set_coa = c_greengood
	}
	else_if = {
		limit = { holder_scope = { dynasty = 1450 } } #Peat
		set_coa = c_peat
	}
	else_if = {
		limit = { holder_scope = { dynasty = 1451 } } #Quagg
		set_coa = c_quagg
	}
	else_if = {
		limit = { holder_scope = { dynasty = 92 } } #Burley
		set_coa = c_burley
	}
	else_if = {
		limit = { holder_scope = { dynasty = 96 } } #Harclay
		set_coa = c_harclay
	}
	else_if = {
		limit = { holder_scope = { dynasty = 97 } } #Liddle
		set_coa = c_liddle
	}
	else_if = {
		limit = { holder_scope = { dynasty = 98 } } #Knott
		set_coa = c_knott
	}
	else_if = {
		limit = { holder_scope = { dynasty = 99 } } #Wull
		set_coa = c_wull
	}
	else_if = {
		limit = { holder_scope = { dynasty = 100 } } #Norrey
		set_coa = c_norrey
	}
	else_if = {
		limit = { holder_scope = { dynasty = 1174345 } } #Redbeard
		set_coa = c_redbeard
	}
	else_if = {
		limit = { holder_scope = { dynasty = 1174344 } } #Thenn
		set_coa = c_thenn_coa
	}
	
	################
	###Riverlands###
	################
	else_if = {
		limit = { holder_scope = { dynasty = 159 } }
		if = {
			limit = { holder_scope = { has_character_flag = tully_martial } }
			set_coa = c_tully_martial
		}	
		else_if = {
			limit = { holder_scope = { has_character_flag = tully_second } }
			set_coa = c_tully_second
		}	
		else_if = {
			limit = { holder_scope = { has_character_flag = tully_third } }
			set_coa = c_tully_third
		}	
		else_if = {
			limit = { holder_scope = { has_character_flag = tully_fourth } }
			set_coa = c_tully_fourth
		}	
		else_if = {
			limit = { holder_scope = { has_character_flag = tully_arryn } }
			set_coa = c_tully_arryn
		}	
		else_if = {
			limit = { holder_scope = { has_character_flag = tully_baratheon } }
			set_coa = c_tully_baratheon
		}	
		else_if = {
			limit = { holder_scope = { has_character_flag = tully_blackfyre } }
			set_coa = c_tully_blackfyre
		}	
		else_if = {
			limit = { holder_scope = { has_character_flag = tully_gardener } }
			set_coa = c_tully_gardener
		}	
		else_if = {
			limit = { holder_scope = { has_character_flag = tully_greyjoy } }
			set_coa = c_tully_greyjoy
		}	
		else_if = {
			limit = { holder_scope = { has_character_flag = tully_hightower } }
			set_coa = c_tully_hightower
		}	
		else_if = {
			limit = { holder_scope = { has_character_flag = tully_hoare } }
			set_coa = c_tully_hoare
		}	
		else_if = {
			limit = { holder_scope = { has_character_flag = tully_lannister } }
			set_coa = c_tully_lannister
		}	
		else_if = {
			limit = { holder_scope = { has_character_flag = tully_martell } }
			set_coa = c_tully_martell
		}	
		else_if = {
			limit = { holder_scope = { has_character_flag = tully_reyne } }
			set_coa = c_tully_reyne
		}	
		else_if = {
			limit = { holder_scope = { has_character_flag = tully_royce } }
			set_coa = c_tully_royce
		}	
		else_if = {
			limit = { holder_scope = { has_character_flag = tully_targaryen } }
			set_coa = c_tully_targaryen
		}	
		else_if = {
			limit = { holder_scope = { has_character_flag = tully_stark } }
			set_coa = c_tully_stark
		}	
		else_if = {
			limit = { holder_scope = { has_character_flag = tully_tyrell } }
			set_coa = c_tully_tyrell
		}	
		else_if = {
			limit = { holder_scope = { has_character_flag = tully_yronwood } }
			set_coa = c_tully_yronwood
		}	
		else_if = {
			limit = { holder_scope = { has_character_flag = tully_velaryon } }
			set_coa = c_tully_velaryon
		}
		else = {
			set_coa = c_tully
		}
	}
	else_if = {
		limit = { holder_scope = { dynasty = 601 } } #Baelish (Mockingbird}
		set_coa = c_baelish
	}
	else_if = {
		limit = { holder_scope = { dynasty = 127 } } #Frey
		if = {
			limit = { holder_scope = { has_character_flag = lannister_frey } }
			set_coa = c_lannister_frey
		}	
		else = {
			set_coa = c_frey
		}
	}
	else_if = {
	   limit = { holder_scope = { dynasty = 149 } } #Bracken
	   set_coa = c_bracken
	}
	else_if = {
	   limit = { holder_scope = { dynasty = 150 } } #Blackwood
	   set_coa = c_blackwood
	}
	else_if = {
	   limit = { holder_scope = { dynasty = 128 } } #Malister
	   set_coa = c_malister
	}
	else_if = {
	   limit = { holder_scope = { dynasty = 153 } } #Vance
	   set_coa = c_vance
	}
	else_if = {
		limit = { holder_scope = { dynasty = 154 } } #Vance
		set_coa = c_vance_atranta
	}
	else_if = {
	   limit = { holder_scope = { dynasty = 157 } } #Piper
	   set_coa = c_piper
	}
	else_if = {
	   limit = { holder_scope = { dynasty = 137 } } #Darry
	   set_coa = c_darrycoa
	}
	else_if = {
		limit = { holder_scope = { dynasty = 174435 } } #Teague
		set_coa = c_teague
	}
	else_if = {
		limit = { holder_scope = { dynasty = 174430 } } #Fisher
		set_coa = c_fisher
	}
	else_if = {
		limit = { holder_scope = { dynasty = 174432 } } #Justman
		set_coa = c_justman
	}
	else_if = {
		limit = { holder_scope = { dynasty = 174399 } } #Mudd
		set_coa = c_mudd
	}
	else_if = {
		limit = { holder_scope = { dynasty = 355 } } #Lothston
		set_coa = c_lothston
	}
	else_if = {
		limit = { holder_scope = { dynasty = 146 } } #Whent
		set_coa = c_whent
	}
	else_if = {
		limit = { holder_scope = { dynasty = 356 } } #Strong
		set_coa = c_strong
	}
	else_if = {
		limit = { holder_scope = { dynasty = 143 } } #Butterwell
		set_coa = c_butterwell
	}
	else_if = {
		limit = { holder_scope = { dynasty = 359 } } #Qoherys
		set_coa = c_qoherys
	}
	else_if = {
		limit = { holder_scope = { dynasty = 155 } } #Blanetree
		set_coa = c_blanetree
	}
	else_if = {
		limit = { holder_scope = { dynasty = 152 } } #Ryger
		set_coa = c_ryger
	}
	else_if = {
		limit = { holder_scope = { dynasty = 138 } } #Mooton
		set_coa = c_mooton
	}
	else_if = {
		limit = { holder_scope = { dynasty = 357 } } #Harroway
		set_coa = c_harroway
	}
	else_if = {
		limit = { holder_scope = { dynasty = 358 } } #Towers
		set_coa = c_towers
	}
	else_if = {
		limit = { holder_scope = { dynasty = 125 } } #Charlton
		set_coa = c_charlton
	}
	else_if = {
		limit = { holder_scope = { dynasty = 129 } } #Erenford
		set_coa = c_erenfordcoa
	}
	else_if = {
		limit = { holder_scope = { dynasty = 132 } } #Haigh
		set_coa = c_haigh
	}
	else_if = {
		limit = { holder_scope = { dynasty = 133 } } #Grell
		set_coa = c_grell
	}
	else_if = {
		limit = { holder_scope = { dynasty = 134 } } #Paege
		set_coa = c_paege
	}
	else_if = {
		limit = { holder_scope = { dynasty = 139 } } #Hawick
		set_coa = c_hawick
	}
	else_if = {
		limit = { holder_scope = { dynasty = 145 } } #Roote
		set_coa = c_roote
	}
	else_if = {
		limit = { holder_scope = { dynasty = 147 } } #Lychester
		set_coa = c_lychester
	}
	else_if = {
		limit = { holder_scope = { dynasty = 151 } } #Shawney
		set_coa = c_shawney
	}
	else_if = {
		limit = { holder_scope = { dynasty = 148 } } #Goodbrook
		set_coa = c_goodbrookcoa
	}
	else_if = {
		limit = { holder_scope = { dynasty = 135 } } #Lolliston
		set_coa = c_lollistoncoa
	}
	else_if = {
		limit = { holder_scope = { dynasty = 2160 } } #Harlton
		set_coa = c_harlton
	}
	else_if = {
		limit = { holder_scope = { dynasty = 156 } } #Smallwood
		set_coa = c_smallwoodcoa
	}
	else_if = {
		limit = { holder_scope = { dynasty = 141 } } #Terrick
		set_coa = c_terrick
	}
	else_if = {
		limit = { holder_scope = { dynasty = 140 } } #Wayn
		set_coa = c_wayn
	}
	else_if = {
		limit = { holder_scope = { dynasty = 142 } } #Keath
		set_coa = c_keath
	}
	else_if = {
		limit = { holder_scope = { dynasty = 136 } } #Wode
		set_coa = c_wode
	}
	else_if = {
		limit = { holder_scope = { dynasty = 131 } } #Vypren
		set_coa = c_vypren
	}	
	else_if = {
		limit = { holder_scope = { dynasty = 178450 } } #Heddle
		set_coa = c_heddle
	}
	else_if = {
		limit = { holder_scope = { dynasty = 178452 } } #Bigglestone
		set_coa = c_bigglestone
	}
	else_if = {
		limit = { holder_scope = { dynasty = 178453 } } #Chambers
		set_coa = c_chambers
	}
	else_if = {
		limit = { holder_scope = { dynasty = 178454 } } #Grey
		set_coa = c_grey
	}
	else_if = {
		limit = { holder_scope = { dynasty = 178455 } } #Hook
		set_coa = c_hook
	}
	else_if = {
		limit = { holder_scope = { dynasty = 178456 } } #Nutt
		set_coa = c_nutt
	}
	else_if = {
		limit = { holder_scope = { dynasty = 178457 } } #Perryn
		set_coa = c_perryn
	}
	else_if = {
		limit = { holder_scope = { dynasty = 174846 } } #Pemford
		set_coa = c_pemford
	}
	else_if = {
		limit = { holder_scope = { dynasty = 211 } } #Deddings
		set_coa = c_deddings
	}
	else_if = {
		limit = { holder_scope = { dynasty = 69113 } } #Rushmoor
		set_coa = c_rushmoor_coa
	}
	else_if = {
		limit = { holder_scope = { dynasty = 39114 } } #Kanet
		set_coa = c_kanetcoa
	}
	else_if = {
		limit = { holder_scope = { dynasty = 174429 } } #Cox
		set_coa = c_cox
	}
	else_if = {
		limit = { holder_scope = { dynasty = 174431 } } #Bromley
		set_coa = c_bromley
	}
	else_if = {
		limit = { holder_scope = { dynasty = 174433 } } #Longbough
		set_coa = c_longbough
	}
	else_if = {
		limit = { holder_scope = { dynasty = 174434 } } #Nayland
		set_coa = c_nayland
	}
	else_if = {
		limit = { holder_scope = { dynasty = 174829 } } #Groves
		set_coa = c_groves
	}
	
	##########
	###Vale###
	##########
	else_if = {
		limit = { holder_scope = { dynasty = 178 } }
		if = {
			limit = { holder_scope = { has_character_flag = arryn_martial } }
			set_coa = c_arryn_martial
		}	
		else_if = {
			limit = { holder_scope = { has_character_flag = arryn_second } }
			set_coa = c_arryn_second
		}	
		else_if = {
			limit = { holder_scope = { has_character_flag = arryn_third } }
			set_coa = c_arryn_third
		}	
		else_if = {
			limit = { holder_scope = { has_character_flag = arryn_fourth } }
			set_coa = c_arryn_fourth
		}	
		else_if = {
			limit = { holder_scope = { has_character_flag = arryn_baratheon } }
			set_coa = c_arryn_baratheon
		}	
		else_if = {
			limit = { holder_scope = { has_character_flag = arryn_blackfyre } }
			set_coa = c_arryn_blackfyre
		}	
		else_if = {
			limit = { holder_scope = { has_character_flag = arryn_gardener } }
			set_coa = c_arryn_gardener
		}	
		else_if = {
			limit = { holder_scope = { has_character_flag = arryn_greyjoy } }
			set_coa = c_arryn_greyjoy
		}	
		else_if = {
			limit = { holder_scope = { has_character_flag = arryn_hightower } }
			set_coa = c_arryn_hightower
		}	
		else_if = {
			limit = { holder_scope = { has_character_flag = arryn_hoare } }
			set_coa = c_arryn_hoare
		}	
		else_if = {
			limit = { holder_scope = { has_character_flag = arryn_lannister } }
			set_coa = c_arryn_lannister
		}	
		else_if = {
			limit = { holder_scope = { has_character_flag = arryn_martell } }
			set_coa = c_arryn_martell
		}	
		else_if = {
			limit = { holder_scope = { has_character_flag = arryn_reyne } }
			set_coa = c_arryn_reyne
		}	
		else_if = {
			limit = { holder_scope = { has_character_flag = arryn_royce } }
			set_coa = c_arryn_royce
		}	
		else_if = {
			limit = { holder_scope = { has_character_flag = arryn_stark } }
			set_coa = c_arryn_stark
		}	
		else_if = {
			limit = { holder_scope = { has_character_flag = arryn_targaryen } }
			set_coa = c_arryn_targaryen
		}	
		else_if = {
			limit = { holder_scope = { has_character_flag = arryn_tully } }
			set_coa = c_arryn_tully
		}	
		else_if = {
			limit = { holder_scope = { has_character_flag = arryn_tyrell } }
			set_coa = c_arryn_tyrell
		}	
		else_if = {
			limit = { holder_scope = { has_character_flag = arryn_yronwood } }
			set_coa = c_arryn_yronwood
		}	
		else_if = {
			limit = { holder_scope = { has_character_flag = arryn_velaryon } }
			set_coa = c_arryn_velaryon
		}	
		else = {
			set_coa = c_the_eyrie #Arryn
		}
	}
	else_if = {
		limit = { holder_scope = { dynasty = 161 } } #Belmore
		set_coa = c_belmore
	}
	else_if = {
		limit = { holder_scope = { dynasty = 174 } } #Lynderly
		set_coa = c_lynderly
	}
	else_if = {
		limit = { holder_scope = { dynasty = 187 } } #Royce
		if = {
			limit = { holder_scope = { has_character_flag = moon_royce } }
			set_coa = c_royce_moon
		}
		else = {
			set_coa = c_royce
		}
	}
	else_if = {
		limit = { holder_scope = { dynasty = 177 } } #Hunter
		set_coa = c_hunter
	}
	else_if = {
		limit = { holder_scope = { dynasty = 182 } } #Waynwood
		set_coa = c_waynwood
	}
	else_if = {
		limit = { holder_scope = { dynasty = 186 } } #Grafton
		set_coa = c_grafton
	}
	else_if = {
		limit = { holder_scope = { dynasty = 176 } } #Corbray
		set_coa = c_corbray
	}
	else_if = {
		limit = { holder_scope = { dynasty = 189 } } #Waxley
		set_coa = c_waxley
	}
	else_if = {
		limit = { holder_scope = { dynasty = 184 } } #Hardyng
		set_coa = c_bite_coast
	}
	else_if = {
		limit = { holder_scope = { dynasty = 183 } } #Redfort
		set_coa = c_redfort
	}
	else_if = {
		limit = { holder_scope = { dynasty = 169 } } #Coldwater
		set_coa = c_coldwater_burn
	}
	else_if = {
		limit = { holder_scope = { dynasty = 1428 } } #Strickland
		set_coa = c_strickland
	}
	
	else_if = {
		limit = { holder_scope = { dynasty = 162 } } #Tollett
		set_coa = c_tollett
	}
	else_if = {
		limit = { holder_scope = { dynasty = 163 } } #Hersy
		set_coa = c_hersy
	}
	else_if = {
		limit = { holder_scope = { dynasty = 167 } } #Pryor
		set_coa = c_pryor
	}
	else_if = {
		limit = { holder_scope = { dynasty = 168 } } #Elesham
		set_coa = c_elesham
	}
	else_if = {
		limit = { holder_scope = { dynasty = 170 } } #Upcliff
		set_coa = c_upcliff_coa
	}
	else_if = {
		limit = { holder_scope = { dynasty = 171 } } #Baelish (old)
		set_coa = c_baelish_old
	}
	else_if = {
		limit = { holder_scope = { dynasty = 172 } } #Templeton
		set_coa = c_templeton
	}
	else_if = {
		limit = { holder_scope = { dynasty = 173 } } #Donniger
		set_coa = c_donniger
	}
	else_if = {
		limit = { holder_scope = { dynasty = 175 } } #Egen
		set_coa = c_egen
	}
	else_if = {
		limit = { holder_scope = { dynasty = 45072 } } #Arryn of Gulltown
		set_coa = c_arryn
	}
	else_if = {
		limit = { holder_scope = { dynasty = 179 } } #Moore
		set_coa = c_moore
	}
	else_if = {
		limit = { holder_scope = { dynasty = 180 } } #Wydman
		set_coa = c_wydman
	}
	else_if = {
		limit = { holder_scope = { dynasty = 181 } } #Melcolm
		set_coa = c_melcolm
	}
	else_if = {
		limit = { holder_scope = { dynasty = 185 } } #Shett
		set_coa = c_shett
	}
	else_if = {
		limit = { holder_scope = { dynasty = 188 } } #Ruthermont
		set_coa = c_ruthermont_coa
	}
	else_if = {
		limit = { holder_scope = { dynasty = 174357 } } #Long
		set_coa = c_long_vale
	}
	else_if = {
		limit = { holder_scope = { dynasty = 174359 } } #Hungerford
		set_coa = c_hungerford
	}
	else_if = {
		limit = { holder_scope = { dynasty = 174437 } } #Shady Glen
		set_coa = c_shady_glen
	}
	else_if = {
		limit = { holder_scope = { dynasty = 174823 } } #Crayne
		set_coa = c_crayne
	}
	else_if = {
		limit = { holder_scope = { dynasty = 174835 } } #Dutton
		set_coa = c_dutton
	}
	else_if = {
		limit = { holder_scope = { dynasty = 174836 } } #Woodhull
		set_coa = c_woodhull
	}
	else_if = {
		limit = { holder_scope = { dynasty = 174839 } } #of the Vale
		set_coa = c_vale_hugh
	}
	else_if = {
		limit = { holder_scope = { dynasty = 174851 } } #Underleaf
		set_coa = c_underleaf
	}
	else_if = {
		limit = { holder_scope = { dynasty = 801047 } } #Breakstone
		set_coa = c_breakstone_coa
	}
	else_if = {
		limit = { holder_scope = { dynasty = 881800 } } #Shell
		set_coa = c_shell
	}
	else_if = {
		limit = { holder_scope = { dynasty = 881801 } } #Brightstone
		set_coa = c_brightstone
	}
	else_if = {
		limit = { holder_scope = { dynasty = 801048 } } #Lipps
		set_coa = c_lipps
	}
	else_if = {
		limit = { holder_scope = { dynasty = 363 } } #Sunderland
		set_coa = c_sunderland_coa
	}
	else_if = {
		limit = { holder_scope = { dynasty = 164 } } #Longthorpe
		set_coa = c_longthorpe
	}
	else_if = {
		limit = { holder_scope = { dynasty = 165 } } #Borrell
		set_coa = c_borrell
	}
	else_if = {
		limit = { holder_scope = { dynasty = 166 } } #Torrent
		set_coa = c_torrent
	}
	else_if = {
		limit = { holder_scope = { dynasty = 10001 } } #Saul
		set_coa = c_saul
	}
	else_if = {
		limit = { holder_scope = { dynasty = 10000 } } #Badics
		set_coa = c_badics
	}
	
	#################
	###Westerlands###
	#################
	else_if = {
		limit = { holder_scope = { dynasty = 190 } }
		if = {
			limit = { holder_scope = { has_character_flag = lannister_baratheon } }
			set_coa = c_lannister_baratheon
		}	
		else_if = {
			limit = { holder_scope = { has_character_flag = lannister_darry } }
			set_coa = c_lannister_darry
		}	
		else_if = {
			limit = { holder_scope = { has_character_flag = lannister_martial } }
			set_coa = c_lannister_martial
		}	
		else_if = {
			limit = { holder_scope = { has_character_flag = lannister_second } }
			set_coa = c_lannister_second
		}	
		else_if = {
			limit = { holder_scope = { has_character_flag = lannister_third } }
			set_coa = c_lannister_third
		}	
		else_if = {
			limit = { holder_scope = { has_character_flag = lannister_fourth } }
			set_coa = c_lannister_fourth
		}	
		else_if = {
			limit = { holder_scope = { has_character_flag = lannister_arryn } }
			set_coa = c_lannister_arryn
		}
		else_if = {
			limit = { holder_scope = { has_character_flag = lannister_baratheon1 } }
			set_coa = c_lannister_baratheon1
		}	
		else_if = {
			limit = { holder_scope = { has_character_flag = lannister_blackfyre } }
			set_coa = c_lannister_blackfyre
		}	
		else_if = {
			limit = { holder_scope = { has_character_flag = lannister_gardener } }
			set_coa = c_lannister_gardener
		}	
		else_if = {
			limit = { holder_scope = { has_character_flag = lannister_greyjoy } }
			set_coa = c_lannister_greyjoy
		}	
		else_if = {
			limit = { holder_scope = { has_character_flag = lannister_hightower } }
			set_coa = c_lannister_hightower
		}	
		else_if = {
			limit = { holder_scope = { has_character_flag = lannister_hoare } }
			set_coa = c_lannister_hoare
		}	
		else_if = {
			limit = { holder_scope = { has_character_flag = lannister_targaryen } }
			set_coa = c_lannister_targaryen
		}	
		else_if = {
			limit = { holder_scope = { has_character_flag = lannister_martell } }
			set_coa = c_lannister_martell
		}	
		else_if = {
			limit = { holder_scope = { has_character_flag = lannister_reyne } }
			set_coa = c_lannister_reyne
		}	
		else_if = {
			limit = { holder_scope = { has_character_flag = lannister_royce } }
			set_coa = c_lannister_royce
		}	
		else_if = {
			limit = { holder_scope = { has_character_flag = lannister_stark } }
			set_coa = c_lannister_stark
		}		
		else_if = {
			limit = { holder_scope = { has_character_flag = lannister_tully } }
			set_coa = c_lannister_tully
		}	
		else_if = {
			limit = { holder_scope = { has_character_flag = lannister_tyrell } }
			set_coa = c_lannister_tyrell
		}	
		else_if = {
			limit = { holder_scope = { has_character_flag = lannister_yronwood } }
			set_coa = c_lannister_yronwood
		}	
		else_if = {
			limit = { holder_scope = { has_character_flag = lannister_velaryon } }
			set_coa = c_lannister_velaryon
		}	
		else = {
			set_coa = c_lannister
		}
	}
	else_if = {
		limit = { holder_scope = { dynasty = 197 } }
		if = {
			limit = { holder_scope = { has_character_flag = reyne_martial } }
			set_coa = c_reyne_martial
		}	
		else_if = {
			limit = { holder_scope = { has_character_flag = reyne_second } }
			set_coa = c_reyne_second
		}	
		else_if = {
			limit = { holder_scope = { has_character_flag = reyne_third } }
			set_coa = c_reyne_third
		}	
		else_if = {
			limit = { holder_scope = { has_character_flag = reyne_fourth } }
			set_coa = c_reyne_fourth
		}	
		else = {
			set_coa = c_reyne #Reyne
		}
	}
	else_if = {
		limit = { holder_scope = { dynasty = 196 } } #Prester
		set_coa = c_prester
	}
	else_if = {
		limit = { holder_scope = { dynasty = 227 } } #Crakehall
		set_coa = c_crakehallcoa
	}
	else_if = {
		limit = { holder_scope = { dynasty = 228 } } #Swyft
		set_coa = c_swyft
	}
	else_if = {
		limit = { holder_scope = { dynasty = 221 } } #Serret
		set_coa = c_serret
	}
	else_if = {
		limit = { holder_scope = { dynasty = 208 } } #Payne
		set_coa = c_payne
	}
	else_if = {
		limit = { holder_scope = { dynasty = 216 } } #Brax
		set_coa = c_brax
	}
	else_if = {
		limit = { holder_scope = { dynasty = 233 } } #Sarsfieldcoa
		set_coa = c_sarsfieldcoa
	}
	else_if = {
		limit = { holder_scope = { dynasty = 199 } } #Westerling
		set_coa = c_westerling
	}
	else_if = {
		limit = { holder_scope = { dynasty = 207 } } #Lorch
		set_coa = c_lorch
	}
	else_if = {
		limit = { holder_scope = { dynasty = 213 } } #Lefford
		set_coa = c_lefford
	}
	else_if = {
		limit = { holder_scope = { dynasty = 230 } } #Clegane
		set_coa = c_clegane
	}
	else_if = {
		limit = { holder_scope = { dynasty = 217 } } #Lydden
		set_coa = c_lydden
	} 
	else_if = {
		limit = { holder_scope = { dynasty = 225 } } #Tarbeck
		set_coa = c_tarbeck
	} 
	else_if = {
		limit = { holder_scope = { dynasty = 200 } } #Banefort
		set_coa = c_banefortcoa
	} 
	else_if = {
		limit = { holder_scope = { dynasty = 212 } } #Marbrand
		set_coa = c_marbrand
	} 
	else_if = {
		limit = { holder_scope = { dynasty = 203 } } #Vikary
		set_coa = c_vikary
	} 	
	else_if = {
		limit = { holder_scope = { dynasty = 192 } } #Spicer
		set_coa = c_spicer
	} 
	else_if = {
		limit = { holder_scope = { dynasty = 193 } } #Hamell
		set_coa = c_hamell
	} 
	else_if = {
		limit = { holder_scope = { dynasty = 194 } } #Farman
		set_coa = c_farman
	} 
	else_if = {
		limit = { holder_scope = { dynasty = 195 } } #Kenning
		set_coa = c_kenning_west
	} 
	else_if = {
		limit = { holder_scope = { dynasty = 198 } } #Drox
		set_coa = c_drox
	} 
	else_if = {
		limit = { holder_scope = { dynasty = 201 } } #Estren
		set_coa = c_estren
	} 
	else_if = {
		limit = { holder_scope = { dynasty = 202 } } #Stackspear
		set_coa = c_stackspear
	} 
	else_if = {
		limit = { holder_scope = { dynasty = 204 } } #Foote
		set_coa = c_foote
	} 
	else_if = {
		limit = { holder_scope = { dynasty = 205 } } #Yarwyck
		set_coa = c_yarwyck
	} 
	else_if = {
		limit = { holder_scope = { dynasty = 206 } } #Bettley
		set_coa = c_bettley
	} 
	else_if = {
		limit = { holder_scope = { dynasty = 209 } } #Moreland
		set_coa = c_moreland_coa
	} 
	else_if = {
		limit = { holder_scope = { dynasty = 210 } } #Ruttiger
		set_coa = c_ruttiger
	} 
	else_if = {
		limit = { holder_scope = { dynasty = 214 } } #Garner
		set_coa = c_garner
	} 
	else_if = {
		limit = { holder_scope = { dynasty = 215 } } #Myatt
		set_coa = c_myatt_coa
	} 
	else_if = {
		limit = { holder_scope = { dynasty = 218 } } #Ferren
		set_coa = c_ferren
	} 
	else_if = {
		limit = { holder_scope = { dynasty = 219 } } #Peckledon
		set_coa = c_peckledon_coa
	} 
	else_if = {
		limit = { holder_scope = { dynasty = 220 } } #Hawthorne
		set_coa = c_hawthorne_coa
	} 
	else_if = {
		limit = { holder_scope = { dynasty = 222 } } #Yew
		set_coa = c_yew
	} 
	else_if = {
		limit = { holder_scope = { dynasty = 223 } } #Jast
		set_coa = c_jast
	} 
	else_if = {
		limit = { holder_scope = { dynasty = 224 } } #Algood
		set_coa = c_algood
	} 
	else_if = {
		limit = { holder_scope = { dynasty = 226 } } #Plumm
		set_coa = c_plumm
	} 
	else_if = {
		limit = { holder_scope = { dynasty = 229 } } #Falwell
		set_coa = c_falwell_coa
	} 
	else_if = {
		limit = { holder_scope = { dynasty = 231 } } #Turnberry
		set_coa = c_turnberry
	} 
	else_if = {
		limit = { holder_scope = { dynasty = 232 } } #Greenfield
		set_coa = c_greenfield_coa
	} 
	else_if = {
		limit = { holder_scope = { dynasty = 2158 } } #Westford
		set_coa = c_westford
	} 
	else_if = {
		limit = { holder_scope = { dynasty = 2159 } } #Sarwyck
		set_coa = c_sarwyck
	} 
	else_if = {
		limit = { holder_scope = { dynasty = 2161 } } #Parren
		set_coa = c_parren
	} 
	else_if = {
		limit = { holder_scope = { dynasty = 174358 } } #Lanster
		set_coa = c_lanster
	} 
	else_if = {
		limit = { holder_scope = { dynasty = 174362 } } #Doggett
		set_coa = c_doggett
	} 
	else_if = {
		limit = { holder_scope = { dynasty = 174406 } } #Casterly
		set_coa = c_casterly
	} 
	else_if = {
		limit = { holder_scope = { dynasty = 174409 } } #Clifton
		set_coa = c_clifton
	} 
	else_if = {
		limit = { holder_scope = { dynasty = 174414 } } #Hetherspoon
		set_coa = c_hetherspoon
	} 
	else_if = {
		limit = { holder_scope = { dynasty = 802043 } } #Lanny
		set_coa = c_lanny
	} 
	else_if = {
		limit = { holder_scope = { dynasty = 802044 } } #Lannett
		set_coa = c_lannett
	} 
	else_if = {
		limit = { holder_scope = { dynasty = 802045 } } #Lantell
		set_coa = c_lantell
	} 
	else_if = {
		limit = { holder_scope = { dynasty = 174830 } } #Ruskyn
		set_coa = c_ruskyn
	} 
	else_if = {
		limit = { holder_scope = { dynasty = 174832 } } #Whitfield
		set_coa = c_whitfield
	} 
	else_if = {
		limit = { holder_scope = { dynasty = 802042 } } #Kyndall
		set_coa = c_kyndall
	} 
	else_if = {
		limit = { holder_scope = { dynasty = 174842 } } #Stilwood
		set_coa = c_stilwood
	} 
	else_if = {
		limit = { holder_scope = { dynasty = 45000156 } } #Graymarch
		set_coa = c_graymarch
	} 
	
	###########
	###Reach###
	###########
	else_if = {
		limit = { holder_scope = { dynasty = 253 } }
		if = {
			limit = { holder_scope = { has_character_flag = tyrell_martial } }
			set_coa = c_tyrell_martial
		}	
		else_if = {
			limit = { holder_scope = { has_character_flag = tyrell_second } }
			set_coa = c_tyrell_second
		}	
		else_if = {
			limit = { holder_scope = { has_character_flag = tyrell_third } }
			set_coa = c_tyrell_third
		}	
		else_if = {
			limit = { holder_scope = { has_character_flag = tyrell_fourth } }
			set_coa = c_tyrell_fourth
		}	
		else_if = {
			limit = { holder_scope = { has_character_flag = tyrell_baratheon } }
			set_coa = c_tyrell_baratheon
		}	
		else_if = {
			limit = { holder_scope = { has_character_flag = tyrell_blackfyre } }
			set_coa = c_tyrell_blackfyre
		}	
		else_if = {
			limit = { holder_scope = { has_character_flag = tyrell_gardener } }
			set_coa = c_tyrell_gardener
		}	
		else_if = {
			limit = { holder_scope = { has_character_flag = tyrell_greyjoy } }
			set_coa = c_tyrell_greyjoy
		}	
		else_if = {
			limit = { holder_scope = { has_character_flag = tyrell_hightower } }
			set_coa = c_tyrell_hightower
		}	
		else_if = {
			limit = { holder_scope = { has_character_flag = tyrell_hoare } }
			set_coa = c_tyrell_hoare
		}	
		else_if = {
			limit = { holder_scope = { has_character_flag = tyrell_lannister } }
			set_coa = c_tyrell_lannister
		}	
		else_if = {
			limit = { holder_scope = { has_character_flag = tyrell_arryn } }
			set_coa = c_tyrell_arryn
		}	
		else_if = {
			limit = { holder_scope = { has_character_flag = tyrell_reyne } }
			set_coa = c_tyrell_reyne
		}	
		else_if = {
			limit = { holder_scope = { has_character_flag = tyrell_royce } }
			set_coa = c_tyrell_royce
		}	
		else_if = {
			limit = { holder_scope = { has_character_flag = tyrell_stark } }
			set_coa = c_tyrell_stark
		}	
		else_if = {
			limit = { holder_scope = { has_character_flag = tyrell_targaryen } }
			set_coa = c_tyrell_targaryen
		}	
		else_if = {
			limit = { holder_scope = { has_character_flag = tyrell_tully } }
			set_coa = c_tyrell_tully
		}	
		else_if = {
			limit = { holder_scope = { has_character_flag = tyrell_martell } }
			set_coa = c_tyrell_martell
		}	
		else_if = {
			limit = { holder_scope = { has_character_flag = tyrell_yronwood } }
			set_coa = c_tyrell_yronwood
		}	
		else_if = {
			limit = { holder_scope = { has_character_flag = tyrell_velaryon } }
			set_coa = c_tyrell_velaryon
		}	
		else = {
			set_coa = c_tyrell
		}
	}
	else_if = {
		limit = { holder_scope = { dynasty = 1254 } }
		if = {
			limit = { holder_scope = { has_character_flag = gardener_martial } }
			set_coa = c_gardener_martial
		}	
		else_if = {
			limit = { holder_scope = { has_character_flag = gardener_second } }
			set_coa = c_gardener_second
		}	
		else_if = {
			limit = { holder_scope = { has_character_flag = gardener_third } }
			set_coa = c_gardener_third
		}	
		else_if = {
			limit = { holder_scope = { has_character_flag = gardener_fourth } }
			set_coa = c_gardener_fourth
		}	
		else = {
			set_coa = c_gardener
		}
	}
	else_if = {
		limit = { holder_scope = { dynasty = 296 } } #Tarly
		set_coa = c_tarly
	}
	else_if = {
		limit = { holder_scope = { dynasty = 285 } } #Hightower
		set_coa = c_hightower
	}
	else_if = {
		limit = { holder_scope = { dynasty = 281 } } #Florent
		set_coa = c_florent
	}
	else_if = {
		limit = { holder_scope = { dynasty = 235 } } #Osgrey
		set_coa = c_osgrey
	} 
	else_if = {
		limit = { holder_scope = { dynasty = 250 } } #Rowan
		set_coa = c_rowan
	}
	else_if = {
		limit = { holder_scope = { dynasty = 298 } } #Peake
		set_coa = c_peake
	}
	else_if = {
		limit = { holder_scope = { dynasty = 270 } } #Meadows
		set_coa = c_meadows
	}
	else_if = {
		limit = { holder_scope = { dynasty = 288 } } #Redwyne
		set_coa = c_redwyne
	}
	else_if = {
		limit = { holder_scope = { dynasty = 261 } } #Fossoway (Red)
		set_coa = c_fossoway
	}
	else_if = {
		limit = { holder_scope = { dynasty = 247 } } #Roxton
		set_coa = c_roxton
	}
	else_if = {
		limit = { holder_scope = { dynasty = 258 } } #Varner
		set_coa = c_varner
	}
	else_if = {
		limit = { holder_scope = { dynasty = 265 } } #Ashford
		set_coa = c_ashfordcoa
	}
	else_if = {
		limit = { holder_scope = { dynasty = 260 } } #Ball
		set_coa = c_ball
	}
	else_if = {
		limit = { holder_scope = { dynasty = 237 } } #Oakheart
		set_coa = c_oakheart
	}
	else_if = {
		limit = { holder_scope = { dynasty = 234 } } #Crane
		set_coa = c_crane
	}
	else_if = {
		limit = { holder_scope = { dynasty = 248 } } #Footly
		set_coa = c_footly
	}
	else_if = {
		limit = { holder_scope = { dynasty = 297 } } #Ambrose
		set_coa = c_ambrose
	}
	else_if = {
		limit = { holder_scope = { dynasty = 263 } } #Merryweather
		set_coa = c_merryweather
	}
	else_if = {
		limit = { holder_scope = { dynasty = 282 } } #Beesbury
		set_coa = c_beesbury
	}
	else_if = {
		limit = { holder_scope = { dynasty = 264 } } #Caswell
		set_coa = c_caswell
	}
	else_if = {
		limit = { holder_scope = { dynasty = 262 } } #Fossoway (Green)
		set_coa = c_fossoway_green
	}
	else_if = {
		limit = { holder_scope = { dynasty = 293 } } #Vyrwel
		set_coa = c_vyrwel
	}
	else_if = {
		limit = { holder_scope = { dynasty = 238 } } #Webber
		set_coa = c_webber
	}
	else_if = {
		limit = { holder_scope = { dynasty = 252 } } #Kidwell
		set_coa = c_kidwell
	}
	else_if = {
		limit = { holder_scope = { dynasty = 246 } } #Shermer
		set_coa = c_shermer
	}
	else_if = {
		limit = { holder_scope = { dynasty = 1333 } } #Lowther
		set_coa = c_lowther
	}	
	else_if = {
		limit = { holder_scope = { dynasty = 244 } } #Wythers
		set_coa = c_wytherscoa
	}
	else_if = {
		limit = { holder_scope = { dynasty = 245 } } #Bushy
		set_coa = c_bushy
	}
	else_if = {
		limit = { holder_scope = { dynasty = 284 } } #Bulwer
		set_coa = c_bulwer
	}
	else_if = {
		limit = { holder_scope = { dynasty = 287 } } #Costayne
		set_coa = c_costayne
	}
	else_if = {
		limit = { holder_scope = { dynasty = 289 } } #Cuy
		set_coa = c_cuy
	}
	else_if = {
		limit = { holder_scope = { dynasty = 283 } } #Blackbar
		set_coa = c_blackbar
	}
	else_if = {
		limit = { holder_scope = { dynasty = 290 } } #Mullendore
		set_coa = c_mullendore
	}
	else_if = {
		limit = { holder_scope = { dynasty = 279 } } #Norcross
		set_coa = c_norcrosscoa
	}
	else_if = {
		limit = { holder_scope = { dynasty = 254 } } #Dunn
		set_coa = c_dunn
	}
	else_if = {
		limit = { holder_scope = { dynasty = 278 } } #Hewett
		set_coa = c_hewett
	}
	else_if = {
		limit = { holder_scope = { dynasty = 277 } } #Chester
		set_coa = c_chester
	}
	else_if = {
		limit = { holder_scope = { dynasty = 276 } } #Serry
		set_coa = c_serry
	}
	else_if = {
		limit = { holder_scope = { dynasty = 275 } } #Grimm
		set_coa = c_grimm
	}
	else_if = {
		limit = { holder_scope = { dynasty = 272 } } #Willum
		set_coa = c_willum
	}
	else_if = {
		limit = { holder_scope = { dynasty = 271 } } #Cockshaw
		set_coa = c_cockshaw
	}
	else_if = {
		limit = { holder_scope = { dynasty = 240 } } #Westbrook
		set_coa = c_westbrookcoa
	}
	else_if = {
		limit = { holder_scope = { dynasty = 267 } } #Hastwyck
		set_coa = c_hastwyckcoa
	}
	else_if = {
		limit = { holder_scope = { dynasty = 266 } } #Appleton
		set_coa = c_appletoncoa
	}
	else_if = {
		limit = { holder_scope = { dynasty = 259 } } #Sloane
		set_coa = c_sloane
	}
	else_if = {
		limit = { holder_scope = { dynasty = 255 } } #Middlebury
		set_coa = c_middleburycoa
	}
	else_if = {
		limit = { holder_scope = { dynasty = 249 } } #Inchfield
		set_coa = c_inchfieldcoa
	}
	else_if = {
		limit = { holder_scope = { dynasty = 292 } } #Hunt
		set_coa = c_hunt 
	}
	else_if = {
		limit = { holder_scope = { dynasty = 295 } } #Oldflowers
		set_coa = c_oldflowers
	}
	else_if = {
		limit = { holder_scope = { dynasty = 257 } } #Yelshire
		set_coa = c_yelshirecoa
	}
	else_if = {
		limit = { holder_scope = { dynasty = 242 } } #Graceford
		set_coa = c_graceford
	}
	else_if = {
		limit = { holder_scope = { dynasty = 256 } } #Orme
		set_coa = c_orme
	}
	else_if = {
		limit = { holder_scope = { dynasty = 294 } } #Cordwayner
		set_coa = c_cordwayner
	}
	else_if = {
		limit = { holder_scope = { dynasty = 299 } } #Leygood
		set_coa = c_leygood
	}
	else_if = {
		limit = { holder_scope = { dynasty = 268 } } #Bridges
		set_coa = c_bridges
	}
	else_if = {
		limit = { holder_scope = { dynasty = 269 } } #Norridge
		set_coa = c_norridge
	}
	else_if = {
		limit = { holder_scope = { dynasty = 251 } } #Lyberr
		set_coa = c_lyberr
	}
	else_if = {
		limit = { holder_scope = { dynasty = 291 } } #Hutcheson
		set_coa = c_hutcheson
	}
	else_if = {
		limit = { holder_scope = { dynasty = 280 } } #Graves
		set_coa = c_graves
	}
	else_if = {
		limit = { holder_scope = { dynasty = 241 } } #Uffering
		set_coa = c_uffering
	}
	else_if = {
		limit = { holder_scope = { dynasty = 274 } } #Pommingham
		set_coa = c_pommingham
	}
	else_if = {
		limit = { holder_scope = { dynasty = 243 } } #Redding
		set_coa = c_redding
	}
	else_if = {
		limit = { holder_scope = { dynasty = 1425 } } #Risley
		set_coa = c_risley
	}
	else_if = {
		limit = { holder_scope = { dynasty = 1423 } } #Rhysling
		set_coa = c_rhysling
	}
	else_if = {
		limit = { holder_scope = { dynasty = 239 } } #Woodwright
		set_coa = c_woodwright
	}
	else_if = {
		limit = { holder_scope = { dynasty = 236 } } #Durwell
		set_coa = c_durwell
	}
	else_if = {
		limit = { holder_scope = { dynasty = 286 } } #Conklyn
		set_coa = c_conklyn
	}
	else_if = {
		limit = { holder_scope = { dynasty = 1201 } } #Cupps
		set_coa = c_cupps
	}
	else_if = {
		limit = { holder_scope = { dynasty = 1427 } } #Goldwyne
		set_coa = c_goldwyne
	}
	else_if = {
		limit = { holder_scope = { dynasty = 1471 } } #Stackhouse
		set_coa = c_stackhouse
	}
	else_if = {
		limit = { holder_scope = { dynasty = 174425 } } #Farrow
		set_coa = c_farrow
	}
	else_if = {
		limit = { holder_scope = { dynasty = 174426 } } #Penny
		set_coa = c_penny
	}
	else_if = {
		limit = { holder_scope = { dynasty = 174427 } } #Potter
		set_coa = c_potter
	}
	else_if = {
		limit = { holder_scope = { dynasty = 174428 } } #Sawyer
		set_coa = c_sawyer
	}
	else_if = {
		limit = { holder_scope = { dynasty = 174833 } } #Cobb
		set_coa = c_cobb
	}
	else_if = {
		limit = { holder_scope = { dynasty = 1476 } } #Rodden
		set_coa = c_rodden
	}
	else_if = {
		limit = { holder_scope = { dynasty = 1477 } } #Weatherwax
		set_coa = c_weatherwax
	}
	else_if = {
		limit = { holder_scope = { dynasty = 1478 } } #Whitewater
		set_coa = c_whitewater
	}
	else_if = {
		limit = { holder_scope = { dynasty = 1489 } } #Summerchild
		set_coa = c_summerchild
	}
	else_if = {
		limit = { holder_scope = { dynasty = 450001 } } #Knuckey
		set_coa = c_knuckey
	}
	else_if = {
		limit = { holder_scope = { dynasty = 45000170 } } #Pandred
		set_coa = c_pandred
	}
	else_if = {
		limit = { holder_scope = { dynasty = 4500001 } } #Clohessy
		set_coa = c_clohessy
	}
	else_if = {
		limit = { holder_scope = { dynasty = 4500002 } } #Foxheart
		set_coa = c_foxheart
	}
	else_if = {
		limit = { holder_scope = { dynasty = 982383 } } #Loch
		set_coa = c_loch
	}
	else_if = {
		limit = { holder_scope = { dynasty = 982375 } } #Vunatis
		set_coa = c_vunatis
	}
	else_if = {
		limit = { holder_scope = { dynasty = 206017 } } #Greenhill
		set_coa = c_greenhill
	}
	###Stormlands###
	else_if = {
		limit = { holder_scope = { dynasty = 317 } }
		if = {
			limit = { holder_scope = { has_character_flag = lannister_baratheon } }
			set_coa = c_lannister_baratheon
		}	
		else_if = {
			limit = { holder_scope = { religion = rhllor } }
			set_coa = c_baratheon_rhllor
		}	
		else_if = {
			limit = { holder_scope = { has_character_flag = baratheon_martial } }
			set_coa = c_baratheon_martial
		}	
		else_if = {
			limit = { holder_scope = { has_character_flag = baratheon_second } }
			set_coa = c_baratheon_second
		}	
		else_if = {
			limit = { holder_scope = { has_character_flag = baratheon_third } }
			set_coa = c_baratheon_third
		}	
		else_if = {
			limit = { holder_scope = { has_character_flag = baratheon_fourth } }
			set_coa = c_baratheon_fourth
		}	
		else_if = {
			limit = { holder_scope = { has_character_flag = baratheon_arryn } }
			set_coa = c_baratheon_arryn
		}
		else_if = {
			limit = { holder_scope = { has_character_flag = baratheon_lannister } }
			set_coa = c_baratheon_lannister
		}	
		else_if = {
			limit = { holder_scope = { has_character_flag = baratheon_blackfyre } }
			set_coa = c_baratheon_blackfyre
		}	
		else_if = {
			limit = { holder_scope = { has_character_flag = baratheon_gardener } }
			set_coa = c_baratheon_gardener
		}	
		else_if = {
			limit = { holder_scope = { has_character_flag = baratheon_greyjoy } }
			set_coa = c_baratheon_greyjoy
		}	
		else_if = {
			limit = { holder_scope = { has_character_flag = baratheon_hightower } }
			set_coa = c_baratheon_hightower
		}	
		else_if = {
			limit = { holder_scope = { has_character_flag = baratheon_hoare } }
			set_coa = c_baratheon_hoare
		}	
		else_if = {
			limit = { holder_scope = { has_character_flag = baratheon_targaryen } }
			set_coa = c_baratheon_targaryen
		}	
		else_if = {
			limit = { holder_scope = { has_character_flag = baratheon_martell } }
			set_coa = c_baratheon_martell
		}	
		else_if = {
			limit = { holder_scope = { has_character_flag = baratheon_reyne } }
			set_coa = c_baratheon_reyne
		}	
		else_if = {
			limit = { holder_scope = { has_character_flag = baratheon_royce } }
			set_coa = c_baratheon_royce
		}	
		else_if = {
			limit = { holder_scope = { has_character_flag = baratheon_stark } }
			set_coa = c_baratheon_stark
		}		
		else_if = {
			limit = { holder_scope = { has_character_flag = baratheon_tully } }
			set_coa = c_baratheon_tully
		}	
		else_if = {
			limit = { holder_scope = { has_character_flag = baratheon_tyrell } }
			set_coa = c_baratheon_tyrell
		}	
		else_if = {
			limit = { holder_scope = { has_character_flag = baratheon_yronwood } }
			set_coa = c_baratheon_yronwood
		}	
		else_if = {
			limit = { holder_scope = { has_character_flag = baratheon_velaryon } }
			set_coa = c_baratheon_velaryon
		}	
		else = {
			set_coa = c_baratheon
		}
	}
	else_if = {
		limit = { holder_scope = { dynasty = 498 } }
		set_coa = c_baratheon_old #Baratheon (pre stormlands)
	}
	else_if = {
		limit = { holder_scope = { dynasty = 1544 } }
		if = {
			limit = { holder_scope = { religion = rhllor } }
			set_coa = c_baratheon_rhllor
		}	
		else_if = {
			limit = { holder_scope = { has_character_flag = baratheon_martial } }
			set_coa = c_baratheon_martial
		}	
		else_if = {
			limit = { holder_scope = { has_character_flag = baratheon_second } }
			set_coa = c_baratheon_second
		}	
		else_if = {
			limit = { holder_scope = { has_character_flag = baratheon_third } }
			set_coa = c_baratheon_third
		}	
		else_if = {
			limit = { holder_scope = { has_character_flag = baratheon_fourth } }
			set_coa = c_baratheon_fourth
		}	
		else = {
			set_coa = c_baratheon
		}
	}
	else_if = {
		   limit = { holder_scope = { dynasty = 316 } }
		   set_coa = c_connington #Connington
	}
	 else_if = {
		limit = { holder_scope = { dynasty = 330 } }
		set_coa = c_estermontcoa #Estermont
	}
	else_if = {
		limit = { holder_scope = { dynasty = 329 } }
		set_coa = c_wylde #Wylde
	}
	else_if = {
		limit = { holder_scope = { dynasty = 306 } }
		set_coa = c_swann #Swann
	}
	else_if = {
		limit = { holder_scope = { dynasty = 307 } }
		set_coa = c_toyne #Toyne
	}
	else_if = {
		limit = { holder_scope = { dynasty = 319 } }
		set_coa = c_buckler #Buckler
	}
	else_if = {
		limit = { holder_scope = { dynasty = 54 } }
		set_coa = c_tarthcoa #Tarth
	}
	else_if = {
		limit = { holder_scope = { dynasty = 303 } }
		set_coa = c_dondarrion #Dondarrion
	}
	else_if = {
		limit = { holder_scope = { dynasty = 301 } }
		set_coa = c_caron #Caron
	}
	else_if = {
		limit = { holder_scope = { dynasty = 9110 } }
		set_coa = c_seaworth #Seaworth
	}
	else_if = {
		limit = { holder_scope = { dynasty = 302 } }
		set_coa = c_selmy #Selmy
	}
	else_if = {
		limit = { holder_scope = { dynasty = 304 } }
		set_coa = c_trant #Trant
	}
	else_if = {
		limit = { holder_scope = { dynasty = 321 } }
		set_coa = c_morrigen #Morrigen
	}
	else_if = {
		limit = { holder_scope = { dynasty = 327 } }
		set_coa = c_mertyns #Mertyns
	}
	else_if = {
		limit = { holder_scope = { dynasty = 322 } }
		set_coa = c_rogers #Rogers
	}
	else_if = {
		limit = { holder_scope = { dynasty = 311 } }
		set_coa = c_horpe #Horpe
	}
	else_if = {
		limit = { holder_scope = { dynasty = 320 } }
		set_coa = c_penrose #Penrose
	}
	else_if = {
		limit = { holder_scope = { dynasty = 1007 } } #Cole
		set_coa = c_cole
	}
	
	else_if = {
		limit = { holder_scope = { dynasty = 362 } } #Musgood
		set_coa = c_musgood
	}
	else_if = {
		limit = { holder_scope = { dynasty = 361 } } #Swygert
		set_coa = c_swygert
	}
	else_if = {
		limit = { holder_scope = { dynasty = 354 } } #Wagstaff
		set_coa = c_wagstaff
	}
	else_if = {
		limit = { holder_scope = { dynasty = 333 } } #Wensington
		set_coa = c_wensington
	}
	else_if = {
		limit = { holder_scope = { dynasty = 332 } } #Bolling
		set_coa = c_bolling
	}
	else_if = {
		limit = { holder_scope = { dynasty = 331 } } #Rambton
		set_coa = c_rambton
	}
	else_if = {
		limit = { holder_scope = { dynasty = 328 } } #Kellington
		set_coa = c_kellington
	}
	else_if = {
		limit = { holder_scope = { dynasty = 326 } } #Gower
		set_coa = c_gower
	}
	else_if = {
		limit = { holder_scope = { dynasty = 325 } } #Tudbury
		set_coa = c_tudbury
	}
	else_if = {
		limit = { holder_scope = { dynasty = 324 } } #Herston
		set_coa = c_herston
	}
	else_if = {
		limit = { holder_scope = { dynasty = 323 } } #Staedmon
		set_coa = c_staedmon
	}
	else_if = {
		limit = { holder_scope = { dynasty = 318 } } #Errol
		set_coa = c_errol
	}
	else_if = {
		limit = { holder_scope = { dynasty = 313 } } #Fell
		set_coa = c_fell
	}
	else_if = {
		limit = { holder_scope = { dynasty = 312 } } #Hasty
		set_coa = c_hasty
	}
	else_if = {
		limit = { holder_scope = { dynasty = 310 } } #Cafferen
		set_coa = c_cafferen
	}
	else_if = {
		limit = { holder_scope = { dynasty = 308 } } #Grandison
		set_coa = c_grandison
	}
	else_if = {
		limit = { holder_scope = { dynasty = 305 } } #Lonmouth
		set_coa = c_lonmouthcoa
	}
	else_if = {
		limit = { holder_scope = { dynasty = 273 } } #Peasebury
		set_coa = c_peasebury
	}
	else_if = {
		limit = { holder_scope = { dynasty = 881808 } } #Brownhill
		set_coa = c_brownhill
	}
	else_if = {
		limit = { holder_scope = { dynasty = 805046 } } #Whitehead
		set_coa = c_whitehead
	}
	else_if = {
		limit = { holder_scope = { dynasty = 65100 } } #King's Mountain
		set_coa = c_kings_mountain
	}
	else_if = {
		limit = { holder_scope = { dynasty = 174436 } } #Greenpools
		set_coa = c_greenpools
	}
	
	###Dorne###
	else_if = {
		limit = { holder_scope = { dynasty = 1 } }
		if = {
			limit = { holder_scope = { has_character_flag = martell_martial } }
			set_coa = c_martell_martial
		}	
		else_if = {
			limit = { holder_scope = { has_character_flag = martell_second } }
			set_coa = c_martell_second
		}	
		else_if = {
			limit = { holder_scope = { has_character_flag = martell_third } }
			set_coa = c_martell_third
		}	
		else_if = {
			limit = { holder_scope = { has_character_flag = martell_fourth } }
			set_coa = c_martell_fourth
		}	
		else_if = {
			limit = { holder_scope = { has_character_flag = martell_baratheon } }
			set_coa = c_martell_baratheon
		}	
		else_if = {
			limit = { holder_scope = { has_character_flag = martell_blackfyre } }
			set_coa = c_martell_blackfyre
		}	
		else_if = {
			limit = { holder_scope = { has_character_flag = martell_gardener } }
			set_coa = c_martell_gardener
		}	
		else_if = {
			limit = { holder_scope = { has_character_flag = martell_greyjoy } }
			set_coa = c_martell_greyjoy
		}	
		else_if = {
			limit = { holder_scope = { has_character_flag = martell_hightower } }
			set_coa = c_martell_hightower
		}	
		else_if = {
			limit = { holder_scope = { has_character_flag = martell_hoare } }
			set_coa = c_martell_hoare
		}	
		else_if = {
			limit = { holder_scope = { has_character_flag = martell_lannister } }
			set_coa = c_martell_lannister
		}	
		else_if = {
			limit = { holder_scope = { has_character_flag = martell_arryn } }
			set_coa = c_martell_arryn
		}	
		else_if = {
			limit = { holder_scope = { has_character_flag = martell_reyne } }
			set_coa = c_martell_reyne
		}	
		else_if = {
			limit = { holder_scope = { has_character_flag = martell_royce } }
			set_coa = c_martell_royce
		}	
		else_if = {
			limit = { holder_scope = { has_character_flag = martell_stark } }
			set_coa = c_martell_stark
		}	
		else_if = {
			limit = { holder_scope = { has_character_flag = martell_targaryen } }
			set_coa = c_martell_targaryen
		}	
		else_if = {
			limit = { holder_scope = { has_character_flag = martell_tully } }
			set_coa = c_martell_tully
		}	
		else_if = {
			limit = { holder_scope = { has_character_flag = martell_tyrell } }
			set_coa = c_martell_tyrell
		}	
		else_if = {
			limit = { holder_scope = { has_character_flag = martell_yronwood } }
			set_coa = c_martell_yronwood
		}	
		else_if = {
			limit = { holder_scope = { has_character_flag = martell_velaryon } }
			set_coa = c_martell_velaryon
		}	
		else = {
			set_coa = c_martell
		}
	}
	else_if = {
		limit = { holder_scope = { dynasty = 16 } } #Dayne
		set_coa = c_dayne
	}
	else_if = {
		limit = { holder_scope = { dynasty = 14 } } #Fowler
		set_coa = c_fowler
	}
	else_if = {
		limit = { holder_scope = { dynasty = 12 } } #Yronwood
		set_coa = c_yronwoodcoa
	}
	else_if = {
		limit = { holder_scope = { dynasty = 13 } } #Uller
		set_coa = c_uller
	}
	else_if = {
		limit = { holder_scope = { dynasty = 10 } } #Jordayne
		set_coa = c_jordayne
	}
	else_if = {
		limit = { holder_scope = { dynasty = 9 } } #Allyrion
		set_coa = c_allyrion
	}
	else_if = {
		limit = { holder_scope = { dynasty = 15 } } #Qorgyle
		set_coa = c_qorgyle
	}
	else_if = {
		limit = { holder_scope = { dynasty = 18 } } #Blackmont
		set_coa = c_blackmontcoa
	}
	else_if = {
		limit = { holder_scope = { dynasty = 20 } } #Manwoody
		set_coa = c_manwoody
	}
	else_if = {
		limit = { holder_scope = { dynasty = 4 } } #Toland
		set_coa = c_toland
	}
	
	else_if = {
		limit = { holder_scope = { dynasty = 499 } } #Toland
		set_coa = c_toland_old
	}
	else_if = {
		limit = { holder_scope = { dynasty = 2 } } #Santagar
		set_coa = c_santagar
	}
	else_if = {
		limit = { holder_scope = { dynasty = 6 } } #Dalt
		set_coa = c_dalt
	}
	else_if = {
		limit = { holder_scope = { dynasty = 7 } } #Gargalen
		set_coa = c_gargalen
	}
	else_if = {
		limit = { holder_scope = { dynasty = 8 } } #Vaith
		set_coa = c_vaithcoa
	}
	else_if = {
		limit = { holder_scope = { dynasty = 19 } } #Wyl
		set_coa = c_wylcoa
	}
	
	###Iron Islands###
	else_if = {
		limit = { holder_scope = { dynasty = 107 } }
		if = {
			limit = { holder_scope = { has_character_flag = greyjoy_martial } }
			set_coa = c_greyjoy_martial
		}	
		else_if = {
			limit = { holder_scope = { has_character_flag = greyjoy_second } }
			set_coa = c_greyjoy_second
		}	
		else_if = {
			limit = { holder_scope = { has_character_flag = greyjoy_third } }
			set_coa = c_greyjoy_third
		}	
		else_if = {
			limit = { holder_scope = { has_character_flag = greyjoy_fourth } }
			set_coa = c_greyjoy_fourth
		}	
		else = {
			set_coa = c_greyjoy
		}
	}
	else_if = {
		limit = { holder_scope = { dynasty = 66 } }
		if = {
			limit = { holder_scope = { has_character_flag = hoare_martial } }
			set_coa = c_hoare_martial
		}
		else = {
			set_coa = c_hoare
		}
	}
	else_if = {
		limit = { holder_scope = { dynasty = 110 } }
		set_coa = c_merlyn #Merlyn
	}
	else_if = {
		limit = { holder_scope = { dynasty = 120 } }
		set_coa = c_stonetreecoa #Stonetree
	}
	else_if = {
		limit = { holder_scope = { dynasty = 116 } }
		set_coa = c_orkwood #Orkwood
	}
	else_if = {
		limit = { holder_scope = { dynasty = 118 } }
		set_coa = c_blacktyde #Blacktyde
	}
	else_if = {
		limit = { holder_scope = { dynasty = 1506 } }
		set_coa = c_humble #Humble
	}
	else_if = {
		limit = { holder_scope = { dynasty = 1507 } }
		set_coa = c_codd #Codd
	}
	else_if = {
		limit = { holder_scope = { dynasty = 1508 } }
		set_coa = c_greyiron #Greyiron
	}
	else_if = {
		limit = { holder_scope = { dynasty = 122 } }
		set_coa = c_harlaw
	}
	else_if = {
		limit = { holder_scope = { dynasty = 112 } }
		set_coa = c_goodbrother
	}
	else_if = {
		limit = { holder_scope = { dynasty = 121 } }
		set_coa = c_drumm
	}
	else_if = {
		limit = { holder_scope = { dynasty = 114 } }
		set_coa = c_farwynd
	}
	else_if = {
		limit = { holder_scope = { dynasty = 119 } }
		set_coa = c_volmarkcoa
	}
	else_if = {
		limit = { holder_scope = { dynasty = 109 } }
		set_coa = c_saltcliffecoa
	}
	else_if = {
		limit = { holder_scope = { dynasty = 64 } }
		set_coa = c_botley
	}
	else_if = {
		limit = { holder_scope = { dynasty = 67} }
		set_coa = c_wynch
	}
	else_if = {
		limit = { holder_scope = { dynasty = 108 } }
		set_coa = c_stonehouse
	}
	else_if = {
		limit = { holder_scope = { dynasty = 111 } }
		set_coa = c_myre
	}
	else_if = {
		limit = { holder_scope = { dynasty = 113 } }
		set_coa = c_sparr
	}
	else_if = {
		limit = { holder_scope = { dynasty = 115 } }
		set_coa = c_kenning
	}
	else_if = {
		limit = { holder_scope = { dynasty = 117 } }
		set_coa = c_sunderly
	}
	else_if = {
		limit = { holder_scope = { dynasty = 123 } }
		set_coa = c_tawney
	}
	else_if = {
		limit = { holder_scope = { dynasty = 124 } }
		set_coa = c_shepherd
	}
	else_if = {
		limit = { holder_scope = { dynasty = 1503 } }
		set_coa = c_netley
	}
	else_if = {
		limit = { holder_scope = { dynasty = 1504 } }
		set_coa = c_sharp
	}
	else_if = {
		limit = { holder_scope = { dynasty = 1505 } }
		set_coa = c_weaver
	}
	else_if = {
		limit = { holder_scope = { dynasty = 1500 } }
		set_coa = c_ironmaker
	}
	else_if = {
		limit = { holder_scope = { dynasty = 1490 } }
		set_coa = c_salt
	}
	else_if = {
		limit = { holder_scope = { dynasty = 1501 } }
		set_coa = c_stern
	}
	
	###########
	###Essos###
	###########
	else_if = {
		limit = { holder_scope = { dynasty = 10002 } } #Back
		set_coa = c_back
	}
	
	###Cadet###
	else_if = {
		limit = { holder_scope = { dynasty = 450204 } }
		set_coa = c_redwyrm #Redwyrm
	}
	else_if = {
		limit = { holder_scope = { dynasty = 450205 } }
		set_coa = c_truedrake #Truedrake
	}
	else_if = {
		limit = { holder_scope = { dynasty = 450206 } }
		set_coa = c_fyreblood #Fyreblood
	}
	else_if = {
		limit = { holder_scope = { dynasty = 450207 } }
		set_coa = c_goldfyre #Goldfyre
	} 	
	else_if = {
		limit = { holder_scope = { dynasty = 450228 } }
		set_coa = c_bloodrose #Bloodrose
	}
	else_if = {
		limit = { holder_scope = { dynasty = 450229 } }
		set_coa = c_blackrose #Blackrose
	}
	else_if = {
		limit = { holder_scope = { dynasty = 450230 } }
		set_coa = c_smallrose #Smallrose
	}
	else_if = {
		limit = { holder_scope = { dynasty = 450231 } }
		set_coa = c_greenrose #Greenrose
	}
	else_if = {
		limit = { holder_scope = { dynasty = 450200 } }
		set_coa = c_whitewolf #Whitewolf
	}
	else_if = {
		limit = { holder_scope = { dynasty = 450201 } }
		set_coa = c_goldfang #Goldfang
	}
	else_if = {
		limit = { holder_scope = { dynasty = 450202 } }
		set_coa = c_dreadwolf #Dreadwolf
	}
	else_if = {
		limit = { holder_scope = { dynasty = 450203 } }
		set_coa = c_winterhold #Winterhold
	}
	else_if = {
		limit = { holder_scope = { dynasty = 450209 } }
		set_coa = c_redclaw
	}
	else_if = {
		limit = { holder_scope = { dynasty = 450210 } }
		set_coa = c_roaring
	}
	else_if = {
		limit = { holder_scope = { dynasty = 450211 } }
		set_coa = c_lionford
	}
	else_if = {
		limit = { holder_scope = { dynasty = 450208 } }
		set_coa = c_silvermane #Silvermane
	}
	else_if = {
		limit = { holder_scope = { dynasty = 450212 } }
		set_coa = c_darksun #Darksun
	}
	else_if = {
		limit = { holder_scope = { dynasty = 450213 } }
		set_coa = c_sunviper #Sunviper
	}
	else_if = {
		limit = { holder_scope = { dynasty = 450214 } }
		set_coa = c_blackadder #Blackadder
	}
	else_if = {
		limit = { holder_scope = { dynasty = 450215 } }
		set_coa = c_snakespear #Snakespear
	}
	else_if = {
		limit = { holder_scope = { dynasty = 450216 } }
		set_coa = c_redriver #Redriver
	}
	else_if = {
		limit = { holder_scope = { dynasty = 450217 } }
		set_coa = c_darkfish #Darkfish
	}
	else_if = {
		limit = { holder_scope = { dynasty = 450218 } }
		set_coa = c_goldfish #Goldfish
	}
	else_if = {
		limit = { holder_scope = { dynasty = 450219 } }
		set_coa = c_steeltrout #Steeltrout
	}
	else_if = {
		limit = { holder_scope = { dynasty = 450236 } }
		set_coa = c_twinchild
	}
	else_if = {
		limit = { holder_scope = { dynasty = 450237 } }
		set_coa = c_goldcross
	}
	else_if = {
		limit = { holder_scope = { dynasty = 450238 } }
		set_coa = c_tollbridge
	}
	else_if = {
		limit = { holder_scope = { dynasty = 450239 } }
		set_coa = c_northbridge
	}	
	else_if = {
		limit = { holder_scope = { dynasty = 450220 } }
		set_coa = c_redwing #Redwing
	}
	else_if = {
		limit = { holder_scope = { dynasty = 450221 } }
		set_coa = c_kestrel #Kestrel
	}
	else_if = {
		limit = { holder_scope = { dynasty = 450222 } }
		set_coa = c_bluebird #Bluebird
	}
	else_if = {
		limit = { holder_scope = { dynasty = 450223 } }
		set_coa = c_skywarden #Skywarden
	}
	else_if = {
		limit = { holder_scope = { dynasty = 450224 } }
		set_coa = c_stagborn #Stagborn
	}
	else_if = {
		limit = { holder_scope = { dynasty = 450225 } }
		set_coa = c_stormhart #Stormhart
	}
	else_if = {
		limit = { holder_scope = { dynasty = 450226 } }
		set_coa = c_durrande #Durrande
	}
	else_if = {
		limit = { holder_scope = { dynasty = 450227 } }
		set_coa = c_deer #Deer
	}
	else_if = {
		limit = { holder_scope = { dynasty = 450232 } }
		set_coa = c_silverink #Silverink
	}
	else_if = {
		limit = { holder_scope = { dynasty = 450233 } }
		set_coa = c_redjoy #Redjoy
	}
	else_if = {
		limit = { holder_scope = { dynasty = 450234 } }
		set_coa = c_ironkraken #Ironkraken
	}
	else_if = {
		limit = { holder_scope = { dynasty = 450235 } }
		set_coa = c_hardman #Hardman
	}
	else_if = {
		limit = { holder_scope = { dynasty = 496029 } }
		set_coa = e_aurions_host #Varezys
	}
	###More Bloodlines###
	else_if = {
		   limit = { holder_scope = { dynasty = 174347 } }
		   set_coa = c_mance_rayder
	}
	else_if = {
		   limit = { holder_scope = { dynasty = 174348 } }
		   set_coa = c_kingsblood
	}
	else_if = {
		   limit = { holder_scope = { dynasty = 174344 } }
		   set_coa = c_old_thenn
	}
	else_if = {
		   limit = { holder_scope = { dynasty = 1062 } }
		   set_coa = c_brown_fossoway
	}
	else_if = {
		   limit = { holder_scope = { dynasty = 174345 } }
		   set_coa = c_tormund
	}	
	else_if = {
		   limit = { holder_scope = { dynasty = 1771 } }
		   set_coa = c_saerys
	}	
	else_if = {
		   limit = { holder_scope = { dynasty = 1772 } }
		   set_coa = c_saerynar
	}	
	else_if = {
		   limit = { holder_scope = { dynasty = 1773 } }
		   set_coa = c_saerystos
	}	
	else_if = {
		   limit = { holder_scope = { dynasty = 1071 } }
		   set_coa = c_rainhill
	}	
	else_if = {
		   limit = { holder_scope = { dynasty = 1072 } }
		   set_coa = c_hillbeck
	}
	else_if = {
		   limit = { holder_scope = { dynasty = 1073 } }
		   set_coa = c_fireball
	}	
	else_if = {
		   limit = { holder_scope = { dynasty = 1074 } }
		   set_coa = c_stonehind
	}
	else_if = {
		   limit = { holder_scope = { dynasty = 1075 } }
		   set_coa = c_stonebell
	}
	else_if = {
		   limit = { holder_scope = { dynasty = 1076 } }
		   set_coa = c_bullhart
	}
	else_if = {
		   limit = { holder_scope = { dynasty = 1077 } }
		   set_coa = c_robhart
	}
	else_if = {
		   limit = { holder_scope = { dynasty = 1078 } }
		   set_coa = c_goldstag
	}
	else_if = {
		   limit = { holder_scope = { dynasty = 1079 } }
		   set_coa = c_goldstag
	}
	else_if = {
		   limit = { holder_scope = { dynasty = 1080 } }
		   set_coa = c_seastag
	}
	else_if = {
		   limit = { holder_scope = { dynasty = 1081 } }
		   set_coa = c_stormhaven
	}
	else_if = {
		   limit = { holder_scope = { dynasty = 1082 } }
		   set_coa = c_hartford
	}
	else_if = {
		   limit = { holder_scope = { dynasty = 1083 } }
		   set_coa = c_coldhart
	}
	else_if = {
		   limit = { holder_scope = { dynasty = 1084 } }
		   set_coa = c_redfawn
	}
	else_if = {
		   limit = { holder_scope = { dynasty = 1085 } }
		   set_coa = c_baarthreen
	}
	else_if = {
		   limit = { holder_scope = { dynasty = 1086 } }
		   set_coa = c_stagsby
	}
	else_if = {
		   limit = { holder_scope = { dynasty = 1087 } }
		   set_coa = c_darkhart
	}
	else_if = {
		   limit = { holder_scope = { dynasty = 1088 } }
		   set_coa = c_warfield
	}
	else_if = {
		   limit = { holder_scope = { dynasty = 19993 } }
		   set_coa = c_royce_moon
	}
	else_if = {
		   limit = { holder_scope = { dynasty = 18872 } }
		   set_coa = c_arryn_fingers
	}
	else_if = {
		   limit = { holder_scope = { dynasty = 18873 } }
		   set_coa = c_arryn_eastwald
	}
	else_if = {
		   limit = { holder_scope = { dynasty = 18874 } }
		   set_coa = c_barstark
	}
	else_if = {
		   limit = { holder_scope = { dynasty = 18875 } }
		   set_coa = c_harstark
	}
	else_if = {
		   limit = { holder_scope = { dynasty = 18876 } }
		   set_coa = c_flint_breakstone_hill
	}
	else_if = {
		   limit = { holder_scope = { dynasty = 18877 } }
		   set_coa = c_flint_widows_watch
	}
	else_if = {
		   limit = { holder_scope = { dynasty = 18878 } }
		   set_coa = c_targaryen_bloodraven
	}
	else_if = {
		   limit = { holder_scope = { dynasty = 18879 } }
		   set_coa = c_targaryen_seastar
	}
	
	#CO Drace
	else_if = {
		   limit = { holder_scope = { dynasty = 5700145 } }
		   set_coa = c_drace
	}
}