father_fos;Dedicated to the Father;;;;;;;;;;;;;x
father_fos_desc;This character directs most of their prayers to the Father, the aspect of justice and benevolent rule.;;;;;;;;;;;;;x
mother_fos;Dedicated to the Mother;;;;;;;;;;;;;x
mother_fos_desc;This character directs most of their prayers to the Mother, the aspect of motherhood, compassion, and fertility.;;;;;;;;;;;;;x
warrior_fos;Dedicated to the Warrior;;;;;;;;;;;;;x
warrior_fos_desc;This character directs most of their prayers to the Warrior, the aspect of strength in battle, courage, and victory.;;;;;;;;;;;;;x
crone_fos;Dedicated to the Crone;;;;;;;;;;;;x
crone_fos_desc;This character directs most of their prayers to the Crone, the aspect of wisdom and good guidance.;;;;;;;;;;;;;x
smith_fos;Dedicated to the Smith;;;;;;;;;;;;x
smith_fos_desc;This character directs most of their prayers to the Smith, the aspect of work, crafts, and labour.;;;;;;;;;;;;;x
maiden_fos;Dedicated to the Maiden;;;;;;;;;;;;x
maiden_fos_desc;This character directs most of their prayers to the Maiden, the aspect of innocence and chastity.;;;;;;;;;;;;;x
stranger_fos;Dedicated to the Stranger;;;;;;;;;;;;x
stranger_fos_desc;This character directs most of their prayers to the Stranger, the dark aspect of death and the unknown, who leads the dead to the other world.;;;;;;;;;;;;;x

emperor_yiti;Dedicated to the Emperors;;;;;;;;;;;;;x
emperor_yiti_desc;This character directs most of their prayers to the spirits of the God-Emperors of YiTi, the heirs to the God-on-Earth, who may alone wear the traditional gowns of cloth-of-gold, green pearls, and jade. The divine spirits of the Emperors are said to grant diligence and benevolent rule.;;;;;;;;;;;;;x
lionofnight_yiti;Dedicated to the Lion of Night;;;;;;;;;;;;;x
lionofnight_yiti_desc;This character directs most of their prayers to the Lion of Night, the father of the God-on-Earth and the god of death and divine retribution.;;;;;;;;;;;;;x
maidenmadeoflight_yiti;Dedicated to the Maiden-Made-of-Light;;;;;;;;;;;;;x
maidenmadeoflight_yiti_desc;This character directs most of their prayers to the Maiden-Made-of-Light, the goddess of the sun, and mother of the God-on-Earth, who hid her face from the world after the Blood Betrayal and plunging the world into the Long Night which only ended once she returned.;;;;;;;;;;;;;x
monkeytailedwoman_yiti;Dedicated to the Monkey Tailed Woman;;;;;;;;;;;;;x
monkeytailedwoman_yiti_desc;This character directs most of their prayers to the Woman with the Monkey's Tail, who through her actions persuaded the Maiden-Made-of-Light to return light to the world and averted the disaster of the Long Night.;;;;;;;;;;;;;x

eunuch_emperor_yiti;Eunuch Emperor;;;;;;;;;;;;;x
eunuch_emperor_yiti_desc;Upon his ascent to the throne of YiTi, this character has chose to surrender his manhood, root and stem, so that he might devote himself entirely to the service of the Empire.;;;;;;;;;;;;;x
not_eunuch_emperor_yiti;False Eunuch Emperor;;;;;;;;;;;;;x
not_eunuch_emperor_yiti_desc;Upon his ascent to the throne of YiTi, this character has chose not to surrender his manhood, in defiance of the traditions of his dynasty. Many consider this a grave offense to his ancestors and the Gods and, despising him for it, may seek to force him to comply with the sacred oath of his ancestor.;;;;;;;;;;;;;x
god_emperor_yiti;Living God Emperor;;;;;;;;;;;;;x
god_emperor_yiti_desc;All emperors of the Golden Empire of YiTi are held to be divine beings, heir to the God-on-Earth, son of the Lion of Night and the Maiden-Made-of-Light. This character has particularly embraced his duties as a living god and frequently leads ceremonies proclaiming his divinity.;;;;;;;;;;;;;x


bureaucrat_yiti;Imperial Bureaucrat;;;;;;;;;;;;;x
bureaucrat_yiti_desc;This character has distinguished himself in the gruelling imperial examinations of the Golden Empire of YiTi. Their learning is without question, however, the nobility dismiss them as upjumped parvenus.;;;;;;;;;;;;;x
