6428.1.1 = { 
	liege=k_volantis
	holding_dynasty=174371
} 
6453.1.1 = { holder=100174371 } # Qoherys (nc)
6474.12.12 = { holder=101174371 } #Matarys (nc)
6489.1.1 = { holder=103174371 } # Vogarro (nc)
6514.1.1 = { holder=104174371 } # Matarys (nc)
6530.1.1 = { holder=106174371 } # Parquello (nc)
6543.1.1 = { holder=111174371 } # Belicho (nc)
6564.1.1 = { holder=115174371 } # Benerro (nc)
6587.1.1 = { holder=116174371 } # Aenar (nc)
6601.1.1 = { holder=119174371 } # Moqorro (nc)
6608.1.1 = { holder=120174371 } # Jaekar (nc)
6626.1.1 = { holder=122174371 } # Doniphos (nc)
6648.1.1 = { holder=130174371 } # Horonno (nc)
6665.1.1 = { holder=134174371 } # Qava (nc)
6681.1.1 = { holder=136174371 } # Benerro (nc)
6699.1.1 = { holder=139174371 } # Orys (nc)
6715.1.1 = { holder=146174371 } # Qoherys (nc)
6745.1.1 = { holder=147174371 } # Malaquo
