1.1.1={ 
	liege="k_lys"
	holding_dynasty = 1386 # Ormollen
}

6468.1.1 = { holder=11001386 } # Doniphos (nc)
6505.1.1 = { holder=10001386 } # Sullhiem (nc)
6541.1.1 = { holder=10021386 } # Tagganaro (nc)
6545.1.1 = { holder=10061386 } # Qarro (nc)
6590.1.1 = { holder=10101386 } # Lysono (nc)
6606.1.1 = { holder=10131386 } # Roggo (nc)
6640.1.1 = { holder=10171386 } # Gyleno (nc)
6675.1.1 = { holder=10231386 } # Collio (nc)
6699.1.1 = { holder=10271386 } # Roro (nc)
6712.1.1 = { holder=10311386 } # Syrio (nc)
6737.1.1={ liege="d_lys" } #Ninepenny king
6737.12.31 = { liege="k_lys" } 
6756.1.1={
	holder=88108 #Tregar Ormollen
}



