1.1.1={ 
	liege="c_selhorys"
}
6465.1.1 = { holder=100174601 } # Belicho (nc)
6513.1.1 = { holder=101174601 } # Nyessos (nc)
6536.1.1 = { holder=104174601 } # Aelix (nc)
6552.1.1 = { holder=105174601 } # Jaekar (nc)
6582.1.1 = { holder=110174601 } # Malaquo (nc)
6620.1.1 = { holder=111174601 } # Benerro (nc)
6645.1.1 = { holder=114174601 } # Horonno (nc)
6673.1.1 = { holder=116174601 } # Haerys (nc)
6697.1.1 = { holder=118174601 } # Aenar (nc)
6710.1.1 = { holder=121174601 } # Qavo (nc)
6714.1.1 = { holder=124174601 } # Matarys (nc)
6731.1.1 = { holder=129174601 } # Moqorro (nc)
6769.1.1 = { holder=133174601 } # Colloquo (nc)



