1.1.1={
	liege="d_nefer"
}
6473.1.1 = { holder=10069207 } # Akin (nc)
6515.1.1 = { holder=10269207 } # Khalil (nc)
6529.1.1 = { holder=10769207 } # Idris (nc)
6545.1.1 = { holder=10969207 } # Zeyd (nc)
6586.1.1 = { holder=11369207 } # Akin (nc)
6612.1.1 = { holder=11469207 } # Fadl (nc)
6633.1.1 = { holder=11669207 } # Youkhanna (nc)
6646.1.1 = { holder=11969207 } # Mirza (nc)
6667.1.1 = { holder=12069207 } # Zeyd (nc)
6698.1.1 = { holder=12169207 } # Ghalib (nc)
6722.1.1 = { holder=12569207 } # Shamir (nc)
6739.1.1 = { holder=12969207 } # Yahya (nc)



