1.1.1={
	liege = d_tyria
}

6473.1.1 = { holder=10006043 } # Aemon (nc)
6532.1.1 = { holder=10026043 } # Daeoril (nc)
6534.1.1 = { holder=10056043 } # Vaermon (nc)
6546.1.1 = { holder=10076043 } # Rhaegel (nc)
6578.1.1 = { holder=10116043 } # Daeron (nc)
6630.1.1 = { holder=10156043 } # Daella (nc)
6631.1.1 = { holder=10176043 } # Haegon (nc)
6680.1.1 = { holder=10196043 } # Baelon (nc)
6695.1.1 = { holder=10206043 } # Orys (nc)
6750.1.1 = { holder=10246043 } # Aemon (nc)
6751.1.1 = { holder=10296043 } # Valarr (nc)
6771.1.1 = { holder=10356043 } # Jaehaerys (nc)
