1.1.1={
	liege="k_myr"
}
6448.1.1 = { holder=150300700 } # Lazaario (nc)
6501.1.1 = { holder=100300700 } # Izenbaro (nc)
6553.1.1 = { holder=102300700 } # Noho (nc)
6562.1.1 = { holder=103300700 } ####  Craghas Crabfeeder
6586.11.11 = { holder=104300700 } # Roro (nc)
6623.1.1 = { holder=108300700 } # Ezzelyno (nc)
6644.1.1 = { holder=111300700 } # Oro (nc)
6681.1.1 = { holder=115300700 } # Collio (nc)
6702.1.1 = { holder=118300700 } # Beqqo (nc)
6728.1.1 = { holder=123300700 } # Groleo (nc)
6758.1.1 = { holder=125300700 } # Roro (nc)
6771.1.1 = { holder=128300700 } # Narbo (nc)
