4478.1.1={
	liege="d_theneck"
	law = succ_primogeniture
}
6464.1.1={
	holder = 22078
}
6489.1.1={
	holder = 21078
}
6518.1.1={
	holder = 20078
}
6542.1.1={
	holder = 19078
}
6549.1.1={
	holder = 18078
}
6582.1.1={
	holder = 17078
}
6594.1.1={
	holder = 16078
}
6640.1.1={
	holder = 14078
}
6666.1.1={
	holder = 13078
}
6691.1.1={
	holder = 12078
}
6717.1.1={
	holder = 11078
}
6729.1.1={
	holder = 10078
}
6748.1.1={
	holder = 78
}
