1.1.1={
	liege="d_vahar"
}

6473.1.1 = { holder=100055940 } # Murad (nc)
6516.1.1 = { holder=100155940 } # Talib (nc)
6525.1.1 = { holder=100255940 } # Azam (nc)
6561.1.1 = { holder=100655940 } # Ubayd (nc)
6565.1.1 = { holder=101255940 } # Halil (nc)
6594.1.1 = { holder=101455940 } # Ali_Ali (nc)
6619.1.1 = { holder=101655940 } # Shujah (nc)
6647.1.1 = { holder=101755940 } # Burhanaddin (nc)
6677.1.1 = { holder=102055940 } # Qadir (nc)
6692.1.1 = { holder=102255940 } # Nizam (nc)
6722.1.1 = { holder=102455940 } # Wahab (nc)
6745.1.1 = { holder=102655940 } # Husam (nc)

