1.1.1={
	liege = d_tyria
}

6473.1.1 = { holder=10006023 } # Rhaekar (nc)
6502.1.1 = { holder=10016023 } # Daeron (nc)
6524.1.1 = { holder=10036023 } # Haegon (nc)
6545.1.1 = { holder=10076023 } # Matarys (nc)
6564.1.1 = { holder=10116023 } # Qoherys (nc)
6575.1.1 = { holder=10136023 } # Valarr (nc)
6646.1.1 = { holder=10156023 } # Daemon (nc)
6665.1.1 = { holder=10176023 } # Qoherys (nc)
6681.1.1 = { holder=10196023 } # Valarr (nc)
6738.1.1 = { holder=10206023 } # Maerys (nc)
6768.1.1 = { holder=10236023 } # Maegon (nc)
6792.1.1 = { holder=10246023 } # Valarr (nc)
6802.1.1 = { holder=10286023 } # Aelix (nc)

