6461.1.1 = { holder=10559354 } # Gerrick (nc)
6497.1.1 = { holder=11559354 } # Bump (nc)
6513.1.1 = { holder=13559354 } # Beron (nc)
6544.1.1 = { holder=17559354 } # Gerrick (nc)
6579.1.1 = { holder=18559354 } # Dan (nc)
6598.1.1 = { holder=19559354 } # Stiv (nc)
6619.1.1 = { holder=20559354 } # Torghen (nc)
6652.1.1 = { holder=21559354 } # Harlon (nc)
6655.1.1 = { holder=25559354 } # Qhorin (nc)
6685.1.1 = { holder=27559354 } # Alfyn (nc)
6691.1.1={
	liege="k_beyond_wall"
}
6704.9.9={
	liege="0"
}
6709.1.1 = { holder=29559354 } # Halys (nc)
6745.1.1 = { holder=30559354 } # Dorren (nc)
6756.1.1 = { holder=32559354 } # Raymun (nc)
6776.1.1={
	liege="k_beyond_wall"
}
6778.1.1={
	holder=999000666
}
