1.1.1={
	liege="d_hesh"
	law = succ_ultimogeniture
}
6451.1.1 = { holder=10055923 } # Pono (nc)
6488.1.1 = { holder=10355923 } # Motho (nc)
6535.1.1 = { holder=10555923 } # Jhogo (nc)
6542.1.1 = { holder=10955923 } # Malakho (nc)
6554.1.1 = { holder=10755923 } # Pono (nc)
6560.1.1 = { holder=11555923 } # Jommo (nc)
6602.1.1 = { holder=12355923 } # Drogo (nc)
6638.1.1 = { holder=12555923 } # Moro (nc)
6651.1.1 = { holder=12855923 } # Zekko (nc)
6698.1.1 = { holder=12955923 } # Jommo (nc)
6710.1.1 = { holder=13255923 } # Qotho (nc)
6748.1.1 = { holder=13555923 } # Mago (nc)

