#House Banho
6442.1.1 = { 
	holder=100304014 
	liege=d_red_flower_vale
	law = succ_seniority
	law = cognatic_succession
} # Manahuru (nc)
6480.1.1 = { holder=102304014 } # Udo (nc)
6504.1.1 = { holder=105304014 } # Delmabhar (nc)
6531.1.1 = { holder=107304014 } # Isingodo (nc)
6550.1.1 = { holder=112304014 } # Chibundo (nc)
6561.1.1 = { holder=113304014 } # Lusaxharo (nc)
6588.1.1 = { holder=118304014 } # Sango (nc)
6612.1.1 = { holder=120304014 } # Makhan (nc)
6628.1.1 = { holder=122304014 } # Chibundo (nc)
6656.1.1 = { holder=125304014 } # Anyim (nc)
6699.1.1 = { holder=127304014 } # Chibundo (nc)
6723.1.1 = { holder=131304014 } # Isingodo (nc)
6735.1.1 = { holder=132304014 } # Makhan (nc)
6750.1.1 = { holder=134304014 } # Bapato (nc)

