1.1.1={ law=succ_primogeniture law=cognatic_succession
	liege="d_west_marches"
}

70.1.1 = { holder=6100296 } # Herndon of the Horn
120.1.1 = { holder=0 }

6328.1.1 = { holder=6300296 } # Holter (nc)
6346.1.1 = { holder=6400296 } # Kacela (nc)
6377.1.1 = { holder=6500296 } # Chayse (nc)
6403.1.1 = { holder=6600296 } # Samwell (nc)
6422.1.1 = { holder=6800296 } # Acton (nc)
6457.1.1 = { holder=60100296 } #
6458.5.8={
	holder=32296
}
6476.6.6={
	holder=31296
}
6542.1.1={
	holder=30296
}
6573.1.1={
	holder=29296
}
6589.12.12={
	holder=27296
}
6607.6.6={
	holder=26296
}
6616.1.1={
	holder=25296
}
6637.10.10={
	holder=24296
}
6675.1.1={
	holder=23296
}
6699.1.1={
	holder=22296
}
6711.1.1={
	holder=21296
}
6738.1.1={
	holder=20296
}




