1.1.1={
	liege="d_piqui_jungle"
}
6473.1.1 = { holder=10069101 } # Aghlab (nc)
6510.1.1 = { holder=10269101 } # Abdullah (nc)
6533.1.1 = { holder=10669101 } # Nizam (nc)
6552.1.1 = { holder=10869101 } # Bahir (nc)
6590.1.1 = { holder=11069101 } # Hafiz (nc)
6628.1.1 = { holder=11169101 } # Husam (nc)
6664.1.1 = { holder=11469101 } # Azam (nc)
6672.1.1 = { holder=11769101 } # Yusuf (nc)
6684.1.1 = { holder=12169101 } # Qawurd (nc)
6718.1.1 = { holder=12469101 } # Bahir (nc)
6720.1.1 = { holder=12869101 } # Uways (nc)
6748.1.1 = { holder=12969101 } # Ghalib (nc)



