#House Xhoan
6458.1.1 = { 
	holder=100304004 
	liege=d_moluu
	law = succ_seniority
	law = cognatic_succession
} # Qaro (nc)
6496.1.1 = { holder=102304004 } # Adeyemu (nc)
6521.1.1 = { holder=106304004 } # Chibundo (nc)
6549.1.1 = { holder=108304004 } # Kwasdo (nc)
6581.1.1 = { holder=113304004 } # Xaro (nc)
6605.1.1 = { holder=116304004 } # Bapato (nc)
6629.1.1 = { holder=121304004 } # Xhal (nc)
6660.1.1 = { holder=126304004 } # Arkamun (nc)
6701.1.1 = { holder=128304004 } # Jiradhar (nc)
6709.1.1 = { holder=130304004 } # Jiradhar (nc)
6764.1.1 = { holder=133304004 } # Xhakan (nc)
6768.1.1 = { holder=135304004 } # Qaro (nc)

