#House Bado
6468.1.1 = { 
	holder=100304016 
	liege=d_walano
	law = succ_seniority
	law = cognatic_succession
} # Xhakan (nc)
6493.1.1 = { holder=101304016 } # Lusaxharo (nc)
6530.1.1 = { holder=103304016 } # Simbaya (nc)
6558.1.1 = { holder=106304016 } # Paro (nc)
6573.1.1 = { holder=107304016 } # Delmabhar (nc)
6575.1.1 = { holder=108304016 } # Udo (nc)
6594.1.1 = { holder=109304016 } # Bapato (nc)
6610.1.1 = { holder=111304016 } # Manahuru (nc)
6645.1.1 = { holder=114304016 } # Punuxharo (nc)
6678.1.1 = { holder=117304016 } # Odingaxho (nc)
6738.1.1 = { holder=119304016 } # Xhakan (nc)
6762.1.1 = { holder=121304016 } # Jalabhar (nc)
6773.1.1 = { holder=124304016 } # Jalahuru (nc)
