1.1.1={
	liege="k_qarth"
}

6473.1.1 = { holder=100069161 } # Sybassion (nc)
6514.1.1 = { holder=100169161 } # Urrathon (nc)
6515.1.1 = { holder=100569161 } # Semython (nc)
6555.1.1 = { holder=100769161 } # Ordello (nc)
6556.1.1 = { holder=101069161 } # Pyat (nc)
6589.1.1 = { holder=101369161 } # Wendello (nc)
6607.1.1 = { holder=101769161 } # Navathos (nc)
6631.1.1 = { holder=101969161 } # Vogarro (nc)
6644.1.1 = { holder=102169161 } # Navathos (nc)
6675.1.1 = { holder=102469161 } # Wendello (nc)
6711.1.1 = { holder=102769161 } # Egon (nc)
6719.1.1 = { holder=103269161 } # Lotho (nc)
6749.1.1 = { holder=103469161 } # Nyessos (nc)
