1.1.1={
	liege = d_jaedos
}

6473.1.1 = { holder=10000351 } # Maegon (nc)
6513.1.1 = { holder=10030351 } # Otherys (nc)
6545.1.1 = { holder=10040351 } # Baelon (nc)
6558.1.1 = { holder=10060351 } # Aelix (nc)
6576.1.1 = { holder=10070351 } # Maegor (nc)
6618.1.1 = { holder=10110351 } # Maerys (nc)
6626.1.1 = { holder=10140351 } # Jaehaerys (nc)
6650.1.1 = { holder=10190351 } # Maelys (nc)
6669.1.1 = { holder=10250351 } # Maerys (nc)
6714.1.1 = { holder=10260351 } # Vaeron (nc)
6744.1.1 = { holder=10270351 } # Maelys (nc)
6753.1.1 = { holder=10340351 } # Daeron (nc)
6808.1.1 = { holder=10360351 } # Rhae (nc)

