5721.1.1={
	liege="d_brokenarm"
	law = cognatic_succession
}
6473.1.1 = { holder=10001804 } # Hother (nc)
6501.1.1 = { holder=10021804 } # Torren (nc)
6523.1.1 = { holder=10051804 } # Edderion (nc)
6582.1.1 = { holder=10071804 } # Morgan (nc)
6598.1.1 = { holder=10081804 } # Dorren (nc)
6635.1.1 = { holder=10101804 } # Rodrik (nc)

6640.1.1 = { holder=35136 } # Allar (nc)
6660.1.1 = { holder=35176 } # Maron (nc)
6678.1.1 = { holder=35186 } # Deziel (nc)
6707.1.1 = { holder=35236 } # Myriah (nc)
6721.1.1 = { holder=35286 } # Timeon (nc)
6740.2.9 = { holder=2006 } # Mynia (nc)
6772.4.5 = { holder=6 } # Deziel (c)
