1.1.1={
	liege="k_leng"
	law = succ_primogeniture
}
6442.1.1 = { holder=10065971 } # Yu (nc)
6501.1.1 = { holder=10165971 } # Xuan (nc)
6508.1.1 = { holder=10565971 } # Bai (nc)
6529.1.1 = { holder=10765971 } # Yu (nc)
6570.1.1 = { holder=11165971 } # Gai (nc)
6578.1.1 = { holder=11565971 } # Thinh (nc)
6612.1.1 = { holder=11665971 } # Bu (nc)
6614.1.1 = { holder=11865971 } # An (nc)
6666.1.1 = { holder=11965971 } # Fai (nc)
6676.1.1 = { holder=12465971 } # Mo (nc)
6685.1.1 = { holder=12665971 } # Hao (nc)
6725.1.1 = { holder=12965971 } # Han (nc)
6746.1.1 = { holder=13465971 } # Loi (nc)



