1.1.1={
	liege="k_myr"
}

6473.1.1 = { holder=100300706 } # Noho (nc)
6510.1.1 = { holder=104300706 } # Izembaro (nc)
6537.1.1 = { holder=106300706 } # Ternesio (nc)
6543.1.1 = { holder=107300706 } # Beqqo (nc)
6579.1.1 = { holder=110300706 } # Byan (nc)
6587.1.1 = { holder=111300706 } # Luco (nc)
6616.1.1 = { holder=114300706 } # Ferrego (nc)
6624.1.1 = { holder=118300706 } # Collio (nc)
6648.1.1 = { holder=122300706 } # Moredo (nc)
6709.1.1 = { holder=125300706 } # Narbo (nc)
6714.1.1 = { holder=126300706 } # Oro (nc)
6726.1.1 = { holder=127300706 } # Narbo (nc)
