#House Iroxho
6428.1.1 = { 
	holder=100304022 
	liege=d_sweet_lotus_vale
	law = succ_seniority
	law = cognatic_succession
} # Rudo (nc)
6465.1.1 = { holder=101304022 } # Nyadundo (nc)
6518.1.1 = { holder=104304022 } # Thabo (nc)
6537.1.1 = { holder=106304022 } # Gwalahuru (nc)
6543.1.1 = { holder=115304022 } # Xhoan (nc)
6584.1.1 = { holder=117304022 } # Quanda (nc)
6606.1.1 = { holder=119304022 } # Qaro (nc)
6645.1.1 = { holder=120304022 } # Nyadundo (nc)
6685.1.1 = { holder=122304022 } # Quhuru (nc)
6706.1.1 = { holder=126304022 } # Paro (nc)
6726.1.1 = { holder=127304022 } # Chakoro (nc)
6738.1.1 = { holder=130304022 } # Abrafo (nc)


