1.1.1={
	liege="k_pentos"
}

6473.1.1 = { holder=100069124 } # Daario (nc)
6502.1.1 = { holder=100169124 } # Tycho (nc)
6508.1.1 = { holder=100369124 } # Ollo (nc)
6526.1.1 = { holder=100669124 } # Terro (nc)
6549.1.1 = { holder=101069124 } # Beqqo (nc)
6574.1.1 = { holder=101469124 } # Ferrego (nc)
6607.1.1 = { holder=101669124 } # Collio (nc)
6628.1.1 = { holder=101869124 } # Meralyn (nc)
6631.1.1 = { holder=102069124 } # Byan (nc)
6654.1.1 = { holder=102269124 } # Moreo (nc)
6693.1.1 = { holder=102769124 } # Meralyn (nc)
6702.1.1 = { holder=102969124 } # Allaquo (nc)
6753.1.1 = { holder=103369124 } # Tagganaro (nc)
