4678.1.1={
	liege="e_vale"
	law = succ_primogeniture
}
6471.1.1 = { holder=3000167 } # Oswell (nc)
6498.1.1 = { holder=3001167 } # Colemon (nc)
6512.1.1 = { holder=3004167 } # Triston (nc)
6539.1.1 = { holder=3007167 } # Osmund (nc)
6574.1.1 = { holder=3010167 } # Symond (nc)
6625.1.1 = { holder=3017167 } # Walace (nc)
6643.1.1 = { holder=3020167 } # Randyll (nc)
6678.1.1 = { holder=3023167 } # Raymar (nc)
6721.1.1 = { holder=3025167 } # Creighton (nc)
6758.1.1={
	holder=94038
}
