1.1.1={
	liege="d_qarkash"
}
 6469.1.1 = { holder=150350004 } # Xarvo (nc)
 6495.1.1 = { holder=100350004 } # Sallor (nc)
 6514.1.1 = { holder=102350004 } # Orbelo (nc)
 6560.1.1 = { holder=103350004 } # Bolquello (nc)
 6611.1.1 = { holder=107350004 } # Vogarro (nc)
 6639.1.1 = { holder=108350004 } # Orbelo (nc)
 6662.1.1 = { holder=114350004 } # Yorko (nc)
 6679.1.1 = { holder=117350004 } # Colloquo (nc)
 6699.1.1 = { holder=119350004 } # Qavo (nc)
 6746.1.1 = { holder=122350004 } # Lotho (nc)
 6758.1.1 = { holder=125350004 } # Qarro (nc)
