6473.1.1 = { holder=10001807 } # Ethan (nc)
6492.1.1 = { holder=10011807 } # Beren (nc)
6523.1.1 = { holder=10031807 } # Galbart (nc)
6551.1.1 = { holder=10061807 } # Vayon (nc)
6584.1.1 = { holder=10081807 } # Alaric (nc)
6601.1.1 = { holder=10111807 } # Wyman (nc)
6640.1.1 = { 
	liege="d_vaith"
}

