
6456.1.1 = { holder=10559161 } # Toregg (nc)
6493.1.1 = { holder=11559161 } # Torwynd (nc)
6516.1.1 = { holder=13559161 } # Joramun (nc)
6546.1.1 = { holder=19559161 } # Jarl (nc)
6559.1.1 = { holder=20559161 } # Quent (nc)
6593.1.1 = { holder=23559161 } # Owen (nc)
6648.1.1 = { holder=24559161 } # Lenyl (nc)
6661.1.1 = { holder=26559161 } # Doss (nc)
6670.1.1 = { holder=31559161 } # Mors (nc)
6691.1.1={
	liege="k_beyond_wall"
}
6704.9.9={
	liege="0"
}
6706.1.1 = { holder=32559161 } # Ryk (nc)
6744.1.1 = { holder=33559161 } # Soren (nc)
6751.1.1 = { holder=36559161 } # Eyron (nc)
#6766.1.1 = { holder=38559161 } # Mors (nc)

6760.1.1={
	holder=157009
}
6776.1.1={
	liege="k_beyond_wall"
	holder=157009
}
6778.1.1={
	holder=999000666
}
