#NOTE: The holder of this title has the House Westerling dynasty tracker set in roberts_rebellion_events
#c_the_crag
1.1.1={
	liege="d_the_crag"
}

6474.1.1 = {
holder=21199
}
6512.1.1 = {
holder=20199
}
6536.1.1 = {
holder=19199
}
6555.1.1 = {
holder=18199
}
6576.1.1 = {
holder=17199
}
6606.1.1 = {
holder=16199
}
6611.6.1 = {
holder=15199
}
6654.1.1 = {
holder=14199
}
6674.2.5 = {
holder=12199
}
6689.1.1 = {
holder=11199
}
6732.1.1 = {
holder=10199
}
6751.1.1 = {	
holder=199
}
