1.1.1={
	liege="d_orange_shore"
}

6473.1.1 = { holder=100086003 } # Gerrys (nc)
6496.1.1 = { holder=100386003 } # Allar (nc)
6519.1.1 = { holder=100686003 } # Garyn (nc)
6550.1.1 = { holder=100786003 } # Daemyn (nc)
6565.1.1 = { holder=101186003 } # Garyn (nc)
6604.1.1 = { holder=101586003 } # Yandry (nc)
6633.1.1 = { holder=101986003 } # Trystane (nc)
6679.1.1 = { holder=102186003 } # Rycas (nc)
6692.1.1 = { holder=102386003 } # Allar (nc)
6694.1.1 = { holder=102786003 } # Dygos (nc)
6720.1.1 = { holder=103186003 } # Dezyel (nc)
6773.1.1 = { holder=103386003 } # Peyos (nc)
6795.1.1 = { holder=103486003 } # Caleyen (nc)
6812.1.1 = { holder=103886003 } # Aron (nc)

