3956.1.1 = {
	liege = d_hazdahn
}
6473.1.1 = { holder=100069205 } # Zaraq (nc)
6510.1.1 = { holder=100169205 } # Ghazdor (nc)
6535.1.1 = { holder=100269205 } # Maezon (nc)
6541.1.1 = { holder=100369205 } # Skahaz (nc)
6589.1.1 = { holder=100869205 } # Yurkhaz (nc)
6612.1.1 = { holder=101269205 } # Grazdhar (nc)
6640.1.1 = { holder=101669205 } # Paezhar (nc)
6652.1.1 = { holder=101969205 } # Gorzhak (nc)
6695.1.1 = { holder=102169205 } # Yarkhaz (nc)
6707.1.1 = { holder=102569205 } # Ghazdor (nc)
6725.1.1 = { holder=102869205 } # Yurkhaz (nc)
6736.1.1 = { holder=103369205 } # Barkhaz (nc)
6767.1.1 = { holder=103669205 } # Maezon (nc)

