1.1.1 = { 
	liege = k_volantis
}
6458.1.1 = { holder=100174397 } # Belicho (nc)
6500.1.1 = { holder=103174397 } # Aelix (nc)
6534.1.1 = { holder=104174397 } # Alios (nc)
6549.1.1 = { holder=108174397 } # Malaquo (nc)
6563.1.1 = { holder=110174397 } # Qavo (nc)
6590.1.1 = { holder=113174397 } # Aelix (nc)
6595.1.1 = { holder=119174397 } # Methyso (nc)
6648.1.1 = { holder=125174397 } # Parquello (nc)
6681.1.1 = { holder=131174397 } # Vaeron (nc)
6692.1.1 = { holder=133174397 } # Qavo (nc)
6738.1.1 = { holder=139174397 } # Qoherys (nc)
6744.1.1 = { holder=141174397 } # Qavo (nc)
6750.1.1 = { holder=143174397 } # Parquello (nc)
6755.1.1 = { holder=144174397 } # Horonno (nc)
6763.1.1 = { holder=145174397 } # Parquello
