1.1.1={
	liege="k_qohor"
}

6473.1.1 = { holder=100069133 } # Mero (nc)
6520.1.1 = { holder=100269133 } # Moreo (nc)
6532.1.1 = { holder=100969133 } # Narbo (nc)
6539.1.1 = { holder=101269133 } # Gyloro (nc)
6575.1.1 = { holder=101369133 } # Ordello (nc)
6587.1.1 = { holder=101669133 } # Orbelo (nc)
6638.1.1 = { holder=101969133 } # Tagganaro (nc)
6646.1.1 = { holder=102069133 } # Roro (nc)
6671.1.1 = { holder=102269133 } # Noho (nc)
6687.1.1 = { holder=102469133 } # Cossomo (nc)
6736.1.1 = { holder=102969133 } # Meralyn (nc)
6766.1.1 = { holder=103169133 } # Brusco (nc)
