6468.1.1 = { holder=100559134 } # Lenn (nc)
6490.1.1 = { holder=103559134 } # Toregg (nc)
6536.1.1 = { holder=107559134 } # Briar (nc)
6569.1.1 = { holder=111559134 } # Tormund (nc)
6595.1.1 = { holder=112559134 } # Halys (nc)
6627.1.1 = { holder=113559134 } # Ryk (nc)
6640.1.1 = { holder=114559134 } # Orell (nc)
6678.1.1 = { holder=115559134 } # Howd (nc)
6691.1.1={
	liege="k_beyond_wall"
}
6704.9.9={
	liege="0"
}
6712.1.1 = { holder=120559134 } # Kyleg (nc)
6728.1.1 = { holder=121559134 } # Jojen (nc)
6744.1.1 = { holder=123559134 } # Toregg (nc)

6760.1.1={
	holder=157003
}
6776.1.1={
	liege="k_beyond_wall"
	holder=174347
}
6778.1.1={
	liege="d_haunted_forest"
	holder = 157003
}
