3956.1.1 = {
	liege = d_hazdahn
}
6473.1.1 = { holder=100069202 } # Barkhaz (nc)
6508.1.1 = { holder=100169202 } # Bharkaz (nc)
6520.1.1 = { holder=100269202 } # Ghazdor (nc)
6550.1.1 = { holder=100469202 } # Grazdhar (nc)
6557.1.1 = { holder=100769202 } # Hizdhar (nc)
6598.1.1 = { holder=101069202 } # Reznak (nc)
6614.1.1 = { holder=101169202 } # Morghaz (nc)
6643.1.1 = { holder=101469202 } # Yezzan (nc)
6664.1.1 = { holder=101669202 } # Yezzan (nc)
6701.1.1 = { holder=101969202 } # Zaraq (nc)
6718.1.1 = { holder=102169202 } # Azzak (nc)
6738.1.1 = { holder=102369202 } # Barghaz (nc)
6763.1.1 = { holder=102669202 } # Ghazdor (nc)

