1.1.1={
	liege="d_port_moraq"
}

6473.1.1 = { holder=100055935 } # Faruk (nc)
6519.1.1 = { holder=100255935 } # Mubarak (nc)
6534.1.1 = { holder=100455935 } # Murad (nc)
6570.1.1 = { holder=100755935 } # Hasan_Hasan (nc)
6595.1.1 = { holder=100955935 } # Aarif (nc)
6614.1.1 = { holder=101555935 } # Bahir (nc)
6648.1.1 = { holder=101955935 } # Hafiz (nc)
6687.1.1 = { holder=102155935 } # Nizam (nc)
6699.1.1 = { holder=102555935 } # Halil (nc)
6717.1.1 = { holder=102855935 } # Shamir (nc)
6723.1.1 = { holder=103055935 } # Talib (nc)
6762.1.1 = { holder=103455935 } # Mansur (nc)
6775.1.1 = { holder=103655935 } # Muzaffaraddin (nc)

