1.1.1={
	law = succ_seniority
	law = agnatic_succession
}
6473.1.1 = { holder=1000414 } # Jibril (nc)
6508.1.1 = { holder=1002414 } # Isa (nc)
6527.1.1 = { holder=1005414 } # Jibril (nc)
6552.1.1 = { holder=1007414 } # Faruk (nc)
6571.1.1 = { holder=1010414 } # Is'mail (nc)
6598.1.1 = { holder=1015414 } # Sadiq (nc)
6602.1.1 = { holder=1016414 } # Uways (nc)
6645.1.1 = { holder=1019414 } # Mansur (nc)
6663.1.1 = { holder=1024414 } # Talib (nc)
6694.1.1 = { holder=1026414 } # Burhanaddin (nc)
6727.1.1 = { holder=1028414 } # Azam (nc)
6733.1.1 = { holder=1031414 } # Hussayn (nc)
6781.1.1 = { holder=1032414 } # Ramadan (nc)
6815.1.1 = { holder=1033414 } # Zeyd (nc)

