5478.1.1={
	liege="k_blackwoodTK"
	law = succ_primogeniture
}
6360.2.1={holder=60400150} # Torrhen Blackwood
6395.11.7={holder=60300150} # Agnes Blackwood
6411.1.1 = {holder=60200150} # Brynden Blackwood
6458.1.1={holder=60000150} # Rodrik Blackwood
6473.1.1={holder=35150} # Theomar Blackwood

6484.1.1={
	holder=34150
}
6518.1.1={
	holder=33150
}
6532.1.1={
	holder=32150
}
6556.1.1={
	holder=31150
}
6587.1.1={
	holder=30150
}
6599.1.1={
	holder=150150
}
6607.8.1={
	holder=28150
}
6668.1.1={
	holder=26150
}
6683.1.1={
	holder=22150
}
6708.1.1={
	holder=21150
}
6736.1.1={
	holder=19150
}
6759.1.1={
	holder=150
}


