1.1.1={
	liege = k_valyria
}

6473.1.1 = { holder=10006017 } # Maekar (nc)
6504.1.1 = { holder=10036017 } # Gaemon (nc)
6531.1.1 = { holder=10046017 } # Aerion (nc)
6578.1.1 = { holder=10086017 } # Vaeron (nc)
6600.1.1 = { holder=10116017 } # Haerys (nc)
6610.1.1 = { holder=10156017 } # Aegor (nc)
6634.1.1 = { holder=10176017 } # Maegor (nc)
6639.1.1 = { holder=10206017 } # Aegon (nc)
6642.1.1 = { holder=10226017 } # Orys (nc)
6692.1.1 = { holder=10246017 } # Daeron (nc)
6704.1.1 = { holder=10256017 } # Otherys (nc)
6710.1.1 = { holder=10286017 } # Aenar (nc)
6769.1.1 = { holder=10306017 } # Rhaegel (nc)
6771.1.1 = { holder=10336017 } # Qoherys (nc)
6784.1.1 = { holder=10366017 } # Maelys (nc)

