1.1.1 = {
	liege="k_ibben"
	law = succ_primogeniture
	law = agnatic_succession
}
6468.1.1 = { holder=1055929 } # Slugg (nc)
6514.1.1 = { holder=1255929 } # Bodger (nc)
6526.1.1 = { holder=1655929 } # Tugg (nc)
6563.1.1 = { holder=1855929 } # Jogg (nc)
6567.1.1 = { holder=2055929 } # Bodger (nc)
6599.1.1 = { holder=2455929 } # Quort (nc)
6627.1.1 = { holder=2955929 } # Draloth (nc)
6640.1.1 = { holder=3355929 } # Ygon (nc)
6684.1.1 = { holder=3455929 } # Cull (nc)
6692.1.1 = { holder=3855929 } # Brogg (nc)
6736.1.1 = { holder=3955929 } # Groo (nc)
6775.1.1 = { holder=40055929 } # Slugg (nc)

