#House Anuxho
6464.1.1 = { 
	holder=100304018 
	law = succ_seniority
	law = cognatic_succession
} # Olujondo (nc)
6483.1.1 = { holder=101304018 } # Manahuru (nc)
6488.1.1 = { holder=102304018 } # Dubaku (nc)
6509.1.1 = { holder=105304018 } # Dubaku (nc)
6511.1.1 = { holder=107304018 } # Manahuru (nc)
6574.1.1 = { holder=114304018 } # Doshuru (nc)
6611.1.1 = { holder=116304018 } # Tatenda (nc)
6657.1.1 = { holder=117304018 } # Isodo (nc)
6679.1.1 = { holder=120304018 } # Xhal (nc)
6700.1.1 = { holder=127304018 } # Isingodo (nc)
6740.1.1 = { holder=130304018 } # Siboxhoan (nc)
6762.1.1 = { holder=131304018 } # Xhakan (nc)
