478.1.1 = {
	liege = e_new_valyria
	law = succ_primogeniture
	law = agnatic_succession
}	
6432.1.1 = { holder=100570136 } # Vaekar (nc)
6490.1.1 = { holder=102570136 } # Malaquo (nc)
6516.1.1 = { holder=103570136 } # Belicho (nc)
6518.1.1 = { holder=108570136 } # Vaermon (nc)
6537.1.1 = { holder=110570136 } # Parquello (nc)
6568.1.1 = { holder=115570136 } # Alios (nc)
6574.1.1 = { holder=117570136 } # Orys (nc)
6598.1.1 = { holder=118570136 } # Colloquo (nc)
6636.1.1 = { holder=119570136 } # Moqorro (nc)
6640.1.1 = { holder=121570136 } # Aenar (nc)
6668.1.1 = { holder=122570136 } # Qavo (nc)
6692.1.1 = { holder=128570136 } # Alios (nc)
6734.1.1 = { holder=130570136 } # Qoherys (nc)
6756.1.1 = { holder=136570136 } # Methyso (nc)
6763.1.1 = { holder=140570136 } # Doniphos (nc)
