1.1.1={
	law = succ_primogeniture
	liege="k_wayfarersrestTK"
}
6476.1.1={
	holder=24155
}
6486.1.1={
	holder=23155
}
6491.1.1={
	holder=22155
}
6509.1.1={
	holder=21155
}
6557.1.1={
	holder=25155
}
6593.1.1={
	holder=19155
}
6599.1.1={
	holder=18155
}
6619.1.1={
	holder=17155
}
6633.1.1={
	holder=16155
}
#Vance
6645.1.1 = {
    holder=650153 #Armistead (C)
}

6675.1.1={
	holder=12154
}
6692.1.1={
	holder=11154
}
6744.1.1={
	holder=22154
}
 
