
6566.1.1 = { 
	holder=304330 # Gunthor Estermont (nc)
} 
6583.1.1 = { holder=305330 } # Lomas Estermont (nc)
6639.1.1 = { holder=306330 } # Davos Estermont (nc)
6650.1.1 = { holder=307330 } # Herbert Estermont (nc)
6674.1.1 = { holder=200330 } # Gunthor Estermont (C)
6722.1.1 = { holder=330 } # Tancred Estermont (nc)

