1.1.1={
	law = succ_primogeniture
	law = cognatic_succession
	law = centralization_2
	law = investiture_law_2
	law = first_night_1
}
6453.1.1 = {
	holder = 1052046 #Josua
}
6473.1.1 = {
	holder = 152046 #Justin Massey
}
6512.1.1 = {
	holder = 1153046 #Morden
}
6534.1.1 = {
	holder = 153046 #Josua Massey Softspear
}
6544.1.1 = { holder = 0 }

6546.1.1 = {
	holder = 150049 #Togarion Bar Emmon
}
6558.1.1 = { holder=3009049 } # Rorge Bar Emmon (nc)
6587.1.1 = { holder=3012049 } # Osmund Bar Emmon (nc)
6602.1.1 = { holder=3014049 } # Clarence Bar Emmon (nc)
6666.1.1 = { holder=3016049 } # Leonette Bar Emmon (nc)
6678.1.1 = { holder=3019049 } # Robin Bar Emmon (nc)
6713.1.1 = { holder=3021049 } # Ardrian Bar Emmon (nc)
6747.1.1 = { holder=3027049 } # Devan Bar Emmon (nc)
6755.1.1 = { holder=3028049 } # Guncer Bar Emmon (nc)


