1.1.1={
	law = succ_primogeniture
	law = true_cognatic_succession
}
6473.1.1 = { holder=100174407 } # Rycas (nc)
6500.1.1 = { holder=102174407 } # Mors (nc)
6525.1.1 = { holder=106174407 } # Yandry (nc)
6554.1.1 = { holder=108174407 } # Quentyn (nc)
6578.1.1 = { holder=113174407 } # Mors (nc)
6603.1.1 = { holder=116174407 } # Alleras (nc)
6640.1.1 = { holder=117174407 } # Bors (nc)
6660.1.1 = { holder=118174407 } # Peyos (nc)
6702.1.1 = { holder=122174407 } # Yandry (nc)
6734.1.1 = { holder=125174407 } # Garyn (nc)
6751.1.1 = { holder=126174407 } # Aryen (nc)

