3030.1.1 = {
	law = succ_primogeniture
	law = cognatic_succession
	holder = 150054 #Edwyn Evenstar
}
3055.1.1 = {holder=0}

6560.1.1 = {
	 holder=310054 # Selwyn Tarth (nc)
} 
6592.1.1 = { holder=315054 } # Willem Tarth (nc)
6624.1.1 = { holder=316054 } # Renly Tarth (nc)
6652.1.1 = { holder=322054 } # Endrew Tarth (nc)
6688.1.1 = { holder=200054 } # Quentyn Tarth (C)
6715.1.1 = { holder=326054 } # Terrence Tarth (nc)
6733.1.1 = { holder=331054 } # Willem Tarth (nc)
6757.1.1 = { holder=201054 } # Selwyn Tarth (C)
