6465.1.1={
	holder=150300024
	law = slavery_2
	law = centralization_2
	effect = {
		holder_scope = { 
			e_new_valyria = {
				holder_scope = {
					make_tributary = { who = PREVPREV tributary_type = valyrian_tributary }
				}
			}
		}	
	}
}
6506.1.1 = { holder=100300533 } # Groleo (nc)
6529.1.1 = { holder=100300543 } # Mallaquo (nc)
6542.1.1 = { holder=101300544 } # Jaqen (nc)
6557.1.1 = { holder=103300543 } # Roggo (nc)


6576.1.1 = { holder=105300542 } # Syrio (nc)
6586.1.1 = { holder=108300533 } # Qarro Ryndoon (nc)


6612.1.1 = { holder=109300024 } # Ordello (nc)
6624.1.1 = { holder=113300542 } # Beqqo (nc)
6643.1.1 = { holder=122300024 } # Oro (nc)
6681.1.1 = { holder=121300544 } # Ordello (nc)
6712.1.1 = { holder=128300024 } # Tycho (nc)


6748.1.1 = { holder=130300024 } # Gyloro (nc)
6756.1.1 = { holder=131300024 } # Syrio (nc)






