1.1.1={ 
	liege="c_the_citadel"
}

2955.1.1 = { holder=88000200 }  
3025.1.1 = { holder=88000201 } 
3031.1.1 = { holder=88000202 } 
3045.1.1 = { holder=88000203 } 
3100.1.1 = { holder=88000204 } 
3125.1.1 = { holder=88000205 } 
3163.1.1 = { holder=88000206 } 
3193.1.1 = { holder=88000207 } 
3221.1.1 = { holder=88000208 } 
3240.1.1 = { holder=88000209 } 
3253.1.1 = { holder=88000210 } 
3285.1.1 = { holder=88000211 } 



