1.1.1={ 
	liege="c_tyrosh"
}
2987.1.1 = { holder=150300024 } # Myrmello (nc)
3028.1.1 = { holder=100300533 } # Groleo (nc)
3051.1.1 = { holder=100300543 } # Mallaquo (nc)
3064.1.1 = { holder=101300544 } # Jaqen (nc)
3079.1.1 = { holder=103300543 } # Roggo (nc)
3098.1.1 = { holder=105300542 } # Syrio (nc)
3108.1.1 = { holder=108300533 } ##### Racallio Ryndoon
3134.1.1 = { holder=109300024 } # Ordello (nc)
3146.1.1 = { holder=113300542 } # Beqqo (nc)
3165.1.1 = { holder=122300024 } # Oro (nc)
3203.1.1 = { holder=121300544 } # Ordello (nc)
3234.1.1 = { holder=128300024 } # Tycho (nc)
# 3259.1.1={ #cannot hold this title as it makes him a republic. Title added in his history entry
	# holder=600000059 # Alequo Adarys
# }
# 3265.6.1 = { 
	# holder=128300024 # Tycho (nc)
# } 
3259.1.1 = { 
	liege="d_tyrosh"
} 
3259.12.31 = { 
	liege="c_tyrosh"
} 
3270.1.1 = { holder=130300024 } # Gyloro (nc)
3278.1.1 = { holder=131300024 } # Syrio (nc)



