2955.1.1 = { 
	holder=100607302 
	liege = d_north_plains
} # Jawak (nc)
3001.1.1 = { holder=101607302 } # Faqar (nc)
3030.1.1 = { holder=105607302 } # Kahkazan (nc)
3046.1.1 = { holder=110607302 } # Zeba (nc)
3059.1.1 = { holder=113607302 } # Basir (nc)
3103.1.1 = { holder=114607302 } # Jaan (nc)
3147.1.1 = { holder=115607302 } # Yasen (nc)
3163.1.1 = { holder=116607302 } # Sabeir (nc)
3172.1.1 = { holder=118607302 } # Ramazan (nc)
3191.1.1 = { holder=120607302 } # Tamim (nc)
3217.1.1 = { holder=125607302 } # Obiad (nc)
3221.1.1 = { holder=128607302 } # Zabi (nc)
3258.1.1 = { holder=129607302 } # Wahida (nc)
3274.1.1 = { holder=130607302 } # Rasoul (nc)

