1.1.1={
	liege="d_bayasabhad"
	law = succ_seniority
	law = agnatic_succession
}
2945.1.1 = { holder=10055952 } # Khalil (nc)
3003.1.1 = { holder=10155952 } # Zeyd (nc)
3019.1.1 = { holder=10455952 } # Fadil (nc)
3032.1.1 = { holder=10755952 } # Alim (nc)
3081.1.1 = { holder=10955952 } # Alim (nc)
3082.1.1 = { holder=11355952 } # Zeyd (nc)
3129.1.1 = { holder=11655952 } # Gafur (nc)
3145.1.1 = { holder=11955952 } # Nizam (nc)
3147.1.1 = { holder=12355952 } # Yusuf (nc)
3163.1.1 = { holder=12755952 } # Muslihiddin (nc)
3187.1.1 = { holder=13055952 } # Mubarak (nc)
3219.1.1 = { holder=13255952 } # Faruk (nc)
3275.1.1 = { holder=13555952 } # Sami (nc)
3285.1.1 = { holder=13655952 } # Husam (nc)
