1.1.1={
liege="e_iron_isles"
law=succ_primogeniture law=cognatic_succession
}
1545.1.1 = {
	holder = 500118
}
1581.1.1 = {
	holder = 0
}
	
2993.1.1 = { holder=3000118 } # Cragorn (nc)

2998.2.1 = { holder=3001118 } # Skyte (nc)
3047.1.1 = { holder=3003118 } # Sigfry (nc)
3068.1.1 = { holder=3005118 } # Rymolf (nc)
3100.1.1 = { holder=3008118 } # Triston (nc)
3136.1.1 = { holder=3014118 } # Wex (nc)
3164.1.1 = { holder=3017118 } # Qalen (nc)
3189.1.1 = { holder=3018118 } # Norne (nc)
3212.1.1 = { holder=3021118 } # Cotter (nc)
3212.1.1={
#holder=111118
}
3224.1.1 = { holder=3026118 } # Maron (nc)
3280.1.1 = { holder=3028118 } # Theon (nc)


3289.3.1 = {	
	holder=118
}

3300.1.1 = {	
	holder=1118
}
