1.1.1={
	liege="d_winterfell"
	law = succ_primogeniture
}
2994.1.1={
	holder=16086
}
3007.1.1={
	holder=15086
}
3052.1.1={
	holder=14086
}
3065.1.1={
	holder=13086
}
3098.1.1={
	holder=12086
}
3109.1.1={
	holder=11086
}
3152.1.1={
	holder=10086
}
3181.1.1={
	holder=8086
}
3220.1.1={
	holder=7086
}
3261.1.1={
	holder=6086
}
3271.1.1={
	holder=1086
}
3281.1.1={
	holder=86
}
