1.1.1={
	liege="d_mantarys"
}
2995.1.1 = { holder=10070124 } # Belicho (nc)
3029.1.1 = { holder=10170124 } # Moqorro (nc)
3065.1.1 = { holder=10470124 } # Haerys (nc)
3068.1.1 = { holder=10770124 } # Vaekar (nc)
3112.1.1 = { holder=10970124 } # Aenar (nc)
3161.1.1 = { holder=11270124 } # Aenar (nc)
3179.1.1 = { holder=11770124 } # Aelix (nc)
3195.1.1 = { holder=12070124 } # Malaquo (nc)
3224.1.1 = { holder=12370124 } # Aenar (nc)
3230.1.1 = { holder=12470124 } # Nyessos (nc)
3241.1.1 = { holder=13070124 } # Colloquo (nc)
3276.1.1 = { holder=13470124 } # Haerys (nc)
