1.1.1={
	liege = k_valyria
}

2995.1.1 = { holder=10006008 } # Orys (nc)
3038.1.1 = { holder=10016008 } # Aenar (nc)
3043.1.1 = { holder=10056008 } # Daeron (nc)
3072.1.1 = { holder=10066008 } # Aemond (nc)
3112.1.1 = { holder=10116008 } # Otherys (nc)
3168.1.1 = { holder=10146008 } # Maerys (nc)
3179.1.1 = { holder=10186008 } # Maekar (nc)
3199.1.1 = { holder=10226008 } # Haegon (nc)
3231.1.1 = { holder=10246008 } # Aerion (nc)
3272.1.1 = { holder=10286008 } # Viserys (nc)
3283.1.1 = { holder=10316008 } # Jaekar (nc)
3299.1.1 = { holder=10346008 } # Maekar (nc)
3338.1.1 = { holder=10366008 } # Rhaegar (nc)

