1.1.1={
	liege="0"
}
2995.1.1 = { holder=10559141 } # Yoren (nc)
3030.1.1 = { holder=11559141 } # Gariss (nc)
3051.1.1 = { holder=15559141 } # Jojen (nc)
3086.1.1 = { holder=20559141 } # Jarl (nc)
3100.1.1 = { holder=24559141 } # Alfyn (nc)
3126.1.1 = { holder=25559141 } # Quent (nc)
3152.1.1 = { holder=28559141 } # Toregg (nc)
3171.1.1 = { holder=29559141 } # Alfyn (nc)
3182.1.1 = { holder=31559141 } # Tormund (nc)
3213.1.1={
	liege="k_beyond_wall"
}
3224.1.1 = { holder=33559141 } # Lenn (nc)
3226.9.9={
	liege="0"
}
3256.1.1 = { holder=34559141 } # Arthor (nc)
3264.1.1 = { holder=35559141 } # Jeor (nc)
#3295.1.1 = { holder=38559141 } # Gavin (nc)


3282.1.1={
	holder=157001
}
3298.1.1={
	liege="k_beyond_wall"
}
