1.1.1 = { liege="e_stormlands" }

2994.1.1 = { holder=300302 } # Barristan Selmy (nc)
3013.1.1 = { holder=301302 } # Lyonel Selmy (nc)
3014.1.1 = { holder=302302 } # Othell Selmy (nc)
3040.1.1 = { holder=303302 } # Cyrenna Selmy (nc)
3065.1.1 = { holder=311302 } # Humfrey Selmy (nc)
3079.1.1 = { holder=313302 } # Lyonel Selmy (nc)
3108.1.1 = { holder=318302 } # Myles Selmy (nc)
3136.1.1 = { holder=322302 } # Sebara Selmy (Sc)
3167.1.1 = { holder=327302 } # Beren Selmy (Sc)
3176.1.1 = { holder=330302 } # Beram Selmy (Sc)
3207.1.1 = { holder=332302 } # Arstan Selmy (nc)
3260.1.1 = { holder=200302 } # Lyonel Selmy (C)
3270.1.1 = { holder=334302 } # Paxter Selmy (nc)
3295.1.1 = { holder=202302 } # Arstan Selmy (C)
