1.1.1={ law=succ_primogeniture law=cognatic_succession
	liege="d_cockleswhent"
}
3130.1.1 = { holder=6015242 } # Robert (nc)
3166.1.1 = { holder=6020242 } # Wyman (nc)
3168.1.1 = { holder=6021242 } # Aemon (nc)
3196.1.1 = { holder=6022242 } # Buford (nc)
3228.1.1 = { holder=6024242 } # Desmond (nc)
3237.1.1 = { holder=6026242 } # Theodore (nc)





