#House Xhaxos
2960.1.1 = { 
	holder=100304008 
	liege=d_walano
	law = succ_seniority
	law = cognatic_succession
} # Adeyemu (nc)
3003.1.1 = { holder=101304008 } # Odingaxho (nc)
3020.1.1 = { holder=103304008 } # Bapato (nc)
3042.1.1 = { holder=107304008 } # Doshuru (nc)
3102.1.1 = { holder=108304008 } # Rudo (nc)
3117.1.1 = { holder=112304008 } # Odingaxho (nc)
3144.1.1 = { holder=114304008 } # Quhura (nc)
3165.1.1 = { holder=115304008 } # Simbhar (nc)
3176.1.1 = { holder=117304008 } # Orengo (nc)
3222.1.1 = { holder=122304008 } # Bapato (nc)
3232.1.1 = { holder=123304008 } # Doshuru (nc)
3277.1.1 = { holder=126304008 } # Adeyemu (nc)
3290.1.1 = { holder=130304008 } # Kwasdo (nc)
