#c_kayce
1.1.1={
	liege="e_westerlands"
}
1857.1.1 = {
	holder = 150195 #Herrock Whoreson
}
1887.1.1 = { holder = 0 }

2880.1.1 = { holder = 315195 } # Kenning of Kayce, fourth son of Harlaw.
2905.1.1 = { holder = 314195 } 
2945.1.1 = { holder = 313195 }
2975.1.1 = { holder = 312195 }
2982.1.1 = { holder = 311195 }
2998.6.6 = { holder = 310195 }
3036.1.1 = { holder = 309195 }
3040.1.1 = { holder = 308195 }
3093.1.1 = { holder = 307195 }
3116.1.1 = { holder = 306195 }
3129.4.9 = { holder = 305195 }
3173.1.1 = { holder = 304195 }
3196.5.5 = { holder = 303195 }
3236.1.1 = { holder = 302195 }
3261.1.1 = { holder = 300195 }	
3273.1.1 = { holder = 195  }
