1.1.1={
	liege = d_drakaria
}

2995.1.1 = { holder=10006019 } # Aegor (nc)
3030.1.1 = { holder=10026019 } # Aerion (nc)
3073.1.1 = { holder=10056019 } # Jaehaerys (nc)
3115.1.1 = { holder=10086019 } # Aenar (nc)
3131.1.1 = { holder=10096019 } # Rhaegar (nc)
3159.1.1 = { holder=10106019 } # Rhaekar (nc)
3182.1.1 = { holder=10146019 } # Haegon (nc)
3224.1.1 = { holder=10176019 } # Otherys (nc)
3254.1.1 = { holder=10206019 } # Maekar (nc)
3270.1.1 = { holder=10246019 } # Aemon (nc)
3303.1.1 = { holder=10266019 } # Jaekar (nc)
3337.1.1 = { holder=10276019 } # Gaemon (nc)

