1.1.1={
	liege="d_pyke"
	law=succ_primogeniture law=cognatic_succession
}
2993.1.1 = { holder=300064 } # Yohn (nc)
3030.1.1 = { holder=300264 } # Harren (nc)
3065.1.1 = { holder=300664 } # Ambrode (nc)
3073.1.1 = { holder=300764 } # Sigfry (nc)
3096.1.1 = { holder=300964 } # Adrack (nc)
3132.1.1 = { holder=301364 } # Urrigon (nc)
3145.1.1 = { holder=301664 } # Germund (nc)
3183.1.1 = { holder=301864 } # Urek (nc)
3195.1.1 = { holder=302364 } # Alyn (nc)
3205.1.1 = { holder=302664 } # Cadwyl (nc)
3256.1.1 = { holder=9064 }
3281.1.1 = {	
	holder=64
}
3299.12.1={
	holder=7064 #germund
}
