1.1.1={
	liege="e_iron_isles"
	law = agnatic_succession
	law = succ_primogeniture
}

1.1.1={
	liege="e_iron_isles"
	law = agnatic_succession
	law = succ_primogeniture
}
2917.1.1 = { holder = 500174420 } #Urras  Greyiron
2942.1.1 = { holder = 501174420 } #Erich I Greyiron
2943.1.1 = { holder = 0 } 
2956.1.1 = { holder = 502174420 } #Theon I Greyiron (NC)
2993.1.1 = { holder = 354066 } #Sylas 
3009.1.1 = { holder = 503174420 } #Balon I Greyiron (NC)

3034.1.1 = { holder=1000420 } # Joseran (nc)
3042.1.1 = { holder=1002420 } # Joseran (nc)
3088.1.1 = { holder=1004420 } # Beron (nc)
3112.1.1 = { holder=1009420 } # Dykk (nc)
3125.1.1 = { holder=1011420 } # Robin (nc)
3151.1.1 = { holder=1014420 } # Nute (nc)
3187.1.1 = { holder=1016420 } # Erik (nc)
3203.1.1 = { holder=1018420 } # Gorold (nc)
3207.1.1 = { holder=1019420 } # Aeron (nc)
3223.1.1 = { holder=1024420 } # Eerl (nc)
3250.1.1 = { holder=1025420 } # Stygg (nc)
3257.1.1 = { holder=1026420 } # Thormor (nc)
3304.1.1 = { holder=1029420 } # Torwold (nc)
3325.1.1 = { holder=1033420 } # Gorold (nc)


