1.1.1={
	liege = d_port_of_sighs
}

2995.1.1 = { holder=10000350 } # Maegor (nc)
3024.1.1 = { holder=10020350 } # Rhaekar (nc)
3078.1.1 = { holder=10060350 } # Rhaekar (nc)
3105.1.1 = { holder=10120350 } # Rhaekar (nc)
3107.1.1 = { holder=10140350 } # Aelix (nc)
3162.1.1 = { holder=10170350 } # Maekar (nc)
3164.1.1 = { holder=10200350 } # Valarr (nc)
3176.1.1 = { holder=10230350 } # Qoherys (nc)
3201.1.1 = { holder=10280350 } # Rhaegar (nc)
3246.1.1 = { holder=10300350 } # Matarys (nc)
3269.1.1 = { holder=10340350 } # Aemond (nc)
3337.1.1 = { holder=10370350 } # Aenys (nc)

