2978.1.1 = { # Temmo (nc)
	holder=100600203 
	liege = d_vaes_dothrak
} 
3018.1.1 = { holder=101600203 } # Cohollo (nc)
3036.1.1 = { holder=104600203 } # Jhaquo (nc)
3067.1.1 = { holder=105600203 } # Rommo (nc)
3108.1.1 = { holder=108600203 } # Rommo (nc)
3126.1.1 = { holder=111600203 } # Drogo (nc)
3161.1.1 = { holder=114600203 } # Aggo (nc)
3223.1.1 = { holder=116600203 } # Drogo (nc)
3228.1.1 = { holder=117600203 } # Jommo (nc)
3244.1.1 = { holder=122600203 } # Quaro (nc)
3261.1.1 = { holder=123600203 } # Kovarro (nc)
3273.1.1 = {
	holder = 1300100 #Bharbo
}
3287.1.1 = { 
	holder=3300100 #Cohollo
	liege = d_southern_steppe
}
3298.10.10 = {
	holder = 3300101 #Pono
	liege = d_vaes_dothrak
}
