1.1.1={
	liege="d_qarth"
}

2995.1.1 = { holder=100069163 } # Mathos (nc)
3037.1.1 = { holder=100169163 } # Regon (nc)
3054.1.1 = { holder=100569163 } # Urrathon (nc)
3074.1.1 = { holder=100869163 } # Saathos (nc)
3120.1.1 = { holder=100969163 } # Zathor (nc)
3134.1.1 = { holder=101269163 } # Pyat (nc)
3144.1.1 = { holder=101569163 } # Xaro (nc)
3185.1.1 = { holder=101669163 } # Semython (nc)
3209.1.1 = { holder=101769163 } # Urrathon (nc)
3211.1.1 = { holder=102169163 } # Navathos (nc)
3245.1.1 = { holder=102369163 } # Ognos (nc)
3284.1.1 = { holder=102669163 } # Xaro (nc)
