

3162.1.3 = { holder=62113 } # Boran (nc)
3187.1.1 = { holder=62513 } # Symon (nc)
3196.4.18 = { holder=62913 } # Theodan (nc)
3211.2.10 = { holder=63113 } # Doran (nc)
3243.1.1 = { holder=63613 } # Daemon (nc)
3259.2.17 = { holder=9013 } # Boran (nc)
3276.2.12 = { holder=13 } # Harman (C)
