
2994.1.1={
	holder=15100
}
3003.1.1={
	holder=14100
}
3016.1.1={
	holder=13100
}
3028.1.1={
	holder=12100
}
3058.1.1={
	holder=11100
}
3100.1.1={
	holder=9100
}
3123.1.1={
	holder=8100
}
3161.1.1={
	holder=7100
}
3169.1.1={
	holder=6100
}
3212.1.1={
	holder=5100
}
3225.1.1={
	holder=4100
}
3262.1.5={
	holder=100
}
