
2978.1.1 = { holder=10559161 } # Toregg (nc)
3015.1.1 = { holder=11559161 } # Torwynd (nc)
3038.1.1 = { holder=13559161 } # Joramun (nc)
3068.1.1 = { holder=19559161 } # Jarl (nc)
3081.1.1 = { holder=20559161 } # Quent (nc)
3115.1.1 = { holder=23559161 } # Owen (nc)
3170.1.1 = { holder=24559161 } # Lenyl (nc)
3183.1.1 = { holder=26559161 } # Doss (nc)
3192.1.1 = { holder=31559161 } # Mors (nc)
3213.1.1={
	liege="k_beyond_wall"
}
3226.9.9={
	liege="0"
}
3228.1.1 = { holder=32559161 } # Ryk (nc)
3266.1.1 = { holder=33559161 } # Soren (nc)
3273.1.1 = { holder=36559161 } # Eyron (nc)
#3288.1.1 = { holder=38559161 } # Mors (nc)

3282.1.1={
	holder=157009
}
3298.1.1={
	liege="k_beyond_wall"
	holder=157009
}
3300.1.1={
	holder=999000666
}
