1.1.1={
	liege="d_trader_town"
}
2995.1.1 = { holder=10069169 } # Jibril (nc)
3026.1.1 = { holder=10269169 } # Qadir (nc)
3046.1.1 = { holder=10569169 } # Muslihiddin (nc)
3098.1.1 = { holder=10869169 } # Abdullah (nc)
3121.1.1 = { holder=11369169 } # Yahya (nc)
3123.1.1 = { holder=11869169 } # Bahir (nc)
3147.1.1 = { holder=12069169 } # Akin (nc)
3200.1.1 = { holder=12169169 } # Mukhtar (nc)
3205.1.1 = { holder=12669169 } # Mirza (nc)
3249.1.1 = { holder=12969169 } # Idris (nc)
3271.1.1 = { holder=13169169 } # Faruk (nc)


