2478.1.1={
	liege="d_redmountains"
	law=succ_primogeniture
	law = cognatic_succession
}
4751.1.1 = {
	holder = 150016 #Samwell
}
4798.1.1 = {
	holder = 0
}

2935.1.1 = { holder=60016 } # Arthur (nc)
2977.1.1 = { holder=24017 } # Gerold (nc)
3001.2.5= {
holder=23017
}
3054.1.1= {
holder=22017
}
3076.1.1= {
holder=21017
}
3098.1.1= {
holder=20017
}
3112.1.1= {
holder=18017
}
3132.1.1= {
holder=17017
}
3158.8.4= {
holder=15017
}
3159.3.5= {
holder=13017
}
3204.1.1= {
holder=12017
}
3231.1.1= {
holder=11017
}
3265.1.1= {
holder=1017
}
3272.1.1= {
holder=1016
}
3284.1.1= {
holder=6016
}
3296.1.1= {
holder=9016
}
