1.1.1={
	liege="d_kayakayanaya"
	law = succ_seniority
	law = agnatic_succession
}
2995.1.1 = { holder=10055947 } # Pyrkoon (nc)
3031.1.1 = { holder=10255947 } # Pyrkoon (nc)
3032.1.1 = { holder=10455947 } # Usko (nc)
3071.1.1 = { holder=10855947 } # Raitis (nc)
3083.1.1 = { holder=11455947 } # Kari (nc)
3119.1.1 = { holder=11755947 } # Raimo (nc)
3167.1.1 = { holder=11955947 } # Orvo (nc)
3195.1.1 = { holder=12155947 } # Aslak (nc)
3210.1.1 = { holder=12555947 } # Jyri (nc)
3245.1.1 = { holder=13155947 } # Taito (nc)
3298.1.1 = { holder=13555947 } # Jarkko (nc)


