1.1.1={
	liege="k_leng"
}

2995.1.1 = { holder=100055962 } # Yusuf (nc)
3038.1.1 = { holder=100155962 } # Mirza (nc)
3053.1.1 = { holder=100655962 } # Mukhtar (nc)
3076.1.1 = { holder=100955962 } # Husam (nc)
3117.1.1 = { holder=101255962 } # Yusuf (nc)
3118.1.1 = { holder=101355962 } # Youkhanna (nc)
3167.1.1 = { holder=101555962 } # Najib (nc)
3177.1.1 = { holder=101855962 } # Uways (nc)
3179.1.1 = { holder=102155962 } # Uways (nc)
3222.1.1 = { holder=102455962 } # Sami (nc)
3276.1.1 = { holder=102955962 } # Alim (nc)
3288.1.1 = { holder=103255962 } # Jaleel (nc)


