2960.1.1 = { holder=103600207 } # Irri (C)
2998.1.1 = { holder=100010305 } # Sezza (nc)
3005.1.1 = { holder=101010305 } # Gezzella (nc)
3009.1.1 = { holder=102010305 } # Yezza (nc)
3050.1.1 = { holder=103010305 } # Mezzala (nc)
3064.1.1 = { holder=104010305 } # Jezhane (nc)
3098.1.1 = { holder=105010305 } # Mellezzara (nc)
3125.1.1 = { holder=106010305 } # Azzara (nc)
3142.1.1 = { holder=107010305 } # Mezzala (nc)
3167.1.1 = { holder=108010305 } # Ellezzara (nc)
3193.1.1 = { holder=109010305 } # Azzara (nc)
3225.1.1 = { holder=110010305 } # Yezza (nc)
3241.1.1 = { holder=111010305 } # Sezza (nc)
3268.1.1 = { holder=112010305 } # Sezza (nc)

