1.1.1={
	liege="e_new_valyria"
}
2983.1.1 = { holder=100174372 } 
3045.1.1 = { holder=102174372 } 
3049.1.1 = { holder=105174372 } 
3076.1.1 = { holder=107174372 } 
3079.1.1 = { holder=110174372 } 
3094.1.1 = { holder=111174372 } 
3121.1.1 = { holder=112174372 } 
3159.1.1 = { holder=123174372 } 
3167.1.1 = { holder=125174372 } 
3170.1.1 = { holder=127174372 } 
3198.1.1 = { holder=133174372 } 
3231.1.1 = { holder=135174372 } 
3260.1.1 = { holder=137174372 } 
3276.1.1 = { holder=138174372 } 
3278.1.1 = { holder=142174372 } 
