1000.1.1={
	law = succ_primogeniture
}
2894.1.1 = { holder=3100170 }
2940.1.1 = { holder=3201170 }
2996.1.1 = { holder=3000170 }
3046.1.1 = { holder=3001170 }
3055.1.1 = { holder=3004170 }
3098.1.1 = { holder=3011170 } # Othor (nc)
3107.1.1 = { holder=3016170 } # Gyles (nc)
3138.1.1 = { holder=3019170 } # Florian (nc)
3187.1.1 = { holder=3020170 } # Lark (nc)
3214.1.1 = { holder=3022170 } # Denys (nc)
3237.1.1 = { holder=552170 } # Elrond
3238.1.1 = { liege="e_vale" }
3245.1.1 = { holder=3027170 } # Pate (nc)

3271.1.1={
	holder=94041
}
