1.1.1={
	liege="d_linqi_jungle"
}
2995.1.1 = { holder=10069113 } # Yusuf (nc)
3024.1.1 = { holder=10169113 } # Sadiq (nc)
3035.1.1 = { holder=10469113 } # Mirza (nc)
3049.1.1 = { holder=10769113 } # Burhanaddin (nc)
3084.1.1 = { holder=11069113 } # Muzaffaraddin (nc)
3088.1.1 = { holder=11169113 } # Hasan_Hasan (nc)
3120.1.1 = { holder=11469113 } # Uways (nc)
3164.1.1 = { holder=11669113 } # Shamir (nc)
3178.1.1 = { holder=12069113 } # Yahya (nc)
3194.1.1 = { holder=12469113 } # Hussayn (nc)
3205.1.1 = { holder=12769113 } # Mukhtar (nc)
3220.1.1 = { holder=13069113 } # Yahya (nc)
3237.1.1 = { holder=13369113 } # Sami (nc)
3287.1.1 = { holder=13569113 } # Khaireddin (nc)


