1.1.1={ law=succ_primogeniture law=cognatic_succession
	liege="e_reach"
}
45.1.1 = { holder=6000250 } # Rowan Gold-tree (C)
70.1.1 = { holder=0 }
2800.1.1 = { holder=6200250 } # Ronard (nc)
2855.1.1 = { holder=6300250 } # Theodore (nc)
2865.1.1 = { holder=6400250 } # Ryelle (nc)
2893.1.1 = { holder=6500250 } # Perceon (nc)
2904.1.1 = { holder=6800250 } # Linden (nc)
2939.1.1 = { holder=6900250 } # Titus (nc)
2954.1.1 = { holder=6110250 } # Theo (nc)

2990.1.1={
	holder=21250
}
3047.1.1={
	holder=20250
}
3075.1.1={
	holder=19250
}
3097.1.1={
	holder=18250
}
3114.1.1={
	holder=17250
}
3146.1.1={
	holder=16250
}
3157.1.1={
	holder=15250
}
3160.1.1={
	holder=13250
}
3196.1.1={
	holder=12250
}
3224.1.1={
	holder=11250
}
3264.1.1={
	holder=88106
}
3290.1.1={
	holder=88033
}





