1.1.1={
	liege="k_leng"
	law = succ_primogeniture
	law = enatic_succession
}

2995.1.1 = { holder=10055963 } # Shogofa (nc)
3031.1.1 = { holder=10255963 } # Nyawela (nc)
3039.1.1 = { holder=10655963 } # Simin (nc)
3075.1.1 = { holder=10755963 } # Alim (nc)
3096.1.1 = { holder=10855963 } # Rasa (nc)
3126.1.1 = { holder=11255963 } # Semeah (nc)
3147.1.1 = { holder=11655963 } # Reshawna (nc)
3177.1.1 = { holder=11855963 } # Shola (nc)
3197.1.1 = { holder=12055963 } # Layla (nc)
3221.1.1 = { holder=12255963 } # Paywand (nc)
3265.1.1 = { holder=12555963 } # Jahaira (nc)


