2020.1.1 = {
	liege="k_new_ghis"
	holder = 199360025 #Grazdan the Great
}
2068.1.1 = {
	holder = 0
}

2950.1.1 = { holder=150360025 } # Grazdan (nc)
3023.1.1 = { holder=100360025 } # Grazdan (nc)
3041.1.1 = { holder=101360025 } # Skahaz (nc)
3097.1.1 = { holder=104360025 } # Barkhaz (nc)
3112.1.1 = { holder=108360025 } # Marghaz (nc)
3120.1.1 = { holder=112360025 } # Grazdan (nc)
3141.1.1 = { holder=114360025 } # Yezzan (nc)
3164.1.1 = { holder=117360025 } # Gazdhor (nc)
3179.1.1 = { holder=122360025 } # Marghaz (nc)
3231.1.1 = { holder=124360025 } # Grazdan (nc)
3251.1.1 = { holder=126360025 } # Maezon (nc)
3277.1.1 = { holder=130360025 } # Grazdan (nc)
