1.1.1={
	law = succ_primogeniture
}
2970.1.1 = { holder=3050363 } # Robert (nc)
2995.6.1 = { holder=3051363 } # Denys (nc)
3028.1.1 = { holder=3003363 } # Mandon (nc)
3029.1.1 = { holder=3004363 } # Jon (nc)
3080.1.1 = { holder=3006363 } # Wallace (nc)
3089.1.1 = { holder=3009363 } # Robert (nc)
3123.1.1 = { 
	holder=3012363 # Wyl (nc)
} 
3148.1.1 = { holder=3016363 } # Elbert (nc)
3175.1.1 = { holder=3017363 } # Horton (nc)
3193.1.1 = { holder=3019363 } # Rolland (nc)
3203.1.1 = { holder=3020363 } # Osmund (nc)
3232.1.1 = { holder=3023363 } # Eustace (nc)
3240.1.1 = { holder=3024363 } # Mandon (nc)
3277.1.1={
	holder=10363
}
