1.1.1={
	liege="k_tiqui"
	law = succ_ultimogeniture
}
2996.1.1 = { holder=10055959 } # Sadiq (nc)
3029.1.1 = { holder=10355959 } # Hussayn (nc)
3040.1.1 = { holder=10655959 } # Muzaffaraddin (nc)
3079.1.1 = { holder=10755959 } # Nizam (nc)
3091.1.1 = { holder=10855959 } # Aarif (nc)
3107.1.1 = { holder=11355959 } # Jaleel (nc)
3166.1.1 = { holder=11655959 } # Husam (nc)
3207.1.1 = { holder=11855959 } # Bahir (nc)
3216.1.1 = { holder=11955959 } # Hafiz (nc)
3237.1.1 = { holder=12255959 } # Ghalib (nc)
3289.1.1 = { holder=12755959 } # Abdul (nc)


