1.1.1={
	law = succ_primogeniture
	law = cognatic_succession
}
2988.1.1 = { holder=3000177 } # Vardis (nc)
3023.1.1 = { holder=3001177 } # Eon (nc)


3024.1.1 = { holder=500177 } # Waymar (nc)


3064.1.1 = { holder=3007177 } # Morton (nc)
3086.1.1 = { holder=3008177 } # Petyr (nc)
3150.1.1 = { holder=3009177 } # Damon (nc)
3158.1.1 = { holder=3010177 } # Triston (nc)
3194.1.1 = { holder=3012177 } # Raymar (nc)
3203.1.1 = { holder=3014177 } # Pate (nc)
3214.1.1 = { holder=3018177 } # Vardis (nc)

3260.1.1={
	holder=94052
}
3300.1.1={
	holder=94053
}

