#New Nicknames
nick_the_one_eyed = {
	allow = {
		trait = one_eyed
	}	
	chance = {
		factor = 2
	}
}
nick_the_reaver = {
	allow = {
		OR = {
			trait = on_reaving
			trait = viking
		}	
	}	
	chance = {
		factor = 1
	}
}
nick_the_firegazer = {
	allow = {
		age = 16
		trait = fire_obsessed
	}	
	chance = {
		factor = 2
	}
}
nick_the_dragonlord = {
	allow = {
		age = 16
		trait = dragon_rider
		is_female = no
		NOT = { dynasty = 496 }
	}	
	chance = {
		factor = 0.2
		modifier = {
			factor = 4
			NOT = { has_global_flag = age_of_dragons }
		}
		modifier = {
			factor = 2
			NOT = { culture_group = valyrian }
		}
		modifier = {
			factor = 2
			NOT = { father_even_if_dead = { trait = dragon_rider } }
			NOT = { mother_even_if_dead = { trait = dragon_rider } }
		}
	}
}
nick_the_elegant = {
	allow = {
		age = 16
		has_fashionable_groomed_trigger = yes
		NOT = { has_ugly_trait_trigger = yes }
	}	
	chance = {
		factor = 1
		modifier = {
			factor = 3
			trait = fair
		}
	}
}
nick_the_imperious = {
	allow = {
		age = 16
		trait = authoritative
		OR = {
			trait = just
			martial = 10
			diplomacy = 10
			trait = gregarious
		}
	}	
	chance = {
		factor = 2
	}
}
nick_the_rude = {
	allow = {
		age = 16
		trait = rude
	}	
	chance = {
		factor = 1
	}
}
nick_the_uncaring = {
	allow = {
		age = 16
		trait = selfish
		NOT = { trait = kind }
		NOT = { trait = diligent }
		NOT = { trait = just }
		OR = {
			trait = arbitrary
			trait = cruel
			trait = slothful
		}
	}	
	chance = {
		factor = 2
	}
}
nick_the_merciless = {
	allow = {
		age = 16
		trait = ruthless
		NOT = { trait = kind }
	}	
	chance = {
		factor = 1
		modifier = {
			factor = 2
			trait = cruel
		}
		modifier = {
			factor = 2
			trait = wroth
		}
	}
}
nick_the_red_robed = {
	allow = {
		age = 16
		trait = red_priest
		is_theocracy = no
	}	
	chance = {
		factor = 2
	}
}
nick_the_drowned_king = {
	allow = {
		age = 16
		trait = drowned
		is_feudal_monarch_trigger = yes
		is_female = no
	}	
	chance = {
		factor = 2
	}
}
nick_the_septon_king = {
	allow = {
		age = 16
		trait = septon
		is_feudal_monarch_trigger = yes
		is_female = no
	}	
	chance = {
		factor = 2
	}
}
nick_stoneface = {
	allow = {
		age = 16
		trait = greyscale_scarred
	}	
	chance = {
		factor = 2
	}
}
nick_the_tolerant = {
	allow = {
		age = 16
		has_any_sympathy_trait_trigger = yes
		NOT = { trait = proud }
		NOT = { trait = wroth }
		NOT = { trait = zealous }
		NOT = { trait = ruthless }
		NOT = { trait = cruel }
	}	
	chance = {
		factor = 1
		modifier = {
			factor = 2
			trait = humble
		}
		modifier = {
			factor = 2
			trait = patient
		}
		modifier = {
			factor = 2
			trait = cynical
		}
		modifier = {
			factor = 2
			trait = honorable
		}
		modifier = {
			factor = 2
			trait = kind
		}
	}
}
nick_the_whore = {
	allow = {
		age = 20
		trait = lustful
		is_female = yes
		OR = {
			any_lover = {
				is_close_relative = PREV
			}
			num_of_lovers = 3
			trait = hedonist
		}
	}
	chance = {
		factor = 1
		modifier = {
			factor = 2
			any_lover = {
				is_close_relative = PREV
			}		
		}
		modifier = {
			factor = 2
			num_of_lovers = 2	
		}
		modifier = {
			factor = 2
			num_of_lovers = 3		
		}
		modifier = {
			factor = 2
			num_of_lovers = 4		
		}
		modifier = {
			factor = 2
			num_of_lovers = 6
		}
	}
}
nick_the_lusty = {
	allow = {
		age = 20
		trait = lustful
		is_female = no
		OR = {
			any_lover = {
				is_close_relative = PREV
			}
			num_of_lovers = 3
			trait = hedonist
		}
		NOT = { culture = dothraki }
	}
	chance = {
		factor = 1
		modifier = {
			factor = 2
			any_lover = {
				is_close_relative = PREV
			}		
		}
		modifier = {
			factor = 2
			num_of_lovers = 2	
		}
		modifier = {
			factor = 2
			num_of_lovers = 3		
		}
		modifier = {
			factor = 2
			num_of_lovers = 4		
		}
		modifier = {
			factor = 2
			num_of_lovers = 6
		}
	}
}
nick_the_queer = {
	allow = {
		is_female = no
		trait = homosexual
	}
	chance = {
		factor = 1
		modifier = {
			factor = 2
			has_fashionable_groomed_trigger = yes	
		}
	}
}
nick_of_the_scourge_of_location = {} #scourge of [Root.Location.getName]
nick_of_the_bane_of_location = {}
nick_of_the_hero_of_location = {}
nick_of_the_lion_of_location = {}
nick_of_the_sword_of_location = {}
nick_of_the_star_of_location = {}
nick_of_the_butcher_of_location = {}
nick_of_the_fist_of_location = {}
nick_of_the_dragon_of_location = {}
nick_of_the_wolf_of_location = {}
nick_of_the_demon_of_location = {}
nick_of_the_burner_of_location = {}
nick_of_the_breaker_of_location = {}
nick_of_the_shield_of_location = {}
nick_of_the_spear_of_location = {}
nick_of_the_axe_of_location = {}
nick_of_the_hammer_of_location = {}

nick_the_culture_group = { #the [Root.CultureGroup.GetName]
	allow = {
		is_ruler = yes
		OR = {
			culture_group = andal
			AND = {
				culture_group = dornish
				NOT = { culture = rhoynar }
			}
		}
		capital_scope = {
			NOT = { culture_group = ROOT }
			NOT = { region = world_westeros }
		}
	}	
	chance = {
		factor = 2
	}
} 

##bastards
nick_waters = { }
nick_snow = { }
nick_rivers = { }
nick_stone = { }
nick_hill = { }
nick_flowers = { }
nick_storm = { }
nick_sand = { }
nick_pyke = { }
nick_fyre = { }

# #Yi Ti Emperors
# nick_grey_emperor = {}
# nick_indigo_emperor = {}
# nick_jadegreen_emperor = {}
# nick_seagreen_emperor = {}
# nick_azure_emperor = {}
# nick_orange_emperor = {}
# nick_teal_emperor = {}
# nick_purple_emperor = {}
# nick_skyblue_emperor = {}
# nick_yellow_emperor = {}
# nick_scarlet_emperor = {}
# nick_red_emperor = {}
# nick_onyx_emperor = {}
# nick_limegreen_emperor = {}
# nick_magenta_emperor = {}
# nick_brown_emperor = {}
# nick_amethyst_emperor = {}
# nick_ashgrey_emperor = {}
# nick_blueviolet_emperor = {}
# nick_violet_emperor = {}
# nick_lilac_emperor = {}
# nick_silver_emperor = {}
# nick_maroon_emperor = {}
# nick_coralred_emperor = {}
# nick_fuchsia_emperor = {}
# nick_copper_emperor = {}
# nick_fandango_emperor = {}
# nick_mauve_emperor = {}
# nick_taupe_emperor = {}
# nick_mossgreen_emperor = {}
# nick_claret_emperor = {}
# nick_celadon_emperor = {}
# nick_carmine_emperor = {}
# nick_burgundy_emperor = {}
# nick_bronze_emperor = {}
# nick_celeste_emperor = {}
# nick_pearlwhite_emperor = {}
# nick_pink_emperor = {}
# nick_cyan_emperor = {}

#duel nicknames
nick_the_lionslayer = { }
nick_wolfsbane = { }
nick_the_viper = { }

#Hill Clansman
nick_the_dynasty = {  #e.g. #the Liddle
	allow = {
		culture = hill_clansman
		NOT = { dynasty = 0 }
		dynasty_head = { character = PREV }
	}
	chance = {
		factor = 3
	}
}
nick_big_dynasty = {  #e.g. #Big Liddle
	allow = {
		culture = hill_clansman
		NOT = { dynasty = 0 }
		OR = {
			trait = tall
			trait = is_fat
		}	
		NOT = { trait = dwarf }
	}
	chance = {
		factor = 3
	}
}
nick_middle_dynasty = {  #e.g. #Middle Liddle
	allow = {
		culture = hill_clansman
		NOT = { dynasty = 0 }
		is_strong_trigger = no
		is_weak_trigger = no
		NOT = { trait = tall }
		NOT = { trait = dwarf }
		NOT = { trait = is_fat }
		any_sibling = { 
			OR = {
				trait = tall
				trait = is_fat
				is_strong_trigger = yes
			}
		}
		any_sibling = { 
			OR = {
				trait = dwarf
				is_weak_trigger = yes
			}
		}
	}
	chance = {
		factor = 3
	}
}
nick_little_dynasty = {  #e.g. #Little Liddle
	allow = {
		culture = hill_clansman
		NOT = { dynasty = 0 }
		OR = {
			trait = dwarf
			is_weak_trigger = yes
		}	
		NOT = { trait = tall }
	}
	chance = {
		factor = 3
	}
}
nick_wee_dynasty = {  #e.g. #Wee Liddle
	allow = {
		culture = hill_clansman
		NOT = { dynasty = 0 }
		OR = {
			trait = dwarf
			is_weak_trigger = yes
		}	
		NOT = { trait = tall }
	}
	chance = {
		factor = 3
	}
}
nick_mad_dynasty = { } #e.g. #Mad Liddle
nick_strong_dynasty = { }
nick_lame_dynasty = { }
nick_fat_dynasty = { }
nick_wise_dynasty = { }
nick_bold_dynasty = { }
nick_young_dynasty = { }
nick_old_dynasty = { }
nick_grey_dynasty = { }
nick_great_dynasty = { }
nick_black_dynasty = { }
nick_bad_dynasty = { }
nick_rude_dynasty = { }
nick_silver_dynasty = { }
nick_good_dynasty = { }
nick_grim_dynasty = { }
nick_red_dynasty = { }
nick_evil_dynasty = { }
nick_sweet_dynasty = { }
nick_blind_dynasty = { }
nick_drunk_dynasty = { }
nick_loyal_dynasty = { }
nick_dragon_dynasty = { }
nick_lazy_dynasty = { }
nick_wild_dynasty = { }
nick_giant_dynasty = { }
nick_white_dynasty = { }
nick_dark_dynasty = { }

nick_the_Liddle = {}
nick_Big_Liddle = {}
nick_Middle_Liddle = {}
nick_Little_Liddle = {}	
nick_Wee_Liddle = {}	
nick_the_Knott = {}
nick_Big_Knott = {}		
nick_the_Wull = {}		
nick_the_Norrey = {}  
nick_Big_Norrey = {}	

#Canon Nicknames
nick_the_beggar_king = {
	allow = {
		NOT = { wealth = -150 }
		is_feudal_monarch_trigger = yes
		is_female = no
		OR = {
			culture_group = andal
			culture_group = first_men
			culture_group = iron_isles_culture
			primary_title = { title = e_iron_throne }
		}
	}	
	chance = {
		factor = 0.5
	}
}
nick_the_mountain_that_rides = {
	allow = {
		age = 16
		is_strong_trigger = yes
		trait = tall
		combat_rating = 60
	}
	chance = {
		factor = 2
		modifier = {
			factor = 1.5
			trait = cruel
		}
		modifier = {
			factor = 1.25
			trait = poor_warrior
		}
		modifier = {
			factor = 1.5
			trait = trained_warrior
		}
		modifier = {
			factor = 1.75
			trait = skilled_warrior
		}
		modifier = {
			factor = 2
			trait = master_warrior
		}
	}
}
nick_the_imp = {
	allow = {
		age = 15
		trait = dwarf
	}
	chance = {
		factor = 1
		modifier = {
			factor = 2
			has_ugly_trait_trigger = yes
		}
		modifier = {
			factor = 2
			trait = hunchback
		}
		modifier = {
			factor = 2
			trait = clubfooted
		}
		modifier = {
			factor = 2
			trait = harelip
		}
	}
}
nick_the_gallant = {
	allow = {
		age = 16
		trait = honorable
		OR = {
			trait = knight
			trait = trained_warrior
			trait = skilled_warrior
			trait = master_warrior
		}
	}
	chance = {
		factor = 2
	}	
}
nick_the_unworthy = { 			#77020 Aegon IV the Unworthy
	allow = {
		age = 20
		NOT = { piety = 0 }
	}
	chance = {
		factor = 2
		modifier = {
			factor = 2
			trait = hedonist
		}
		modifier = {
			factor = 2
			trait = lustful
		}
		modifier = {
			factor = 2
			trait = is_fat
		}
		modifier = {
			factor = 2
			trait = cynical
		}
	}
}
nick_the_monstrous = {
	allow = {
		age = 16
		OR = {
			AND = {
				trait = ugly
				OR = {
					trait = uncouth
					trait = clubfooted
					trait = harelip
					trait = hunchback
					has_scarred_trait_trigger = yes
					trait = inbred
					trait = greyscale_scarred
					trait = disfigured_AGOT
					trait = disfigured
				}
			}
			AND = {
				trait = cruel
				OR = {
					trait = lunatic
					trait = wroth
					trait = impaler
				}
			}
		}
	}
	chance = {
		factor = 3
	}
} 		#77033 Aerion the Monstrous
nick_old_hawk = {
	allow = {
		age = 55
		trait = falconer
		NOT = { trait = incapable }
		NOT = { trait = infirm }
		martial = 10
	}
	chance = {
		factor = 3
	}
}
nick_the_knight = {
	allow = {
		trait = knight
		NOT = { religion = the_seven }
		NOT = { father_even_if_dead = { religion = the_seven } }
	}
	chance = {
		factor = 2
	}
}
nick_silverhair = {
	allow = {
		NOT = { culture_group = valyrian }
		graphical_culture = valyriangfx
	}
	chance = {
		factor = 2
	}
}
nick_the_gross = {
	allow = {
		age = 16
		trait = is_fat
		OR = {
			trait = hedonist
			trait = rude
			trait = wroth
		}
	}
	chance = {
		factor = 2
	}
}
nick_the_lazy = {
	allow = {
		age = 16
		trait = slothful
	}
	chance = {
		factor = 1
	}
}
nick_the_old_bear = {
	allow = {
		age = 55
		is_female = no
		dynasty = 102
	}
	chance = {
		factor = 2
	}
}
nick_the_leech_lord = {
	allow = {
		age = 30
		is_female = no
		dynasty = 87
	}
	chance = {
		factor = 0.25
	}
}
nick_the_skinchanger = {
	allow = {
		trait = greensight
		OR = {
			trait = wolf
			trait = crow
		}
	}
	
	chance = {
		factor = 2
	}
}
nick_the_young_dragon = {
	allow = {
		OR = {
			dynasty = 496
			dynasty = 57
		}	
		ruled_years = 5
		NOT = { age = 20 }
	}
	chance = {
		factor = 2
		modifier = {
			factor = 2.0
			NOT = { age = 15 }
		}
	}
}
nick_drunken_giant = {
	allow = {
		trait= tall
		trait= drunkard
		is_strong_trigger = yes
	}
	
	chance = {
		factor = 5
	}
}
nick_the_tall = {
	allow = {
		trait= tall
	}
	chance = {
		factor = 1
	}
}
nick_the_broken = {
	allow = {
		is_crippled_trigger = yes
	}
	
	chance = {
		factor = 2
	}
}
nick_the_rapist = {
	allow = {
		is_female = no
		trait = lustful
		OR = {
			trait = cruel
			trait = arbitrary
		}
		NOR = {
			trait = just
			trait = kind
			trait = honorable
		}
	}
	
	chance = {
		factor = 1
	}
}
nick_the_openhanded = {
	allow = {
		trait = charitable
	}	
	chance = {
		factor = 1
	}
}
nick_the_oathbreaker = {
	allow = { 
		has_character_flag = oathbreaker
	}
	chance = {
		factor = 3
	}
}
nick_the_stallion_that_mounts_the_world = {
	allow = {
		tier = EMPEROR
		culture = dothraki
		is_female = no
		age = 16
		prestige = 4000
		is_nomadic = yes
		has_character_modifier = greatest_of_khans
	}
	chance = {
		factor = 2
		modifier = {
			factor = 1.5
			prestige = 5000
		}
		modifier = {
			factor = 1.5
			prestige = 6000
		}
		modifier = {
			factor = 1.5
			prestige = 7000
		}
		modifier = {
			factor = 1.5
			trait = master_warrior
		}
		modifier = {
			factor = 1.5
			martial = 15
		}
		modifier = {
			factor = 1.5
			martial = 18
		}
		modifier = {
			factor = 1.5
			martial = 21
		}
	}
}
nick_the_knight_of_kisses = {
	allow = {
		trait = knight
		trait = homosexual
		lower_tier_than = KING
	}	
	chance = {
		factor = 0.25
	}
}
nick_the_beautiful = { 
	allow = {
		age = 16
		has_fashionable_groomed_trigger = yes
		trait = fair
	}	
	chance = {
		factor = 3
	}
}
nick_the_golden = {
	allow = {
		dynasty = 190 #Lannister
		prestige = 1000
	}	
	chance = {
		factor = 1
		modifier = {
			factor = 0.5
			lower_tier_than = KING
		}
	}
}
nick_longthorn = {
	allow = {
		ruled_years = 15
		martial = 12
		OR = {
			trait = skilled_warrior
			trait = master_warrior
			prestige = 2000
		}
		dynasty = 253 #Tyrell
	}
	chance = {
		factor = 2
		modifier = {
			factor = 2
			prestige = 2000
		}
		modifier = {
			factor = 2
			prestige = 3000
		}
		modifier = {
			factor = 2
			prestige = 4000
		}
	}
}
nick_the_red_lion = {
	allow = {
		ruled_years = 15
		martial = 12
		OR = {
			trait = skilled_warrior
			trait = master_warrior
			prestige = 2000
		}
		dynasty = 197 #Reyne
	}
	chance = {
		factor = 2
		modifier = {
			factor = 2
			prestige = 2000
		}
		modifier = {
			factor = 2
			prestige = 3000
		}
		modifier = {
			factor = 2
			prestige = 4000
		}
	}
}
nick_the_grey_lion = {
	allow = {
		ruled_years = 20
		age = 55
		OR = {
			dynasty = 190 #Lannister
			dynasty = 197 #Reyne
			dynasty = 235 #Osgrey		
		}
	}
	chance = {
		factor = 5
		modifier = {
			factor = 2.0
			age = 65
		}
		modifier = {
			factor = 10.0
			age = 75
		}
		modifier = {
			factor = 1.5
			ruled_years = 30
		}
		modifier = {
			factor = 1.5
			ruled_years = 40
		}
	}
}
nick_the_lion_king = {
	allow = {
		martial = 15
		trait = ambitious
		is_feudal_monarch_trigger = yes
		is_female = no
		OR = {
			dynasty = 190 #Lannister
			dynasty = 197 #Reyne
			dynasty = 235 #Osgrey		
		}
	}
	chance = {
		factor = 1
	}
}
nick_evenstar = {
	allow = {
		dynasty = 54 #Tarth
		prestige = 600
	}	
	chance = {
		factor = 1
		modifier = {
			factor = 0.5
			lower_tier_than = KING
		}
		modifier = {
			factor = 2
			prestige = 1000
		}
		modifier = {
			factor = 2
			prestige = 1500
		}
	}
}
nick_the_munificent = {
	allow = {
		age = 20
		trait = charitable
		OR = {
			trait = honorable
			trait = just
		}	
	}	
	chance = {
		factor = 2
	}	
}
nick_the_amazing = {
	allow = {
		age = 20
		higher_tier_than = DUKE
		prestige = 2500
	}	
	chance = {
		factor = 1
	}
}
nick_the_dreamer = {
	allow = {
		OR = {
			trait = dragon_dreams
			trait = greensight
		}
	}	
	chance = {
		factor = 3
	}
}
nick_the_silver = { 
	allow = {
		has_silver_nickname_prereq_trigger = yes
		NOT = { high_valyrian_dynasty_trigger = yes }
	}	
	chance = {
		factor = 1
	}
}
nick_the_giant = { 
	allow = {
		trait = tall
		NOT = { trait = giant }
		is_weak_trigger = no
	}	
	chance = {
		factor = 1
		modifier = {
			factor = 2
			is_strong_trigger = yes
		}
	}
}
nick_the_old_ox = {
	allow = {
		age = 55
		is_female = no
		dynasty=284
	}
	chance = {
		factor = 2
	}
}
nick_the_old_falcon = {
	allow = {
		age = 55
		is_female = no
		dynasty=178
	}
	chance = {
		factor = 2
	}
}
nick_the_old_kraken = {
	allow = {
		age = 55
		is_female = no
		dynasty=107
	}
	chance = {
		factor = 2
	}
}
nick_the_young_wolf = {
	allow = {
		dynasty = 59	
		ruled_years = 5
		NOT = { age = 20 }
	}
	chance = {
		factor = 2
		modifier = {
			factor = 2.0
			NOT = { age = 15 }
		}
	}
}
nick_stormborn = {}
nick_the_kingslayer = {}
nick_the_hound = {}
nick_blackfish = {}
nick_greatjon = {}
nick_littlejon = {}
nick_the_red_viper = {}
nick_bronze_yohn = {}
nick_the_knight_of_flowers = {}
nick_the_queen_of_thorns = {}
nick_crows_eye = {}
nick_littlefinger = {}
nick_black_walder = {}
nick_pimple = {}
nick_jingelbells = {}
nick_the_red_crab = {}
nick_the_conciliator = {} 		#77006 Jaehaerys I the Conciliator
nick_the_unlikley = {}			#77034 Aegon V the Unlikley
nick_the_small = {}				#77035 Duncan the Small
nick_the_giantsslayer = {} 		#77112 Godgry the Giantsslayer
nick_the_onion_knight = {}
nick_darkstar = {}
nick_the_big_man = {}
nick_bonehand = {}
nick_the_humpback = {}
nick_the_blue = {}
nick_brightsmile = {}
nick_the_mad_maid = {}
nick_greysteel = {}
nick_the_white_bull = {}
nick_horror = {}
nick_slobber = {}
nick_strongboar = {}
nick_crowfood = {}
nick_whoresbane = {}
nick_red_walder = {}
nick_silveraxe = {}
nick_red_ronnet = {}
nick_greybeard = {}
nick_pennylover = {}
nick_the_big_buket = {}
nick_buckets = {}
nick_the_shebear = {}
nick_dolorous_ed = {}
nick_sand_snake = {}
nick_the_sword_of_the_morning = {}
nick_hodor = {}
nick_the_wetnurse = {}
nick_damphair = {}
nick_greenhand = {}
nick_fireball = {}
nick_hardstone = {}
nick_the_reader = {}
nick_giantsbane = {}
the_king_who_knelt = { }
the_daughterless = { }
the_bard = { }
the_implacable = { }
nick_rattleshirt = {}
nick_bittersteel = {}
nick_bloodraven = {}
nick_seastar = {}
nick_butcher = {}
nick_dragonbane = {}
nick_the_dragonknight = {} 
nick_breakspear = {}
nick_oakenfist = {}
nick_redbeard = {}
nick_the_green_oak = {}
nick_redtusk = {}
nick_cleftjaw = {}
nick_the_goat = {}
nick_reek = {}
nick_the_pale_griffin = {}
nick_the_krakens_daughter = {}
nick_the_maid = {}
nick_the_bull = {}
nick_the_white_owl = {}
nick_the_evenstar = {}
nick_the_white_bastard = {}
nick_the_faithless = {}
nick_the_sleepy = {}
nick_the_acolyte = {}
nick_the_long = {}
nick_the_red = {}
nick_the_kingmaker = {}
nick_the_demon_of_darry = {}
nick_the_dogshead = {}
nick_the_lord_lamprey = {}
nick_duckfield  = {}
nick_ironhand = {}
nick_the_purple = {}
nick_the_laughing_storm = {}
nick_the_frog = {}
nick_greatheart = {}
nick_the_neveryield = {}
nick_greycloak = {}
nick_the_spring_king = {}
nick_hardhand = {}
nick_the_moon_king = {}
nick_the_bridegroom = {}
nick_the_sweet = {}
nick_the_bitter = {}
nick_ice_eyes = {}
nick_snowbeard = {}
nick_the_hungry_wolf = {}
nick_the_shipwright = {}
nick_the_burner = {}
nick_the_builder = {}
nick_anvilbreaker = {}
nick_the_krakenslayer = {}
nick_ironreaver = {}
nick_the_black_reaver = {}
nick_the_red_reaver = {}
nick_ironfist = {}
nick_ironsword = {}
nick_ironshield = {}
nick_the_raider = {}
nick_ironraider = {}
nick_ironheart = {}
nick_sixskins = {}
nick_the_weeper = {}
nick_sealskinner = {}
nick_white_mask = {}
nick_crowkiller = {}
nick_the_wanderer = {}
nick_the_faithfull = {}
nick_corpsekiller = {}
nick_lophand = {}
nick_inkpots = {}
nick_long = {}
nick_redback = {}
nick_the_bald = {}
nick_the_titan = {}
nick_ginger = {}
nick_longspear = {}
nick_shieldbreaker = {}
nick_the_huntsman = {}
nick_of_the_brown_shield = {}
nick_the_thrice_drowned = {}
nick_the_dragontamer = {}
nick_the_griffin_king = {}
nick_the_clever = {}
nick_the_defiant = {}
nick_the_stormbreaker = {}
nick_redraven = {}
nick_arya = {}
nick_the_grey = {}
nick_the_talon = {}
nick_the_horned_king = {}
nick_the_unsmiling = {}
nick_the_barber = {}
nick_tanner = {}
nick_apple_eater = {}
nick_the_iron_storm = {}
nick_redhand = {}
nick_the_latecomer = {}
nick_badbrother = {}
nick_the_grey_king = {}
nick_goldentounge = {}
nick_butcher_king = {}
nick_the_virile = {}
nick_the_ironrod = {}
nick_the_wandering_wolf = {}
nick_the_pander = {}
nick__of_the_Black_Hood = {}
nick_the_mighty = {}
nick_triarch_life = {}
nick_of_the_black_hood = {}
nick_of_the_ebon_prince = {}
nick_the_red_kraken = {}
nick_roddy_the_ruin = {}
nick_bloody_ben = {}
nick_hewer = {}
nick_fighting_fool = {}
nick_halfmaester = {}
nick_the_Beast_of_Harrenhall = {}
nick_the_Riverman = {}
nick_the_dragonslayer = {}
nick_the_wild = {}
nick_seasnake = {}
nick_lion_braavos = {}
nick_the_Hammer_of_Justice = {} # Mudd Superhero 
nick_the_brute = {}		
nick_the_limp = {}
nick_the_tormentor = {}
nick_the_niggardly = {}
nick_the_lackwit = {}
nick_queen_lorea = {}
nick_thunderbolt = {}
nick_the_last = {}
nick_the_half_drowned = {}
nick_the_boarkiller = {}
nick_the_plowman = {}
nick_the_blind_bowman = {}
nick_the_hooded_man = {}
nick_the_late_lord = {}
nick_crabfeeder = {}
nick_breakbones = {}
nick_the_dragon_fake = { }
nick_the_daring = { }
nick_blackhair = {}
nick_of_the_count = {}
nick_the_spotted_cat = {}
nick_bonebreaker = {}
nick_the_steelskin = {}
nick_mistress_swords = {}
nick_wild_flower = {}
nick_vieled_lady = {}
nick_merling_queen = {}
nick_moonshadow = {}
nick_daughter_dusk = {}
nick_nightingale = {}
nick_poetess = {}
nick_black_pearl = {}
nick_the_last_valyrian = {}
nick_the_fox = {}
nick_the_mummer = {}
nick_the_guest = {}

nick_the_gardener = {}
nick_grey_eyes = {}
nick_the_grim = {}
nick_the_woe = {}
nick_the_hammer = {}
nick_the_morningstar = {}
nick_the_goldenhand = {}
nick_the_gods_fearing = {}
nick_the_mason = {}
nick_the_madling = {}
nick_the_death_killer = {}
nick_the_painter = {}

nick_the_oak = {}
nick_of_the_vines = {}
nick_the_archer = {}
nick_of_the_bloody_blade = {}
nick_oakenshield = {}
nick_the_hunter = {}
nick_of_the_horn = {}
nick_the_breaker = {}
nick_of_red_lake = {}
nick_ever_sweet = {}
nick_gold_tree = {}
nick_brightflame = {}
nick_one_hand = {}
nick_the_vulture_king = {}
nick_the_savage = {}
nick_the_devout = {}
nick_the_dragonless = {}
nick_palehair = {}
nick_the_flea = {}
nick_the_sea_lion = {}
nick_the_twisted = {}
nick_lord_battles = {}
nick_of_the_high_tower = {}
nick_redarm = {}
nick_the_laughing_wolf_canon = {}
nick_blacksword = {}
nick_silvertounge = {}
nick_bronze_bitch = {}
nick_the_saddlesore = { }
nick_the_ruined = {}
nick_the_hopeful = {}
nick_the_kinslayer = {}
nick_the_king_who_flew = {}
nick_ironfoot = { }
nick_raven_feeder = { }
nick_flatnose = { }
nick_the_raper = { }
nick_the_eagle = { }
nick_coldwind = { }
nick_maidensbane = { }
nick_stumphand = { }
nick_widowmaker = { }
nick_priestkiller = { }
nick_the_fierce = { }
nick_the_soulless = { }
nick_demonlover = { }
nick_the_red_smile = { }
nick_the_host = { }
nick_the_haggler = { }
nick_the_heartless = { }
nick_the_necromancer = { }
nick_the_last_reaver = { }
nick_the_holy_fool = { }
nick_bloodborn = { }
nick_the_mad_mouse = { }
nick_bronze_axe = { }
nick_the_dour = { }
nick_ravenfriend = { }
nick_kin_killer = { }
nick_the_sailmaker = { }
nick_the_dim = { }
nick_halfblood = { }
nick_godsgrief = { }
nick_milk_eye = { }
nick_softspear = { }
nick_the_sword_of_the_evening = { }
nick_starfire = { }
nick_the_blind_king = {} #can be added by event
nick_the_blind_queen = { }
nick_the_nimble = { }
nick_the_darling_of_the_vale = { }
nick_the_whoreson = { }
nick_the_widowlover = { }
nick_the_laughing_lion = { }
nick_the_windrider = { }
nick_the_arrow_of_jhahar = { }
nickname_quiver = { }
nick_the_dragon_of_the_north = { }
nick_frostfinger = { }
nick_the_sheep_lover = { }
nick_wyvernsbane = { }
nick_spotted_butcher = { }
nick_nine_eyes = { }
nick_glittering_god = { }
nick_longspoon = { }
nick_misery_the_white_worm = { }
nick_squint_eye = { }
nick_the_boy_too_bold_by_half = { }
nick_the_lace_serpent = { }
nick_darkrobin = { }
nick_the_hammer_of_the_jogos_nhai = { }
nick_stoneheart = { }
nick_lemoncloak = { }
nick_be_lucky = { }
nick_the_red_widow = { }
nick_the_drunken = { }
nick_the_queen_who_never_was = { }
nick_the_blue_bard = { }
nick_the_late = { }
nick_the_cautious = { }
nick_the_indecisive = { }
nick_the_ditherer = { }
nick_the_waverer = { }
nick_the_hesitant = { }
nick_the_vole = { }
nick_the_widow_of_the_waterfront = { }
nick_the_yellow = { }
nick_the_green = { }
nick_the_orange = { }
nick_the_spotted = { }
nick_the_white = { }
nick_the_unwashed = { }
nick_the_hand_of_chaos = { }
nick_the_saviour = { }
nick_the_champion_of_kingdom = { }
nick_the_triumphant = { }
nick_the_emancipator = { }
nick_the_breaker_of_chains = { }
nick_the_deliverer = { }
nick_mother = { }
nick_father = { }
nick_the_iron = { }
nick_the_mage = { }
nick_the_enchantress = { }
nick_the_seductress = { }
nick_the_wanton = { }
nick_the_loose = { }
nick_the_promiscuous = { }
nick_the_unchaste = { }
nick_the_easy = { }
nick_the_charming = { }
nick_the_captivating = { }
nick_the_luring = { }
nick_the_adulterer = { }
nick_the_rake = { }
nick_the_sensual = { }
nick_the_sordid = { }
nick_the_belly = { }
nick_the_sour = { }
nick_dance_for_me = { }
nick_steelshanks = { }
nick_longinch = { }
nick_yellow = { }
nick_the_barbarian = { }
nick_night_walker = { }
nick_the_bad_apple = { }
nick_the_big = { }
nick_blackshield = { }
nick_the_smiling_knight = { }
nick_stripeback = { }
nick_the_brown = { }
nick_toad = { }
nick_greenbeard = { }
nick_the_sword_of_the_gods = {}
nick_the_ham = {}
nick_the_valiant = {}
nick_the_wasp = {}
nick_the_woodcock = {}
nick_the_delayer = {}
nick_the_shieldsmasher = {}
nick_the_scribe = {}
nick_of_the_golden_bowl = {}
nick_the_besieger = {}
nick_the_elder = {}
nick_great_axe = {}
nick_oakshanks = {}
nick_the_glutton = {}
nick_the_tanglebeard = {}
nick_the_tangletongue = {}
nick_the_black_shepherd = {}
nick_sheepstealer = {}
nick_bloodless = {}
nick_lefthand = {}
nick_the_little = {}
nick_pinchface = {}
nick_the_limper = {}
nick_the_shepherd = {}
nick_freeborn = {}
nick_salt_beard = {}
nick_browntooth = {}
nick_stonehand = {}
nick_the_thrall = {}
nick_red_oarsman = {}
nick_half_hoare = {}
nick_sourmouth = {}
nick_the_stinger = {}
nick_the_penniless = {}
nick_the_young_falcon = {
	allow = {
		dynasty = 178	
		ruled_years = 5
		NOT = { age = 20 }
	}
	chance = {
		factor = 2
		modifier = {
			factor = 2.0
			NOT = { age = 15 }
		}
	}
}
nick_the_harelip = {
	allow = {
		trait= harelip
	}
	chance = {
		factor = 1
	}
}
nick_iron_banger = {}
nick_the_snail = {}
nick_the_keg_o_ale = {}
nick_the_strummer = {}
nick_the_uncrowned = {}
nick_the_mad_bard = {}
nick_the_oldfather = {}
nick_the_dread = {}
nick_the_spring_prince = {}
nick_the_winter_child = {}
nick_the_scrapesword = {}
nick_the_yellow_prefix = { is_prefix = yes }
nick_the_red_prefix = { is_prefix = yes }
nick_the_black_prefix = { is_prefix = yes }
nick_bloodless_prefix = { is_prefix = yes }
nick_lefthand_prefix = { is_prefix = yes }
nick_the_halfwild = {}
nick_the_onion_lord = {}
nick_the_catamite = {}
nick_the_brindled_butcher = {}
nick_the_she_snake = {}
nick_the_sweetling = {}
