###########################################
#
# Society decisions for Monks and Mystics
#
# Hermetic/mystic
# Secret religious cults
# Monastic orders
# Assassins
# Devil worshipers
#
###########################################


# General
society_decisions = { # Society decisions are only evaluated by members of societies	
	request_to_rank_up_within_society = {
		is_high_prio = yes
		only_playable = yes

		hide_in_decisions_list = yes # This is shown in the Society View
		
		potential = {
			hidden_tooltip = {
				OR = { #In some societies, there can only be 1 member at rank 4
					society_rank < 3
					NOR = {
						#society_member_of = the_assassins
						is_devil_worshiper_trigger = yes
	
	
					}
				}		
				society_rank < 4
				days_in_society > 365
				#has_dlc = "Mystics"
				is_in_society = yes
				OR = { #Players can always rank up (if they have the power)
					ai = no
					AND = {
						ai = yes
						society_can_rank_up = yes
					}
				}
			}
		}

		allow = {
			show_only_failed_conditions = yes
			#Rank requirements. IMPORTANT!!! If you change the requirements, the customizable loc keys "GetSocietyRankUpTooltip" 1, 2, 3, and 4 must be updated, as it displays these requirements.
			custom_tooltip = { # Sufficient currency
				text = request_to_rank_up_within_society_currency_tt
				OR = {
					AND = {
						society_rank == 1
						society_currency >= 750
					}
					AND = {
						society_rank == 2
						society_currency >= 1000
					}
					society_currency >= 2000 # rank 3
				}
			}
			prisoner = no
			is_incapable = no
			is_adult = yes
			
			trigger_if = {
				limit = { is_member_of_any_warrior_lodge_trigger = yes }
				trigger_if = {
					limit = { has_character_modifier = lost_rank_up_duel_cooldown }
					custom_tooltip = {
						text = recently_lost_rank_up_duel_tt
						NOT = { has_character_modifier = lost_rank_up_duel_cooldown }				
					}
				}
				trigger_if = {
					limit = {
						ai = no #if you are a player
						any_society_member = { #and there are already 4 other Heroes (rank is full).
							count = 4
							society_rank == 4
						}
					}
					custom_tooltip = {
						text = there_is_a_hero_available_to_duel_tt
						any_society_member = { #there is no one to duel for the spot...
							ai = yes
							NOT = { has_character_flag = call_to_legend_active }
							NOT = { trait = incapable }
							prisoner = no
							society_rank == 4
						}
					}
				}
			}	
			trigger_if = {
				limit = { has_character_flag = rank_up_blocked }
				custom_tooltip = {
					text = rank_up_blocked_tt
					NOT = { has_character_flag = rank_up_blocked }
				}
			}	
			#The Citadel
			trigger_if = {
				limit = { society_member_of = hermetics }
				trigger_if = {
					limit = { society_rank == 1 }
					custom_tooltip = { 
						text = request_to_rank_up_within_society_hermeticsA #Has a link
						any_artifact = { has_artifact_flag = maester_link }				
					}
				}
				trigger_else_if = {
					limit = { society_rank == 2 }
					custom_tooltip = { 
						text = request_to_rank_up_within_society_hermeticsB #Rulers cannot become full maesters
						always = no
					}
				}
			}
			# Alchemists
			conditional_tooltip = { #Apprentices must have learnt to make wildfire
				trigger = { 
					society_member_of = alchemists_guild 
					society_rank == 1
				}
				custom_tooltip = { 
					text = request_to_rank_up_within_society_alchemists_guildA 
					hidden_tooltip = { has_character_flag = can_make_wildfire }
				}	
			}	
			conditional_tooltip = { #only one grand master per realm (also one only in westeros)
				trigger = { 
					society_member_of = alchemists_guild 
					society_rank == 3
				}
				custom_tooltip = { 
					text = request_to_rank_up_within_society_alchemists_guildB 
					NOT = {
						any_society_member = {
							same_society_as = ROOT
							society_rank == 4
							OR = {
								same_realm = ROOT
								any_liege = { liege_before_war = { same_realm = ROOT } }
								top_liege = {
									NOR = {
										tier = EMPEROR
										primary_title = { NOT = { check_variable = { which = "de_facto_empire" value = 1 } } }
									}
								}
								AND = {
									OR = {
										AND = {
											is_ruler = yes
											capital_scope = { region = world_westeros }
										}
										AND = {
											is_ruler = no
											liege = { capital_scope = { region = world_westeros } }
										}
									}	
									ROOT = {
										OR = {
											AND = {
												is_ruler = yes
												capital_scope = { region = world_westeros }
											}
											AND = {
												is_ruler = no
												liege = { capital_scope = { region = world_westeros } }
											}
										}
									}
								}
							}
						}
					}
				}
			}	
			conditional_tooltip = {
				trigger = { 
					society = { has_flag = bank_society }
					society_rank < 3
				}
				wealth = 50		
				trigger_if = {
					limit = { society_rank == 1 }
					custom_tooltip = {
						text = TOOLTIPbank_investmentallowed
						society = { NOT = { has_flag = not_accepting_investment } }
					}
				}
			}
			custom_tooltip = {
				text = must_not_have_sent_request_already_tooltip 
				NOT = { has_character_flag = has_sent_request_to_rank_up }
			}

			custom_tooltip = {
				text = must_be_allowed_to_rank_up_tooltip 
				days_at_current_society_rank >= 1095 #IMPORTANT! Update tooltip.
			}

			custom_tooltip = {
				text = must_have_grandmaster_tooltip #You must have a grand master
				any_society_member = {
					is_society_grandmaster = yes
					same_society_as = ROOT
				}
			}

			custom_tooltip = {
				text = must_have_multiple_rank_4 #Society must allow multiple characters at Rank 4
				NAND = {
					society_rank == 3
					OR = {
						#society_member_of = the_assassins
						is_devil_worshiper_trigger = yes
					}
				}
			}
		}

		effect = {
			society = { save_event_target_as = my_society }
			if = { # Special handling for warrior lodge rank 3 members (in a society with enough Heroes already)...
				limit = {
					ai = no
					is_member_of_any_warrior_lodge_trigger = yes
					society_rank == 3
					society = {
	                    any_society_member = { #make sure there is someone you can duel for the spot.
	                    	NOT = { has_character_flag = call_to_legend_active }
		                    ai = yes
		                    prisoner = no
		                    society_rank == 4
		                }
		                any_society_member = { #make sure there are already 4 other Heroes (rank is full).
		                	count = 4
		                    society_rank == 4
		                }
					}
				}
				set_character_flag = has_sent_request_to_rank_up
				character_event = { id = HF.10060 } #sends event presenting choice: to duel a current Hero or nah?
			}
			else_if = { #Ranking up in a bank requires investment
				limit = {
					society = { has_flag = bank_society }
					society_rank < 3
				}
				set_character_flag = has_sent_request_to_rank_up
				character_event = { id = bankruptcy.30 tooltip = TOOLTIPbankruptcy.30 }
			}	
			else = { #For everyone else...
				#Rank up cost
				if = {
					limit = { society_rank == 1 }
					change_society_currency = -750
				}
				if = {
					limit = { society_rank == 2 }
					change_society_currency = -1000
				}
				if = {
					limit = { society_rank == 3 }
					change_society_currency = -2000
				}

				#Perform rank up
				hidden_tooltip = {
					save_event_target_as = rank_up_target
					set_character_flag = has_sent_request_to_rank_up
					character_event = { id = MNM.10002 days = 20 random = 10 } # sends hidden delayed event to self, which then sends request to Leader of the society
				}
			}	
		}

		ai_check_interval = 12
		
		ai_will_do = {
			factor = 1

			modifier = {
				factor = 0.5 #Slow down
			}
			modifier = {
				factor = 0.5
				trait = content
			}
			modifier = {
				factor = 2 
				trait = ambitious
			}
		}
	}
}

#Hermetic/mystic
society_decisions = {
	
	# Build a Laboratory
	build_laboratory = {
		only_playable = yes
		is_high_prio = yes
		ai_check_interval = 36
		
		potential = {
			has_dlc = "Mystics"
			society_member_of = alchemists_guild
			has_quest = quest_hermetics_build_laboratory
			is_playable = yes
			block_general_event_trigger = no
			NOT = { has_character_flag = building_laboratory }
			NOT = { has_character_flag = built_laboratory }
		}
		allow = {
			wealth = 50
		}
		effect = {
			wealth = -50
			set_character_flag = building_laboratory
			custom_tooltip = { text = start_constructing_laboratory_tooltip }
			hidden_tooltip = { character_event = { id = MNM.1100 } }
		}
		revoke_allowed = {
			always = no
		}
		ai_will_do = {
			factor = 1
			
			modifier = {
				factor = 0
				NOT = { wealth = 75 }
			}
			
			modifier = {
				factor = 0.1
				NOT = { age = 30 }
			}
		}
	}
}

	#Secret religious cults

#Monastic orders

###THE ASSASSINS###

#society_decisions = {

	#Monastic Orders
#}	

targeted_decisions = {

	#Power: Dark healing
	devil_worshipers_dark_healing = {
		is_in_society = yes
		
		filter = self
		ai_target_filter = self
		ai_check_interval = 6
		
		potential = {
			has_dlc = "Mystics"
			is_devil_worshiper_trigger = yes
			society_rank >= 3
			NOR = {
				has_character_flag = dark_healing_in_effect
				has_character_modifier = dark_healing_recent
			}
		}
		
		allow = {
			has_society_currency_medium_trigger = yes
			magic_returned_trigger = yes
			custom_tooltip = {
				text = devil_worshipers_dark_healing_tooltip
				OR = {

					has_disease_trigger = yes
					has_symptom_trigger = yes
					has_injury_trigger = yes
					is_maimed_trigger = yes
					trait = infirm
					trait = mangled
					trait = eunuch
					trait = blinded
					trait = incapable
				}
			}
		}
		effect = {
			increase_visibility_effect = yes
			character_event = { id = MNM.7118 days = 0 }
			detract_society_currency_medium_effect = yes
			set_character_flag = dark_healing_in_effect
		}
		ai_will_do = {
			factor = 1
		}
	}

	#Power: Demonic Possession
	devil_worshipers_demonic_possession = {
		#is_in_society = yes
		only_playable = yes
		
		ai_target_filter = sub_realm	
		ai_check_interval = 12
		
		from_potential = {
			OR = {
				is_devil_worshiper_trigger = yes
				has_dark_magic_religion_trigger = yes
			}
			trigger_if = {
				limit = { is_devil_worshiper_trigger = yes }
				society_rank > 1
			}
		}

		potential = {
			OR = {
				host = { character = FROM }
				liege = { character = FROM }
			}
			NOT = { character = FROM }
			ai = yes
		}

		allow = {
			magic_returned_trigger = yes
			FROM = {
				prisoner = no
				is_incapable = no
				trigger_if = {
					limit = { is_devil_worshiper_trigger = yes }
					has_society_currency_minor_trigger = yes
				}
				trigger_else = {
					piety = 50
					learning = 10
				}

				custom_tooltip = {
					text = is_accessible
					OR = {
						is_inaccessible_trigger = no
						AND = {
							FROM = {
								has_character_modifier = in_seclusion
								at_location = ROOT
							}
							ROOT = {
								has_character_modifier = in_seclusion
							}
						}
					}
				}
			}
			ROOT = {
			
				is_incapable = no

				custom_tooltip = {
					text = possess_courtier_already_done
					NOR = {
						has_character_flag = possessing_courtier
						has_opinion_modifier = { who = FROM modifier = opinion_loyal_servant }
						trait = possessed
						trait = lunatic
					}
				}				
			}	
		}

		effect = {
			ROOT = {
				set_character_flag = possessing_courtier
				hidden_effect = { 
					character_event = { id = MNM.7840 days = 3 random = 7 }
				}
			}
			FROM = { 
				if = {
					limit = { is_devil_worshiper_trigger = yes }
					detract_society_currency_minor_effect = yes
				}	
				else = {
					piety = -50
				}				
			}
			if = {
				limit = {
					NOT = {
						is_quest_target_of = FROM
					}
				}
				FROM = {
					increase_visibility_effect = yes
				}
			}
			if = {
				limit = {
					is_quest_target_of = FROM
				}
				FROM = {
					increase_visibility_minor_effect = yes
				}
			}
		}

		ai_will_do = {
			factor = 1
			modifier = {
				factor = 0.1 # slow down
			}
			modifier = {
				factor = 0
				FROM = {
					is_devil_worshiper_trigger = no
					OR = {
						trait = honorable
						trait = honest
						trait = kind
					}
				}
			}
			modifier = {
				factor = 0.5
				is_benevolent_trigger = yes
			}
			modifier = {
				factor = 0.25
				ROOT = {
					is_landed = no
				}
			}
			modifier = {
				factor = 3
				ROOT = {
					among_most_powerful_vassals = 5
				}
			}
		}
	}

	#Action: satanist recruit
	satanists_recruit = {
		is_in_society = yes
		
		filter = all
		ai_target_filter = realm
		ai_check_interval = 24
		
		from_potential = {
			is_adult = yes
			prisoner = no
			is_incapable = no
			NOT = { has_character_modifier = recruitment_timer }
			society_member_of = the_satanists
			OR = {
				ai = no
				society_rank = {
					society = the_satanists
					rank == 2
				}
				society_rank = {
					society = the_satanists
					rank == 3
				}
			}
		}
		potential = {
			OR = {
				FROM = { ai = no }
				ai = no
			}
			OR = {
				FROM = { ai = yes } # Only checks realm, so by definition in range
				is_within_diplo_range = FROM
			}
			is_adult = yes
			prisoner = no
			is_incapable = no
			is_in_society = no


			#AI cannot invite other AIs when society is full
			NAND = {
				ai = yes
				FROM = { ai = yes }
				NOT = { can_join_society = the_satanists }
			}

			#Blocks so AI recruits sensible people (who might say no)
			OR = {
				FROM = { ai = no }
				is_friend = FROM
				is_lover = FROM
				is_close_relative = FROM
				trait = trusting
				has_impious_trait_trigger = yes
				trait = drunkard
				trait = possessed
				trait = lunatic
				interested_in_society = the_satanists
			}
		}
		allow = {
			show_only_failed_conditions = yes
			is_inaccessible_trigger = no
			custom_tooltip = {
				text = satanists_recruit_block_tooltip
				OR = {
					NOT = { has_character_flag = satanists_attempted_recruitment }
					interested_in_society = the_satanists
				}
				NOT = { has_character_flag = being_recruited_by_the_satanists }
			}
			has_satanists_prerequisites = yes
			FROM = {
				is_inaccessible_trigger = no
				custom_tooltip = {
					text = recruit_delay_timer_tooltip
					NOT = { has_character_modifier = recruitment_delay_timer }
				}
			}
		}
		effect = {
			set_character_flag = satanists_attempted_recruitment
			set_character_flag = being_recruited_by_the_satanists
			FROM = {
				save_event_target_as = satanists_recruiter
			}
			hidden_effect = {
				character_event = { id = MNM.7001 days = 3 } # recruitment chain
				character_event = { id = MNM.7030 days = 365 } # sends delayed back up, in case recruitment fails somehow
				FROM = {
					if = {
						limit = { ai = yes }
						add_character_modifier = {
							name = recruitment_timer
							days = 730
							hidden = yes
						}
					}
					add_character_modifier = {
						name = recruitment_delay_timer
						days = 90
						hidden = yes
					}
				}
			}
		}

		ai_will_do = {
			factor = 1
			modifier = {
				factor = 0.2 # slow down
				FROM = { 
					society = { num_of_society_members > 20 } 
				}
			}
			modifier = {
				factor = 10 # recruit interested parties
				interested_in_society = the_satanists
			}
			modifier = {
				factor = 0 # don't recruit characters interested in something else
				NOT = { interested_in_society = the_satanists }
				is_interested_in_any_society = yes
			}
		}
	}

	#Action: trollcrafters recruit
	trollcrafters_recruit = {
		is_in_society = yes

		ai_target_filter = realm
		ai_check_interval = 24
		
		from_potential = {
			is_adult = yes
			prisoner = no
			is_incapable = no
			NOT = { has_character_modifier = recruitment_timer }
			society_member_of = the_trollcrafters
			OR = {
				ai = no
				society_rank = {
					society = the_trollcrafters
					rank == 2
				}
				society_rank = {
					society = the_trollcrafters
					rank == 3
				}
			}
		}
		potential = {
			OR = {
				FROM = { ai = no }
				ai = no
			}
			OR = {
				FROM = { ai = yes } # Only checks realm, so by definition in range
				is_within_diplo_range = FROM
			}
			is_adult = yes
			prisoner = no
			is_incapable = no
			is_in_society = no

			#AI cannot invite other AIs when society is full
			NAND = {
				ai = yes
				FROM = { ai = yes }
				NOT = { can_join_society = the_trollcrafters }
			}

			#Blocks so AI recruits sensible people (who might say no)
			OR = {
				FROM = { ai = no }
				is_friend = FROM
				is_lover = FROM
				is_close_relative = FROM
				trait = trusting
				has_impious_trait_trigger = yes
				trait = drunkard
				trait = possessed
				trait = lunatic
				interested_in_society = the_trollcrafters
			}

			NAND = {
				FROM = { ai = yes }
				trait = zealous
			}
		}
		allow = {
			show_only_failed_conditions = yes
			is_inaccessible_trigger = no
			custom_tooltip = {
				text = trollcrafters_recruit_block_tooltip
				OR = {
					NOT = { has_character_flag = trollcrafters_attempted_recruitment }
					interested_in_society = the_trollcrafters
				}
				NOT = { has_character_flag = being_recruited_by_the_trollcrafters }
			}
			has_trollcrafters_prerequisites = yes
			FROM = {
				is_inaccessible_trigger = no
				custom_tooltip = {
					text = recruit_delay_timer_tooltip
					NOT = { has_character_modifier = recruitment_delay_timer }
				}
			}
		}
		effect = {
			set_character_flag = trollcrafters_attempted_recruitment
			set_character_flag = being_recruited_by_the_trollcrafters
			FROM = {
				save_event_target_as = satanists_recruiter
			}
			hidden_effect = { 
				character_event = { id = MNM.7001 days = 3 } # recruitment chain
				character_event = { id = MNM.7030 days = 365 } # sends delayed back up, in case recruitment fails somehow
				FROM = {
					if = {
						limit = { ai = yes }
						add_character_modifier = {
							name = recruitment_timer
							days = 730
							hidden = yes
						}
					}
					add_character_modifier = {
						name = recruitment_delay_timer
						days = 90
						hidden = yes
					}
				}
			}
		}

		ai_will_do = {
			factor = 1
			modifier = {
				factor = 0.2 # slow down
				FROM = { 
					society = { num_of_society_members > 20 } 
				}
			}
			modifier = {
				factor = 10 # recruit interested parties
				interested_in_society = the_trollcrafters
			}
			modifier = {
				factor = 0 # don't recruit characters interested in something else
				NOT = { interested_in_society = the_trollcrafters }
				is_interested_in_any_society = yes
			}
		}
	}

	#Action: cult of kali recruit
	cult_of_kali_recruit = {
		is_in_society = yes

		ai_target_filter = realm
		ai_check_interval = 24
		
		from_potential = {
			is_adult = yes
			prisoner = no
			is_incapable = no
			NOT = { has_character_modifier = recruitment_timer }
			society_member_of = the_cult_of_kali
			OR = {
				ai = no
				society_rank = {
					society = the_cult_of_kali
					rank == 2
				}
				society_rank = {
					society = the_cult_of_kali
					rank == 3
				}
			}
		}
		potential = {
			OR = {
				FROM = { ai = no }
				ai = no
			}
			OR = {
				FROM = { ai = yes } # Only checks realm, so by definition in range
				is_within_diplo_range = FROM
			}
			is_adult = yes
			prisoner = no
			is_incapable = no
			is_in_society = no

			#AI cannot invite other AIs when society is full
			NAND = {
				ai = yes
				FROM = { ai = yes }
				NOT = { can_join_society = the_trollcrafters }
			}

			#Blocks so AI recruits sensible people (who might say no)
			OR = {
				FROM = { ai = no }
				is_friend = FROM
				is_lover = FROM
				is_close_relative = FROM
				trait = trusting
				has_impious_trait_trigger = yes
				trait = drunkard
				trait = possessed
				trait = lunatic
				interested_in_society = the_cult_of_kali
			}

			NAND = {
				FROM = { ai = yes }
				trait = zealous
			}
		}
		allow = {
			show_only_failed_conditions = yes
			is_inaccessible_trigger = no
			custom_tooltip = {
				text = cult_of_kali_recruit_block_tooltip
				OR = {
					NOT = { has_character_flag = cult_of_kali_attempted_recruitment }
					interested_in_society = the_cult_of_kali
				}
				NOT = { has_character_flag = being_recruited_by_the_cult_of_kali }
			}
			has_cult_of_kali_prerequisites = yes
			FROM = {
				is_inaccessible_trigger = no
				custom_tooltip = {
					text = recruit_delay_timer_tooltip
					NOT = { has_character_modifier = recruitment_delay_timer }
				}
			}
		}
		effect = {
			set_character_flag = cult_of_kali_attempted_recruitment
			set_character_flag = being_recruited_by_the_cult_of_kali
			FROM = {
				save_event_target_as = satanists_recruiter
			}
			hidden_effect = { 
				character_event = { id = MNM.7001 days = 3 } # recruitment chain
				character_event = { id = MNM.7030 days = 365 } # sends delayed back up, in case recruitment fails somehow
				FROM = {
					if = {
						limit = { ai = yes }
						add_character_modifier = {
							name = recruitment_timer
							days = 730
							hidden = yes
						}
					}
					add_character_modifier = {
						name = recruitment_delay_timer
						days = 90
						hidden = yes
					}
				}
			}
		}

		ai_will_do = {
			factor = 1
			modifier = {
				factor = 0.2 # slow down
				FROM = { 
					society = { num_of_society_members > 20 } 
				}
			}
			modifier = {
				factor = 10 # recruit interested parties
				interested_in_society = the_cult_of_kali
			}
			modifier = {
				factor = 0 # don't recruit characters interested in something else
				NOT = { interested_in_society = the_cult_of_kali }
				is_interested_in_any_society = yes
			}
		}
	}

	#Action: cold ones recruit
	cold_ones_recruit = {
		is_in_society = yes

		ai_target_filter = realm
		ai_check_interval = 24
		
		from_potential = {
			is_adult = yes
			prisoner = no
			is_incapable = no
			NOT = { has_character_modifier = recruitment_timer }
			society_member_of = the_cold_ones
			OR = {
				ai = no
				society_rank = {
					society = the_cold_ones
					rank == 2
				}
				society_rank = {
					society = the_cold_ones
					rank == 3
				}
			}
		}
		potential = {
			OR = {
				FROM = { ai = no }
				ai = no
			}
			OR = {
				FROM = { ai = yes } # Only checks realm, so by definition in range
				is_within_diplo_range = FROM
			}
			is_adult = yes
			prisoner = no
			is_incapable = no
			is_in_society = no

			#AI cannot invite other AIs when society is full
			NAND = {
				ai = yes
				FROM = { ai = yes }
				NOT = { can_join_society = the_cold_ones }
			}

			#Blocks so AI recruits sensible people (who might say no)
			OR = {
				FROM = { ai = no }
				is_friend = FROM
				is_lover = FROM
				is_close_relative = FROM
				trait = trusting
				has_impious_trait_trigger = yes
				trait = drunkard
				trait = possessed
				trait = lunatic
				interested_in_society = the_cold_ones
			}

			NAND = {
				FROM = { ai = yes }
				trait = zealous
			}
		}
		allow = {
			show_only_failed_conditions = yes
			is_inaccessible_trigger = no
			custom_tooltip = {
				text = cold_ones_recruit_block_tooltip
				OR = {
					NOT = { has_character_flag = cold_ones_attempted_recruitment }
					interested_in_society = the_cold_ones
				}
				NOT = { has_character_flag = being_recruited_by_the_cold_ones }
			}
			has_cold_ones_prerequisites = yes
			FROM = {
				is_inaccessible_trigger = no
				custom_tooltip = {
					text = recruit_delay_timer_tooltip
					NOT = { has_character_modifier = recruitment_delay_timer }
				}
			}
		}
		effect = {
			set_character_flag = cold_ones_attempted_recruitment
			set_character_flag = being_recruited_by_the_cold_ones
			FROM = {
				save_event_target_as = satanists_recruiter
			}
			hidden_effect = { 
				character_event = { id = MNM.7001 days = 3 } # recruitment chain
				character_event = { id = MNM.7030 days = 365 } # sends delayed back up, in case recruitment fails somehow
				FROM = {
					if = {
						limit = { ai = yes }
						add_character_modifier = {
							name = recruitment_timer
							days = 730
							hidden = yes
						}
					}
					add_character_modifier = {
						name = recruitment_delay_timer
						days = 90
						hidden = yes
					}
				}
			}
		}

		ai_will_do = {
			factor = 1
			modifier = {
				factor = 0.2 # slow down
				FROM = { 
					society = { num_of_society_members > 20 } 
				}
			}
			modifier = {
				factor = 10 # recruit interested parties
				interested_in_society = the_cold_ones
			}
			modifier = {
				factor = 0 # don't recruit characters interested in something else
				NOT = { interested_in_society = the_cold_ones }
				is_interested_in_any_society = yes
			}
		}
	}

	#Action: plaguebringers_recruit
	plaguebringers_recruit = {
		is_in_society = yes

		ai_target_filter = realm
		ai_check_interval = 24
		
		from_potential = {
			is_adult = yes
			prisoner = no
			is_incapable = no
			NOT = { has_character_modifier = recruitment_timer }
			society_member_of = the_plaguebringers
			OR = {
				ai = no
				society_rank = {
					society = the_plaguebringers
					rank == 2
				}
				society_rank = {
					society = the_plaguebringers
					rank == 3
				}
			}
		}
		potential = {
			OR = {
				FROM = { ai = no }
				ai = no
			}
			OR = {
				FROM = { ai = yes } # Only checks realm, so by definition in range
				is_within_diplo_range = FROM
			}
			is_adult = yes
			prisoner = no
			is_incapable = no
			is_in_society = no

			#AI cannot invite other AIs when society is full
			NAND = {
				ai = yes
				FROM = { ai = yes }
				NOT = { can_join_society = the_plaguebringers }
			}

			#Blocks so AI recruits sensible people (who might say no)
			OR = {
				FROM = { ai = no }
				is_friend = FROM
				is_lover = FROM
				is_close_relative = FROM
				trait = trusting
				has_impious_trait_trigger = yes
				trait = drunkard
				trait = possessed
				trait = lunatic
				interested_in_society = the_plaguebringers
			}

			NAND = {
				FROM = { ai = yes }
				trait = zealous
			}
		}
		allow = {
			show_only_failed_conditions = yes
			is_inaccessible_trigger = no
			custom_tooltip = {
				text = plaguebringers_recruit_block_tooltip
				OR = {
					NOT = { has_character_flag = plaguebringers_attempted_recruitment }
					interested_in_society = the_plaguebringers
				}
				NOT = { has_character_flag = being_recruited_by_the_plaguebringers }
			}
			has_plaguebringers_prerequisites = yes
			FROM = {
				is_inaccessible_trigger = no
				custom_tooltip = {
					text = recruit_delay_timer_tooltip
					NOT = { has_character_modifier = recruitment_delay_timer }
				}
			}
		}
		effect = {
			set_character_flag = plaguebringers_attempted_recruitment
			set_character_flag = being_recruited_by_the_plaguebringers
			FROM = {
				save_event_target_as = satanists_recruiter
			}
			hidden_effect = { 
				character_event = { id = MNM.7001 days = 3 } # recruitment chain
				character_event = { id = MNM.7030 days = 365 } # sends delayed back up, in case recruitment fails somehow
				FROM = {
					if = {
						limit = { ai = yes }
						add_character_modifier = {
							name = recruitment_timer
							days = 730
							hidden = yes
						}
					}
					add_character_modifier = {
						name = recruitment_delay_timer
						days = 90
						hidden = yes
					}
				}
			}
		}

		ai_will_do = {
			factor = 1
			modifier = {
				factor = 0.2 # slow down
				FROM = { 
					society = { num_of_society_members > 20 } 
				}
			}
			modifier = {
				factor = 10 # recruit interested parties
				interested_in_society = the_plaguebringers
			}
			modifier = {
				factor = 0 # don't recruit characters interested in something else
				NOT = { interested_in_society = the_plaguebringers }
				is_interested_in_any_society = yes
			}
		}
	}

	#Action: Sacrifice prisoner
	prisoner_dark_sacrifice = {
		only_playable = yes
		
		filter = court
		ai_target_filter = court
		ai_check_interval = 12
		
		from_potential = {
			has_dlc = "Mystics"
			is_playable = yes
			is_adult = yes
			prisoner = no
			is_incapable = no
			is_devil_worshiper_trigger = yes
		}

		potential = {
			host = { character = FROM }
			NOT = { has_character_flag = demon_child_non_pagan }
			prisoner = yes
		}
		
		allow = {
			NOT = { diplomatic_immunity = yes }
		}
			
		ai_will_do = {
			factor = 1
			modifier = {
				factor = 0.01
				NOR = {
					is_short_trigger = yes
					is_priest = yes 
					is_ascetic_trigger = yes
					is_virgin_trigger = yes
					is_landed = yes
				}
			}
		}
		
		effect = {
			death = {
				death_reason = death_missing
			}
			hidden_effect = { character_event = { id = MNM.7506 } }
			FROM = {
				show_scope_change = no
				increase_visibility_minor_effect = yes
				minor_soul_corruption_effect = yes
				hidden_effect = { murder_bloodline_check_effect = yes }
			}
			#Head of Religion
			if = {
				limit  = { 
					controls_religion = yes
				}
				hidden_effect = { FROM = { character_event = { id = MNM.7500 } } }
				#Check quests to resolve, add extra currency and play special sound effect
				if = { #Virgin
					limit = {
						is_virgin_trigger = yes
						FROM = { has_quest = quest_the_devil_worshipers_sacrifice_virgin }
					}
					FROM = { 
						show_scope_change = no
						clr_quest = quest_the_devil_worshipers_sacrifice_virgin 
						add_society_currency_major_effect = yes
					}
					trigger_switch = {
						on_trigger = is_female
						yes = { FROM = { sound_effect = devil_worshippers_sacrifice_virgin_female } }
						no = { FROM = { sound_effect = devil_worshippers_sacrifice_virgin_male } }
					}
					break = yes
				}
				if = { #Priestly
					limit = {
						OR = {
							is_priest = yes
							is_ascetic_trigger = yes
						}
						FROM = { has_quest = quest_the_devil_worshipers_sacrifice_holy_person }
					}
					FROM = { 
						show_scope_change = no
						clr_quest = quest_the_devil_worshipers_sacrifice_holy_person
						add_society_currency_major_effect = yes
					}
					trigger_switch = {
						on_trigger = is_female
						yes = { FROM = { sound_effect = devil_worshippers_sacrifice_holy_woman } }
						no = { FROM = { sound_effect = devil_worshippers_sacrifice_holy_man } }
					}
					break = yes
				}
				if = { #Dwarf
					limit = {
						is_short_trigger = yes
						FROM = { has_quest = quest_the_devil_worshipers_sacrifice_dwarf }
					}
					FROM = { 
						show_scope_change = no
						clr_quest = quest_the_devil_worshipers_sacrifice_dwarf
						add_society_currency_major_effect = yes
					}
					trigger_switch = {
						on_trigger = is_female
						yes = { FROM = { sound_effect = devil_worshippers_sacrifice_dwarf_female } }
						no = { FROM = { sound_effect = devil_worshippers_sacrifice_dwarf_male } }
					}
					break = yes
				}
				if = { #Ruler
					limit = {
						is_landed = yes
						FROM = { has_quest = quest_the_devil_worshipers_sacrifice_ruler }
					}
					FROM = { 
						show_scope_change = no
						clr_quest = quest_the_devil_worshipers_sacrifice_ruler
						add_society_currency_major_effect = yes
					}
					trigger_switch = {
						on_trigger = is_female
						yes = { FROM = { sound_effect = devil_worshippers_sacrifice_ruler_female } }
						no = { FROM = { sound_effect = devil_worshippers_sacrifice_ruler_male } }
					}
					break = yes
				}
				#No quest so add default
				FROM = { 
					show_scope_change = no
					add_society_currency_medium_effect = yes 
				}
				trigger_switch = {
					on_trigger = is_female
					yes = { FROM = { sound_effect = devil_worshippers_sacrifice_ruler_female } }
					no = { FROM = { sound_effect = devil_worshippers_sacrifice_ruler_male } }
				}
				break = yes
			}
			#Holy Man
			if = {
				limit  = { 
					OR = {
						is_priest = yes
						is_ascetic_trigger = yes
					}
				}
				hidden_effect = { FROM = { character_event = { id = MNM.7501 } } }
				#Check quests to resolve, add extra currency and play special sound effect
				if = { #Virgin
					limit = {
						is_virgin_trigger = yes
						FROM = { has_quest = quest_the_devil_worshipers_sacrifice_virgin }
					}
					FROM = { 
						show_scope_change = no
						clr_quest = quest_the_devil_worshipers_sacrifice_virgin 
						add_society_currency_medium_effect = yes
					}
					trigger_switch = {
						on_trigger = is_female
						yes = { FROM = { sound_effect = devil_worshippers_sacrifice_virgin_female } }
						no = { FROM = { sound_effect = devil_worshippers_sacrifice_virgin_male } }
					}
					break = yes
				}
				if = { #Priestly
					limit = {
						OR = {
							is_priest = yes
							is_ascetic_trigger = yes
						}
						FROM = { has_quest = quest_the_devil_worshipers_sacrifice_holy_person }
					}
					FROM = { 
						show_scope_change = no
						clr_quest = quest_the_devil_worshipers_sacrifice_holy_person
						add_society_currency_medium_effect = yes
					}
					trigger_switch = {
						on_trigger = is_female
						yes = { FROM = { sound_effect = devil_worshippers_sacrifice_holy_woman } }
						no = { FROM = { sound_effect = devil_worshippers_sacrifice_holy_man } }
					}
					break = yes
				}
				if = { #Dwarf
					limit = {
						is_short_trigger = yes
						FROM = { has_quest = quest_the_devil_worshipers_sacrifice_dwarf }
					}
					FROM = { 
						show_scope_change = no
						clr_quest = quest_the_devil_worshipers_sacrifice_dwarf
						add_society_currency_medium_effect = yes
					}
					trigger_switch = {
						on_trigger = is_female
						yes = { FROM = { sound_effect = devil_worshippers_sacrifice_dwarf_female } }
						no = { FROM = { sound_effect = devil_worshippers_sacrifice_dwarf_male } }
					}
					break = yes
				}
				if = { #Ruler
					limit = {
						is_landed = yes
						FROM = { has_quest = quest_the_devil_worshipers_sacrifice_ruler }
					}
					FROM = { 
						show_scope_change = no
						clr_quest = quest_the_devil_worshipers_sacrifice_ruler
						add_society_currency_medium_effect = yes
					}
					trigger_switch = {
						on_trigger = is_female
						yes = { FROM = { sound_effect = devil_worshippers_sacrifice_ruler_female } }
						no = { FROM = { sound_effect = devil_worshippers_sacrifice_ruler_male } }
					}
					break = yes
				}
				#No quest so add default
				FROM = { 
					show_scope_change = no
					add_society_currency_minor_effect = yes
				}
				trigger_switch = {
					on_trigger = is_female
					yes = { FROM = { sound_effect = devil_worshippers_sacrifice_ruler_female } }
					no = { FROM = { sound_effect = devil_worshippers_sacrifice_ruler_male } }
				}
				break = yes
			}
			#Dwarf
			if = {
				limit  = { 
					is_short_trigger = yes
				}
				hidden_effect = { FROM = { character_event = { id = MNM.7502 } } }
				#Check quests to resolve, add extra currency and play special sound effect
				if = { #Virgin
					limit = {
						is_virgin_trigger = yes
						FROM = { has_quest = quest_the_devil_worshipers_sacrifice_virgin }
					}
					FROM = { 
						show_scope_change = no
						clr_quest = quest_the_devil_worshipers_sacrifice_virgin 
						add_society_currency_medium_effect = yes
					}
					trigger_switch = {
						on_trigger = is_female
						yes = { FROM = { sound_effect = devil_worshippers_sacrifice_virgin_female } }
						no = { FROM = { sound_effect = devil_worshippers_sacrifice_virgin_male } }
					}
					break = yes
				}
				if = { #Priestly
					limit = {
						OR = {
							is_priest = yes
							is_ascetic_trigger = yes
						}
						FROM = { has_quest = quest_the_devil_worshipers_sacrifice_holy_person }
					}
					FROM = { 
						show_scope_change = no
						clr_quest = quest_the_devil_worshipers_sacrifice_holy_person
						add_society_currency_medium_effect = yes
					}
					trigger_switch = {
						on_trigger = is_female
						yes = { FROM = { sound_effect = devil_worshippers_sacrifice_holy_woman } }
						no = { FROM = { sound_effect = devil_worshippers_sacrifice_holy_man } }
					}
					break = yes
				}
				if = { #Dwarf
					limit = {
						is_short_trigger = yes
						FROM = { has_quest = quest_the_devil_worshipers_sacrifice_dwarf }
					}
					FROM = { 
						show_scope_change = no
						clr_quest = quest_the_devil_worshipers_sacrifice_dwarf
						add_society_currency_medium_effect = yes
					}
					trigger_switch = {
						on_trigger = is_female
						yes = { FROM = { sound_effect = devil_worshippers_sacrifice_dwarf_female } }
						no = { FROM = { sound_effect = devil_worshippers_sacrifice_dwarf_male } }
					}
					break = yes
				}
				if = { #Ruler
					limit = {
						is_landed = yes
						FROM = { has_quest = quest_the_devil_worshipers_sacrifice_ruler }
					}
					FROM = { 
						show_scope_change = no
						clr_quest = quest_the_devil_worshipers_sacrifice_ruler
						add_society_currency_medium_effect = yes
					}
					trigger_switch = {
						on_trigger = is_female
						yes = { FROM = { sound_effect = devil_worshippers_sacrifice_ruler_female } }
						no = { FROM = { sound_effect = devil_worshippers_sacrifice_ruler_male } }
					}
					break = yes
				}
				#No quest so add default
				FROM = {
					show_scope_change = no
					add_society_currency_minor_effect = yes
				}
				trigger_switch = {
					on_trigger = is_female
					yes = { FROM = { sound_effect = devil_worshippers_sacrifice_ruler_female } }
					no = { FROM = { sound_effect = devil_worshippers_sacrifice_ruler_male } }
				}
				break = yes
			}
			#Child
			if = {
				limit  = { 
					NOT = { age = 16 }
				}
				hidden_effect = { FROM = { character_event = { id = MNM.7503 } } }
				#Check quests to resolve, add extra currency and play special sound effect
				if = { #Virgin
					limit = {
						is_virgin_trigger = yes
						FROM = { has_quest = quest_the_devil_worshipers_sacrifice_virgin }
					}
					FROM = { 
						show_scope_change = no
						clr_quest = quest_the_devil_worshipers_sacrifice_virgin 
						add_society_currency_minor_effect = yes
					}
					trigger_switch = {
						on_trigger = is_female
						yes = { FROM = { sound_effect = devil_worshippers_sacrifice_virgin_female } }
						no = { FROM = { sound_effect = devil_worshippers_sacrifice_virgin_male } }
					}
					break = yes
				}
				if = { #Priestly
					limit = {
						OR = {
							is_priest = yes
							is_ascetic_trigger = yes
						}
						FROM = { has_quest = quest_the_devil_worshipers_sacrifice_holy_person }
					}
					FROM = { 
						show_scope_change = no
						clr_quest = quest_the_devil_worshipers_sacrifice_holy_person
						add_society_currency_minor_effect = yes
					}
					trigger_switch = {
						on_trigger = is_female
						yes = { FROM = { sound_effect = devil_worshippers_sacrifice_holy_woman } }
						no = { FROM = { sound_effect = devil_worshippers_sacrifice_holy_man } }
					}
					break = yes
				}
				if = { #Dwarf
					limit = {
						is_short_trigger = yes
						FROM = { has_quest = quest_the_devil_worshipers_sacrifice_dwarf }
					}
					FROM = { 
						show_scope_change = no
						clr_quest = quest_the_devil_worshipers_sacrifice_dwarf
						add_society_currency_minor_effect = yes
					}
					trigger_switch = {
						on_trigger = is_female
						yes = { FROM = { sound_effect = devil_worshippers_sacrifice_dwarf_female } }
						no = { FROM = { sound_effect = devil_worshippers_sacrifice_dwarf_male } }
					}
					break = yes
				}
				if = { #Ruler
					limit = {
						is_landed = yes
						FROM = { has_quest = quest_the_devil_worshipers_sacrifice_ruler }
					}
					FROM = { 
						show_scope_change = no
						clr_quest = quest_the_devil_worshipers_sacrifice_ruler
						add_society_currency_minor_effect = yes
					}
					trigger_switch = {
						on_trigger = is_female
						yes = { FROM = { sound_effect = devil_worshippers_sacrifice_ruler_female } }
						no = { FROM = { sound_effect = devil_worshippers_sacrifice_ruler_male } }
					}
					break = yes
				}
				#No quest so add default
				FROM = {
					show_scope_change = no
					add_society_currency_trivial_effect = yes
				}
				trigger_switch = {
					on_trigger = is_female
					yes = { FROM = { sound_effect = devil_worshippers_sacrifice_ruler_female } }
					no = { FROM = { sound_effect = devil_worshippers_sacrifice_ruler_male } }
				}
				break = yes
			}
			#Virgin
			if = {
				limit  = { 
					is_virgin_trigger = yes
				}
				hidden_effect = { FROM = { character_event = { id = MNM.7504 } } }
				#Check quests to resolve, add extra currency and play special sound effect
				if = { #Virgin
					limit = {
						is_virgin_trigger = yes
						FROM = { has_quest = quest_the_devil_worshipers_sacrifice_virgin }
					}
					FROM = { 
						show_scope_change = no
						clr_quest = quest_the_devil_worshipers_sacrifice_virgin 
						add_society_currency_minor_effect = yes
					}
					trigger_switch = {
						on_trigger = is_female
						yes = { FROM = { sound_effect = devil_worshippers_sacrifice_virgin_female } }
						no = { FROM = { sound_effect = devil_worshippers_sacrifice_virgin_male } }
					}
					break = yes
				}
				if = { #Priestly
					limit = {
						OR = {
							is_priest = yes
							is_ascetic_trigger = yes
						}
						FROM = { has_quest = quest_the_devil_worshipers_sacrifice_holy_person }
					}
					FROM = { 
						show_scope_change = no
						clr_quest = quest_the_devil_worshipers_sacrifice_holy_person
						add_society_currency_minor_effect = yes
					}
					trigger_switch = {
						on_trigger = is_female
						yes = { FROM = { sound_effect = devil_worshippers_sacrifice_holy_woman } }
						no = { FROM = { sound_effect = devil_worshippers_sacrifice_holy_man } }
					}
					break = yes
				}
				if = { #Dwarf
					limit = {
						is_short_trigger = yes
						FROM = { has_quest = quest_the_devil_worshipers_sacrifice_dwarf }
					}
					FROM = { 
						show_scope_change = no
						clr_quest = quest_the_devil_worshipers_sacrifice_dwarf
						add_society_currency_minor_effect = yes
					}
					trigger_switch = {
						on_trigger = is_female
						yes = { FROM = { sound_effect = devil_worshippers_sacrifice_dwarf_female } }
						no = { FROM = { sound_effect = devil_worshippers_sacrifice_dwarf_male } }
					}
					break = yes
				}
				if = { #Ruler
					limit = {
						is_landed = yes
						FROM = { has_quest = quest_the_devil_worshipers_sacrifice_ruler }
					}
					FROM = { 
						show_scope_change = no
						clr_quest = quest_the_devil_worshipers_sacrifice_ruler
						add_society_currency_minor_effect = yes
					}
					trigger_switch = {
						on_trigger = is_female
						yes = { FROM = { sound_effect = devil_worshippers_sacrifice_ruler_female } }
						no = { FROM = { sound_effect = devil_worshippers_sacrifice_ruler_male } }
					}
					break = yes
				}
				#No quest so add default
				FROM = {
					show_scope_change = no
					add_society_currency_trivial_effect = yes
				}
				trigger_switch = {
					on_trigger = is_female
					yes = { FROM = { sound_effect = devil_worshippers_sacrifice_ruler_female } }
					no = { FROM = { sound_effect = devil_worshippers_sacrifice_ruler_male } }
				}
				break = yes
			}
			#Regular character
			hidden_effect = { FROM = { character_event = { id = MNM.7505 } } }
			#Check quests to resolve, add extra currency and play special sound effect
			if = { #Virgin
				limit = {
					is_virgin_trigger = yes
					FROM = { has_quest = quest_the_devil_worshipers_sacrifice_virgin }
				}
				FROM = { 
					show_scope_change = no
					clr_quest = quest_the_devil_worshipers_sacrifice_virgin 
					add_society_currency_minor_effect = yes
				}
				trigger_switch = {
					on_trigger = is_female
					yes = { FROM = { sound_effect = devil_worshippers_sacrifice_virgin_female } }
					no = { FROM = { sound_effect = devil_worshippers_sacrifice_virgin_male } }
				}
				break = yes
			}
			if = { #Priestly
				limit = {
					OR = {
						is_priest = yes
						is_ascetic_trigger = yes
					}
					FROM = { has_quest = quest_the_devil_worshipers_sacrifice_holy_person }
				}
				FROM = { 
					show_scope_change = no
					clr_quest = quest_the_devil_worshipers_sacrifice_holy_person
					add_society_currency_minor_effect = yes
				}
				trigger_switch = {
					on_trigger = is_female
					yes = { FROM = { sound_effect = devil_worshippers_sacrifice_holy_woman } }
					no = { FROM = { sound_effect = devil_worshippers_sacrifice_holy_man } }
				}
				break = yes
			}
			if = { #Dwarf
				limit = {
					is_short_trigger = yes
					FROM = { has_quest = quest_the_devil_worshipers_sacrifice_dwarf }
				}
				FROM = { 
					show_scope_change = no
					clr_quest = quest_the_devil_worshipers_sacrifice_dwarf
					add_society_currency_minor_effect = yes
				}
				trigger_switch = {
					on_trigger = is_female
					yes = { FROM = { sound_effect = devil_worshippers_sacrifice_dwarf_female } }
					no = { FROM = { sound_effect = devil_worshippers_sacrifice_dwarf_male } }
				}
				break = yes
			}
			if = { #Ruler
				limit = {
					is_landed = yes
					FROM = { has_quest = quest_the_devil_worshipers_sacrifice_ruler }
				}
				FROM = { 
					show_scope_change = no
					clr_quest = quest_the_devil_worshipers_sacrifice_ruler
					add_society_currency_minor_effect = yes
				}
				trigger_switch = {
					on_trigger = is_female
					yes = { FROM = { sound_effect = devil_worshippers_sacrifice_ruler_female } }
					no = { FROM = { sound_effect = devil_worshippers_sacrifice_ruler_male } }
				}
				break = yes
			}
			#No quest so add default
			FROM = {
				show_scope_change = no
				add_society_currency_trivial_effect = yes
			}
			trigger_switch = {
				on_trigger = is_female
				yes = { FROM = { sound_effect = devil_worshippers_sacrifice_ruler_female } }
				no = { FROM = { sound_effect = devil_worshippers_sacrifice_ruler_male } }
			}
		}
	}
	
	#Action: Demonic impregnation
	DW_demonic_impregnation = {
		only_playable = yes
		
		filter = court_including_me
		ai_target_filter = court_including_me
		ai_check_interval = 120
		
		from_potential = {
			has_dlc = "Mystics"
			is_playable = yes
			is_adult = yes
			prisoner = no
			is_incapable = no
			is_devil_worshiper_trigger = yes
			OR = {
				AND = {
					society_rank >= 3
					has_quest = quest_the_devil_worshipers_demonic_impregnation
				}
				society_rank >= 4
			}
		}

		potential = {
			host = { character = FROM }
			is_female = yes
			is_pregnant = no
			age = 16
			OR = {
				NOT = { age = 45 }
				immortal = yes
			}
			OR = {
				character = FROM
				FROM = { has_quest = quest_the_devil_worshipers_demonic_impregnation }
			}
		}

		allow = {
			FROM = { has_society_currency_major_trigger = yes }
			is_female = yes
			is_pregnant = no
			is_devil_worshiper_trigger = yes
			magic_returned_trigger = yes
		}
		
		ai_will_do = {
			factor = 1
			modifier = {
				factor = 0.01 #Slow down
			}
			modifier = {
				factor = 100
				has_quest = quest_the_devil_worshipers_demonic_impregnation
			}
		}
		
		effect = {
			FROM = {
				increase_visibility_effect = yes
			}
			detract_society_currency_major_effect = yes
			hidden_effect = { #ROOT is target, FROM is doer
				FROM = { 
					character_event = { id = MNM.7507 }
				}
			}			
		}
	}
	
	#Action: Prolong Life/Absorb Lifeforce
	DW_prolong_life = {
		only_playable = yes
		
		filter = dynasty
		ai_target_filter = dynasty
		ai_check_interval = 12
		
		from_potential = {
			has_dlc = "Mystics"
			is_playable = yes
			is_adult = yes
			prisoner = no
			is_incapable = no
			OR = {
				is_devil_worshiper_trigger = yes
				has_dark_magic_religion_trigger = yes
			}
			trigger_if = {
				limit = { is_devil_worshiper_trigger = yes }
				society_rank == 4
			}		
		}

		potential = {
			host = { character = FROM }
			is_child_of = FROM
			NOT = { age = 16 }
			NOT = { has_character_flag = demon_child_non_pagan }
		}
		
		allow = {
			FROM = { 
				trigger_if = {
					limit = { is_devil_worshiper_trigger = yes }
					has_society_currency_major_trigger = yes 
				}
				trigger_else = {
					piety = 250
					learning = 18
				}		
			}
			magic_returned_trigger = yes
		}
		
		ai_will_do = {
			factor = 1
			modifier = {
				factor = 0.1 #Slow down
			}
			modifier = {
				factor = 10
				NOR = {
					has_character_modifier = stolen_life_minor
					has_character_modifier = stolen_life_medium
					has_character_modifier = stolen_life_major
				}
			}
			modifier = {
				factor = 0
				has_character_modifier = stolen_life_major
			}
		}
		
		effect = {
			FROM = { increase_visibility_effect = yes }
			FROM = {
				if = {
					limit = { is_devil_worshiper_trigger = yes }
					detract_society_currency_major_effect = yes 
				}	
				else = {
					piety = -250
				}				
			}
			hidden_effect = { #ROOT is target, FROM is doer
				FROM = { 
					character_event = { id = MNM.7509 }
				}
			}			
		}
	}

	#Action: corrupt a priest
	devil_worshipers_corrupt_priest = {
		only_playable = yes

		ai_target_filter = realm
		ai_check_interval = 12
		
		from_potential = {
			is_devil_worshiper_trigger = yes
			society_rank > 1
		}

		potential = {
			ai = yes
			is_within_diplo_range = FROM
			religion = FROM
			OR = {
				AND = {
					same_realm = FROM
					OR = {
					    is_theocracy = yes
						has_priest_trait_trigger = yes
						has_job_title = job_spiritual
					}
				}
				FROM = {
					has_quest = quest_devil_worshipers_corrupt_priest
					quest_target = { character = ROOT }
				}
			}	

			OR = {
				is_inaccessible_trigger = no
				AND = {
					FROM = {
						has_character_modifier = in_seclusion
						at_location = ROOT
					}
					ROOT = {
						has_character_modifier = in_seclusion
					}
				}
			}
		}

		allow = {
			show_only_failed_conditions = yes
			FROM = {
				OR = { 
					has_society_currency_tiny_trigger = yes
					custom_tooltip = {
						text = corrupt_priest_has_quest
						has_quest = quest_devil_worshipers_corrupt_priest
					}
				}
				prisoner = no
				is_incapable = no

				custom_tooltip = {
					text = is_accessible
					OR = {
						is_inaccessible_trigger = no
						AND = {
							FROM = {
								has_character_modifier = in_seclusion
								at_location = ROOT
							}
							ROOT = {
								has_character_modifier = in_seclusion
							}
						}
					}
				}
				OR = {
					custom_tooltip = {
						text = corrupt_priest_not_recently_attempted
						ROOT = {
							NOR = {
								has_character_flag = attempted_corrupt_priest
								has_opinion_modifier = { who = FROM modifier = opinion_successful_corruption }
								has_opinion_modifier = { who = FROM modifier = opinion_failed_corruption }
							}
						}
					}
					custom_tooltip = {
						text = corrupt_priest_has_quest
						has_quest = quest_devil_worshipers_corrupt_priest
					}
				}	
			}
			ROOT = {
				prisoner = no
			
				is_incapable = no

				is_inaccessible_trigger = no		
			}	
		}

		effect = {
			if = {
				limit = {
					FROM = {
						NOT = {
							has_quest = quest_devil_worshipers_corrupt_priest
						}
					}
				}
				FROM = {
					detract_society_currency_tiny_effect = yes
				}
			}
			if = {
				limit = {
					NOT = {
						is_quest_target_of = FROM
					}
				}
				FROM = {
					increase_visibility_effect = yes
				}
			}
			if = {
				limit = {
					is_quest_target_of = FROM
				}
				FROM = {
					increase_visibility_minor_effect = yes
				}
			}
			custom_tooltip = {
				text = corrupt_priest_effect_TOOLTIP
			}		
			ROOT = {
				set_character_flag = attempted_corrupt_priest
				hidden_effect = { 
					character_event = { id = MNM.7825 days = 3 random = 7 }
				}
			}
		}

		ai_will_do = {
			factor = 1
			modifier = {
				factor = 0.1 # slow down
			}
			modifier = {
				factor = 0.5
				is_benevolent_trigger = yes
			}
			modifier = {
				factor = 2
				is_evil_trigger = yes
			}
			modifier = {
				factor = 50
				FROM = { is_quest_target_of = ROOT }
			}
			modifier = {
				factor = 0.5
				NOT = { 
					FROM = { 
						any_vassal = { character = ROOT } 
					} 
				}
			}
		}
	}

	devil_worshipers_induction = {
		is_in_society = yes
		filter = court
		ai_target_filter = court
		ai_check_interval = 12
		
		from_potential = {
			is_devil_worshiper_trigger = yes
			society_rank >= 2
			NOR = {
				is_inaccessible_trigger = yes
				prisoner = yes
			}
			OR = {
				ai = no
				NOR = {
					AND = {
						society_member_of = the_satanists
						is_society_rank_full = {
							society = the_satanists
							rank = 1
						}
					}
					AND = {
						society_member_of = the_cold_ones
						is_society_rank_full = {
							society = the_cold_ones
							rank = 1
						}
					}
					AND = {
						society_member_of = the_plaguebringers
						is_society_rank_full = {
							society = the_plaguebringers
							rank = 1
						}
					}
					AND = {
						society_member_of = the_cult_of_kali
						is_society_rank_full = {
							society = the_cult_of_kali
							rank = 1
						}
					}
					AND = {
						society_member_of = the_trollcrafters
						is_society_rank_full = {
							society = the_trollcrafters
							rank = 1
						}
					}
				}
			}
		}
		potential = {
			ai = yes
			prisoner = yes
			age = 16
			is_incapable = no
			OR = {
				AND = {
					FROM = {
						society_member_of = the_satanists
					}
					religion = rhllor
				}
				AND = {
					FROM = {
						society_member_of = the_cold_ones
					}
					is_old_gods_religion_trigger = yes
				}
				AND = {
					FROM = {
						society_member_of = the_plaguebringers
					}
					religion = the_seven
				}
				AND = {
					FROM = {
						society_member_of = the_cult_of_kali
					}
					is_drowned_god_religion_trigger = yes
				}
				AND = {
					FROM = {
						society_member_of = the_trollcrafters
					}
					NOR = {
						religion = rhllor
						is_drowned_god_religion_trigger = yes
						is_old_gods_religion_trigger = yes
						religion = the_seven
					}
				}
			}
			NOT_mythical_creature_trigger = yes
		}

		allow = {
			age = 16
			FROM = { society_currency >= 25 }
			NOT = { same_society_as = FROM }
			NOT = { trait = zealous }
			NOT = { has_character_modifier = recent_induction_attempt }
		}
		effect = {
			FROM = {
				increase_visibility_minor_effect = yes
				change_society_currency = -25
				character_event = {
					id = MNM.7121
					days = 0
				}
			}
		}

		ai_will_do = {
			factor = 1
			modifier = {
				is_rival = FROM
				factor = 0
			}
			modifier = {
				NOT = { dynasty = FROM }
				is_ruler = no
				factor = 0
			}
		}
	}
	decision_abduct = {
		filter = all
		ai_target_filter = realm
		
		ai = no
		
		from_potential = {
			ai = no
			#OR = {
				is_devil_worshiper_trigger = yes
				#society_member_of = the_assassins
			#}
			is_incapable = no
			prisoner = no
			NOT = { has_any_opinion_modifier = opinion_abducting }
		}
		
		potential = {
			ai = yes
			NOT = { character = FROM }
			is_patrician = no
			OR = {
				lower_tier_than = DUKE
				is_landed = no
			}
			OR = {
				father_even_if_dead = {
					lower_tier_than = DUKE
					is_patrician = no
					ai = yes
				}
				NOT = {
					father = {
						always = yes
					}
				}
			}
			OR = {
				mother_even_if_dead = {
					lower_tier_than = DUKE
					is_patrician = no
					ai = yes
				}
				NOT = {
					mother = {
						always = yes
					}
				}
			}
			OR = {
				spouse = {
					lower_tier_than = DUKE
					is_patrician = no
					ai = yes
				}
				is_married = no
			}
		}
		
		allow = {
			show_only_failed_conditions = yes
			in_revolt = no
			NOT = { war_with = FROM }
			NOT = { same_society_as = FROM }
			prisoner = no
			OR = {
				AND = {
					is_landed = no
					FROM = {
						has_society_currency_tiny_trigger = yes
					}
				}
				AND = {
					is_landed = yes
					NOT = {
						higher_tier_than = BARON
					}
					FROM = {
						has_society_currency_minor_trigger = yes
					}
				}
				AND = {
					higher_tier_than = BARON
					FROM = {
						has_society_currency_medium_trigger = yes
					}
				}
			}
			is_within_diplo_range = FROM
		}
		
		effect = {
			if = {
				limit = {
					NOT = {
						is_ruler = yes
					}
				}
				FROM = {
					detract_society_currency_tiny_effect = yes
				}
			}
			if = {
				limit = {
					is_ruler = yes
					lower_tier_than = COUNT
				}
				FROM = {
					detract_society_currency_minor_effect = yes
				}
			}
			if = {
				limit = {
					higher_tier_than = BARON
				}
				FROM = {
					detract_society_currency_medium_effect = yes
				}
			}
			hidden_tooltip = {
				FROM = {
					any_opinion_modifier_target = {
						limit = {
							reverse_has_opinion_modifier = {
								who = PREV
								modifier = opinion_abducting
							}
						}
						reverse_remove_opinion = {
							who = PREV
							modifier = opinion_abducting
						}
					}
					opinion = {
						who = ROOT
						modifier = opinion_abducting
						months = 12000
					}
					character_event = { id = MNM.20070 days = 1 }
				}
			}
		}
		

		ai_will_do = {
			factor = 0 		# 1 = 100% chance every month (for each allowed target!)
		}
	}
	
	stop_abduct_decision = {
		filter = self
		ai_target_filter = self
		
		ai = no

		potential = {
			ai = no
			#OR = {
				is_devil_worshiper_trigger = yes
				#society_member_of = the_assassins
			#}
			has_any_opinion_modifier = opinion_abducting
		}
		
		effect = {
			random_opinion_modifier_target = {
				limit = {
					ROOT = {
						has_opinion_modifier = {
							who = PREV
							modifier = opinion_abducting
						}
					}
				}
				save_event_target_as = target_abduction
				ROOT = { character_event = { id = MNM.20100 tooltip = stop_abduct_decision_tt } }
			}
		}
		

		
		ai_will_do = {
			factor = 0
		}
	}
	
	stop_abduct_decision_target = {
		filter = all
		ai_target_filter = realm

		ai = no

		from_potential = {
			ai = no
			#OR = {
				is_devil_worshiper_trigger = yes
				#society_member_of = the_assassins
			#}
			has_any_opinion_modifier = opinion_abducting
		}
		
		potential = {
			FROM = {
				has_opinion_modifier = {
					who = ROOT
					modifier = opinion_abducting
				}
			}
		}
		
		effect = {
			save_event_target_as = target_abduction
			hidden_tooltip = {
				FROM = { character_event = { id = MNM.20100 } }
			}
		}
		

		
		ai_will_do = {
			factor = 0
		}
	}
	
}

decisions = {
	employ_a_smith = {
		only_playable = yes
		ai_check_interval = 24
		potential = {
			NOT = { government = order_government }
			OR = {
				has_dlc = "Mystics"
				has_dlc = "Jade Dragon"
			}
			OR = {
				mercenary = no
				ai = no
			}
			age = 16
    		is_incapable = no
			OR = {
				ai = no
				higher_tier_than = COUNT
			}
			NOT_mythical_creature_trigger = yes
			is_landed = yes
			is_lowborn = no
		}
		allow = {
			show_only_failed_conditions = yes
			hidden_trigger = {
				OR = {
					ai = no
					wealth = 250
					yearly_income = 100
				}
			}
			is_inaccessible_trigger = no
			custom_tooltip = {
				text = employ_a_smith_cooldown_tt
				hidden_trigger = {
					NOT = {
						has_character_modifier = employ_a_smith_cd
					}
				}
			}
		}
		effect = {
			custom_tooltip = {
				text = employ_a_smith_tt
				hidden_effect = {
					character_event = { id = MNM.9130 }
					add_character_modifier = {
						name = employ_a_smith_cd
						hidden = yes
						years = 2
					}
				}
			}
		}

		ai_will_do = {
			factor = 1
			
			#AI Wont Do!
			modifier = {
				factor = 0
				has_character_modifier = loan_timer	
				OR = {
					stewardship = 9
					trait = temperate
					NOR = {
						trait = proud
						trait = ambitious
					}		
				}	
			}
			modifier = {
				factor = 0.5
				NOR = {
					tier = KING
					tier = EMPEROR
				}
			}
			modifier = {
				factor = 0.5
				trait = greedy
			}
			modifier = {
				factor = 2
				trait = ambitious
			}
			modifier = {
				factor = 0.1
				trait = content
			}
			modifier = {
				factor = 0
				any_artifact = { has_artifact_flag = combat_weapon }
				any_artifact = { has_artifact_flag = armor_set }
				OR = {
					any_artifact = { has_artifact_flag = crown_jewel }
					NAND = {
						is_feudal_monarch_trigger = yes
						can_press_claims_trigger = yes
					}
				}				
			}
		}
	}
}
