##non canon for random##
804000 = {
	name = Thornton
	culture = reachman
}
804001 = {
	name = Bloom
	culture = reachman
}
804002 = {
	name = Stakely
	culture = reachman
}
804003 = {
	name = Kenwick
	culture = reachman
}
804004 = {
	name = Tackerton
	culture = reachman
}
804005 = {
	name = Newbridge
	culture = reachman
}
804006 = {
	name = Chetwood
	culture = reachman
}
804007 = {
	name = Tydwell
	culture = reachman
}
804008 = {
	name = Campester
	culture = reachman
}
804009 = {
	name = Meadowgard
	culture = reachman
}
804010 = {
	name = Cadmond
	culture = reachman
}
804011 = {
	name = Caskwell
	culture = reachman
}
804012 = {
	name = Toddard
	culture = reachman
}
804013 = {
	name = Clovering
	culture = reachman
}
804014 = {
	name = Hedgeway
	culture = reachman
}
804015 = {
	name = Harwell
	culture = reachman
}
804016 = {
	name = Seyforth
	culture = reachman
}
804017 = {
	name = Willows
	culture = reachman
}
804018 = {
	name = Glennon
	culture = reachman
}
804019 = {
	name = Hammersmyth
	culture = reachman
}
804020 = {
	name = Burdyck
	culture = reachman
}
804021 = {
	name = Werrell
	culture = reachman
}
804022 = {
	name = Sugdale
	culture = reachman
}
804023 = {
	name = Groswell
	culture = reachman
}
804024 = {
	name = Duntower
	culture = reachman
}
804025 = {
	name = Tavott
	culture = reachman
}
804026 = {
	name = Appledore
	culture = reachman
}
804027 = {
	name = Endicott
	culture = reachman
}
804028 = {
	name = Wynthorpe
	culture = reachman
}
804029 = {
	name = Lonshaw
	culture = reachman
}
804030 = {
	name = Roseworth
	culture = reachman
}
804031 = {
	name = Kolten
	culture = reachman
}
804032 = {
	name = Sweetblood
	culture = reachman
}
804033 = {
	name = Crabtree
	culture = reachman
}
804034 = {
	name = Gallister
	culture = reachman
}
804035 = {
	name = Pelgrin
	culture = reachman
}
804036 = {
	name = Watford
	culture = reachman
}
804037 = {
	name = Gilford
	culture = reachman
}
804038 = {
	name = Grandidge
	culture = reachman
}
804039 = {
	name = Greenley
	culture = reachman
}
804040 = {
	name = Barlow
	culture = reachman
}
804041 = {
	name = Honeytree
	culture = reachman
}
804042 = {
	name = Bowyer
	culture = reachman
}
804043 = {
	name = Norgate
	culture = reachman
}
804044 = {
	name = Bridlewood
	culture = reachman
}
804045 = {
	name = Lychbury
	culture = reachman
}
804046 = {
	name = Goodland
	culture = reachman
}
804047 = {
	name = Stewarr
	culture = reachman
}
804048 = {
	name = Oatwright
	culture = reachman
}
804049 = {
	name = Tarbor
	culture = reachman
}
804050 = {
	name = Goldflowers
	culture = reachman
}
804051 = {
	name = Cartwell
	culture = reachman
}
804052 = {
	name = Kidwell
	culture = reachman
}
804053 = {
	name = Barner
	culture = reachman
}
804054 = {
	name = Hutter
	culture = reachman
}
804055 = {
	name = Hayard
	culture = reachman
}
804056 = {
	name = Furrows
	culture = reachman
}
804057 = {
	name = Garner
	culture = reachman
}
804058 = {
	name = Greenroot
	culture = reachman
}
804059 = {
	name = Summerstride
	culture = reachman
}
804060 = {
	name = Highmantle
	culture = reachman
}
804061 = {
	name = Highoak
	culture = reachman
}
804062 = {
	name = Redwynd
	culture = reachman
}
804063 = {
	name = Barleyrot
	culture = reachman
}
804064 = {
	name = Summerbeam
	culture = reachman
}
804065 = {
	name = Highbow
	culture = reachman
}
804066 = {
	name = Roseheart
	culture = reachman
}
804067 = {
	name = Roseridge
	culture = reachman
}
804068 = {
	name = Goldengrain
	culture = reachman
}
804069 = {
	name = Havenscribe
	culture = reachman
}
804070 = {
	name = Goodhaven
	culture = reachman
}
804071 = {
	name = Grainhaven
	culture = reachman
}
804072 = {
	name = Springhaven
	culture = reachman
}

##canon##
80 = {
	name="Manderly"
	culture = reachman
	coat_of_arms = {
		template = 0
		layer = {
			texture = 5
			texture_internal = 21
			emblem = 0
			color = 0
			color = 0
			color = 0
		}
	}
}
234 = {
	name="Crane"
	culture = reachman
	coat_of_arms = {
		template = 0
		layer = {
			texture = 7
			texture_internal = 35
			emblem = 0
			color = 0
			color = 0
			color = 0
		}
	}
}
235 = {
	name="Osgrey"
	culture = reachman
	coat_of_arms = {
		template = 0
		layer = {
			texture = 7
			texture_internal = 44
			emblem = 0
			color = 0
			color = 0
			color = 0
		}
	}
}
236 = {
	name="Durwell"
	culture = reachman
	coat_of_arms = {
		template = 0
		layer = {
			texture = 7
			texture_internal = 14
			emblem = 0
			color = 0
			color = 0
			color = 0
		}
	}
}
237 = {
	name="Oakheart"
	culture = reachman
	coat_of_arms = {
		template = 0
		layer = {
			texture = 7
			texture_internal = 38
			emblem = 0
			color = 0
			color = 0
			color = 0
		}
	}
}
238 = {
	name="Webber"
	culture = reachman
	coat_of_arms = {
		template = 0
		layer = {
			texture = 7
			texture_internal = 6
			emblem = 0
			color = 0
			color = 0
			color = 0
		}
	}
}
239 = {
	name="Woodwright"
	culture = reachman
	coat_of_arms = {
		template = 0
		layer = {
			texture = 7
			texture_internal = 40
			emblem = 0
			color = 0
			color = 0
			color = 0
		}
	}
}
240 = {
	name="Westbrook"
	culture = reachman
	coat_of_arms = {
		template = 0
		layer = {
			texture = 7
			texture_internal = 53
			emblem = 0
			color = 0
			color = 0
			color = 0
		}
	}
}
241 = {
	name="Uffering"
	culture = reachman
	coat_of_arms = {
		template = 0
		layer = {
			texture = 7
			texture_internal = 68
			emblem = 0
			color = 0
			color = 0
			color = 0
		}
	}
}
242 = {
	name="Graceford"
	culture = reachman
	coat_of_arms = {
		template = 0
		layer = {
			texture = 7
			texture_internal = 24
			emblem = 0
			color = 0
			color = 0
			color = 0
		}
	}
}
243 = {
	name="Redding"
	culture = reachman
	coat_of_arms = {
		template = 0
		layer = {
			texture = 7
			texture_internal = 36
			emblem = 0
			color = 0
			color = 0
			color = 0
		}
	}
}
244 = {
	name="Wythers"
	culture = reachman
	coat_of_arms = {
		template = 0
		layer = {
			texture = 7
			texture_internal = 54
			emblem = 0
			color = 0
			color = 0
			color = 0
		}
	}
}
245 = {
	name="Bushy"
	culture = reachman
	coat_of_arms = {
		template = 0
		layer = {
			texture = 7
			texture_internal = 0
			emblem = 0
			color = 0
			color = 0
			color = 0
		}
	}
}
246 = {
	name="Shermer"
	culture = reachman
	coat_of_arms = {
		template = 0
		layer = {
			texture = 7
			texture_internal = 41
			emblem = 0
			color = 0
			color = 0
			color = 0
		}
	}
}
247 = {
	name="Roxton"
	culture = reachman
	coat_of_arms = {
		template = 0
		layer = {
			texture = 7
			texture_internal = 46
			emblem = 0
			color = 0
			color = 0
			color = 0
		}
	}
}
248 = {
	name="Footly"
	culture = reachman
	coat_of_arms = {
		template = 0
		layer = {
			texture = 7
			texture_internal = 51
			emblem = 0
			color = 0
			color = 0
			color = 0
		}
	}
}
249 = {
	name="Inchfield"
	culture = reachman
	coat_of_arms = {
		template = 0
		layer = {
			texture = 7
			texture_internal = 29
			emblem = 0
			color = 0
			color = 0
			color = 0
		}
	}
}
250 = {
	name="Rowan"
	culture = reachman
	coat_of_arms = {
		template = 0
		layer = {
			texture = 7
			texture_internal = 16
			emblem = 0
			color = 0
			color = 0
			color = 0
		}
	}
}
251 = {
	name="Lyberr"
	culture = reachman
	coat_of_arms = {
		template = 0
		layer = {
			texture = 7
			texture_internal = 63
			emblem = 0
			color = 0
			color = 0
			color = 0
		}
	}
}
252 = {
	name="Kidwell"
	culture = reachman
	coat_of_arms = {
		template = 0
		layer = {
			texture = 7
			texture_internal = 28
			emblem = 0
			color = 0
			color = 0
			color = 0
		}
	}
}
253 = {
	name="Tyrell"
	culture = reachman
	coat_of_arms = {
		template = 0
		layer = {
			texture = 7
			texture_internal = 23
			emblem = 0
			color = 0
			color = 0
			color = 0
		}
	}
}
254 = {
	name="Dunn"
	culture = reachman
	coat_of_arms = {
		template = 0
		layer = {
			texture = 7
			texture_internal = 13
			emblem = 0
			color = 0
			color = 0
			color = 0
		}
	}
}
255 = {
	name="Middlebury"
	culture = reachman
	coat_of_arms = {
		template = 0
		layer = {
			texture = 7
			texture_internal = 32
			emblem = 0
			color = 0
			color = 0
			color = 0
		}
	}
}
256 = {
	name="Orme"
	culture = reachman
	coat_of_arms = {
		template = 0
		layer = {
			texture = 7
			texture_internal = 21
			emblem = 0
			color = 0
			color = 0
			color = 0
		}
	}
}
257 = {
	name="Yelshire"
	culture = reachman
	coat_of_arms = {
		template = 0
		layer = {
			texture = 7
			texture_internal = 55
			emblem = 0
			color = 0
			color = 0
			color = 0
		}
	}
}
258 = {
	name="Varner"
	culture = reachman
	coat_of_arms = {
		template = 0
		layer = {
			texture = 7
			texture_internal = 58
			emblem = 0
			color = 0
			color = 0
			color = 0
		}
	}
}
259 = {
	name="Sloane"
	culture = reachman
	coat_of_arms = {
		template = 0
		layer = {
			texture = 7
			texture_internal = 15
			emblem = 0
			color = 0
			color = 0
			color = 0
		}
	}
}
260 = {
	name="Ball"
	culture = reachman
	coat_of_arms = {
		template = 0
		layer = {
			texture = 7
			texture_internal = 61
			emblem = 0
			color = 0
			color = 0
			color = 0
		}
	}
}
261 = {
	name="Fossoway" #of Cider Hall
	culture = reachman
	coat_of_arms = {
		template = 0
		layer = {
			texture = 7
			texture_internal = 11
			emblem = 0
			color = 0
			color = 0
			color = 0
		}
	}
}
262 = {
	name="Fossoway" #of New Barrel
	culture = reachman
	coat_of_arms = {
		template = 0
		layer = {
			texture = 7
			texture_internal = 10
			emblem = 0
			color = 0
			color = 0
			color = 0
		}
	}
}
263 = {
	name="Merryweather"
	culture = reachman
	coat_of_arms = {
		template = 0
		layer = {
			texture = 7
			texture_internal = 31
			emblem = 0
			color = 0
			color = 0
			color = 0
		}
	}
}
264 = {
	name="Caswell"
	culture = reachman
	coat_of_arms = {
		template = 0
		layer = {
			texture = 7
			texture_internal = 5
			emblem = 0
			color = 0
			color = 0
			color = 0
		}
	}
}
265 = {
	name="Ashford"
	culture = reachman
	coat_of_arms = {
		template = 0
		layer = {
			texture = 7
			texture_internal = 2
			emblem = 0
			color = 0
			color = 0
			color = 0
		}
	}
}
266 = {
	name="Appleton"
	culture = reachman
	coat_of_arms = {
		template = 0
		layer = {
			texture = 7
			texture_internal = 1
			emblem = 0
			color = 0
			color = 0
			color = 0
		}
	}
}
267 = {
	name="Hastwyck"
	culture = reachman
	coat_of_arms = {
		template = 0
		layer = {
			texture = 7
			texture_internal = 22
			emblem = 0
			color = 0
			color = 0
			color = 0
		}
	}
}
268 = {
	name="Bridges"
	culture = reachman
	coat_of_arms = {
		template = 0
		layer = {
			texture = 7
			texture_internal = 34
			emblem = 0
			color = 0
			color = 0
			color = 0
		}
	}
}
269 = {
	name="Norridge"
	culture = reachman
	coat_of_arms = {
		template = 0
		layer = {
			texture = 7
			texture_internal = 64
			emblem = 0
			color = 0
			color = 0
			color = 0
		}
	}
}
270 = {
	name="Meadows"
	culture = reachman
	coat_of_arms = {
		template = 0
		layer = {
			texture = 7
			texture_internal = 19
			emblem = 0
			color = 0
			color = 0
			color = 0
		}
	}
}
271 = {
	name="Cockshaw"
	culture = reachman
	coat_of_arms = {
		template = 0
		layer = {
			texture = 7
			texture_internal = 4
			emblem = 0
			color = 0
			color = 0
			color = 0
		}
	}
}
272 = {
	name="Willum"
	culture = reachman
	coat_of_arms = {
		template = 0
		layer = {
			texture = 7
			texture_internal = 57
			emblem = 0
			color = 0
			color = 0
			color = 0
		}
	}
}
274 = {
	name="Pommingham"
	culture = reachman
	coat_of_arms = {
		template = 0
		layer = {
			texture = 7
			texture_internal = 65
			emblem = 0
			color = 0
			color = 0
			color = 0
		}
	}
	
}
275 = {
	name="Grimm"
	culture = reachman
	coat_of_arms = {
		template = 0
		layer = {
			texture = 7
			texture_internal = 17
			emblem = 0
			color = 0
			color = 0
			color = 0
		}
	}
}
276 = {
	name="Serry"
	culture = reachman
	coat_of_arms = {
		template = 0
		layer = {
			texture = 7
			texture_internal = 43
			emblem = 0
			color = 0
			color = 0
			color = 0
		}
	}
}
277 = {
	name="Chester"
	culture = reachman
	coat_of_arms = {
		template = 0
		layer = {
			texture = 7
			texture_internal = 18
			emblem = 0
			color = 0
			color = 0
			color = 0
		}
	}
}
278 = {
	name="Hewett"
	culture = reachman
	coat_of_arms = {
		template = 0
		layer = {
			texture = 7
			texture_internal = 39
			emblem = 0
			color = 0
			color = 0
			color = 0
		}
	}
}
279 = {
	name="Norcross"
	culture = reachman
	coat_of_arms = {
		template = 0
		layer = {
			texture = 7
			texture_internal = 33
			emblem = 0
			color = 0
			color = 0
			color = 0
		}
	}
}
280 = {
	name="Graves"
	culture = reachman
	coat_of_arms = {
		template = 0
		layer = {
			texture = 7
			texture_internal = 70
			emblem = 0
			color = 0
			color = 0
			color = 0
		}
	}
}
281 = {
	name="Florent"
	culture = reachman
	coat_of_arms = {
		template = 0
		layer = {
			texture = 7
			texture_internal = 8
			emblem = 0
			color = 0
			color = 0
			color = 0
		}
	}
}
282 = {
	name="Beesbury"
	culture = reachman
	coat_of_arms = {
		template = 0
		layer = {
			texture = 7
			texture_internal = 25
			emblem = 0
			color = 0
			color = 0
			color = 0
		}
	}
}
283 = {
	name="Blackbar"
	culture = reachman
	coat_of_arms = {
		template = 0
		layer = {
			texture = 7
			texture_internal = 3
			emblem = 0
			color = 0
			color = 0
			color = 0
		}
	}
}
284 = {
	name="Bulwer"
	culture = reachman
	coat_of_arms = {
		template = 0
		layer = {
			texture = 7
			texture_internal = 9
			emblem = 0
			color = 0
			color = 0
			color = 0
		}
	}
}
285 = {
	name="Hightower"
	culture = reachman
	coat_of_arms = {
		template = 0
		layer = {
			texture = 7
			texture_internal = 37
			emblem = 0
			color = 0
			color = 0
			color = 0
		}
	}
}
286 = {
	name="Conklyn"
	culture = reachman
	coat_of_arms = {
		template = 0
		layer = {
			texture = 7
			texture_internal = 69
			emblem = 0
			color = 0
			color = 0
			color = 0
		}
	}
}
287 = {
	name="Costayne"
	culture = reachman
	coat_of_arms = {
		template = 0
		layer = {
			texture = 7
			texture_internal = 45
			emblem = 0
			color = 0
			color = 0
			color = 0
		}
	}
}
288 = {
	name="Redwyne"
	culture = reachman
	coat_of_arms = {
		template = 0
		layer = {
			texture = 7
			texture_internal = 47
			emblem = 0
			color = 0
			color = 0
			color = 0
		}
	}
}
289 = {
	name="Cuy"
	culture = reachman
	coat_of_arms = {
		template = 0
		layer = {
			texture = 7
			texture_internal = 48
			emblem = 0
			color = 0
			color = 0
			color = 0
		}
	}
}
290 = {
	name="Mullendore"
	culture = reachman
	coat_of_arms = {
		template = 0
		layer = {
			texture = 7
			texture_internal = 52
			emblem = 0
			color = 0
			color = 0
			color = 0
		}
	}
}
291 = {
	name="Hutcheson"
	culture = reachman
	coat_of_arms = {
		template = 0
		layer = {
			texture = 7
			texture_internal = 50
			emblem = 0
			color = 0
			color = 0
			color = 0
		}
	}
}
292 = {
	name="Hunt"
	culture = reachman
	coat_of_arms = {
		template = 0
		layer = {
			texture = 7
			texture_internal = 27
			emblem = 0
			color = 0
			color = 0
			color = 0
		}
	}
}
293 = {
	name="Vyrwel"
	culture = reachman
	coat_of_arms = {
		template = 0
		layer = {
			texture = 7
			texture_internal = 12
			emblem = 0
			color = 0
			color = 0
			color = 0
		}
	}
}
294 = {
	name="Cordwayner"
	culture = reachman
	coat_of_arms = {
		template = 0
		layer = {
			texture = 7
			texture_internal = 20
			emblem = 0
			color = 0
			color = 0
			color = 0
		}
	}
}
295 = {
	name="Oldflowers"
	culture = reachman
	coat_of_arms = {
		template = 0
		layer = {
			texture = 7
			texture_internal = 42
			emblem = 0
			color = 0
			color = 0
			color = 0
		}
	}
}
296 = {
	name="Tarly"
	culture = reachman
	coat_of_arms = {
		template = 0
		layer = {
			texture = 7
			texture_internal = 26
			emblem = 0
			color = 0
			color = 0
			color = 0
		}
	}
}
297 = {
	name="Ambrose"
	culture = reachman
	coat_of_arms = {
		template = 0
		layer = {
			texture = 7
			texture_internal = 56
			emblem = 0
			color = 0
			color = 0
			color = 0
		}
	}
}
298 = {
	name="Peake"
	culture = reachman
	coat_of_arms = {
		template = 0
		layer = {
			texture = 7
			texture_internal = 49
			emblem = 0
			color = 0
			color = 0
			color = 0
		}
	}
}
299 = {
	name="Leygood"
	culture = reachman
	coat_of_arms = {
		template = 0
		layer = {
			texture = 7
			texture_internal = 30
			emblem = 0
			color = 0
			color = 0
			color = 0
		}
	}
}
1005 = {
	name="Flowers"
	culture = reachman
	used_for_random = no
	can_appear = no
}
1201 = {
	name="Cupps"
	culture = reachman
	coat_of_arms = {
		template = 0
		layer = {
			texture = 7
			texture_internal = 73
			emblem = 0
			color = 0
			color = 0
			color = 0
		}
	}
}
1254 = {
	name="Gardener"
	culture = reachman
	coat_of_arms = {
		template = 0
		layer = {
			texture = 7
			texture_internal = 59
			emblem = 0
			color = 0
			color = 0
			color = 0
		}
	}
	used_for_random = no
	can_appear = no
}
1333 = {
	name="Lowther"
	culture = reachman
	coat_of_arms = {
		template = 0
		layer = {
			texture = 7
			texture_internal = 62
			emblem = 0
			color = 0
			color = 0
			color = 0
		}
	}
}
1423 = {
	name="Rhysling"
	culture = reachman
	coat_of_arms = {
		template = 0
		layer = {
			texture = 7
			texture_internal = 66
			emblem = 0
			color = 0
			color = 0
			color = 0
		}
	}
}
1425 = {
	name="Risley"
	culture = reachman
	coat_of_arms = {
		template = 0
		layer = {
			texture = 7
			texture_internal = 67
			emblem = 0
			color = 0
			color = 0
			color = 0
		}
	}
}
1427 = {
	name="Goldwyne"		#non-canon, landed in barony
	culture = reachman
	coat_of_arms = {
		template = 0
		layer = {
			texture = 7
			texture_internal = 60
			emblem = 0
			color = 0
			color = 0
			color = 0
		}
	}
}
1426 = {
	name="Stonecrab"	#non-canon, landed in barony
	culture = reachman
	coat_of_arms = {
		template = 0
		layer = {
			texture = 14
			texture_internal = 5
			emblem = 0
			color = 0
			color = 0
			color = 0
		}
	}
}
1428 = {
	name="Strickland"
	culture = reachman
	coat_of_arms = {
		template = 0
		layer = {
			texture = 7
			texture_internal = 72
			emblem = 0
			color = 0
			color = 0
			color = 0
		}
	}
}
1471 = {
	name="Stackhouse"
	culture = reachman
	coat_of_arms = {
		template = 0
		layer = {
			texture = 7
			texture_internal = 7
			emblem = 0
			color = 0
			color = 0
			color = 0
		}
	}
}
174425 = {
	name="Farrow"
	culture = reachman
	coat_of_arms = {
		template = 0
		layer = {
			texture = 7
			texture_internal = 74
			emblem = 0
			color = 0
			color = 0
			color = 0
		}
	}
}
174426 = {
	name="Penny"
	culture = reachman
	coat_of_arms = {
		template = 0
		layer = {
			texture = 7
			texture_internal = 75
			emblem = 0
			color = 0
			color = 0
			color = 0
		}
	}
}
174427 = {
	name="Potter"
	culture = reachman
	coat_of_arms = {
		template = 0
		layer = {
			texture = 7
			texture_internal = 76
			emblem = 0
			color = 0
			color = 0
			color = 0
		}
	}
}
174428 = {
	name="Sawyer"
	culture = reachman
	coat_of_arms = {
		template = 0
		layer = {
			texture = 7
			texture_internal = 77
			emblem = 0
			color = 0
			color = 0
			color = 0
		}
	}
}
174824 = { 
	name="of Sour Hill"
	culture = reachman
}
174828 = {
	name = "Long"
	culture = reachman
}
174833 = { 
	name="Cobb"
	culture = reachman
	coat_of_arms = {
		template = 0
		layer = {
			texture = 7
			texture_internal = 82
			emblem = 0
			color = 0
			color = 0
			color = 0
		}
	}
}
1476 = {
	name = "Rodden"
	culture = reachman
	coat_of_arms = {
		template = 0
		layer = {
			texture = 7
			texture_internal = 83
			emblem = 0
			color = 0
			color = 0
			color = 0
		}
	}
}
1477 = {
	name = "Weatherwax"		
	culture = reachman
	coat_of_arms = {
		template = 0
		layer = {
			texture = 7
			texture_internal = 86
			emblem = 0
			color = 0
			color = 0
			color = 0
		}
	}
}
1478 = {				
	name = "Whitewater"		
	culture = reachman
	coat_of_arms = {
		template = 0
		layer = {
			texture = 7
			texture_internal = 87
			emblem = 0
			color = 0
			color = 0
			color = 0
		}
	}
}
1062 = {
	name= "Fossoway" #Brown Apple
	culture = reachman
	coat_of_arms = {
		template = 0
		layer = {
			texture = 7
			texture_internal = 89
			emblem = 0
			color = 0
			color = 0
			color = 0
		}
	}
	used_for_random = no
	can_appear = no
}
1489 = {		
	name = "Summerchild"		
	culture = reachman
	coat_of_arms = {
		template = 0
		layer = {
			texture = 7
			texture_internal = 88
			emblem = 0
			color = 0
			color = 0
			color = 0
		}
	}
}
1491 = {
	name = "Stoops"
	culture = reachman
}
1467 = { 
	name="of Longtable" # Rolley of Longtable
	culture=reachman
}
1468 = { 
	name="of Oldtown" # Dyna of Oldtown
	culture=reachman
}
206017 = {
	name="Greenhill"
	culture = reachman can_appear = no
	coat_of_arms = {
		template = 0
		layer = {
			texture = 16
			texture_internal = 53
			emblem = 0
			color = 0
			color = 0
			color = 0
		}
	}
}
1073 = {
	name= "Fireball" #
	culture = reachman
	coat_of_arms = {
		template = 0
		layer = {
			texture = 22
			texture_internal = 3
			emblem = 0
			color = 0
			color = 0
			color = 0
		}
	}
	used_for_random = no
	can_appear = no
}
