#House Velaryon
7300.1.1={
	liege="c_driftmark"
}
7854.1.1 = { holder=343052 } # Jacaerys (nc)
7891.1.1 = { holder=342052 } # Vaemond (nc)
7912.1.1 = { holder=341052 } # Daemion (nc)
7941.1.1 = { holder=340052 } # Rhogar (nc)
7968.1.1 = { holder = 601052 } # Jacaerys (nc)

7990.1.1={
	holder = 38052 # Daemon Velaryon (C)
}
7998.5.9={
	holder = 34052 # Aethan Velaryon (C)
}
8035.1.1={
	holder = 33052 # Daemon Velaryon (C)
}
8086.1.1={
	holder = 26052 # Corlys Velaryon (C)
}
8132.3.6 = { #given by Alyn in exchange for loyalty
	holder = 88000309 # Daemion Velaryon
}
8153.1.1 = {
	holder = 24052 # Alyn Velaryon (C)
}
8175.1.1={
	holder = 23052
}	
8197.1.1={
	holder = 22052
}
8235.1.1={
	holder = 21052
}
8258.1.1={
	holder = 20052 # Lucerys Velaryon (C)
}
8285.1.1={
	holder = 52 # Monford Velaryon (C)
}
8299.7.1 = {
	holder = 4052 # Monterys Velaryon (C)
}