1.1.1={ law=succ_primogeniture law=cognatic_succession
	liege="c_the_arbor"
}
30.1.1={ holder=60130288} # Gilbert of the Vines
98.1.1={ holder=0}
7850.1.1={ holder=60110288} # Gareth Redwyne
7870.11.1={ 
	holder=351427
}
7915.1.1={holder=361427}
7930.1.1={holder=371427}
7960.1.1={ 
	holder=341427
}
7985.1.1={ 
	holder=331427
}
7990.1.1={
	holder=321427
}
8022.1.1={
	holder=311427
}
8046.1.1={
	holder=211427
}
8087.1.1={
	holder=221427
}
8106.1.1={
	holder=231427
}
8137.1.1={
	holder=251427
}
8185.1.1={
	holder=261427
}
8209.1.1={
	holder=281427
}
8263.1.1={
	holder=291427
}
 8280.1.1={
	holder=88179
}





