#House Morvdys
900.1.1={ 
	liege="c_norvos"
}
7848.1.1 = { holder=344300561 } # Lysan (nc)
7898.1.1 = { holder=342300561 } # Cassan (nc)
7919.1.1 = { holder=341300561 } # Adaros (nc)
7941.1.1 = { holder=340300561 } # Syrno (nc)

7955.1.1 = { holder=100300561 } # Gyloro (nc)
8003.1.1 = { holder=104300561 } # Myrmello (nc)
8030.1.1 = { holder=108300561 } # Meralyn (nc)
8060.1.1 = { holder=111300561 } # Syrio (nc)
8089.1.1 = { holder=113300561 } # Meralyn (nc)
8094.1.1 = { holder=114300561 } # Moredo (nc)
8130.1.1 = { holder=119300561 } # Lotho (nc)
8135.1.1 = { holder=123300561 } # Izembaro (nc)
8177.1.1 = { holder=124300561 } # Roggo (nc)
8200.1.1 = { holder=126300561 } # Ferrego (nc)
8225.1.1 = { holder=128300561 } # Izembaro (nc)
8243.1.1 = { holder=132300561 } # Pynto (nc)
8249.1.1 = { holder=133300561 } # Roggo (nc)
8268.1.1 = { holder=135300561 } # Tormo (nc)
8299.1.1 = { holder=138300561 } # Luco (nc)



