#House Ashford
900.1.1={ 
	law=succ_primogeniture law=cognatic_succession
	liege="d_cockleswhent"
}
7870.1.1 = { holder=60034265 } # Simon (nc)
7883.1.1 = { holder=60033265 } # Richard (nc)
7915.1.1 = { holder=60032265 } # Harrold (nc)
7930.1.1 = { holder=60031265 } # Hobber (nc)
7959.1.1 = { holder=60030265 } # Garrett (nc)
7974.1.1 = { holder=60000265 } # Talmond	
7990.1.1={
	holder=18265
}
8003.6.2={
    holder=17265
}	
8049.1.1={
	holder=16265
}
8066.1.1={
	holder=15265
}
8107.1.1={
	holder=14265
}
8124.1.1={
	holder=13265
}
8142.1.1={
	holder=12265
}
8164.1.1={
	holder=11265
}
8182.1.1={
	holder=88026
}
8220.1.1={
	holder=265
}
8250.1.1={
	holder=88027
}
8276.1.1={
	holder=88028
}