600.1.1={
	liege="d_nefer"
}
7860.1.1 = { holder=34569207 } # Urelbun (nc)
7883.1.1 = { holder=34469207 } # Hailin (nc)
7912.1.1 = { holder=34369207 } # Dzuburug (nc)
7929.1.1 = { holder=34269207 } # Ugul (nc)
7966.1.1 = { holder=34169207 } # Bian (nc)
7977.1.1 = { holder=34069207 } # Diolin (nc)

7993.1.1 = { holder=10069207 } # Akin (nc)
8037.1.1 = { holder=10269207 } # Khalil (nc)
8051.1.1 = { holder=10769207 } # Idris (nc)
8067.1.1 = { holder=10969207 } # Zeyd (nc)
8108.1.1 = { holder=11369207 } # Akin (nc)
8134.1.1 = { holder=11469207 } # Fadl (nc)
8155.1.1 = { holder=11669207 } # Youkhanna (nc)
8168.1.1 = { holder=11969207 } # Mirza (nc)
8189.1.1 = { holder=12069207 } # Zeyd (nc)
8220.1.1 = { holder=12169207 } # Ghalib (nc)
8244.1.1 = { holder=12569207 } # Shamir (nc)
8261.1.1 = { holder=12969207 } # Yahya (nc)



