#House Glenmore
6000.1.1={
	liege="d_rills"
	law = succ_primogeniture
}
7871.1.1 = { holder=3421874 } # Galbart (nc)
7881.1.1 = { holder=3411874 } # Gareth (nc)
7901.1.1 = { holder=3401874 } # Lorick (nc)

7923.1.1 = { holder=10001874 } # Elyas (nc)
7980.1.1 = { holder=10011874 } # Buford (nc)
7985.1.1 = { holder=10031874 } # Osbert (nc)
8019.1.1 = { holder=10041874 } # Hobber (nc)
8044.1.1 = { holder=10071874 } # Igon (nc)
8053.1.1 = { holder=10091874 } # Medwick (nc)
8073.1.1 = { holder=10111874 } # Normund (nc)
8109.1.1 = { holder=10141874 } # Lia (nc)
8134.1.1 = { holder=10151874 } # Alyn (nc)
8145.1.1 = { holder=10161874 } # Jon (nc)
8152.1.1 = { holder=10191874 } # Byren (nc)
8179.1.1 = { holder=10201874 } # Falia (nc)
8219.1.1 = { holder=10221874 } # Ryam (nc)
8244.1.1 = { holder=10231874 } # Byren (nc)
8262.1.1 = { holder=10271874 } # Wendell (nc)
