#c_casterly_rock
3.1.1={
	liege="d_casterly_rock"
}

40.1.1 = { holder=20174406 } # Corlos, son of Caster # Line of Casterlys
80.1.1 = { holder=21174406 } # Carlon, son of Corlos
120.1.1 = { holder=22174406 } # Caston, son of Carlon
150.1.1 = { holder=23174406 } # Criston, son of Caston
156.1.1 = { holder=24174406 } # Corlos, son of Criston
186.1.1 = { holder=25174406 } # Caster, son of Corlos
198.1.1 = { holder=26174406 } # Castella, daughter of Caster, bride of Lann the Clever

210.1.1 = { holder=80270190 } # Loreon the Lion
280.1.1 = { holder=0 }

# Pre-Andal period
5320.1.1 = { holder=80310190 } # Gerold the Great (C)
5365.1.1 = { holder = 0 }
6612.1.1 = { holder=80380190 } # Tybolt Tunderbolt (C)
6665.1.1 = { holder=80390190 } # Tyrion III (C)
6682.1.1 = { holder=80400190 } # Gerold II (C)
6695.1.1 = { holder=80401190 } # Gerold III (C)
6732.1.1 = { holder=80403190 } # Joffrey I Lydden (C)

# Post-Andal period
6751.1.1 = { holder=80280190 } # Cerion (C) 
6778.1.1 = { holder=8009190 } # Tommen (I C)
6799.1.1 = { holder=80290190 } # Loreon II (C)
6824.1.1 = { holder=80350190 } # Lancel I the lion (C)
6842.1.1 = { holder=80300190 } # Loreon III the Limp (C)
6859.1.1 = { holder = 0 }

7533.1.1 = { holder=8001190 } # Lancel II (C)
7608.1.1 = { holder=8002190 } # Tywell I (C)
7643.1.1 = { holder=8018190 } # Norwin (C) 
7673.1.1 = { holder=8070190 } # Tywell II (C)
7680.1.1 = { holder=80420190 } # Loreon IV the lackwit (C)
7702.1.1 = { holder=80430190 } # Loreon V 'Queen' Lorea (C)
7746.1.1 = { holder=80330190 } # Tyrion II the Tormentor (C)
7777.1.1 = { holder=8004190 } # Lancel III (C)
7808.1.1 = { holder=8003190 } # Lancel IV (C)
7821.1.1 = { holder=8007190 } # Lancel V (C)
7841.1.1 = { holder=8008190 } # Tyrion III (nc)
7880.1.1 = { holder=8012190 } # Tommen II (C)
7900.1.1 = { holder=8013190 } # Tyrion IV (C)
7920.1.1 = { holder=8016190 } # Gerold IV (nc)
7942.1.1 = { holder=8037190 } # Tyler (nc)
7964.1.1 = { holder=8036190 } # Damon (nc)
7986.1.1 = { holder=8017190 } # Tymond (nc)
7992.1.1 = { holder=85190 } #Loren the Last (C)

8020.1.1={
	holder=1001190
}
8026.1.1 = {
holder=86190 # Lyman Lannister
}
8059.2.1 = {
holder=87190 # Tygett Lannister
}
8090.1.1 = {
holder=1060190 # Tymond Lannister
}
8125.1.1 = {
holder=96190 # Jason Lannister
}
8129.6.8 = {
holder=89190 # Loren Lannister
}
8167.1.1 = {
holder=92190 # Jonn Lannister
}
8186.1.1 = {
holder=99190 # Damon Lannister
}
8210.1.1 = {
holder=5188 # Tybolt
}
8212.2.1 = {
holder=60100190 # Serelle Lannister
}
8212.6.1 = {
holder=102190 # Gerold Lannister
}
8243.1.1 = {
holder=1190	# Tytos Lannister
}	
8267.1.1 = {	
holder=190 # Tywin
}
8300.2.9={
holder=4190 #Cersei
}