#House Eleglos
600.1.1={
	liege="d_qarkash"
}
7858.1.1 = { holder=34469159 } # Periso (nc)
7878.1.1 = { holder=34369159 } # Lyodamos (nc)
7906.1.1 = { holder=34269159 } # Tathos (nc)
7932.1.1 = { holder=34169159 } # Harm Odios (nc)
7954.1.1 = { holder=34069159 } # Thon (nc)

7987.1.1 = { holder=100069159 } # Regon (nc)
8039.1.1 = { holder=100269159 } # Belicho (nc)
8045.1.1 = { holder=100569159 } # Methyso (nc)
8077.1.1 = { holder=100969159 } # Ordello (nc)
8081.1.1 = { holder=101169159 } # Navathos (nc)
8111.1.1 = { holder=101569159 } # Xaro (nc)
8135.1.1 = { holder=101669159 } # Gathril (nc)
8168.1.1 = { holder=101869159 } # Mathos (nc)
8196.1.1 = { holder=102269159 } # Lotho (nc)
8217.1.1 = { holder=102469159 } # Wendello (nc)
8238.1.1 = { holder=102869159 } # Lotho (nc)
8272.1.1 = { holder=102969159 } # Pyat (nc)
8292.1.1 = { holder=103269159 } # Mathos (nc)
