#House Marsh
6000.1.1={
	liege="d_theneck"
	law = succ_primogeniture
}
7855.1.1 = { holder=344078 } # Lonnel (nc)
7871.1.1 = { holder=343078 } # Ondrew (nc)
7901.1.1 = { holder=342078 } # Corin (nc)
7923.1.1 = { holder=341078 } # Alton (nc)
7956.1.1 = { holder=340078 } # Jon (nc)

7986.1.1 = { holder=22078 } # Wayn (nc)
8011.1.1 = { holder=21078 } # Mark (nc)
8040.1.1 = { holder=20078 } # Domeric (nc)
8064.1.1 = { holder=19078 } # Heward (nc)
8071.1.1 = { holder=18078 } # Roose (nc)
8104.1.1 = { holder=17078 } # Harmond (nc)
8116.1.1 = { holder=16078 } # Domeric (nc)
8162.1.1 = { holder=14078 } # Brenett (nc)
8188.1.1 = { holder=13078 } # Artos (nc)
8213.1.1 = { holder=12078 } # Luton (nc)
8239.1.1 = { holder=11078 } # Dorren (nc)
8251.1.1 = { holder=10078 }
8270.1.1 = {
	holder = 78
}
