7850.1.1 = { holder=345559133 } # Soren (nc)
7868.1.1 = { holder=344559133 } # Jeor (nc)
7891.1.1 = { holder=343559133 } # Jarl (nc)
7922.1.1 = { holder=342559133 } # Torwynd (nc)
7941.1.1 = { holder=341559133 } # Mikken (nc)
7959.1.1 = { holder=340559133 } # Doss (nc)
7975.1.1 = { holder=10559133 } # Mikken (nc)
8007.1.1 = { holder=11559133 } # Orell (nc)
8020.1.1 = { holder=14559133 } # Hareth (nc)
8067.1.1 = { holder=17559133 } # Henk (nc)
8079.1.1 = { holder=20559133 } # Alfyn (nc)
8127.1.1 = { holder=21559133 } # Gariss (nc)
8146.1.1 = { holder=23559133 } # Hallis (nc)
8147.1.1 = { holder=24559133 } # Calon (nc)
8184.1.1 = { holder=26559133 } # Bernarr (nc)
8213.1.1={
	liege="k_beyond_wall"
}
8226.9.9={
	liege="0"
}
8239.1.1 = { holder=29559133 } # Torwynd (nc)
8256.1.1 = { holder=31559133 } # Gerrick (nc)
8263.1.1 = { holder=32559133 } # Devyn (nc)

8280.1.1 = {
	name = c_crasters_keep_B
	effect = { location = { set_name = c_crasters_keep_B } }
	holder=574350 # Craster (C)
}
8299.5.5 = {
	holder=121411 # Dirk
}

