#House Morrigen
202.1.1 = { liege="d_griffins_roost" }
7855.1.1 = { holder=344321 } # Guyard (nc)
7876.1.1 = { holder=343321 } # Andrew (nc)
7932.1.1 = { holder=342321 } # Steffon (nc)
7942.1.1 = { holder=341321 } # Tristan (nc)
7968.1.1 = { holder=340321 } # Tallard (nc)

7994.1.1 = { holder=300321 } # Alarik (nc)
8013.1.1 = { holder=301321 } # Lewys (nc)
8043.1.1 = { holder=302321 } # Herbert (nc)
8047.1.1 = { holder=303321 } # Donnel (nc)
8102.1.1 = { holder=304321 } # Herbert (nc)
8128.1.1 = { holder=305321 } # Cressen (nc)
8161.1.1 = { holder=306321 } # Phillip (nc)
8210.1.1 = { holder=200321 } # Grance (C)
8222.1.1 = { holder=309321 } # Lyonel (nc)
8278.1.1 = { holder=310321 } # Ronnet (nc)
8283.1.1 = { 
	holder=201321 # Lester Morrigen (C)
	liege="k_stormlands"
}