6000.1.1={
	liege="d_flintsfinger"
	law = succ_primogeniture
}
7820.1.1={
	holder=1031084
}
7868.1.1={
	holder=1029084
}
7892.1.1={
	holder=1028084
}
7915.1.1={
	holder=1027084
}
7931.1.1={
	holder=1026084
}
7956.1.1={
	holder=1025084
}
7984.1.1={
	holder=21077
}
7990.1.1={
	holder=20077
}
8030.1.1={
	holder=19077
}
8045.1.1={
	holder=18077
}
8075.1.1={
	holder=17077
}
8093.1.1={
	holder=16077
}
8126.1.1={
	holder=15077
}
8170.1.1={
	holder=13077
}
8203.1.1={
	holder=11077
}
8239.1.1={
	holder=10077
}
8260.1.1 = {
	holder=75
}