#House Lorch
900.1.1={
	liege="d_ashemark"
}
7865.1.1 = { holder=344207 } # Amory (nc)
7883.1.1 = { holder=343207 } # Willem (nc)
7911.1.1 = { holder=342207 } # Daven (nc)
7934.1.1 = { holder=341207 } # Tregar (nc)
7960.1.1 = { holder=340207 } # Raymun (nc)

7985.1.1 = { holder=312207 } # Tyrek (nc)
7998.6.6 = { holder=311207 } # Tommen (nc)
8036.1.1 = { holder=310207 } # Alyn (nc)
8040.3.11 = { holder=309207 } # Lyonel (nc)
8074.1.1 = { holder=308207 } # Amory (nc)
8098.1.1 = { holder=307207 } # Rupert (nc)
8124.1.1 = { holder=306207 } # Lorent (nc)
8130.2.9 = { holder=305207 } # Lorent (nc)
8195.1.1 = { holder=304207 } # Addam (nc)
8196.5.5 = { holder=301207 } # Ossifer (nc)
8237.1.1 = { holder=300207 } # Lorimer (nc)
8263.1.1 = { holder=100207 }
8276.1.1 = { holder=207 }
8299.6.1 = { holder=1207 }