#House Macwan
5214.1.1={
	liege="k_sarnor"
	law = succ_primogeniture
}
7806.1.1 = { holder=10056809 } # Ranak (nc)
7851.1.1 = { holder=10356809 } # Ekavir (nc)
7873.1.1 = { holder=10556809 } # Sagar (nc)
7900.1.1 = { holder=10856809 } # Uttamesh (nc)
7943.1.1 = { holder=11056809 } # Sahat (nc)
7967.1.1 = { holder=11456809 } # Manish (nc)

#Dothraki
7975.1.1 = { 
	holder=100600217  # Rogo (nc)
	liege = d_mardosh
}
8010.1.1 = { holder=102600217 } # Ogo (nc)
8033.1.1 = { holder=107600217 } # Rhogoro (nc)
8070.1.1 = { holder=111600217 } # Mosko (nc)
8089.1.1 = { holder=112600217 } # Temmo (nc)
8093.1.1 = { holder=116600217 } # Cohollo (nc)
8121.1.1 = { holder=121600217 } # Pono (nc)
8125.1.1 = { holder=123600217 } # Zerqollo (nc)
8164.1.1 = { holder=127600217 } # Hezzo (nc)
8166.1.1 = { holder=131600217 } # Moro (nc)
8187.1.1 = { holder=135600217 } # Remekko (nc)
8237.1.1 = { holder=139600217 } # Rhogoro (nc)
8265.1.1 = { holder=142600217 } # Jasso (nc)
8294.1.1 = { holder=147600217 } # Remekko (nc)