1.1.1={ law=succ_primogeniture law=cognatic_succession
	liege="d_oldtown"
}

65.1.1 = { holder=6000282 } # Ellyn Ever-sweet

75.1.1 = { holder=0 } 

7830.1.1 = { holder=6200282 } # Mason (nc)
7878.1.1 = { holder=6300282 } # Cavan (nc)
7882.1.1 = { holder=6500282 } # Oryon (nc)
7918.1.1 = { holder=6700282 } # Jaime (nc)
7939.1.1 = { holder=6110282 } # Mern (nc)
7971.1.1 = { holder=3000282 } # Dontos (nc)
8023.1.1 = { holder=3002282 } # Normund (nc)
8034.1.1 = { holder=3004282 } # Osbert (nc)
8074.1.1 = { holder=3005282 } # Horas (nc)
8076.1.1 = { holder=3008282 } # Lyman (C)
8129.3.4 = { holder=3011282 } # Alan (C)
8130.1.4 = { holder=3017282 } # Joslon (C)
8180.1.1 = { holder=3021282 } # Arros (C)
8218.1.1 = { holder=3027282 } # Igon (nc)
8258.1.1={
	holder=282
}
8296.1.1={
	holder=1282
}



