#Order of War
5000.1.1 = {
	liege = k_norvos
}
7880.1.1 = { holder=344300897 } # Vyrenhor (nc)
7910.1.1 = { holder=343300897 } # Syrno (nc)
7934.1.1 = { holder=342300897 } # Cyan (nc)
7952.1.1 = { holder=341300897 } # Rufo (nc)
7981.1.1 = { holder=340300897 } # Joro (nc)

#Order of the White Beard
7996.1.1 = { holder=100069122 } # Pynto (nc)
8036.1.1 = { holder=100169122 } # Roggo (nc)
8046.1.1 = { holder=100269122 } # Jaqen (nc)
8052.1.1 = { holder=100569122 } # Ordello (nc)
8095.1.1 = { holder=100769122 } # Tycho (nc)
8119.1.1 = { holder=101169122 } # Ferrego (nc)
8139.1.1 = { holder=101569122 } # Collio (nc)
8162.1.1 = { holder=101669122 } # Joss (nc)
8190.1.1 = { holder=101769122 } # Noho (nc)
8231.1.1 = { holder=101969122 } # Izembaro (nc)
8236.1.1 = { holder=102069122 } # Roggo (nc)
8251.1.1 = { holder=102569122 } # Areo (nc)
8272.1.1 = { holder=102769122 } # Denyo (nc)
