#House Broom
900.1.1={
	liege="d_casterly_rock"
}
7875.1.1 = { holder=344191 } # Burton (nc)
7884.1.1 = { holder=343191 } # Byram (nc)
7905.1.1 = { holder=342191 } # Malleon (nc)
7923.1.1 = { holder=341191 } # Benedict (nc)
7958.1.1 = { holder=340191 } # Beldon (nc)

7980.1.1 = { holder=313191 } # Burton (nc)
7998.6.6 = { holder=310191 } # Benedict (nc)
8039.1.1 = { holder=309191 } # Joffrey (nc)
8065.1.1 = { holder=308191 } # Alyn (nc)
8096.1.1 = { holder=307191 } # Ormond (nc)
8119.1.1 = { holder=306191 } # Willem (nc)
8146.1.1 = { holder=304191 } # Burton (nc)
8167.1.1 = { holder=302191 } # Forley (nc)
8202.1.1 = { holder=300191 } # Benedict (nc)
8219.1.1 = { holder=3191 }
8266.1.1 = { holder=191 }
