600.1.1={
	law = slavery_2
	law = succ_turkish_succession
	law = agnatic_succession
}
7600.1.1 = { 
	liege = d_gogossos
}
7880.1.1 = { holder=10003350 } # Benerro (nc)
7914.1.1 = { holder=10013350 } # Qoherys (nc)
7939.1.1 = { holder=10053350 } # Aenar (nc)
7950.1.1 = {
	holder = 0  # Red Death
	liege = 0
}

#Corsairs settles Basilisk Isles
8066.1.1 = { 
	holder=100305001  # Brotherhood of Bones
	liege = d_western_isles
} 
8095.1.1 = { 
	holder=0 
	liege = 0
}
8125.1.1 = {
	liege = k_basilisk_isles
}
8155.1.1 = {
	liege = 0
}
8300.1.1={
	liege = k_basilisk_isles
}