#House Ashwood
6000.1.1={
	liege="d_whiteharbor"
	law = succ_primogeniture
}
7859.1.1 = { holder=344800839 } # Rickard (nc)
7875.1.1 = { holder=343800839 } # Andrin (nc)
7903.1.1 = { holder=342800839 } # Wynton (nc)
7927.1.1 = { holder=341800839 } # Robard (nc)
7955.1.1 = { holder=340800839 } # Arnolf (nc)

7971.1.1 = { holder=103800839 } # Theon (nc)
8012.1.1 = { holder=100800839 } # Edderion (nc)
8028.1.1 = { holder=101800839 } # Owen (nc)
8052.1.1 = { holder=102800839 } # Barth (nc)
8056.1.1 = { holder=107800839 } # Dorren (nc)
8083.1.1 = { holder=108800839 } # Vayon (nc)
8089.1.1 = { holder=111800839 } # Gariss (nc)
8125.1.1 = { holder=114800839 } # Ethan (nc)
8144.1.1 = { holder=115800839 } # Morgan (nc)
8176.1.1 = { holder=117800839 } # Morgan (nc)
8188.1.1 = { holder=118800839 } # Pate (nc)
8221.1.1 = { holder=122800839 } # Robett (nc)
8250.1.1 = { holder=127800839 } # Hoarfrost (nc)
8292.1.1 = { holder=133800839 } # Hallis (nc)

