600.1.1={
	liege="d_trader_town"
}
7849.1.1 = { holder=34569166 } # Gai (nc)
7865.1.1 = { holder=34469166 } # Po (nc)
7903.1.1 = { holder=34369166 } # Yan (nc)
7920.1.1 = { holder=34269166 } # Xun (nc)
7954.1.1 = { holder=34169166 } # Xuan (nc)
7973.1.1 = { holder=34069166 } # Ri (nc)

7999.1.1 = { holder=10069166 } # Xuan (nc)
8031.1.1 = { holder=10169166 } # Jabir (nc)
8058.1.1 = { holder=10569166 } # Mukhtar (nc)
8080.1.1 = { holder=10769166 } # Abdullah (nc)
8131.1.1 = { holder=11069166 } # Halil (nc)
8136.1.1 = { holder=11169166 } # Khaireddin (nc)
8185.1.1 = { holder=11369166 } # Ubayd (nc)
8191.1.1 = { holder=11769166 } # Hussayn (nc)
8210.1.1 = { holder=11969166 } # Qawurd (nc)
8265.1.1 = { holder=12269166 } # Azam (nc)
8276.1.1 = { holder=12769166 } # Jalil (nc)
8279.1.1 = { holder=13069166 } # Nizam (nc)


