6000.1.1={
	liege="d_riverrun"
}
#chambers
7836.1.1 = { holder=108178453 }
7895.1.1 = { holder=106178453 }
7915.1.1 = { holder=104178453 }
7941.1.1 = { holder=103178453 }
7964.1.1 = { holder=102178453 }
7988.1.1 = { holder=100178453 } # Colmar (nc)
8002.1.1 = { holder=101178453 } # Patrek (nc)
8026.1.1 = { holder=105178453 } # Damon (nc)
8056.1.1 = { holder=107178453 } # Dennett (nc)
8097.1.1 = { holder=111178453 } # Bennet (nc)
8119.1.1 = { holder=112178453 } # Rawney (nc)
8135.1.1 = { holder=115178453 } # Jammos (nc)
8167.1.1 = { holder=120178453 } # Jaime (nc)
8209.1.1 = { holder=126178453 } # Arwood (nc)
8240.1.1 = { holder=127178453 } # Dickon (nc)
8272.1.1 = { holder=135178453 } # Luceon (nc)
8296.1.1 = { holder=136178453 } # Willum (nc)
