#d_ashemark
900.1.1={ liege = "e_westerlands" }
7834.1.1 = {holder=321212}
7885.1.1 = {holder=320212}
7920.1.1 = {holder=319212}
7942.1.1 = {holder=318212}
7970.1.1 = {holder=317212}
7983.1.1 = {holder=316212} # Ossifer (NC)
7998.6.6 = {holder=314212} # Addison (NC)
7998.7.6 = {
	liege="k_westerlands"
}
8037.1.1 = {holder=313212} # Selmond (NC)
8038.1.1 = {holder=312212} # Addam (NC)
8059.2.1 = {holder=311212} # Dunsen (NC)
8114.1.1 = {holder=310212} # Dake (NC)
8129.3.7 = {holder=309212} # Gerion (NC)
8129.7.5 = {holder=307212} # Seldon (SC)
8170.1.1 = {holder=306212} # Arden (SC)
8188.1.1 = {holder=305212} # Irena (SC)
8199.5.8 = {holder=301212} # Quenton (NC)
8240.1.1 = {holder=300212} # Denys (C)	
8260.1.18 = {holder=212} # Damon (C)