#House Tripathi
5214.1.1={
	liege="k_sarnor"
	law = succ_primogeniture
}
7809.1.1 = { holder=10056815 } # Nitish (nc)
7840.1.1 = { holder=10156815 } # Paarth (nc)
7860.1.1 = { holder=10456815 } # Onkar (nc)
7900.1.1 = { holder=10756815 } # Kushal (nc)
7926.1.1 = { holder=11056815 } # Chitresh (nc)

7936.1.1 = { 
	holder=0 # Dothraki
}


