600.1.1={
	liege="k_tiqui"
	law = succ_ultimogeniture
}
7865.1.1 = { holder=34455959 } # Sung (nc)
7878.1.1 = { holder=34355959 } # Bar (nc)
7906.1.1 = { holder=34255959 } # Lan (nc)
7935.1.1 = { holder=34155959 } # Qo (nc)
7953.1.1 = { holder=34055959 } # Jan (nc)

7987.1.1 = { holder=10055959 } # Duc (nc)
8029.1.1 = { holder=10355959 } # Hussayn (nc)
8040.1.1 = { holder=10655959 } # Muzaffaraddin (nc)
8079.1.1 = { holder=10755959 } # Nizam (nc)
8091.1.1 = { holder=10855959 } # Aarif (nc)
8107.1.1 = { holder=11355959 } # Jaleel (nc)
8166.1.1 = { holder=11655959 } # Husam (nc)
8207.1.1 = { holder=11855959 } # Bahir (nc)
8216.1.1 = { holder=11955959 } # Hafiz (nc)
8237.1.1 = { holder=12255959 } # Ghalib (nc)
8289.1.1 = { holder=12755959 } # Abdul (nc)


