4025.1.1 = {
	holder =  10056822 #Huzhor Amai (C)
	law = succ_primogeniture
	law = agnatic_succession
	law = slavery_2
	law = centralization_0
}
4068.1.1 = {
	holder = 0
}
7885.1.1 = { holder=110056800 } # Onkar (nc)
7921.1.1 = { holder=10156800 } # Bhagesh (nc)
7953.1.1 = { holder=10656800 } # Harith (nc)
7965.1.1 = {
	holder = 10056800 #Mazor Alexi (C)	
}
7975.1.1 = {
	holder = 0
	effect = {
		c_10056800 = {
			set_government_type = feudal_government #so its shown in history correctly
			remove_trait = dead_target
		}
	}
}

