20.1.1={
	active = no
}
8300.2.28 = { 
	active = yes
	holder=125009 #Young Griff 
	law = succ_primogeniture
	law = cognatic_succession
	law = slavery_0
	liege=0
}
# 8109.1.1={
	# holder = 0
	# active = no
	# effect = {
		# c_779496 = {
			# any_dynasty_member = {
				# remove_claim = ROOT
			# }
		# }
	# }
# }
