##Yunkai'i

##House Yunzak

150360024 = {
	name="Yurkhaz"	# not a lord
	dynasty=360024

	religion="harpy"
	culture="ghiscari"

	7562.1.1 = {birth="7562.1.1"}
	7587.1.1 = {add_spouse=250360024}
	7617.1.1 = {death="7617.1.1"}
}
250360024 = {
	name="Ezzara"
	female=yes

	religion="harpy"
	culture="ghiscari"

	7565.1.1 = {birth="7565.1.1"}
	7617.1.1 = {death="7617.1.1"}
}
100360024 = {
	name="Yezzan"	# a lord
	dynasty=360024

	religion="harpy"
	culture="ghiscari"

	father=150360024
	mother=250360024

	7588.1.1 = {birth="7588.1.1"}
	7616.1.1 = {add_trait=poor_warrior}
	7617.1.1 = {}
	7618.1.1 = {add_spouse=200360024}
	7628.1.1 = {death="7628.1.1"}
}
200360024 = {
	name="Ezzara"
	female=yes

	religion="harpy"
	culture="ghiscari"

	7588.1.1 = {birth="7588.1.1"}
	7628.1.1 = {death="7628.1.1"}
}
101360024 = {
	name="Qezza"	# not a lord
	female=yes
	dynasty=360024

	religion="harpy"
	culture="ghiscari"

	father=100360024
	mother=200360024

	7601.1.1 = {birth="7601.1.1"}
	7663.1.1 = {death="7663.1.1"}
}
102360024 = {
	name="Hazzea"	# not a lord
	female=yes
	dynasty=360024

	religion="harpy"
	culture="ghiscari"

	father=100360024
	mother=200360024

	7603.1.1 = {birth="7603.1.1"}
	7677.1.1 = {death="7677.1.1"}
}
103360024 = {
	name="Gorzhak"	# a lord
	dynasty=360024

	religion="harpy"
	culture="ghiscari"

	father=100360024
	mother=200360024

	7606.1.1 = {birth="7606.1.1"}
	7628.1.1 = {}
	7640.1.1 = {add_trait=skilled_warrior}
	7642.1.1 = {add_spouse=203360024}
	7673.1.1 = {death="7673.1.1"}
}
203360024 = {
	name="Ezzere"
	female=yes

	religion="harpy"
	culture="ghiscari"

	7606.1.1 = {birth="7606.1.1"}
	7673.1.1 = {death="7673.1.1"}
}
104360024 = {
	name="Grazdan"	# a lord
	dynasty=360024

	religion="harpy"
	culture="ghiscari"

	father=103360024
	mother=203360024

	7649.1.1 = {birth="7649.1.1"}
	7665.1.1 = {add_trait=trained_warrior}
	7667.1.1 = {add_spouse=204360024}
	7673.1.1 = {}
	7687.1.1 = {death="7687.1.1"}
}
204360024 = {
	name="Rezza"
	female=yes

	religion="harpy"
	culture="ghiscari"

	7649.1.1 = {birth="7649.1.1"}
	7687.1.1 = {death="7687.1.1"}
}
105360024 = {
	name="Marghaz"	# not a lord
	dynasty=360024

	religion="harpy"
	culture="ghiscari"

	father=103360024
	mother=203360024

	7651.1.1 = {birth="7651.1.1"}
	7667.1.1 = {add_trait=poor_warrior}
	7669.1.1 = {add_spouse=205360024}
	7721.1.1 = {death="7721.1.1"}
}
205360024 = {
	name="Tezzalara"
	female=yes

	religion="harpy"
	culture="ghiscari"

	7651.1.1 = {birth="7651.1.1"}
	7721.1.1 = {death="7721.1.1"}
}
106360024 = {
	name="Sharkaz"	# a lord
	dynasty=360024

	religion="harpy"
	culture="ghiscari"

	father=104360024
	mother=204360024

	7669.1.1 = {birth="7669.1.1"}
	7687.1.1 = {}
	7693.1.1 = {add_trait=skilled_warrior}
	7695.1.1 = {add_spouse=206360024}
	7735.1.1 = {death="7735.1.1"}
}
206360024 = {
	name="Qezza"
	female=yes

	religion="harpy"
	culture="ghiscari"

	7677.1.1 = {birth="7677.1.1"}
	7735.1.1 = {death="7735.1.1"}
}
107360024 = {
	name="Maezon"	# not a lord
	dynasty=360024

	religion="harpy"
	culture="ghiscari"

	father=104360024
	mother=204360024

	7678.1.1 = {birth="7678.1.1"}
	7694.1.1 = {add_trait=poor_warrior}
	7713.1.1 = {death="7713.1.1"}
}
108360024 = {
	name="Marghazo"	# not a lord
	dynasty=360024

	religion="harpy"
	culture="ghiscari"

	father=104360024
	mother=204360024

	7680.1.1 = {birth="7680.1.1"}
	7696.1.1 = {add_trait=skilled_warrior}
	7743.1.1 = {death="7743.1.1"}
}
109360024 = {
	name="Grazdan"	# a lord
	dynasty=360024

	religion="harpy"
	culture="ghiscari"

	father=106360024
	mother=206360024

	7712.1.1 = {birth="7712.1.1"}
	7728.1.1 = {add_trait=poor_warrior}
	7730.1.1 = {add_spouse=209360024}
	7735.1.1 = {}
	7766.1.1 = {death="7766.1.1"}
}
209360024 = {
	name="Yezza"
	female=yes

	religion="harpy"
	culture="ghiscari"

	7712.1.1 = {birth="7712.1.1"}
	7766.1.1 = {death="7766.1.1"}
}
110360024 = {
	name="Gallaza"	# not a lord
	female=yes
	dynasty=360024

	religion="harpy"
	culture="ghiscari"

	father=106360024
	mother=206360024

	7715.1.1 = {birth="7715.1.1"}
	7769.1.1 = {death="7769.1.1"}
}
111360024 = {
	name="Tellara"	# not a lord
	female=yes
	dynasty=360024

	religion="harpy"
	culture="ghiscari"

	father=106360024
	mother=206360024

	7718.1.1 = {birth="7718.1.1"}
	7772.1.1 = {death="7772.1.1"}
}
112360024 = {
	name="Ghazdor"	# a lord
	dynasty=360024

	religion="harpy"
	culture="ghiscari"

	father=109360024
	mother=209360024

	7736.1.1 = {birth="7736.1.1"}
	7752.1.1 = {add_trait=trained_warrior}
	7754.1.1 = {add_spouse=212360024}
	7766.1.1 = {}
	7787.1.1 = {death="7787.1.1"}
}
212360024 = {
	name="Galaza"
	female=yes

	religion="harpy"
	culture="ghiscari"

	7736.1.1 = {birth="7736.1.1"}
	7787.1.1 = {death="7787.1.1"}
}
113360024 = {
	name="Skahaz"	# a lord
	dynasty=360024

	religion="harpy"
	culture="ghiscari"

	father=112360024
	mother=212360024

	7765.1.1 = {birth="7765.1.1"}
	7781.1.1 = {add_trait=trained_warrior}
	7783.1.1 = {add_spouse=213360024}
	7787.1.1 = {}
	7824.1.1 = {death="7824.1.1"}
}
213360024 = {
	name="Mezzara"
	female=yes

	religion="harpy"
	culture="ghiscari"

	7765.1.1 = {birth="7765.1.1"}
	7824.1.1 = {death="7824.1.1"}
}
114360024 = {
	name="Qezzara"	# not a lord
	female=yes
	dynasty=360024

	religion="harpy"
	culture="ghiscari"

	father=112360024
	mother=212360024

	7767.1.1 = {birth="7767.1.1"}
	7837.1.1 = {death="7837.1.1"}
}
115360024 = {
	name="Paezdhar"	# not a lord
	dynasty=360024

	religion="harpy"
	culture="ghiscari"

	father=112360024
	mother=212360024

	7769.1.1 = {birth="7769.1.1"}
	7785.1.1 = {add_trait=poor_warrior}
	7817.1.1 = {death="7817.1.1"}
}
116360024 = {
	name="Jezhane"	# not a lord
	female=yes
	dynasty=360024

	religion="harpy"
	culture="ghiscari"

	father=112360024
	mother=212360024

	7772.1.1 = {birth="7772.1.1"}
	7822.1.1 = {death = {death_reason = death_accident}}
}
117360024 = {
	name="Dhazzar"	# not a lord
	female=yes
	dynasty=360024

	religion="harpy"
	culture="ghiscari"

	father=112360024
	mother=212360024

	7775.1.1 = {birth="7775.1.1"}
	7854.1.1 = {death="7854.1.1"}
}
118360024 = {
	name="Hizdharo"	# a lord
	dynasty=360024

	religion="harpy"
	culture="ghiscari"

	father=113360024
	mother=213360024

	7787.1.1 = {birth="7787.1.1"}
	7803.1.1 = {add_trait=trained_warrior}
	7805.1.1 = {add_spouse=218360024}
	7824.1.1 = {}
	7845.1.1 = {death="7845.1.1"}
}
218360024 = {
	name="Fezzara"
	female=yes

	religion="harpy"
	culture="ghiscari"

	7787.1.1 = {birth="7787.1.1"}
	7845.1.1 = {death="7845.1.1"}
}
119360024 = {
	name="Bellezza"	# not a lord
	female=yes
	dynasty=360024

	religion="harpy"
	culture="ghiscari"

	father=113360024
	mother=213360024

	7789.1.1 = {birth="7789.1.1"}
	7811.1.1 = {death="7811.1.1"}
}
120360024 = {
	name="Marghaz"	# not a lord
	dynasty=360024

	religion="harpy"
	culture="ghiscari"

	father=113360024
	mother=213360024

	7792.1.1 = {birth="7792.1.1"}
	7808.1.1 = {add_trait=trained_warrior}
	7810.1.1 = {add_spouse=220360024}
	7819.1.1 = {death="7819.1.1"}
}
220360024 = {
	name="Hazzea"
	female=yes

	religion="harpy"
	culture="ghiscari"

	7792.1.1 = {birth="7792.1.1"}
	7819.1.1 = {death="7819.1.1"}
}
121360024 = {
	name="Qezza"	# not a lord
	female=yes
	dynasty=360024

	religion="harpy"
	culture="ghiscari"

	father=113360024
	mother=213360024

	7793.1.1 = {birth="7793.1.1"}
	7852.1.1 = {death="7852.1.1"}
}
122360024 = {
	name="Zaraq"	# not a lord
	dynasty=360024

	religion="harpy"
	culture="ghiscari"

	father=113360024
	mother=213360024

	7794.1.1 = {birth="7794.1.1"}
	7810.1.1 = {add_trait=skilled_warrior}
	7826.1.1 = {death="7826.1.1"}
}
123360024 = {
	name="Haznak"	# a lord
	dynasty=360024

	religion="harpy"
	culture="ghiscari"

	father=118360024
	mother=218360024

	7818.1.1 = {birth="7818.1.1"}
	7834.1.1 = {add_trait=poor_warrior}
	7836.1.1 = {add_spouse=223360024}
	7845.1.1 = {}
	7875.1.1 = {death="7875.1.1"}
}
223360024 = {
	name="Galazza"
	female=yes

	religion="harpy"
	culture="ghiscari"

	7818.1.1 = {birth="7818.1.1"}
	7875.1.1 = {death="7875.1.1"}
}
124360024 = {
	name="Grazdhan"	# not a lord
	dynasty=360024

	religion="harpy"
	culture="ghiscari"

	father=118360024
	mother=218360024

	7819.1.1 = {birth="7819.1.1"}
	7835.1.1 = {add_trait=trained_warrior}
	7885.1.1 = {death = {death_reason = death_accident}}
}
125360024 = {
	name="Melezza"	# not a lord
	female=yes
	dynasty=360024

	religion="harpy"
	culture="ghiscari"

	father=118360024
	mother=218360024

	7822.1.1 = {birth="7822.1.1"}
	7873.1.1 = {death="7873.1.1"}
}
126360024 = {
	name="Kraznys"	# not a lord
	dynasty=360024

	religion="harpy"
	culture="ghiscari"

	father=118360024
	mother=218360024

	7823.1.1 = {birth="7823.1.1"}
	7839.1.1 = {add_trait=trained_warrior}
	7893.1.1 = {death="7893.1.1"}
}

6571003 = {
	name="Yurkhaz"  # Canon, commander of Yunkish forces.
	dynasty = 360024 

	martial = 1
	diplomacy = 5
	intrigue = 10
	stewardship = 10
	learning = 5

	culture = ghiscari
	religion = harpy 

	father=123360024
	mother=223360024		
	
	add_trait="cruel"
	add_trait="proud"
	add_trait="deceitful"
	add_trait="authoritative"
	add_trait="ruthless"
	
	7842.1.1 = {
		birth="7842.1.1"
	}
	7875.1.1 = {}
}

##House Qaggaz

150360023 = {
	name="Grazdhan"	# a lord
	dynasty=360023

	religion="harpy"
	culture="ghiscari"

	7557.1.1 = {birth="7557.1.1"}
	7582.1.1 = {add_spouse=250360023}
	7612.1.1 = {death="7612.1.1"}
}
250360023 = {
	name="Ezzara"
	female=yes

	religion="harpy"
	culture="ghiscari"

	7559.1.1 = {birth="7559.1.1"}
	7603.1.1 = {death="7603.1.1"}
}
100360023 = {
	name="Grazdan"	# a lord
	dynasty=360023

	religion="harpy"
	culture="ghiscari"

	father=150360023
	mother=250360023

	7584.1.1 = {birth="7584.1.1"}
	7612.1.1 = {}
	7615.1.1 = {add_spouse=200360023}
	7616.1.1 = {add_trait=poor_warrior}
	7636.1.1 = {death="7636.1.1"}
}
200360023 = {
	name="Sezza"
	female=yes

	religion="harpy"
	culture="ghiscari"

	7584.1.1 = {birth="7584.1.1"}
	7636.1.1 = {death="7636.1.1"}
}
101360023 = {
	name="Qezza"	# not a lord
	female=yes
	dynasty=360023

	religion="harpy"
	culture="ghiscari"

	father=100360023
	mother=200360023

	7619.1.1 = {birth="7619.1.1"}
	7681.1.1 = {death="7681.1.1"}
}
102360023 = {
	name="Marghaz"	# a lord
	dynasty=360023

	religion="harpy"
	culture="ghiscari"

	father=100360023
	mother=200360023

	7617.1.1 = {birth="7617.1.1"}
	7635.1.1 = {add_trait=trained_warrior}
	7636.1.1 = {}
	7638.1.1 = {add_spouse=202360023}
	7670.1.1 = {death = {death_reason = death_accident}}
}
202360023 = {
	name="Galazza"
	female=yes

	religion="harpy"
	culture="ghiscari"

	7620.1.1 = {birth="7620.1.1"}
	7670.1.1 = {death="7670.1.1"}
}
103360023 = {
	name="Hazzea"	# not a lord
	female=yes
	dynasty=360023

	religion="harpy"
	culture="ghiscari"

	father=100360023
	mother=200360023

	7621.1.1 = {birth="7621.1.1"}
	7689.1.1 = {death = {death_reason = death_murder}}
}
104360023 = {
	name="Dhazzarma"	# not a lord
	female=yes
	dynasty=360023

	religion="harpy"
	culture="ghiscari"

	father=102360023
	mother=202360023

	7647.1.1 = {birth="7647.1.1"}
	7703.1.1 = {death="7703.1.1"}
}
105360023 = {
	name="Qezza"	# not a lord
	female=yes
	dynasty=360023

	religion="harpy"
	culture="ghiscari"

	father=102360023
	mother=202360023

	7648.1.1 = {birth="7648.1.1"}
	7701.1.1 = {death="7701.1.1"}
}
106360023 = {
	name="Maezon"	# a lord
	dynasty=360023

	religion="harpy"
	culture="ghiscari"

	father=102360023
	mother=202360023

	7649.1.1 = {birth="7649.1.1"}
	7665.1.1 = {add_trait=trained_warrior}
	7667.1.1 = {add_spouse=206360023}
	7670.1.1 = {}
	7713.1.1 = {death="7713.1.1"}
}
206360023 = {
	name="Melezza"
	female=yes

	religion="harpy"
	culture="ghiscari"

	7649.1.1 = {birth="7649.1.1"}
	7713.1.1 = {death="7713.1.1"}
}
107360023 = {
	name="Hizdhar"	# not a lord
	dynasty=360023

	religion="harpy"
	culture="ghiscari"

	father=102360023
	mother=202360023

	7652.1.1 = {birth="7652.1.1"}
	7668.1.1 = {add_trait=poor_warrior}
	7703.1.1 = {death="7703.1.1"}
}
108360023 = {
	name="Jezhane"	# not a lord
	female=yes
	dynasty=360023

	religion="harpy"
	culture="ghiscari"

	father=102360023
	mother=202360023

	7654.1.1 = {birth="7654.1.1"}
	7703.1.1 = {death="7703.1.1"}
}
109360023 = {
	name="Qezzallios"	# not a lord
	female=yes
	dynasty=360023

	religion="harpy"
	culture="ghiscari"

	father=106360023
	mother=206360023

	7681.1.1 = {birth="7681.1.1"}
	7747.1.1 = {death="7747.1.1"}
}
110360023 = {
	name="Gazdhor"	# a lord
	dynasty=360023

	religion="harpy"
	culture="ghiscari"

	father=106360023
	mother=206360023

	7683.1.1 = {birth="7683.1.1"}
	7699.1.1 = {add_trait=trained_warrior}
	7701.1.1 = {add_spouse=210360023}
	7713.1.1 = {}
	7746.1.1 = {death="7746.1.1"}
}
210360023 = {
	name="Ezzara"
	female=yes

	religion="harpy"
	culture="ghiscari"

	7683.1.1 = {birth="7683.1.1"}
	7746.1.1 = {death="7746.1.1"}
}
111360023 = {
	name="Sezza"	# not a lord
	female=yes
	dynasty=360023

	religion="harpy"
	culture="ghiscari"

	father=110360023
	mother=210360023

	7702.1.1 = {birth="7702.1.1"}
	7761.1.1 = {death="7761.1.1"}
}
112360023 = {
	name="Morghaz"	# a lord
	dynasty=360023

	religion="harpy"
	culture="ghiscari"

	father=110360023
	mother=210360023

	7703.1.1 = {birth="7703.1.1"}
	7719.1.1 = {add_trait=skilled_warrior}
	7721.1.1 = {add_spouse=212360023}
	7746.1.1 = {}
	7758.1.1 = {death="7758.1.1"}
}
212360023 = {
	name="Delara"
	female=yes

	religion="harpy"
	culture="ghiscari"

	7703.1.1 = {birth="7703.1.1"}
	7758.1.1 = {death="7758.1.1"}
}
113360023 = {
	name="Mizlak"	# not a lord
	dynasty=360023

	religion="harpy"
	culture="ghiscari"

	father=110360023
	mother=210360023

	7705.1.1 = {birth="7705.1.1"}
	7721.1.1 = {add_trait=skilled_warrior}
	7738.1.1 = {death="7738.1.1"}
}
114360023 = {
	name="Marghaz"	# not a lord
	dynasty=360023

	religion="harpy"
	culture="ghiscari"

	father=110360023
	mother=210360023

	7706.1.1 = {birth="7706.1.1"}
	7722.1.1 = {add_trait=poor_warrior}
	7762.1.1 = {death="7762.1.1"}
}
115360023 = {
	name="Ezzara"	# not a lord
	female=yes
	dynasty=360023

	religion="harpy"
	culture="ghiscari"

	father=112360023
	mother=212360023

	7725.1.1 = {birth="7725.1.1"}
	7769.1.1 = {death="7769.1.1"}
}
116360023 = {
	name="Yurkhaz"	# a lord
	dynasty=360023

	religion="harpy"
	culture="ghiscari"

	father=112360023
	mother=212360023

	7726.1.1 = {birth="7726.1.1"}
	7742.1.1 = {add_trait=poor_warrior}
	7744.1.1 = {add_spouse=216360023}
	7758.1.1 = {}
	7800.1.1 = {death="7800.1.1"}
}
216360023 = {
	name="Belezzara"
	female=yes

	religion="harpy"
	culture="ghiscari"

	7726.1.1 = {birth="7726.1.1"}
	7800.1.1 = {death="7800.1.1"}
}
117360023 = {
	name="Mezzara"	# not a lord
	female=yes
	dynasty=360023

	religion="harpy"
	culture="ghiscari"

	father=112360023
	mother=212360023

	7727.1.1 = {birth="7727.1.1"}
	7749.1.1 = {death="7749.1.1"}
}
118360023 = {
	name="Barkhaz"	# not a lord
	dynasty=360023

	religion="harpy"
	culture="ghiscari"

	father=112360023
	mother=212360023

	7728.1.1 = {birth="7728.1.1"}
	7744.1.1 = {add_trait=skilled_warrior}
	7781.1.1 = {death="7781.1.1"}
}
121360023 = {
	name="Prendahl"	# a lord
	dynasty=360023

	religion="harpy"
	culture="ghiscari"

	father=116360023
	mother=216360023

	7754.1.1 = {birth="7754.1.1"}
	7770.1.1 = {add_trait=trained_warrior}
	7772.1.1 = {add_spouse=221360023}
	7800.1.1 = {}
	7803.1.1 = {death="7803.1.1"}
}
221360023 = {
	name="Pilezza"
	female=yes

	religion="harpy"
	culture="ghiscari"

	7754.1.1 = {birth="7754.1.1"}
	7803.1.1 = {death="7803.1.1"}
}
122360023 = {
	name="Azzak"	# a lord
	dynasty=360023

	religion="harpy"
	culture="ghiscari"

	father=121360023
	mother=221360023

	7781.1.1 = {birth="7781.1.1"}
	7797.1.1 = {add_trait=skilled_warrior}
	7799.1.1 = {add_spouse=222360023}
	7803.1.1 = {}
	7821.1.1 = {death = {death_reason = death_accident}}
}
222360023 = {
	name="Sezza"
	female=yes

	religion="harpy"
	culture="ghiscari"

	7781.1.1 = {birth="7781.1.1"}
	7821.1.1 = {death="7821.1.1"}
}
123360023 = {
	name="Telezzara"	# not a lord
	female=yes
	dynasty=360023

	religion="harpy"
	culture="ghiscari"

	father=121360023
	mother=221360023

	7775.1.1 = {birth="7775.1.1"}
	7800.1.1 = {death="7800.1.1"}
}
124360023 = {
	name="Jezhane"	# not a lord
	female=yes
	dynasty=360023

	religion="harpy"
	culture="ghiscari"

	father=121360023
	mother=221360023

	7778.1.1 = {birth="7778.1.1"}
	7826.1.1 = {death="7826.1.1"}
}
125360023 = {
	name="Kraznys"	# a lord
	dynasty=360023

	religion="harpy"
	culture="ghiscari"

	father=122360023
	mother=222360023

	7800.1.1 = {birth="7800.1.1"}
	7821.1.1 = {}
	7824.1.1 = {add_trait=poor_warrior}
	7826.1.1 = {add_spouse=225360023}
	7864.1.1 = {death="7864.1.1"}
}
225360023 = {
	name="Nelezza"
	female=yes

	religion="harpy"
	culture="ghiscari"

	7808.1.1 = {birth="7808.1.1"}
	7864.1.1 = {death="7864.1.1"}
}
126360023 = {
	name="Grazdhar"	# a lord
	dynasty=360023

	religion="harpy"
	culture="ghiscari"

	father=125360023
	mother=225360023

	7837.1.1 = {birth="7837.1.1"}
	7853.1.1 = {add_trait=poor_warrior}
	7855.1.1 = {add_spouse=226360023}
	7864.1.1 = {}
	7889.1.1 = {death="7889.1.1"}
}
226360023 = {
	name="Ilezza"
	female=yes

	religion="harpy"
	culture="ghiscari"

	7837.1.1 = {birth="7837.1.1"}
	7889.1.1 = {death="7889.1.1"}
}
127360023 = {
	name="Grazdan"	# not a lord
	dynasty=360023

	religion="harpy"
	culture="ghiscari"

	father=125360023
	mother=225360023

	7839.1.1 = {birth="7839.1.1"}
	7855.1.1 = {add_trait=trained_warrior}
	7902.1.1 = {death="7902.1.1"}
}
128360023 = {
	name="Tezzara"	# not a lord
	female=yes
	dynasty=360023

	religion="harpy"
	culture="ghiscari"

	father=125360023
	mother=225360023

	7840.1.1 = {birth="7840.1.1"}
	7899.1.1 = {death="7899.1.1"}
}

6571004 = {
	name="Yezzan"  # The Yellow Whale
	dynasty = 360023 

	martial = 2
	diplomacy = 10
	intrigue = 10
	stewardship = 14
	learning = 5

	culture = ghiscari
	religion = harpy 

	father=126360023
	mother=226360023		
	
	add_trait="gluttonous"
	add_trait="proud"
	add_trait="deceitful"
	add_trait="authoritative"
	
	7856.1.1 = {
		birth="7856.1.1"
	}
	7889.1.1 = {}
}

##House Myraq

150360022 = {
	name="Rhaezdhar"	# a lord
	dynasty=360022

	religion="harpy"
	culture="ghiscari"

	7563.1.1 = {birth="7563.1.1"}
	7582.1.1 = {add_spouse=250360022}
	7625.1.1 = {death="7625.1.1"}
}
250360022 = {
	name="Nezzara"
	female=yes

	religion="harpy"
	culture="ghiscari"

	7565.1.1 = {birth="7565.1.1"}
	7623.1.1 = {death="7623.1.1"}
}

100360022 = {
	name="Maezon"	# a lord
	dynasty=360022

	religion="harpy"
	culture="ghiscari"

	father=150360022
	mother=250360022

	7585.1.1 = {birth="7585.1.1"}
	7616.1.1 = {add_trait=poor_warrior}
	7618.1.1 = {add_spouse=200360022}
	7625.1.1 = {}
	7650.1.1 = {death="7650.1.1"}
}
200360022 = {
	name="Nezzara"
	female=yes

	religion="harpy"
	culture="ghiscari"

	7585.1.1 = {birth="7585.1.1"}
	7650.1.1 = {death="7650.1.1"}
}
101360022 = {
	name="Hazzea"	# not a lord
	female=yes
	dynasty=360022

	religion="harpy"
	culture="ghiscari"

	father=100360022
	mother=200360022

	7633.1.1 = {birth="7633.1.1"}
	7686.1.1 = {death="7686.1.1"}
}
102360022 = {
	name="Grazdan"	# a lord
	dynasty=360022

	religion="harpy"
	culture="ghiscari"

	father=100360022
	mother=200360022

	7636.1.1 = {birth="7636.1.1"}
	7650.1.1 = {}
	7652.1.1 = {add_trait=poor_warrior}
	7654.1.1 = {add_spouse=202360022}
	7700.1.1 = {death="7700.1.1"}
}
202360022 = {
	name="Mellazara"
	female=yes

	religion="harpy"
	culture="ghiscari"

	7636.1.1 = {birth="7636.1.1"}
	7700.1.1 = {death="7700.1.1"}
}
103360022 = {
	name="Prendahl"	# not a lord
	dynasty=360022

	religion="harpy"
	culture="ghiscari"

	father=100360022
	mother=200360022

	7638.1.1 = {birth="7638.1.1"}
	7654.1.1 = {add_trait=trained_warrior}
	7682.1.1 = {death="7682.1.1"}
}
104360022 = {
	name="Qezza"	# not a lord
	female=yes
	dynasty=360022

	religion="harpy"
	culture="ghiscari"

	father=100360022
	mother=200360022

	7641.1.1 = {birth="7641.1.1"}
	7673.1.1 = {death="7673.1.1"}
}
105360022 = {
	name="Galazza"	# not a lord
	female=yes
	dynasty=360022

	religion="harpy"
	culture="ghiscari"

	father=102360022
	mother=202360022

	7659.1.1 = {birth="7659.1.1"}
	7672.1.1 = {death="7672.1.1"}
}
106360022 = {
	name="Morghaz"	# a lord
	dynasty=360022

	religion="harpy"
	culture="ghiscari"

	father=102360022
	mother=202360022

	7660.1.1 = {birth="7660.1.1"}
	7676.1.1 = {add_trait=trained_warrior}
	7678.1.1 = {add_spouse=206360022}
	7700.1.1 = {}
	7705.1.1 = {death="7705.1.1"}
}
206360022 = {
	name="Ezzara"
	female=yes

	religion="harpy"
	culture="ghiscari"

	7660.1.1 = {birth="7660.1.1"}
	7705.1.1 = {death="7705.1.1"}
}
107360022 = {
	name="Sezza"	# not a lord
	female=yes
	dynasty=360022

	religion="harpy"
	culture="ghiscari"

	father=106360022
	mother=206360022

	7681.1.1 = {birth="7681.1.1"}
	7711.1.1 = {death="7711.1.1"}
}
108360022 = {
	name="Melazara"	# not a lord
	female=yes
	dynasty=360022

	religion="harpy"
	culture="ghiscari"

	father=106360022
	mother=206360022

	7682.1.1 = {birth="7682.1.1"}
	7715.1.1 = {death="7715.1.1"}
}
109360022 = {
	name="Mizlak"	# a lord
	dynasty=360022

	religion="harpy"
	culture="ghiscari"

	father=106360022
	mother=206360022

	7685.1.1 = {birth="7685.1.1"}
	7701.1.1 = {add_trait=skilled_warrior}
	7703.1.1 = {add_spouse=209360022}
	7705.1.1 = {}
	7742.1.1 = {death="7742.1.1"}
}
209360022 = {
	name="Jezhane"
	female=yes

	religion="harpy"
	culture="ghiscari"

	7685.1.1 = {birth="7685.1.1"}
	7742.1.1 = {death="7742.1.1"}
}
110360022 = {
	name="Grazdhan"	# not a lord
	dynasty=360022

	religion="harpy"
	culture="ghiscari"

	father=106360022
	mother=206360022

	7688.1.1 = {birth="7688.1.1"}
	7704.1.1 = {add_trait=skilled_warrior}
	7706.1.1 = {add_spouse=210360022}
	7734.1.1 = {death="7734.1.1"}
}
210360022 = {
	name="Qezza"
	female=yes

	religion="harpy"
	culture="ghiscari"

	7688.1.1 = {birth="7688.1.1"}
	7734.1.1 = {death="7734.1.1"}
}
111360022 = {
	name="Sesqa"	# not a lord
	female=yes
	dynasty=360022

	religion="harpy"
	culture="ghiscari"

	father=109360022
	mother=209360022

	7706.1.1 = {birth="7706.1.1"}
	7739.1.1 = {death="7739.1.1"}
}
112360022 = {
	name="Skahaz"	# a lord
	dynasty=360022

	religion="harpy"
	culture="ghiscari"

	father=109360022
	mother=209360022

	7708.1.1 = {birth="7708.1.1"}
	7724.1.1 = {add_trait=skilled_warrior}
	7726.1.1 = {add_spouse=212360022}
	7742.1.1 = {}
	7759.1.1 = {death="7759.1.1"}
}
212360022 = {
	name="Bellezara"
	female=yes

	religion="harpy"
	culture="ghiscari"

	7708.1.1 = {birth="7708.1.1"}
	7759.1.1 = {death="7759.1.1"}
}
113360022 = {
	name="Zaraq"	# a lord
	dynasty=360022

	religion="harpy"
	culture="ghiscari"

	father=112360022
	mother=212360022

	7736.1.1 = {birth="7736.1.1"}
	7752.1.1 = {add_trait=trained_warrior}
	7754.1.1 = {add_spouse=213360022}
	7759.1.1 = {}
	7798.1.1 = {death="7798.1.1"}
}
213360022 = {
	name="Mezza"
	female=yes

	religion="harpy"
	culture="ghiscari"

	7736.1.1 = {birth="7736.1.1"}
	7798.1.1 = {death="7798.1.1"}
}
114360022 = {
	name="Ezzara"	# not a lord
	female=yes
	dynasty=360022

	religion="harpy"
	culture="ghiscari"

	father=112360022
	mother=212360022

	7738.1.1 = {birth="7738.1.1"}
	7748.1.1 = {death="7748.1.1"}
}
115360022 = {
	name="Paezdhar"	# not a lord
	dynasty=360022

	religion="harpy"
	culture="ghiscari"

	father=112360022
	mother=212360022

	7739.1.1 = {birth="7739.1.1"}
	7743.1.1 = {death = {death_reason = death_accident}}
}
116360022 = {
	name="Mera"	# not a lord
	female=yes
	dynasty=360022

	religion="harpy"
	culture="ghiscari"

	father=113360022
	mother=213360022

	7762.1.1 = {birth="7762.1.1"}
	7814.1.1 = {death="7814.1.1"}
}
117360022 = {
	name="Lazhak"	# a lord
	dynasty=360022

	religion="harpy"
	culture="ghiscari"

	father=113360022
	mother=213360022

	7759.1.1 = {birth="7759.1.1"}
	7775.1.1 = {add_trait=poor_warrior}
	7777.1.1 = {add_spouse=217360022}
	7798.1.1 = {}
	7818.1.1 = {death="7818.1.1"}
}
217360022 = {
	name="Olezza"
	female=yes

	religion="harpy"
	culture="ghiscari"

	7759.1.1 = {birth="7759.1.1"}
	7818.1.1 = {death="7818.1.1"}
}
118360022 = {
	name="Qezza"	# not a lord
	female=yes
	dynasty=360022

	religion="harpy"
	culture="ghiscari"

	father=113360022
	mother=213360022

	7761.1.1 = {birth="7761.1.1"}
	7819.1.1 = {death="7819.1.1"}
}
119360022 = {
	name="Melezza"	# not a lord
	female=yes
	dynasty=360022

	religion="harpy"
	culture="ghiscari"

	father=117360022
	mother=217360022

	7790.1.1 = {birth="7790.1.1"}
	7834.1.1 = {death="7834.1.1"}
}
120360022 = {
	name="Hizdhar"	# not a lord
	dynasty=360022

	religion="harpy"
	culture="ghiscari"

	father=117360022
	mother=217360022

	7793.1.1 = {birth="7793.1.1"}
	7802.1.1 = {death = {death_reason = death_accident}}
}
121360022 = {
	name="Grazdan"	# a lord
	dynasty=360022

	religion="harpy"
	culture="ghiscari"

	father=117360022
	mother=217360022

	7794.1.1 = {birth="7794.1.1"}
	7810.1.1 = {add_trait=poor_warrior}
	7812.1.1 = {add_spouse=221360022}
	7818.1.1 = {}
	7843.1.1 = {death = {death_reason = death_accident}}
}
221360022 = {
	name="Ezzara"
	female=yes

	religion="harpy"
	culture="ghiscari"

	7794.1.1 = {birth="7794.1.1"}
	7843.1.1 = {death="7843.1.1"}
}
122360022 = {
	name="Sesqa"	# not a lord
	female=yes
	dynasty=360022

	religion="harpy"
	culture="ghiscari"

	father=117360022
	mother=217360022

	7797.1.1 = {birth="7797.1.1"}
	7854.1.1 = {death="7854.1.1"}
}
123360022 = {
	name="Galazza"	# not a lord
	female=yes
	dynasty=360022

	religion="harpy"
	culture="ghiscari"

	father=117360022
	mother=217360022

	7800.1.1 = {birth="7800.1.1"}
	7831.1.1 = {death = {death_reason = death_murder}}
}
124360022 = {
	name="Azzak"	# a lord
	dynasty=360022

	religion="harpy"
	culture="ghiscari"

	father=121360022
	mother=221360022

	7816.1.1 = {birth="7816.1.1"}
	7832.1.1 = {add_trait=poor_warrior}
	7833.1.1 = {add_spouse=224360022}
	7843.1.1 = {}
	7857.1.1 = {death = {death_reason = death_accident}}
}
224360022 = {
	name="Dezzala"
	female=yes

	religion="harpy"
	culture="ghiscari"

	7816.1.1 = {birth="7816.1.1"}
	7857.1.1 = {death="7857.1.1"}
}
125360022 = {
	name="Yurkhazro"	# not a lord
	dynasty=360022

	religion="harpy"
	culture="ghiscari"

	father=121360022
	mother=221360022

	7819.1.1 = {birth="7819.1.1"}
	7835.1.1 = {add_trait=trained_warrior}
	7837.1.1 = {add_spouse=225360022}
	7864.1.1 = {death="7864.1.1"}
}
225360022 = {
	name="Qezza"
	female=yes

	religion="harpy"
	culture="ghiscari"

	7819.1.1 = {birth="7819.1.1"}
	7864.1.1 = {death="7864.1.1"}
}
126360022 = {
	name="Hazzea"	# not a lord
	female=yes
	dynasty=360022

	religion="harpy"
	culture="ghiscari"

	father=121360022
	mother=221360022

	7821.1.1 = {birth="7821.1.1"}
	7875.1.1 = {death="7875.1.1"}
}
127360022 = {
	name="Barkhaz"	# not a lord
	dynasty=360022

	religion="harpy"
	culture="ghiscari"

	father=121360022
	mother=221360022

	7823.1.1 = {birth="7823.1.1"}
	7839.1.1 = {add_trait=master_warrior}
	7841.1.1 = {add_spouse=227360022}
	7891.1.1 = {death="7891.1.1"}
}
227360022 = {
	name="Qarria"
	female=yes

	religion="harpy"
	culture="ghiscari"

	7823.1.1 = {birth="7823.1.1"}
	7891.1.1 = {death="7891.1.1"}
}
128360022 = {
	name="Jalezza"	# not a lord
	female=yes
	dynasty=360022

	religion="harpy"
	culture="ghiscari"

	father=121360022
	mother=221360022

	7825.1.1 = {birth="7825.1.1"}
	7895.1.1 = {death="7895.1.1"}
}
129360022 = {
	name="Galazza"	# not a lord
	female=yes
	dynasty=360022

	religion="harpy"
	culture="ghiscari"

	father=124360022
	mother=224360022

	7834.1.1 = {birth="7834.1.1"}
	7875.1.1 = {death="7875.1.1"}
}
130360022 = {
	name="Ezzara"	# not a lord
	female=yes
	dynasty=360022

	religion="harpy"
	culture="ghiscari"

	father=124360022
	mother=224360022

	7836.1.1 = {birth="7836.1.1"}
	7894.1.1 = {death="7894.1.1"}
}
131360022 = {
	name="Maezon"	# a lord
	dynasty=360022

	religion="harpy"
	culture="ghiscari"

	father=124360022
	mother=224360022

	7837.1.1 = {birth="7837.1.1"}
	7857.1.1 = {}
	7864.1.1 = {add_trait=poor_warrior}
	7866.1.1 = {add_spouse=231360022}
	7882.1.1 = {death = {death_reason = death_murder}}
}
231360022 = {
	name="Jezhane"
	female=yes

	religion="harpy"
	culture="ghiscari"

	7848.1.1 = {birth="7848.1.1"}
	7882.1.1 = {death="7882.1.1"}
}
132360022 = {
	name="Gorzhak"	# not a lord
	dynasty=360022

	religion="harpy"
	culture="ghiscari"

	father=124360022
	mother=224360022

	7849.1.1 = {birth="7849.1.1"}
	7865.1.1 = {add_trait=skilled_warrior}
	7911.1.1 = {death="7911.1.1"}
}
6571005 = {
	name="Paezhar" # Canon
	dynasty = 360022 

	martial = 1
	diplomacy = 4
	intrigue = 5
	stewardship = 5
	learning = 5

	culture = ghiscari
	religion = harpy 

	father=131360022
	mother=231360022		
	
	add_trait="flamboyant_schemer"
	add_trait="cruel"
	add_trait="proud"
	add_trait="deceitful"
	add_trait="ruthless"
	
	7867.1.1 = {
		birth="7867.1.1"
	}
	7882.1.1 = {}
}

##House Zherzyn

150360021 = {
	name="Haezdhar"	# a lord
	dynasty=360021

	religion="harpy"
	culture="ghiscari"

	7560.1.1 = {birth="7560.1.1"}
	7578.1.1 = {add_spouse=250360021}
	7614.1.1 = {death="7614.1.1"}
}
250360021 = {
	name="Elezzara"
	female=yes

	religion="harpy"
	culture="ghiscari"

	7562.1.1 = {birth="7562.1.1"}
	7600.1.1 = {death="7600.1.1"}
}

100360021 = {
	name="Grazdhan"	# a lord
	dynasty=360021

	religion="harpy"
	culture="ghiscari"

	father=150360021
	mother=250360021

	7582.1.1 = {birth="7582.1.1"}
	7604.1.1 = {add_spouse=200360021}
	7614.1.1 = {}
	7616.1.1 = {add_trait=poor_warrior}
	7625.1.1 = {death="7625.1.1"}
}
200360021 = {
	name="Melazzara"
	female=yes

	religion="harpy"
	culture="ghiscari"

	7582.1.1 = {birth="7582.1.1"}
	7625.1.1 = {death="7625.1.1"}
}
101360021 = {
	name="Marghazuo"	# a lord
	dynasty=360021

	religion="harpy"
	culture="ghiscari"

	father=100360021
	mother=200360021

	7606.1.1 = {birth="7606.1.1"}
	7625.1.1 = {}
	7634.1.1 = {add_trait=trained_warrior}
	7636.1.1 = {add_spouse=201360021}
	7660.1.1 = {death="7660.1.1"}
}
201360021 = {
	name="Qezza"
	female=yes

	religion="harpy"
	culture="ghiscari"

	7618.1.1 = {birth="7618.1.1"}
	7660.1.1 = {death="7660.1.1"}
}
102360021 = {
	name="Hazzea"	# not a lord
	female=yes
	dynasty=360021

	religion="harpy"
	culture="ghiscari"

	father=100360021
	mother=200360021

	7620.1.1 = {birth="7620.1.1"}
	7662.1.1 = {death="7662.1.1"}
}
103360021 = {
	name="Sharkaz"	# a lord
	dynasty=360021

	religion="harpy"
	culture="ghiscari"

	father=101360021
	mother=201360021

	7637.1.1 = {birth="7637.1.1"}
	7660.1.1 = {}
	7665.1.1 = {add_trait=trained_warrior}
	7667.1.1 = {add_spouse=203360021}
	7695.1.1 = {death = {death_reason = death_accident}}
}
203360021 = {
	name="Ezzara"
	female=yes

	religion="harpy"
	culture="ghiscari"

	7649.1.1 = {birth="7649.1.1"}
	7695.1.1 = {death="7695.1.1"}
}
104360021 = {
	name="Prendhal"	# not a lord
	dynasty=360021

	religion="harpy"
	culture="ghiscari"

	father=101360021
	mother=201360021

	7650.1.1 = {birth="7650.1.1"}
	7666.1.1 = {add_trait=poor_warrior}
	7668.1.1 = {add_spouse=204360021}
	7693.1.1 = {death="7693.1.1"}
}
204360021 = {
	name="Tezza"
	female=yes

	religion="harpy"
	culture="ghiscari"

	7650.1.1 = {birth="7650.1.1"}
	7693.1.1 = {death="7693.1.1"}
}
105360021 = {
	name="Galazza"	# not a lord
	female=yes
	dynasty=360021

	religion="harpy"
	culture="ghiscari"

	father=101360021
	mother=201360021

	7652.1.1 = {birth="7652.1.1"}
	7699.1.1 = {death="7699.1.1"}
}
106360021 = {
	name="Skahaz"	# a lord
	dynasty=360021

	religion="harpy"
	culture="ghiscari"

	father=103360021
	mother=203360021

	7678.1.1 = {birth="7678.1.1"}
	7694.1.1 = {add_trait=trained_warrior}
	7695.1.1 = {}
	7696.1.1 = {add_spouse=206360021}
	7734.1.1 = {death="7734.1.1"}
}
206360021 = {
	name="Azzara"
	female=yes

	religion="harpy"
	culture="ghiscari"

	7678.1.1 = {birth="7678.1.1"}
	7734.1.1 = {death="7734.1.1"}
}
107360021 = {
	name="Grazdan"	# not a lord
	dynasty=360021

	religion="harpy"
	culture="ghiscari"

	father=103360021
	mother=203360021

	7681.1.1 = {birth="7681.1.1"}
	7697.1.1 = {add_trait=trained_warrior}
	7745.1.1 = {death = {death_reason = death_accident}}
}
108360021 = {
	name="Delezza"	# not a lord
	female=yes
	dynasty=360021

	religion="harpy"
	culture="ghiscari"

	father=103360021
	mother=203360021

	7684.1.1 = {birth="7684.1.1"}
	7735.1.1 = {death="7735.1.1"}
}
109360021 = {
	name="Hizdhar"	# not a lord
	dynasty=360021

	religion="harpy"
	culture="ghiscari"

	father=103360021
	mother=203360021

	7687.1.1 = {birth="7687.1.1"}
	7703.1.1 = {add_trait=master_warrior}
	7720.1.1 = {death="7720.1.1"}
}
110360021 = {
	name="Barkhaz"	# not a lord
	dynasty=360021

	religion="harpy"
	culture="ghiscari"

	father=103360021
	mother=203360021

	7690.1.1 = {birth="7690.1.1"}
	7706.1.1 = {add_trait=skilled_warrior}
	7726.1.1 = {death="7726.1.1"}
}
111360021 = {
	name="Maezon"	# a lord
	dynasty=360021

	religion="harpy"
	culture="ghiscari"

	father=106360021
	mother=206360021

	7706.1.1 = {birth="7706.1.1"}
	7722.1.1 = {add_trait=skilled_warrior}
	7724.1.1 = {add_spouse=211360021}
	7734.1.1 = {}
	7765.1.1 = {death="7765.1.1"}
}
211360021 = {
	name="Qezza"
	female=yes

	religion="harpy"
	culture="ghiscari"

	7706.1.1 = {birth="7706.1.1"}
	7765.1.1 = {death="7765.1.1"}
}
112360021 = {
	name="Azzaq"	# not a lord
	dynasty=360021

	religion="harpy"
	culture="ghiscari"

	father=106360021
	mother=206360021

	7708.1.1 = {birth="7708.1.1"}
	7724.1.1 = {add_trait=poor_warrior}
	7740.1.1 = {death="7740.1.1"}
}
113360021 = {
	name="Delezza"	# not a lord
	female=yes
	dynasty=360021

	religion="harpy"
	culture="ghiscari"

	father=106360021
	mother=206360021

	7711.1.1 = {birth="7711.1.1"}
	7779.1.1 = {death="7779.1.1"}
}
114360021 = {
	name="Paezdhar"	# a lord
	dynasty=360021

	religion="harpy"
	culture="ghiscari"

	father=111360021
	mother=211360021

	7731.1.1 = {birth="7731.1.1"}
	7747.1.1 = {add_trait=trained_warrior}
	7749.1.1 = {add_spouse=214360021}
	7765.1.1 = {}
	7771.1.1 = {death="7771.1.1"}
}
214360021 = {
	name="Dezza"
	female=yes

	religion="harpy"
	culture="ghiscari"

	7731.1.1 = {birth="7731.1.1"}
	7771.1.1 = {death="7771.1.1"}
}
115360021 = {
	name="Grazdhan"	# a lord
	dynasty=360021

	religion="harpy"
	culture="ghiscari"

	father=114360021
	mother=214360021

	7752.1.1 = {birth="7752.1.1"}
	7771.1.1 = {}
	7773.1.1 = {add_trait=poor_warrior}
	7775.1.1 = {add_spouse=215360021}
	7825.1.1 = {death="7825.1.1"}
}
215360021 = {
	name="Nalessa"
	female=yes

	religion="harpy"
	culture="ghiscari"

	7757.1.1 = {birth="7757.1.1"}
	7825.1.1 = {death="7825.1.1"}
}
116360021 = {
	name="Barghazo"	# not a lord
	dynasty=360021

	religion="harpy"
	culture="ghiscari"

	father=114360021
	mother=214360021

	7759.1.1 = {birth="7759.1.1"}
	7775.1.1 = {add_trait=poor_warrior}
	7777.1.1 = {add_spouse=216360021}
	7834.1.1 = {death="7834.1.1"}
}
216360021 = {
	name="Hazzea"
	female=yes

	religion="harpy"
	culture="ghiscari"

	7759.1.1 = {birth="7759.1.1"}
	7834.1.1 = {death="7834.1.1"}
}
117360021 = {
	name="Mezzara"	# not a lord
	female=yes
	dynasty=360021

	religion="harpy"
	culture="ghiscari"

	father=114360021
	mother=214360021

	7760.1.1 = {birth="7760.1.1"}
	7808.1.1 = {death="7808.1.1"}
}
118360021 = {
	name="Skahaz"	# not a lord
	dynasty=360021

	religion="harpy"
	culture="ghiscari"

	father=114360021
	mother=214360021

	7763.1.1 = {birth="7763.1.1"}
	7779.1.1 = {add_trait=skilled_warrior}
	7789.1.1 = {death="7789.1.1"}
}
119360021 = {
	name="Qezza"	# not a lord
	female=yes
	dynasty=360021

	religion="harpy"
	culture="ghiscari"

	father=115360021
	mother=215360021

	7775.1.1 = {birth="7775.1.1"}
	7830.1.1 = {death="7830.1.1"}
}
120360021 = {
	name="Grazdan"	# not a lord
	dynasty=360021

	religion="harpy"
	culture="ghiscari"

	father=115360021
	mother=215360021

	7778.1.1 = {birth="7778.1.1"}
	7794.1.1 = {add_trait=skilled_warrior}
	7821.1.1 = {death="7821.1.1"}
}
121360021 = {
	name="Reznak"	# a lord
	dynasty=360021

	religion="harpy"
	culture="ghiscari"

	father=115360021
	mother=215360021

	7780.1.1 = {birth="7780.1.1"}
	7796.1.1 = {add_trait=poor_warrior}
	7798.1.1 = {add_spouse=221360021}
	7825.1.1 = {}
	7855.1.1 = {death="7855.1.1"}
}
221360021 = {
	name="Ezzara"
	female=yes

	religion="harpy"
	culture="ghiscari"

	7780.1.1 = {birth="7780.1.1"}
	7855.1.1 = {death="7855.1.1"}
}
122360021 = {
	name="Yezzan"	# not a lord
	dynasty=360021

	religion="harpy"
	culture="ghiscari"

	father=115360021
	mother=215360021

	7781.1.1 = {birth="7781.1.1"}
	7797.1.1 = {add_trait=trained_warrior}
	7826.1.1 = {death="7826.1.1"}
}
123360021 = {
	name="Yezza"	# not a lord
	female=yes
	dynasty=360021

	religion="harpy"
	culture="ghiscari"

	father=121360021
	mother=221360021

	7813.1.1 = {birth="7813.1.1"}
	7829.1.1 = {death="7829.1.1"}
}
124360021 = {
	name="Marghaz"	# a lord
	dynasty=360021

	religion="harpy"
	culture="ghiscari"

	father=121360021
	mother=221360021

	7815.1.1 = {birth="7815.1.1"}
	7831.1.1 = {add_trait=poor_warrior}
	7833.1.1 = {add_spouse=224360021}
	7855.1.1 = {}
	7886.1.1 = {death="7886.1.1"}
}
224360021 = {
	name="Melezzara"
	female=yes

	religion="harpy"
	culture="ghiscari"

	7815.1.1 = {birth="7815.1.1"}
	7886.1.1 = {death="7886.1.1"}
}
125360021 = {
	name="Sezza"	# not a lord
	female=yes
	dynasty=360021

	religion="harpy"
	culture="ghiscari"

	father=121360021
	mother=221360021

	7818.1.1 = {birth="7818.1.1"}
	7854.1.1 = {death="7854.1.1"}
}
126360021 = {
	name="Bellara"	# not a lord
	female=yes
	dynasty=360021

	religion="harpy"
	culture="ghiscari"

	father=121360021
	mother=221360021

	7821.1.1 = {birth="7821.1.1"}
	7850.1.1 = {death="7850.1.1"}
}

6571006 = {
	name="Morghaz"  # Canon
	dynasty = 360021 

	martial = 1
	diplomacy = 4
	intrigue = 5
	stewardship = 5
	learning = 5

	culture = ghiscari
	religion = harpy

	father=124360021
	mother=224360021 		
	
	add_trait="drunkard"
	add_trait="cruel"
	add_trait="proud"
	add_trait="deceitful"
	add_trait="ruthless"
	
	7851.1.1 = {
		birth="7851.1.1"
	}
	7886.1.1 = {}
}

##House Eraz

150360020 = {
	name="Grazdhan"	# a lord
	dynasty=360020

	religion="harpy"
	culture="ghiscari"

	7555.1.1 = {birth="7555.1.1"}
	7576.1.1 = {add_spouse=250360020}
	7608.1.1 = {death="7608.1.1"}
}
250360020 = {
	name="Mezzara"
	female=yes

	religion="harpy"
	culture="ghiscari"

	7559.1.1 = {birth="7559.1.1"}
	7614.1.1 = {death="7614.1.1"}
}
100360020 = {
	name="Marghaz"	# a lord
	dynasty=360020

	religion="harpy"
	culture="ghiscari"

	father=150360020
	mother=250360020

	7584.1.1 = {birth="7584.1.1"}
	7602.1.1 = {add_spouse=200360020}
	7608.1.1 = {}
	7616.1.1 = {add_trait=poor_warrior}
	7631.1.1 = {death="7631.1.1"}
}
200360020 = {
	name="Tellezza"
	female=yes

	religion="harpy"
	culture="ghiscari"
	
	# In memory of a very amusing bug
	add_trait = genius
	add_trait = ambitious

	7584.1.1 = {birth="7584.1.1"}
	7631.1.1 = {death="7631.1.1"}
}
101360020 = {
	name="Haezdhar"	# a lord
	dynasty=360020

	religion="harpy"
	culture="ghiscari"

	father=100360020
	mother=200360020

	7603.1.1 = {birth="7603.1.1"}
	7631.1.1 = {}
	7634.1.1 = {add_trait=skilled_warrior}
	7636.1.1 = {add_spouse=201360020}
	7672.1.1 = {death="7672.1.1"}
}
201360020 = {
	name="Ezzara"
	female=yes

	religion="harpy"
	culture="ghiscari"

	7618.1.1 = {birth="7618.1.1"}
	7672.1.1 = {death="7672.1.1"}
}
102360020 = {
	name="Qezza"	# not a lord
	female=yes
	dynasty=360020

	religion="harpy"
	culture="ghiscari"

	father=100360020
	mother=200360020

	7621.1.1 = {birth="7621.1.1"}
	7648.1.1 = {death="7648.1.1"}
}
103360020 = {
	name="Galazza"	# not a lord
	female=yes
	dynasty=360020

	religion="harpy"
	culture="ghiscari"

	father=100360020
	mother=200360020

	7622.1.1 = {birth="7622.1.1"}
	7697.1.1 = {death="7697.1.1"}
}
104360020 = {
	name="Grazdan"	# not a lord
	dynasty=360020

	religion="harpy"
	culture="ghiscari"

	father=100360020
	mother=200360020

	7625.1.1 = {birth="7625.1.1"}
	7641.1.1 = {add_trait=poor_warrior}
	7671.1.1 = {death="7671.1.1"}
}
105360020 = {
	name="Grazdan"	# a lord
	dynasty=360020

	religion="harpy"
	culture="ghiscari"

	father=101360020
	mother=201360020

	7638.1.1 = {birth="7638.1.1"}
	7654.1.1 = {add_trait=skilled_warrior}
	7656.1.1 = {add_spouse=205360020}
	7672.1.1 = {}
	7688.1.1 = {death="7688.1.1"}
}
205360020 = {
	name="Mezzara"
	female=yes

	religion="harpy"
	culture="ghiscari"

	7638.1.1 = {birth="7638.1.1"}
	7688.1.1 = {death="7688.1.1"}
}
106360020 = {
	name="Skahazo"	# not a lord
	dynasty=360020

	religion="harpy"
	culture="ghiscari"

	father=101360020
	mother=201360020

	7641.1.1 = {birth="7641.1.1"}
	7659.1.1 = {
		add_spouse=206360020
		effect = { spouse = { add_lover = ROOT } }
	}
	7673.1.1 = {add_trait = has_bloody_flux}
	7674.1.1 = {death = { death_reason = death_trait } }
}
206360020 = {
	name="Hazzea"
	female=yes

	religion="harpy"
	culture="ghiscari"

	7641.1.1 = {birth="7641.1.1"}
	7674.1.1 = {
		add_trait = widowed
		add_trait = depressed
	}
	7675.1.1 = {
		death = { death_reason = death_suicide }
	}
}
107360020 = {
	name="Mellezza"	# not a lord
	female=yes
	dynasty=360020

	religion="harpy"
	culture="ghiscari"

	father=101360020
	mother=201360020

	7644.1.1 = {birth="7644.1.1"}
	7715.1.1 = {death="7715.1.1"}
}
108360020 = {
	name="Mizlako"	# not a lord
	dynasty=360020

	religion="harpy"
	culture="ghiscari"

	father=101360020
	mother=201360020

	7647.1.1 = {birth="7647.1.1"}
	7663.1.1 = {add_trait=poor_warrior}
	7698.1.1 = {death="7698.1.1"}
}
109360020 = {
	name="Reznakuo"	# not a lord
	dynasty=360020

	religion="harpy"
	culture="ghiscari"

	father=101360020
	mother=201360020

	7650.1.1 = {birth="7650.1.1"}
	7666.1.1 = {add_trait=poor_warrior}
	7720.1.1 = {death="7720.1.1"}
}
110360020 = {
	name="Qezza"	# not a lord
	female=yes
	dynasty=360020

	religion="harpy"
	culture="ghiscari"

	father=105360020
	mother=205360020

	7662.1.1 = {birth="7662.1.1"}
	7698.1.1 = {death="7698.1.1"}
}
111360020 = {
	name="Barkhaz"	# a lord
	dynasty=360020

	religion="harpy"
	culture="ghiscari"

	father=105360020
	mother=205360020

	7665.1.1 = {birth="7665.1.1"}
	7681.1.1 = {add_trait=trained_warrior}
	7683.1.1 = {add_spouse=211360020}
	7688.1.1 = {}
	7722.1.1 = {death="7722.1.1"}
}
211360020 = {
	name="Ezzara"
	female=yes

	religion="harpy"
	culture="ghiscari"

	7665.1.1 = {birth="7665.1.1"}
	7722.1.1 = {death="7722.1.1"}
}
112360020 = {
	name="Azlaq"	# a lord
	dynasty=360020

	religion="harpy"
	culture="ghiscari"

	father=111360020
	mother=211360020

	7692.1.1 = {birth="7692.1.1"}
	7708.1.1 = {add_trait=trained_warrior}
	7710.1.1 = {add_spouse=212360020}
	7722.1.1 = {}
	7737.1.1 = {death="7737.1.1"}
}
212360020 = {
	name="Azzara"
	female=yes

	religion="harpy"
	culture="ghiscari"

	7692.1.1 = {birth="7692.1.1"}
	7737.1.1 = {death="7737.1.1"}
}
113360020 = {
	name="Tezza"	# not a lord
	female=yes
	dynasty=360020

	religion="harpy"
	culture="ghiscari"

	father=111360020
	mother=211360020

	7693.1.1 = {birth="7693.1.1"}
	7761.1.1 = {death="7761.1.1"}
}
114360020 = {
	name="Galazza"	# not a lord
	female=yes
	dynasty=360020

	religion="harpy"
	culture="ghiscari"

	father=112360020
	mother=212360020

	7710.1.1 = {birth="7710.1.1"}
	7757.1.1 = {death="7757.1.1"}
}
115360020 = {
	name="Qezza"	# not a lord
	female=yes
	dynasty=360020

	religion="harpy"
	culture="ghiscari"

	father=112360020
	mother=212360020

	7713.1.1 = {birth="7713.1.1"}
	7763.1.1 = {death="7763.1.1"}
}
116360020 = {
	name="Grazdan"	# a lord
	dynasty=360020

	religion="harpy"
	culture="ghiscari"

	father=112360020
	mother=212360020

	7715.1.1 = {birth="7715.1.1"}
	7731.1.1 = {add_trait=poor_warrior}
	7733.1.1 = {add_spouse=216360020}
	7737.1.1 = {}
	7770.1.1 = {death="7770.1.1"}
}
216360020 = {
	name="Ezzara"
	female=yes

	religion="harpy"
	culture="ghiscari"

	7715.1.1 = {birth="7715.1.1"}
	7770.1.1 = {death="7770.1.1"}
}
117360020 = {
	name="Hazzea"	# not a lord
	female=yes
	dynasty=360020

	religion="harpy"
	culture="ghiscari"

	father=116360020
	mother=216360020

	7740.1.1 = {birth="7740.1.1"}
	7791.1.1 = {death="7791.1.1"}
}
118360020 = {
	name="Qezza"	# not a lord
	female=yes
	dynasty=360020

	religion="harpy"
	culture="ghiscari"

	father=116360020
	mother=216360020

	7743.1.1 = {birth="7743.1.1"}
	7775.1.1 = {death="7775.1.1"}
}
119360020 = {
	name="Hizdhar"	# a lord
	dynasty=360020

	religion="harpy"
	culture="ghiscari"

	father=116360020
	mother=216360020

	7745.1.1 = {birth="7745.1.1"}
	7761.1.1 = {add_trait=trained_warrior}
	7763.1.1 = {add_spouse=219360020}
	7770.1.1 = {}
	7788.1.1 = {death="7788.1.1"}
}
219360020 = {
	name="Mellezza"
	female=yes

	religion="harpy"
	culture="ghiscari"

	7745.1.1 = {birth="7745.1.1"}
	7788.1.1 = {death="7788.1.1"}
}
120360020 = {
	name="Yurkhaz"	# a lord
	dynasty=360020

	religion="harpy"
	culture="ghiscari"

	father=119360020
	mother=219360020

	7764.1.1 = {birth="7764.1.1"}
	7780.1.1 = {add_trait=poor_warrior}
	7782.1.1 = {add_spouse=220360020}
	7788.1.1 = {}
	7825.1.1 = {death="7825.1.1"}
}
220360020 = {
	name="Yna"
	female=yes

	religion="harpy"
	culture="ghiscari"

	7764.1.1 = {birth="7764.1.1"}
	7825.1.1 = {death="7825.1.1"}
}
121360020 = {
	name="Qezza"	# not a lord
	female=yes
	dynasty=360020

	religion="harpy"
	culture="ghiscari"

	father=119360020
	mother=219360020

	7765.1.1 = {birth="7765.1.1"}
	7834.1.1 = {death = {death_reason = death_murder}}
}
122360020 = {
	name="Grazdhan"	# a lord
	dynasty=360020

	religion="harpy"
	culture="ghiscari"

	father=120360020
	mother=220360020

	7792.1.1 = {birth="7792.1.1"}
	7808.1.1 = {add_trait=trained_warrior}
	7810.1.1 = {add_spouse=222360020}
	7825.1.1 = {}
	7839.1.1 = {death="7839.1.1"}
}
222360020 = {
	name="Fezzara"
	female=yes

	religion="harpy"
	culture="ghiscari"

	7792.1.1 = {birth="7792.1.1"}
	7839.1.1 = {death="7839.1.1"}
}
123360020 = {
	name="Qezza"	# not a lord
	female=yes
	dynasty=360020

	religion="harpy"
	culture="ghiscari"

	father=120360020
	mother=220360020

	7795.1.1 = {birth="7795.1.1"}
	7850.1.1 = {death="7850.1.1"}
}
124360020 = {
	name="Yezzan"	# not a lord
	dynasty=360020

	religion="harpy"
	culture="ghiscari"

	father=120360020
	mother=220360020

	7797.1.1 = {birth="7797.1.1"}
	7813.1.1 = {add_trait=poor_warrior}
	7815.1.1 = {add_spouse=224360020}
	7828.1.1 = {death = {death_reason = death_battle}}
}
224360020 = {
	name="Tellezza"
	female=yes

	religion="harpy"
	culture="ghiscari"

	7797.1.1 = {birth="7797.1.1"}
	7828.1.1 = {death="7828.1.1"}
}
125360020 = {
	name="Ezzara"	# not a lord
	female=yes
	dynasty=360020

	religion="harpy"
	culture="ghiscari"

	father=122360020
	mother=222360020

	7811.1.1 = {birth="7811.1.1"}
	7854.1.1 = {death="7854.1.1"}
}
126360020 = {
	name="Paezdhar"	# a lord
	dynasty=360020

	religion="harpy"
	culture="ghiscari"

	father=122360020
	mother=222360020

	7812.1.1 = {birth="7812.1.1"}
	7828.1.1 = {add_trait=poor_warrior}
	7830.1.1 = {add_spouse=226360020}
	7839.1.1 = {}
	7855.1.1 = {death="7855.1.1"}
}
226360020 = {
	name="Hazzea"
	female=yes

	religion="harpy"
	culture="ghiscari"

	7812.1.1 = {birth="7812.1.1"}
	7855.1.1 = {death="7855.1.1"}
}
127360020 = {
	name="Tezzara"	# not a lord
	female=yes
	dynasty=360020

	religion="harpy"
	culture="ghiscari"

	father=122360020
	mother=222360020

	7814.1.1 = {birth="7814.1.1"}
	7869.1.1 = {death="7869.1.1"}
}
128360020 = {
	name="Prendhal"	# not a lord
	dynasty=360020

	religion="harpy"
	culture="ghiscari"

	father=122360020
	mother=222360020

	7816.1.1 = {birth="7816.1.1"}
	7832.1.1 = {add_trait=poor_warrior}
	7834.1.1 = {add_spouse=228360020}
	7861.1.1 = {death="7861.1.1"}
}
228360020 = {
	name="Mezzara"
	female=yes

	religion="harpy"
	culture="ghiscari"

	7816.1.1 = {birth="7816.1.1"}
	7861.1.1 = {death="7861.1.1"}
}
129360020 = {
	name="Hazzea"	# not a lord
	female=yes
	dynasty=360020

	religion="harpy"
	culture="ghiscari"

	father=122360020
	mother=222360020

	7818.1.1 = {birth="7818.1.1"}
	7861.1.1 = {death="7861.1.1"}
}
130360020 = {
	name="Gazdhor"	# a lord
	dynasty=360020

	religion="harpy"
	culture="ghiscari"

	father=126360020
	mother=226360020

	7836.1.1 = {birth="7836.1.1"}
	7852.1.1 = {add_trait=trained_warrior}
	7854.1.1 = {add_spouse=230360020}
	7855.1.1 = {}
	7880.1.1 = {death="7880.1.1"}
}
230360020 = {
	name="Tellezzara"
	female=yes

	religion="harpy"
	culture="ghiscari"

	7836.1.1 = {birth="7836.1.1"}
	7880.1.1 = {death="7880.1.1"}
}

6571007 = {
	name="Grazdan"  # Canon  Lead envoys to Dany in SoS and recruited the Windblown in Volantis in aDwD.
	dynasty = 360020 

	martial = 3
	diplomacy = 10
	intrigue = 7
	stewardship = 10
	learning = 5

	culture = ghiscari
	religion = harpy 

	father=130360020
	mother=230360020		
	
	add_trait="thrifty_clerk"
	add_trait="cruel"
	add_trait="proud"
	add_trait="deceitful"
	add_trait="ruthless"
	add_trait="authoritative"
	
	7860.1.1 = {
		birth="7860.1.1"
	}
	7880.1.1 = {}
}

6571008 = {
	name="Gorzhak"  # Canon
	dynasty = 360020 

	martial = 2
	diplomacy = 4
	intrigue = 4
	stewardship = 3
	learning = 2

	culture = ghiscari
	religion = harpy 

	father=130360020
	mother=230360020		
	
	add_trait="cruel"
	add_trait="proud"
	add_trait="deceitful"
	add_trait="ruthless"
	
	7879.1.1 = {
		birth="7879.1.1"
	}
}

##House Rhaezn

150360017 = {
	name="Zarraq"	# a lord
	dynasty=360017

	religion="harpy"
	culture="ghiscari"

	7554.1.1 = {birth="7554.1.1"}
	7576.1.1 = {add_spouse=250360017}
	7624.1.1 = {death="7624.1.1"}
}
250360017 = {
	name="Dhazzar"
	female=yes

	religion="harpy"
	culture="ghiscari"

	7556.1.1 = {birth="7556.1.1"}
	7623.1.1 = {death="7623.1.1"}
}
100360017 = {
	name="Yurkhaz"	# a lord
	dynasty=360017

	religion="harpy"
	culture="ghiscari"

	father=150360017
	mother=250360017

	7587.1.1 = {birth="7587.1.1"}
	7616.1.1 = {add_trait=poor_warrior}
	7618.1.1 = {add_spouse=200360017}
	7624.1.1 = {}
	7646.1.1 = {death="7646.1.1"}
}
200360017 = {
	name="Hazzea"
	female=yes

	religion="harpy"
	culture="ghiscari"

	7587.1.1 = {birth="7587.1.1"}
	7646.1.1 = {death="7646.1.1"}
}
101360017 = {
	name="Paezdhar"	# a lord
	dynasty=360017

	religion="harpy"
	culture="ghiscari"

	father=100360017
	mother=200360017

	7626.1.1 = {birth="7626.1.1"}
	7642.1.1 = {add_trait=poor_warrior}
	7644.1.1 = {add_spouse=201360017}
	7646.1.1 = {}
	7687.1.1 = {death = {death_reason = death_murder}}
}
201360017 = {
	name="Qezza"
	female=yes

	religion="harpy"
	culture="ghiscari"

	7626.1.1 = {birth="7626.1.1"}
	7687.1.1 = {death="7687.1.1"}
}
102360017 = {
	name="Grazdan"	# not a lord
	dynasty=360017

	religion="harpy"
	culture="ghiscari"

	father=100360017
	mother=200360017

	7627.1.1 = {birth="7627.1.1"}
	7643.1.1 = {add_trait=poor_warrior}
	7688.1.1 = {death="7688.1.1"}
}
103360017 = {
	name="Ezzara"	# not a lord
	female=yes
	dynasty=360017

	religion="harpy"
	culture="ghiscari"

	father=100360017
	mother=200360017

	7628.1.1 = {birth="7628.1.1"}
	7683.1.1 = {death="7683.1.1"}
}
104360017 = {
	name="Mellezza"	# not a lord
	female=yes
	dynasty=360017

	religion="harpy"
	culture="ghiscari"

	father=101360017
	mother=201360017

	7647.1.1 = {birth="7647.1.1"}
	7701.1.1 = {death="7701.1.1"}
}
105360017 = {
	name="Maezon"	# a lord
	dynasty=360017

	religion="harpy"
	culture="ghiscari"

	father=101360017
	mother=201360017

	7648.1.1 = {birth="7648.1.1"}
	7664.1.1 = {add_trait=trained_warrior}
	7666.1.1 = {add_spouse=205360017}
	7687.1.1 = {}
	7718.1.1 = {death="7718.1.1"}
}
205360017 = {
	name="Qezza"
	female=yes

	religion="harpy"
	culture="ghiscari"

	7648.1.1 = {birth="7648.1.1"}
	7718.1.1 = {death="7718.1.1"}
}
106360017 = {
	name="Skahaz"	# not a lord
	dynasty=360017

	religion="harpy"
	culture="ghiscari"

	father=101360017
	mother=201360017

	7651.1.1 = {birth="7651.1.1"}
	7667.1.1 = {add_trait=poor_warrior}
	7698.1.1 = {death="7698.1.1"}
}
107360017 = {
	name="Tellezza"	# not a lord
	female=yes
	dynasty=360017

	religion="harpy"
	culture="ghiscari"

	father=105360017
	mother=205360017

	7674.1.1 = {birth="7674.1.1"}
	7698.1.1 = {death="7698.1.1"}
}
108360017 = {
	name="Ezzara"	# not a lord
	female=yes
	dynasty=360017

	religion="harpy"
	culture="ghiscari"

	father=105360017
	mother=205360017

	7676.1.1 = {birth="7676.1.1"}
	7736.1.1 = {death="7736.1.1"}
}
109360017 = {
	name="Gazdhor"	# a lord
	dynasty=360017

	religion="harpy"
	culture="ghiscari"

	father=105360017
	mother=205360017

	7679.1.1 = {birth="7679.1.1"}
	7695.1.1 = {add_trait=skilled_warrior}
	7697.1.1 = {add_spouse=209360017}
	7718.1.1 = {}
	7744.1.1 = {death="7744.1.1"}
}
209360017 = {
	name="Mezzara"
	female=yes

	religion="harpy"
	culture="ghiscari"

	7679.1.1 = {birth="7679.1.1"}
	7744.1.1 = {death="7744.1.1"}
}
110360017 = {
	name="Marghaz"	# not a lord
	dynasty=360017

	religion="harpy"
	culture="ghiscari"

	father=105360017
	mother=205360017

	7680.1.1 = {birth="7680.1.1"}
	7696.1.1 = {add_trait=trained_warrior}
	7741.1.1 = {death="7741.1.1"}
}
111360017 = {
	name="Grazdan"	# a lord
	dynasty=360017

	religion="harpy"
	culture="ghiscari"

	father=109360017
	mother=209360017

	7708.1.1 = {birth="7708.1.1"}
	7724.1.1 = {add_trait=trained_warrior}
	7726.1.1 = {add_spouse=211360017}
	7744.1.1 = {}
	7750.1.1 = {death="7750.1.1"}
}
211360017 = {
	name="Hazzea"
	female=yes

	religion="harpy"
	culture="ghiscari"

	7708.1.1 = {birth="7708.1.1"}
	7750.1.1 = {death="7750.1.1"}
}
112360017 = {
	name="Yezzan"	# not a lord
	dynasty=360017

	religion="harpy"
	culture="ghiscari"

	father=109360017
	mother=209360017

	7709.1.1 = {birth="7709.1.1"}
	7725.1.1 = {add_trait=trained_warrior}
	7752.1.1 = {death="7752.1.1"}
}
113360017 = {
	name="Qezza"	# not a lord
	female=yes
	dynasty=360017

	religion="harpy"
	culture="ghiscari"

	father=111360017
	mother=211360017

	7728.1.1 = {birth="7728.1.1"}
	7757.1.1 = {death="7757.1.1"}
}
114360017 = {
	name="Sharkhaz"	# a lord
	dynasty=360017

	religion="harpy"
	culture="ghiscari"

	father=111360017
	mother=211360017

	7730.1.1 = {birth="7730.1.1"}
	7746.1.1 = {add_trait=poor_warrior}
	7748.1.1 = {add_spouse=214360017}
	7750.1.1 = {}
	7786.1.1 = {death="7786.1.1"}
}
214360017 = {
	name="Ezzara"
	female=yes

	religion="harpy"
	culture="ghiscari"

	7730.1.1 = {birth="7730.1.1"}
	7786.1.1 = {death="7786.1.1"}
}
115360017 = {
	name="Hizdhar"	# not a lord
	dynasty=360017

	religion="harpy"
	culture="ghiscari"

	father=111360017
	mother=211360017

	7731.1.1 = {birth="7731.1.1"}
	7747.1.1 = {add_trait=trained_warrior}
	7749.1.1 = {add_spouse=215360017}
	7799.1.1 = {death="7799.1.1"}
}
215360017 = {
	name="Sezza"
	female=yes

	religion="harpy"
	culture="ghiscari"

	7731.1.1 = {birth="7731.1.1"}
	7799.1.1 = {death="7799.1.1"}
}
116360017 = {
	name="Azzea"	# not a lord
	female=yes
	dynasty=360017

	religion="harpy"
	culture="ghiscari"

	father=111360017
	mother=211360017

	7732.1.1 = {birth="7732.1.1"}
	7771.1.1 = {death="7771.1.1"}
}
117360017 = {
	name="Kraznys"	# not a lord
	dynasty=360017

	religion="harpy"
	culture="ghiscari"

	father=111360017
	mother=211360017

	7735.1.1 = {birth="7735.1.1"}
	7751.1.1 = {add_trait=trained_warrior}
	7787.1.1 = {death="7787.1.1"}
}
118360017 = {
	name="Grazdan"	# a lord
	dynasty=360017

	religion="harpy"
	culture="ghiscari"

	father=114360017
	mother=214360017

	7764.1.1 = {birth="7764.1.1"}
	7780.1.1 = {add_trait=poor_warrior}
	7782.1.1 = {add_spouse=218360017}
	7786.1.1 = {}
	7800.1.1 = {death="7800.1.1"}
}
218360017 = {
	name="Mezzella"
	female=yes

	religion="harpy"
	culture="ghiscari"

	7764.1.1 = {birth="7764.1.1"}
	7800.1.1 = {death="7800.1.1"}
}
119360017 = {
	name="Galazza"	# not a lord
	female=yes
	dynasty=360017

	religion="harpy"
	culture="ghiscari"

	father=114360017
	mother=214360017

	7765.1.1 = {birth="7765.1.1"}
	7777.1.1 = {death = {death_reason = death_murder}}
}
120360017 = {
	name="Ezzara"	# not a lord
	female=yes
	dynasty=360017

	religion="harpy"
	culture="ghiscari"

	father=114360017
	mother=214360017

	7768.1.1 = {birth="7768.1.1"}
	7808.1.1 = {death="7808.1.1"}
}
121360017 = {
	name="Jezhane"	# not a lord
	female=yes
	dynasty=360017

	religion="harpy"
	culture="ghiscari"

	father=114360017
	mother=214360017

	7770.1.1 = {birth="7770.1.1"}
	7820.1.1 = {death="7820.1.1"}
}
122360017 = {
	name="Paezdhar"	# a lord
	dynasty=360017

	religion="harpy"
	culture="ghiscari"

	father=118360017
	mother=218360017

	7785.1.1 = {birth="7785.1.1"}
	7800.1.1 = {}
	7801.1.1 = {add_trait=master_warrior}
	7803.1.1 = {add_spouse=222360017}
	7830.1.1 = {death="7830.1.1"}
}
222360017 = {
	name="Galazza"
	female=yes

	religion="harpy"
	culture="ghiscari"

	7785.1.1 = {birth="7785.1.1"}
	7830.1.1 = {death="7830.1.1"}
}
123360017 = {
	name="Prendahl"	# not a lord
	dynasty=360017

	religion="harpy"
	culture="ghiscari"

	father=118360017
	mother=218360017

	7786.1.1 = {birth="7786.1.1"}
	7789.1.1 = {death = {death_reason = death_accident}}
}
124360017 = {
	name="Qezza"	# not a lord
	female=yes
	dynasty=360017

	religion="harpy"
	culture="ghiscari"

	father=118360017
	mother=218360017

	7787.1.1 = {birth="7787.1.1"}
	7867.1.1 = {death="7867.1.1"}
}
125360017 = {
	name="Grazdan"	# not a lord
	dynasty=360017

	religion="harpy"
	culture="ghiscari"

	father=118360017
	mother=218360017

	7788.1.1 = {birth="7788.1.1"}
	7804.1.1 = {add_trait=skilled_warrior}
	7851.1.1 = {death="7851.1.1"}
}
126360017 = {
	name="Skahaz"	# not a lord
	dynasty=360017

	religion="harpy"
	culture="ghiscari"

	father=118360017
	mother=218360017

	7789.1.1 = {birth="7789.1.1"}
	7805.1.1 = {add_trait=skilled_warrior}
	7854.1.1 = {death="7854.1.1"}
}
127360017 = {
	name="Ezzea"	# not a lord
	female=yes
	dynasty=360017

	religion="harpy"
	culture="ghiscari"

	father=122360017
	mother=222360017

	7811.1.1 = {birth="7811.1.1"}
	7882.1.1 = {death="7882.1.1"}
}
128360017 = {
	name="Grazdhan"	# a lord
	dynasty=360017

	religion="harpy"
	culture="ghiscari"

	father=122360017
	mother=222360017

	7812.1.1 = {birth="7812.1.1"}
	7828.1.1 = {add_trait=poor_warrior}
	7830.1.1 = {
		add_spouse=228360017
		
	}
	7850.1.1 = {death="7850.1.1"}
}
228360017 = {
	name="Hazzea"
	female=yes

	religion="harpy"
	culture="ghiscari"

	7812.1.1 = {birth="7812.1.1"}
	7845.1.1 = {death="7845.1.1"}
}
129360017 = {
	name="Marghaz"	# not a lord
	dynasty=360017

	religion="harpy"
	culture="ghiscari"

	father=122360017
	mother=222360017

	7814.1.1 = {birth="7814.1.1"}
	7830.1.1 = {add_trait=skilled_warrior}
	7865.1.1 = {death="7865.1.1"}
}
130360017 = {
	name="Olezza"	# not a lord
	female=yes
	dynasty=360017

	religion="harpy"
	culture="ghiscari"

	father=128360017
	mother=228360017

	7831.1.1 = {birth="7831.1.1"}
	7882.1.1 = {death="7882.1.1"}
}
131360017 = {
	name="Tellezzara"	# not a lord
	female=yes
	dynasty=360017

	religion="harpy"
	culture="ghiscari"

	father=128360017
	mother=228360017

	7832.1.1 = {birth="7832.1.1"}
}
132360017 = {
	name="Skahaz"	# a lord
	dynasty=360017

	religion="harpy"
	culture="ghiscari"

	father=128360017
	mother=228360017

	7833.1.1 = {birth="7833.1.1"}
	7849.1.1 = {add_trait=poor_warrior}
	7850.1.1 = {}
	7851.1.1 = {add_spouse=232360017}
	7858.1.1 = {death="7858.1.1"}
}
232360017 = {
	name="Galazza"
	female=yes

	religion="harpy"
	culture="ghiscari"

	7833.1.1 = {birth="7833.1.1"}
	7858.1.1 = {death="7858.1.1"}
}
133360017 = {
	name="Jezhane"	# not a lord
	female=yes
	dynasty=360017

	religion="harpy"
	culture="ghiscari"

	father=128360017
	mother=228360017

	7835.1.1 = {birth="7835.1.1"}
}
134360017 = {
	name="Fellezzara"	# not a lord
	female=yes
	dynasty=360017

	religion="harpy"
	culture="ghiscari"

	father=128360017
	mother=228360017

	7836.1.1 = {birth="7836.1.1"}
	7879.1.1 = {death="7879.1.1"}
}
135360017 = {
	name="Sezqa"	# not a lord
	female=yes
	dynasty=360017

	religion="harpy"
	culture="ghiscari"

	father=132360017
	mother=232360017

	7853.1.1 = {birth="7853.1.1"}
	7895.1.1 = {death="7895.1.1"}
}
136360017 = {
	name="Hizdhar"	# a lord
	dynasty=360017

	religion="harpy"
	culture="ghiscari"

	father=128360017
	mother=228360017

	7835.1.1 = {birth="7835.1.1"}
	7851.1.1 = {add_trait=master_warrior}
	7853.1.1 = {add_spouse=236360017}
	7858.1.1 = {}
	7891.1.1 = {death="7891.1.1"}
}
236360017 = {
	name="Bellezza"
	female=yes

	religion="harpy"
	culture="ghiscari"

	7835.1.1 = {birth="7835.1.1"}
	7891.1.1 = {death="7891.1.1"}
}
137360017 = {
	name="Reznak"	# not a lord
	dynasty=360017

	religion="harpy"
	culture="ghiscari"

	father=132360017
	mother=232360017

	7856.1.1 = {birth="7856.1.1"}
	7872.1.1 = {add_trait=skilled_warrior}
}


###  The Clanker Lords
6571011 = {
	name="Maezon"  ## Canon
	dynasty = 360017 

	martial = 3
	diplomacy = 3
	intrigue = 7
	stewardship = 4
	learning = 5

	culture = ghiscari
	religion = harpy 

	father=136360017
	mother=236360017		
	
	add_trait="cruel"
	add_trait="proud"
	add_trait="deceitful"
	add_trait="ruthless"
	
	7854.1.1 = {
		birth="7854.1.1"
	}
	7891.1.1 = {}
}

6571012 = {
	name="Chezdhar"  ## Canon
	dynasty = 360017 

	martial = 3
	diplomacy = 3
	intrigue = 7
	stewardship = 4
	learning = 5

	culture = ghiscari
	religion = harpy 

	father=136360017
	mother=236360017		
	
	add_trait="cruel"
	add_trait="proud"
	add_trait="deceitful"
	add_trait="ruthless"
	
	7856.1.1 = {
		birth="7856.1.1"
	}
}

6571013 = {
	name="Grazdhan"  ## Canon
	dynasty = 360017 

	martial = 3
	diplomacy = 3
	intrigue = 7
	stewardship = 4
	learning = 5

	culture = ghiscari
	religion = harpy 

	father=136360017
	mother=236360017		
	
	add_trait="cruel"
	add_trait="proud"
	add_trait="deceitful"
	add_trait="ruthless"
	
	7858.1.1 = {
		birth="7858.1.1"
	}
}

