500.1.1={ 
	liege="k_lys"
	holding_dynasty = 55925 # Erosenes
}

7580.1.1 = { holder=150300540 } # Groleo (nc)
7625.1.1 = { holder=100300540 } # Allequo (nc)
7656.1.1 = { holder=101300540 } # Collio (nc)
7661.1.1 = { holder=107300540 } # Syrio (nc)
7698.1.1 = { holder=111300540 } # Khorane (nc)
7723.1.1 = { holder=113300540 } # Gylono (nC)
7765.1.1 = { holder=117300540 } # Joss (nc)
7808.1.1 = { holder=121300540 } # Tagganaro (nc)
7839.1.1 = { holder=124300540 } # Brusco (nc)
7854.1.1 = { holder=127300540 } # Ternesio (nc)
7859.1.1={ liege="d_lys" } #Ninepenny king
7859.12.31 = { liege="k_lys" } 
7870.1.1={
	holder=2003994 # Orbello
}



