1123.1.1={ 
	liege="c_meereen"
}
7595.1.1 = { holder=150360003 } # Hizdhar (nc)
7616.1.1 = { holder=100360003 } # Hizdhar (nc)
7647.1.1 = { holder=100360004 } # Grazdan (nc)
7653.1.1 = { holder=101360008 } # Gorhaz (nc)
7687.1.1 = { holder=103360004 } # Grazdan (nc)
7705.1.1 = { holder=104360007 } # Hizdhar (nc)
7712.1.1 = { holder=111360003 } # Hizdhar (nc)
7724.1.1 = { holder=112360004 } # Marghaz (nc)
7766.1.1 = { holder=118360003 } # Kraznys (nc)
7779.1.1 = { holder=120360003 } # Hizdhar (nc)
7812.1.1 = { holder=123360004 } # Paezhar (nc)
7829.1.1 = { holder=123360008 } # Mazdhak (nc)
7833.1.1 = { holder=119360007 } # Mazdhan (nc)
7838.1.1 = { holder=126360008 } # Marghaz (nc)
7849.1.1 = { holder=128360004 } # Gorzhak (nc)
7887.1.1={
	holder=16571013 # Hizdhar
}



