6600.1.1 = {
	liege = c_noyne
}
7555.1.1 = { holder=100300561 } # Gyloro (nc)
7603.1.1 = { holder=104300561 } # Myrmello (nc)
7630.1.1 = { holder=108300561 } # Meralyn (nc)
7660.1.1 = { holder=111300561 } # Syrio (nc)
7689.1.1 = { holder=113300561 } # Meralyn (nc)
7694.1.1 = { holder=114300561 } # Moredo (nc)
7730.1.1 = { holder=119300561 } # Lotho (nc)
7735.1.1 = { holder=123300561 } # Izembaro (nc)
7777.1.1 = { holder=124300561 } # Roggo (nc)
7800.1.1 = { holder=126300561 } # Ferrego (nc)
7825.1.1 = { holder=128300561 } # Izembaro (nc)
7843.1.1 = { holder=132300561 } # Pynto (nc)
7849.1.1 = { holder=133300561 } # Roggo (nc)
7868.1.1 = { holder=135300561 } # Tormo (nc)
7899.1.1 = { holder=138300561 } # Luco (nc)
