5600.1.1={
	liege="d_dreadfort"
	law = succ_primogeniture
}
7594.1.1={
	holder=24070 # Whitehill
}
7637.1.1={
	holder=23070
}
7665.1.1={
	holder=22070
}
7672.1.1={
	holder=21070
}
7722.1.1={
	holder=19070
}
7746.1.1={
	holder=18070
}
7777.1.1={
	holder=17070
}
7795.1.1={
	holder=16070
}
7801.1.1={
	holder=15070
}
7823.1.1={
	holder=14070
}
7854.1.1={
	holder=13070
}
7877.1.1={
	holder=70
}
