1523.1.1={
	liege = d_gelios
}

7595.1.1 = { holder=10006034 } # Maerys (nc)
7622.1.1 = { holder=10016034 } # Matarys (nc)
7665.1.1 = { holder=10056034 } # Maelys (nc)
7670.1.1 = { holder=10076034 } # Aemond (nc)
7698.1.1 = { holder=10086034 } # Rhaekar (nc)
7728.1.1 = { holder=10136034 } # Aerys (nc)
7764.1.1 = { holder=10146034 } # Aerion (nc)
7782.1.1 = { holder=10176034 } # Aemon (nc)
7824.1.1 = { holder=10226034 } # Daemon (nc)
7830.1.1 = { holder=10246034 } # Matarys (nc)
7852.1.1 = { holder=10276034 } # Aemond (nc)
7874.1.1 = { holder=10306034 } # Rhaekar (nc)
7917.1.1 = { holder=10336034 } # Rhaekar (nc)
