1523.1.1={
	liege = k_valyria
}

7595.1.1 = { holder=10006014 } # Haerys (nc)
7628.1.1 = { holder=10016014 } # Rhaegel (nc)
7646.1.1 = { holder=10056014 } # Aerys (nc)
7675.1.1 = { holder=10116014 } # Maerys (nc)
7713.1.1 = { holder=10156014 } # Rhaekar (nc)
7722.1.1 = { holder=10196014 } # Baelon (nc)
7735.1.1 = { holder=10226014 } # Gaemon (nc)
7766.1.1 = { holder=10236014 } # Qoherys (nc)
7769.1.1 = { holder=10276014 } # Viserys (nc)
7819.1.1 = { holder=10316014 } # Otherys (nc)
7825.1.1 = { holder=10346014 } # Baelon (nc)
7882.1.1 = { holder=10356014 } # Aegor (nc)
7912.1.1 = { holder=10406014 } # Haerys (nc)
7929.1.1 = { holder=10436014 } # Rhaegel (nc)

