1.1.1 = { liege="e_stormlands" }

7594.1.1 = { holder=300328 } # Colen Kellington Kellington (nc)
7608.1.1 = { holder=301328 } # Cortney Kellington (nc)
7622.1.1 = { holder=302328 } # Criston Kellington (nc)
7663.1.1 = { holder=303328 } # Quentyn Kellington (nc)
7698.1.1 = { holder=305328 } # Casper Kellington (nc)
7737.1.1 = { holder=306328 } # Klifford Kellington (nc)
7781.1.1 = { holder=308328 } # Cortney Kellington (nc)
7804.1.1 = { holder=311328 } # Kressen Kellington (nc)
7841.1.1 = { holder=312328 } # Quellon Kellington (nc)
7859.1.1 = { holder=314328 } # Colen Kellington (nc)
7883.1.1 = { holder=315328 } # Kerric Kellington (nc)

