5600.1.1={
	liege="e_north"
	law = succ_primogeniture
}
7570.1.1 = { holder=6000350 } # Beren (nc) Ironsmith
7604.1.1 = { holder=6001350 } # Harlon (nc)
7638.1.1 = { holder=6008350 } # Emmett (nc)
7668.1.1 = { holder=6009350 } # Robett (nc)
7693.1.1 = { holder=6011350 } # Walton (nc)
7699.1.1 = { holder=6013350 } # Jonnel (nc)
7701.1.1 = { holder=6014350 } # Gariss (nc)
7751.1.1 = { holder=6017350 } # Duren (nc)
7768.1.1 = { holder=6021350 } # Edric (nc)
7800.1.1 = { holder=6025350 } # Beren (nc)
7816.1.1 = { holder=6027350 } # Wyman (nc)
7847.1.1 = { holder=6030350 } # Wynton (nc)
7868.1.1 = { holder=6031350 } # Yoren (nc)
7952.1.1 = { holder=6036350 } # Beron (nc)