7278.1.1 = {
	liege="k_blackmontTK"
	law = succ_primogeniture
	law = true_cognatic_succession
	
	holder = 150018 #Benedict
}
7305.1.1 = { #Conqeuered by Martells
	liege="e_dorne"
	holder = 0
}
7531.1.1 = { holder = 152018 }
7552.1.1 = { holder = 153018 }
7594.1.1 = { holder=60018 } # Timeon (nc)
7619.1.1 = { holder=60218 } # Frynne (nc)
7643.1.1 = { holder=60818 } # Castos (nc)
7698.1.1 = { holder=61018 } # Willam (nc)
7727.1.1 = { holder=61318 } # Tremond (nc)
7728.1.1 = { holder=61618 } # Archibald (nc)
7729.1.1 = { holder=61418 } # Perros (nc)



7776.1.1 = { holder=62218 } # Allar (nc)


7813.6.19 = { holder=62718 } # Garin (nc)

7814.4.8 = { law = true_cognatic_succession }
	
7837.1.1 = { holder=62818 } # Emberlei (nc)

