#NOTE: The holder of this title has the House Cerwyn dynasty tracker set in roberts_rebellion_events
500.1.1={
	liege="d_winterfell"
	law = succ_primogeniture
}
7558.1.1={
	holder=18061
}
7604.1.1={
	holder=17061
}
7651.1.1={
	holder=13061
}
7669.1.1={
	holder=12061
}
7698.1.1={
	holder=11061
}
7708.1.1={
	holder=10061
}
7733.1.1={
	holder=9061
}
7749.1.1={
	holder=8061
}
7758.8.1 = {
	holder=21061
}
7772.1.1={
	holder=7061
}
7784.9.9 = {
	holder=6061
}
7832.1.1={
	holder=5061
}
7858.1.1={
	holder=4061
}
7882.1.1={
	holder=61
}
7899.3.1 = {
	holder=1061
}
7899.6.29 = {
	holder=2061
}
