5600.1.1={
	liege="d_oldstones"
}
# House Mallister
7422.1.1 = { holder=550128 } # Petyr (C)
7443.1.1 = { holder=551128 } # Zachery (nc)
7484.1.1 = { holder=552128 } # Jonthor (nc)
7517.1.1 = { holder=553128 } # Bennifer (nc)
7546.1.1 = { holder=554128 } # Petyr (nc)
7568.1.1 = { holder=555128 } # Walder (nc)

7586.1.1 = {
	holder=17128 
}
7622.1.1={
	holder=15128
}
7648.1.1={
	holder=14128
}
7680.1.1={
	holder=13128
}
7698.1.1={
	holder=12128
}
7708.1.1={
	holder=11128
}
7740.1.1={
	holder=10128
}
7765.1.1={
	holder=9128
}
7780.1.1={
	holder=8128
}
7817.1.1={
	holder=18128
}
7839.1.1={
	holder=5128
}
7858.1.1={
	holder=4128
}
7872.1.1={
	holder=128
}
