5600.1.1={
	liege="d_flintsfinger"
	law = succ_primogeniture
}
7595.1.1={
	holder = 12076
}
7612.1.1={
	holder = 11076
}
7634.1.1={
	holder = 10076
}
7681.1.1={
	holder = 9076
}
7691.1.1={
	holder = 8076
}
7711.1.1={
	holder = 7076
}
7743.1.1={
	holder = 6076
}
7784.1.1={
	holder = 4076
}
7824.1.1={
	holder = 3076
}
7862.1.1={
	holder = 4500091
}
