5600.1.1={
	liege="d_runestone"
	law = succ_primogeniture
}
7593.1.1 = { holder=3000169 } # Florian (nc)
7623.1.1 = { holder=3002169 } # Albar (nc)
7632.1.1 = { holder=3006169 } # Elbert (nc)
7670.1.1 = { holder=3010169 } # Wyl (nc)
7676.1.1 = { holder=3016169 } # Bryen (nc)
7704.1.1 = { holder=3018169 } # Banor (SC)
7770.1.1 = { holder=3026169 } # Eustace (nc)
7801.1.1 = { holder=3030169 } # Rolley (nc)
7822.1.1 = { holder=3032169 } # Gilwood (nc)
7847.1.1 = { holder=3036169 } # Royce (nc)

7873.1.1={
	holder=94040
}
