500.1.1={
	liege="d_winterfell"
	law = succ_primogeniture
}
7594.1.1={
	holder=16086
}
7607.1.1={
	holder=15086
}
7652.1.1={
	holder=14086
}
7665.1.1={
	holder=13086
}
7698.1.1={
	holder=12086
}
7709.1.1={
	holder=11086
}
7752.1.1={
	holder=10086
}
7781.1.1={
	holder=8086
}
7820.1.1={
	holder=7086
}
7861.1.1={
	holder=6086
}
7871.1.1={
	holder=1086
}
7881.1.1={
	holder=86
}
