1123.1.1={
	liege="k_qohor"
}

7595.1.1 = { holder=100069128 } # Collio (nc)
7632.1.1 = { holder=100269128 } # Mero (nc)
7649.1.1 = { holder=100469128 } # Denyo (nc)
7667.1.1 = { holder=100969128 } # Byan (nc)
7683.1.1 = { holder=101069128 } # Tycho (nc)
7707.1.1 = { holder=101169128 } # Ternesio (nc)
7739.1.1 = { holder=101469128 } # Tagganaro (nc)
7768.1.1 = { holder=101769128 } # Tregar (nc)
7809.1.1 = { holder=102169128 } # Yorko (nc)
7816.1.1 = { holder=102269128 } # Ternesio (nc)
7832.1.1 = { holder=102369128 } # Moreo (nc)
7870.1.1 = { holder=102569128 } # Tycho (nc)
7880.1.1 = { holder=102869128 } # Mero (nc)
