5600.1.1={
	liege="d_the_giants_lance"
}
7488.1.1={holder=60300157} # Jon Moore
7511.1.1={holder=60400157} # Ronnel Moore
7512.1.1={holder=60200157} # Kaven Moore
7550.1.1={holder=60100157} # Maron Moore
7589.1.1={holder=60000157} # Tomas Moore
7609.1.1={holder=195157} # Calon Moore
7629.1.1={
	holder=195057
}
7651.1.1={
	holder=194957
}
7672.1.1={
	holder=194857
}
7690.1.1={
	holder=194757
}
7731.1.1={
	holder=194657
}
7770.1.1={
	holder=194457
}
7796.5.5={
	holder=394357
}
7831.1.1={
	holder=194257
}
7849.1.1={
	holder=194157
}
7871.1.1={
	holder=194057
}
