5600.1.1={
	liege="e_north"
	law = succ_primogeniture
}
7593.1.1={
	holder=16106
}
7611.1.1={
	holder=15106
}
7629.1.1={
	holder=14106
}
7651.1.1={
	holder=13106
}
7677.1.1={
	holder=12106
}
7695.1.1={
	holder=11106
}
7701.1.1={
	holder=10106
}
7745.1.1={
	holder=9106
}
7750.1.1={
	holder=8106
}
7794.1.1={
	holder=7106
}
7803.1.1={
	holder=6106
}
7823.1.1={
	holder=5106
}
7830.1.1={
	holder=4106
}
7872.1.5={
	holder=106
}
