1523.1.1={
	liege = k_valyria
}

7595.1.1 = { holder=10006010 } # Aelix (nc)
7625.1.1 = { holder=10016010 } # Maerys (nc)
7626.1.1 = { holder=10066010 } # Maerys (nc)
7663.1.1 = { holder=10096010 } # Baelon (nc)
7710.1.1 = { holder=10146010 } # Maekar (nc)
7740.1.1 = { holder=10156010 } # Qoherys (nc)
7741.1.1 = { holder=10196010 } # Maekar (nc)
7744.1.1 = { holder=10206010 } # Haerys (nc)
7785.1.1 = { holder=10216010 } # Daeron (nc)
7812.1.1 = { holder=10236010 } # Gaemon (nc)
7855.1.1 = { holder=10256010 } # Aemond (nc)
7879.1.1 = { holder=10266010 } # Haegon (nc)
7884.1.1 = { holder=10306010 } # Orys (nc)
7890.1.1 = { holder=10316010 } # Maerys (nc)
7943.1.1 = { holder=10356010 } # Viserys (nc)

