7555.1.1 = { 
	holder=100607302 
	liege = d_north_plains
} # Jawak (nc)
7601.1.1 = { holder=101607302 } # Faqar (nc)
7630.1.1 = { holder=105607302 } # Kahkazan (nc)
7646.1.1 = { holder=110607302 } # Zeba (nc)
7659.1.1 = { holder=113607302 } # Basir (nc)
7703.1.1 = { holder=114607302 } # Jaan (nc)
7747.1.1 = { holder=115607302 } # Yasen (nc)
7763.1.1 = { holder=116607302 } # Sabeir (nc)
7772.1.1 = { holder=118607302 } # Ramazan (nc)
7791.1.1 = { holder=120607302 } # Tamim (nc)
7817.1.1 = { holder=125607302 } # Obiad (nc)
7821.1.1 = { holder=128607302 } # Zabi (nc)
7858.1.1 = { holder=129607302 } # Wahida (nc)
7874.1.1 = { holder=130607302 } # Rasoul (nc)

