7200.1.1={
	liege="e_reach"
	law = succ_primogeniture
}
7561.1.1 = { holder=6000024 } # Duncan (nc)

7612.1.1 = { holder=6000924 } # Justin (nc)
7655.1.1 = { holder=6001324 } # Bennard (nc)
7678.1.1 = { holder=6001524 } # Jacelyn (nc)
7726.1.1 = { holder=6002124 } # Gilbert (nc)
7734.1.1 = { holder=6002424 } # Malliard (nc)
7759.1.1 = { holder=6002624 } # Symon (nc)
7803.1.1 = { holder=6002724 } # Qarlton (nc)
7829.1.1 = { holder=6002824 } # Dobber (nc)
7839.1.1 = { holder = 77111 }	#Josmyn Farring
7870.1.1 = { holder = 24 }		#Gilbert Farring
7899.1.4 = { liege=0 }
