#NOTE: The holder of this title has the House Cafferen dynasty tracker set in roberts_rebellion_events
6600.1.1={ liege="d_summerhall" }

7585.1.1 = { holder = 300310 } # Steffon Cafferen(nc)
7600.2.15={ holder = 301310 } # Eldon Cafferen (nc)
7612.8.1 = { holder = 303310 } # Gowen Cafferen (nc)
7661.1.1 = { holder = 304310 } # Bryen Cafferen (nc)
7728.1.1 = { holder = 306310 } # Robert Cafferen (nc)
7729.1.1 = { holder = 307310 } # Harben Cafferen (nc)
7760.1.1 = { holder = 308310 } # Steffon Cafferen (nc)
7770.1.1 = { holder = 309310 } # Aemon Cafferen (nc)
7800.1.1 = { holder = 310310 } # Lester Cafferen (nc)
7808.1.1 = { holder = 311310 } # Steffen Cafferen (nc)
7836.1.1 = { holder = 312310 } # Harben Cafferen (nc)
7874.1.1 = { holder = 310 } # Bryen Cafferen (C)
7883.1.1={ 
	holder = 100310  # Barth Cafferen (nc)
}
