200.1.1={
	liege="d_linqi"
}
7595.1.1 = { holder=10069198 } # Mukhtar (nc)
7635.1.1 = { holder=10269198 } # Rafiqa (nc)
7639.1.1 = { holder=10469198 } # Fadil (nc)
7658.1.1 = { holder=10569198 } # Zeyd (nc)
7678.1.1 = { holder=10769198 } # Wahab (nc)
7712.1.1 = { holder=10869198 } # Youkhanna (nc)
7734.1.1 = { holder=10969198 } # Najib (nc)
7753.1.1 = { holder=11169198 } # Sadiq (nc)
7774.1.1 = { holder=11469198 } # Mahdi (nc)
7801.1.1 = { holder=11669198 } # Qawurd (nc)
7849.1.1 = { holder=11969198 } # Najib (nc)
7864.1.1 = { holder=12169198 } # Khalil (nc)


