1523.1.1={
	liege = d_gelios
}

7595.1.1 = { holder=10006050 } # Qoherys (nc)
7628.1.1 = { holder=10016050 } # Daegar (nc)
7656.1.1 = { holder=10026050 } # Valarr (nc)
7666.1.1 = { holder=10066050 } # Daemon (nc)
7686.1.1 = { holder=10086050 } # Maegon (nc)
7718.1.1 = { holder=10096050 } # Maegon (nc)
7768.1.1 = { holder=10126050 } # Jaehaerys (nc)
7771.1.1 = { holder=10166050 } # Rhaegar (nc)
7807.1.1 = { holder=10186050 } # Maekar (nc)
7822.1.1 = { holder=10216050 } # Valarr (nc)
7855.1.1 = { holder=10246050 } # Baelor (nc)
7887.1.1 = { holder=10256050 } # Viserys (nc)
7931.1.1 = { holder=10286050 } # Aenys (nc)

