6600.1.1 = {
	liege = d_norvos
}
7569.1.1 = { holder=100300562 } # Cossomo (nc)
7610.1.1 = { holder=101300562 } # Ordello (nc)
7623.1.1 = { holder=103300562 } # Beqqo (nc)
7639.1.1 = { holder=106300562 } # Areo (nc)
7662.1.1 = { holder=107300562 } # Narbo (nc)
7691.1.1 = { holder=110300562 } # Allaquo (nc)
7697.1.1 = { holder=112300562 } # Syrio (nc)
7706.1.1 = { holder=113300562 } # Collio (nc)
7726.1.1 = { holder=117300562 } # Cossomo (nc)
7746.1.1 = { holder=118300562 } # Daario (nc)
7787.1.1 = { holder=120300562 } # Luco (nc)
7788.1.1 = { holder=123300562 } # Yorko (nc)
7794.1.1 = { holder=126300562 } # Illyrio (nc)
7835.1.1 = { holder=128300562 } # Illyrio (nc)
7851.1.1 = { holder=129300562 } # Myrmello (nc)
7868.1.1 = { holder=133300562 } # Moreo (nc)
7881.1.1 = { holder=137300562 } # Byan (nc)
