1123.1.1={
	liege="k_qohor"
}
7571.1.1 = { holder=100300564 } # Meralyn (nc)
7608.1.1 = { holder=101300564 } # Tagganaro (nc)
7646.1.1 = { holder=104300564 } # Joss (nc)
7659.1.1 = { holder=105300564 } # Collio (nc)
7682.1.1 = { holder=108300564 } # Tagganaro (nc)
7704.1.1 = { holder=111300564 } # Cossomo (nc)
7711.1.1 = { holder=112300564 } # Tycho (nc)
7726.1.1 = { holder=116300564 } # Tycho (nc)
7757.1.1 = { holder=120300564 } # Byan (nc)
7804.1.1 = { holder=123300564 } # Terro (nc)
7817.1.1 = { holder=126300564 } # Byan (nc)
7858.1.1 = { holder=131300564 } # Illyrio (nc)
7862.1.1 = { holder=133300564 } # Tagganaro (nc)
7894.1.1 = { holder=134300564 } # Groleo (nc)
