
7562.1.1 = { holder=10559257 } # Fox (nc)
7609.1.1 = { holder=11559257 } # Lion (nc)
7615.1.1 = { holder=15559257 } # Direwolf (nc)
7631.1.1 = { holder=17559257 } # Lion (nc)
7666.1.1 = { holder=19559257 } # Cat (nc)
7689.1.1 = { holder=20559257 } # Eagle (nc)
7714.1.1 = { holder=22559257 } # Snowbear (nc)
7737.1.1 = { holder=24559257 } # Anteater (nc)
7739.1.1 = { holder=27559257 } # Mammoth (nc)
7774.1.1 = { holder=26559257 } # Giant (nc)
7806.1.1 = { holder=30559257 } # Seal (nc)
7813.1.1={
	liege="k_beyond_wall"
}
7820.1.1 = { holder=35559257 } # Elk (nc)
7826.9.9={
	liege="0"
}
7845.1.1 = { holder=37559257 } # Bear (nc)
7861.1.1 = { holder=38559257 } # Donkey (nc)
7889.1.1 = { holder=40559257 } # Beetle (nc)
7871.1.1 = { holder=41559257 } # Deer (nc)
#7890.1.1 = { holder=40559257 } # Unicorn (nc)

7882.1.1={
	holder=157002
}
7898.1.1={
	liege="k_beyond_wall"
	holder=157002
}
7900.1.1={
	holder=999000666
}
