5000.1.1={
	liege="d_kasath"
	law = succ_primogeniture
}
7595.1.1 = { holder=10056815 } # Nitish (nc)
7626.1.1 = { holder=10156815 } # Paarth (nc)
7646.1.1 = { holder=10456815 } # Onkar (nc)
7686.1.1 = { holder=10756815 } # Kushal (nc)
7712.1.1 = { holder=11056815 } # Chitresh (nc)
7753.1.1 = { holder=11456815 } # Atharvan (nc)
7773.1.1 = { holder=11756815 } # Mukesh (nc)
7791.1.1 = { holder=11856815 } # Ganesh (nc)
7812.1.1 = { holder=12056815 } # Tarakesh (nc)
7849.1.1 = { holder=12556815 } # Dinesh (nc)
7876.1.1 = { holder=12956815 } # Shyam (nc)
