5600.1.1={
	liege="d_karhold"
	law = succ_primogeniture
}
7170.1.1 = { holder=100059 } # Karlon (C)
7203.1.1 = { holder=100359 } # Brandon (nc)
7205.1.1 = { holder=100459 } # Jonnel (nc)
7206.1.1 = { holder=100559 } # Theon (nc)
7218.1.1 = { holder=100959 } # Karlon (nc)
7243.1.1 = { holder=114059 } # Eddard (nc) # Dynasty change/cadet start here.
7289.1.1 = { 
	holder=114189 # Donnel (nc)
	effect = {
		holder_scope = {
			set_dynasty_flag = is_cadet_house
			c_114059 = { #karstark father
				set_dynasty_flag = has_cadet_house
				set_dynasty_flag = owned_cadet_house_@PREV 
				ROOT = { holder_scope = { set_dynasty_flag = cadet_house_@PREVPREV } }
			}
		}
	}
} 
7293.1.1 = { holder=114389 } # Heward (nc)
7325.1.1 = { holder=114489 } # Karlon (nc)
7334.1.1 = { holder=114889 } # Cregan (nc)
7375.1.1 = { holder=114989 } # Brandon (nc)
7397.1.1 = { holder=115089 } # Eyron (nc)
7409.1.1 = { holder=115389 } # Rodrik (nc)
7410.1.1 = { holder=115689 } # Damon (nc)
7467.1.1 = { holder=115789 } # Mikken (nc)
7468.1.1 = { holder=115889 } # Larence (nc)
7506.1.1 = { holder=115989 } # Edwyle (nc)
7532.1.1 = { holder=116189 } # Beron (nc)
7562.1.1 = { holder=116389 } # Ethan (nc)
7593.1.1={
	holder=17089
}
7609.1.1={
	holder=16089
}
7655.1.1={
	holder=15089
}
7699.1.1={
	holder=13089
}
7724.1.1={
	holder=12089
}
7757.1.1={
	holder=11089
}
7784.9.9 = {
	holder=10089
}
7795.1.1={
	holder=9089
}
7811.1.1={
	holder=8089
}
7842.1.1={
	holder=7089
}
7857.1.1={
	holder=89
}
7899.8.1 = {
	holder=2089
}
