5600.1.1= {
liege="d_lasthearth"
law = succ_primogeniture
}
7594.1.1 = {
	holder=13094
}
7642.1.1 = {
	holder=12094
}
7657.1.1 = {
	holder=11094
}
7666.1.1 = {
	holder=10094
}
7712.1.1 = {
	holder=9094
}
7742.1.1 = {
	holder=8094
}
7756.1.1 = {
	holder=7094
}
7777.1.1 = {
	holder=6094
}
7784.9.10 = {
	holder=5094
}
7829.1.1 = {
	holder=4094
}
7839.1.1 = {
	holder=3094
}
7862.1.5 = {
	holder=94
}


