200.1.1={
	liege="d_qarth"
}
7572.1.1 = { holder=10035003 } # Nyessos (nc)
7612.1.1 = { holder=10135003 } # Gorys (nc)
7625.1.1 = { holder=10235003 } # Regon (nc)
7638.1.1 = { holder=10535003 } # Mathos (nc)
7671.1.1 = { holder=11035003 } # Belicho (nc)
7684.1.1 = { holder=11235003 } # Wullon (nc)
7720.1.1 = { holder=11735003 } # Mathos (nc)
7740.1.1 = { holder=12035003 } # Nyessos (nc)
7769.1.1 = { holder=12335003 } # Sybassion (nc)
7793.1.1 = { holder=12735003 } # Methyso (nc)
7838.1.1 = { holder=12935003 } # Urrathon (nc)
7850.1.1 = { holder=13035003 } # Surindos (nc)
7895.1.1 = { holder=13335003 } # Wendello (nc)
