200.1.1={
	liege="d_xin"
}
7595.1.1 = { holder=10069106 } # Uways (nc)
7625.1.1 = { holder=10169106 } # Isa (nc)
7661.1.1 = { holder=10569106 } # Ghalib (nc)
7671.1.1 = { holder=10769106 } # Fadil (nc)
7718.1.1 = { holder=11069106 } # Abdullah (nc)
7756.1.1 = { holder=11469106 } # Khaireddin (nc)
7783.1.1 = { holder=11769106 } # Mukhtar (nc)
7785.1.1 = { holder=12169106 } # Alim (nc)
7830.1.1 = { holder=12469106 } # Idris (nc)
7875.1.1 = { holder=12669106 } # Ali_Ali (nc)
7894.1.1 = { holder=12769106 } # Sholah (nc)



