1123.1.1={
	liege = d_port_of_sighs
}

7595.1.1 = { holder=10000350 } # Maegor (nc)
7624.1.1 = { holder=10020350 } # Rhaekar (nc)
7678.1.1 = { holder=10060350 } # Rhaekar (nc)
7705.1.1 = { holder=10120350 } # Rhaekar (nc)
7707.1.1 = { holder=10140350 } # Aelix (nc)
7762.1.1 = { holder=10170350 } # Maekar (nc)
7764.1.1 = { holder=10200350 } # Valarr (nc)
7776.1.1 = { holder=10230350 } # Qoherys (nc)
7801.1.1 = { holder=10280350 } # Rhaegar (nc)
7846.1.1 = { holder=10300350 } # Matarys (nc)
7869.1.1 = { holder=10340350 } # Aemond (nc)
7937.1.1 = { holder=10370350 } # Aenys (nc)

