7595.1.1 = { 
	liege = d_rhaesh_jim
	holder=100600202 # Jhaquo (nc)
} 
7614.1.1 = { holder=102600202 } # Jhaquo (nc)
7655.1.1 = { holder=104600202 } # Qotho (nc)
7673.1.1 = { holder=107600202 } # Mago (nc)
7702.1.1 = { holder=111600202 } # Bharbo (nc)
7704.1.1 = { holder=114600202 } # Bharbo (nc)
7740.1.1 = { holder=117600202 } # Fogo (nc)
7744.1.1 = { holder=118600202 } # Qotho (nc)
7780.1.1 = { holder=119600202 } # Aggo (nc)
7793.1.1 = { holder=120600202 } # Bharbo (nc)
7802.1.1 = { holder=122600202 } # Temmo (nc)
7843.1.1 = { holder=127600202 } # Drogo (nc)
7860.1.1 = { holder=130600202 } # Zollo (nc)
