#House Rotumu
7590.1.1 = { 
	holder=100304029 
	liege=d_red_flower_vale
	law = succ_seniority
	law = cognatic_succession
} # Isodo (nc)
7635.1.1 = { holder=102304029 } # Gwalahuru (nc)
7661.1.1 = { holder=108304029 } # Ratemo (nc)
7693.1.1 = { holder=109304029 } # Kwasya (nc)
7725.1.1 = { holder=111304029 } # Sango (nc)
7727.1.1 = { holder=112304029 } # Jaramogo (nc)
7767.1.1 = { holder=115304029 } # Konde (nc)
7810.1.1 = { holder=116304029 } # Jiradhar (nc)
7819.1.1 = { holder=119304029 } # Abrafo (nc)
7876.1.1 = { holder=126304029 } # Chibundo (nc)
7884.1.1 = { 
	holder=125304000 # Jalabhar Xho
} 
7889.6.1 = { 
	holder=134304029 # Dubaku the Bastard
} 
