500.1.1={ law=succ_primogeniture law=cognatic_succession
	liege="d_goldengrove"
}
7594.1.1 = { holder=6100246 } # Raymon (nc)
7598.6.6 = { holder=6101246 } # Humfrey (nc)
7671.1.1 = { holder=6005246 } # Horas (nc)
7684.1.1 = { holder=6006246 } # Runceford (nc)
7730.1.1 = { holder=6009246 } # Gauter (nc)
7743.1.1 = { holder=6012246 } # Garse (nc)
7771.1.1 = { holder=6014246 } # Petyr (nc)
7794.1.1 = { holder=6017246 } # Omer (nc)
7805.1.1 = { holder=6018246 } # Androw (nc)

7851.1.1={
	holder=246
}






