5600.1.1={
	liege="e_north"
	law = succ_primogeniture
}
7590.1.1={
	holder=24065
}
7627.1.1={
	holder=23065
}
7641.1.1={
	holder=22065
}
7667.1.1={
	holder=21065
}
7692.1.1={
	holder=20065
}
7700.1.1={
	holder=19065
}
7734.1.1={
	holder=18065
}
7780.1.1={
	holder=17065
}
7796.1.1={
	holder=16065
}
7806.1.1={
	holder=15065
}
7846.1.1={
	holder=14065
}
7860.1.1={
	holder=13065
}
7880.1.1={
	holder=65
}
