5600.1.1={
	liege="d_acornsridge"
	law = succ_primogeniture
}
7575.1.1 = { holder=100178454 } # Hibald (nc)
7613.1.1 = { holder=101178454 } # Raymond (nc)
7631.1.1 = { holder=106178454 } # Theomar (nc)
7658.1.1 = { holder=107178454 } # Jonothor (nc)
7675.1.1 = { holder=112178454 } # Willamen (nc)
7703.1.1 = { holder=113178454 } # Leslyn (nc)
7711.1.1 = { holder=114178454 }
7723.1.1 = { holder=118178454 } # Garibald (C)
7787.1.1 = { holder=121178454 } # Robert (nc)
7824.1.1 = { holder=126178454 } # Tristan (nc)
7852.1.1 = { holder=138178454 } # Benfrey (nc)
7875.1.1 = { holder=140178454 } # Wilbert (C)
7898.12.1 = { holder=142178454 } # Dennett (nc)
