3600.1.1={
	liege="d_redmountains"
	law=succ_primogeniture
	law = true_cognatic_succession
}
4351.1.1 = {
	holder = 150016 #Samwell
}
4398.1.1 = {
	holder = 0
}
6881.1.1 = {
	holder = 152016 #Vorian
}
6905.1.1 = {
	holder = 153016 #Trystane
}
6955.1.1 = {
	holder = 155016 #Maron
}
6978.1.1 = { holder = 0 }

7535.1.1 = { holder=60016 } # Arthur (nc)
7577.1.1 = { holder=24017 } # Gerold (nc)

7601.2.5= {
holder=23017
}
7654.1.1= {
holder=22017
}
7676.1.1= {
holder=21017
}
7698.1.1= {
holder=20017
}
7712.1.1= {
holder=18017
}
7732.1.1= {
holder=17017
}
7758.8.4= {
holder=15017
}
7759.3.5= {
holder=13017
}
7804.1.1= {
holder=12017
}
7831.1.1= {
holder=11017
}
7865.1.1= {
holder=1017
}
7872.1.1= {
holder=1016
}
7884.1.1= {
holder=6016
}
7896.1.1= {
holder=9016
}
