1523.1.1={
	liege = d_gelios
}

7595.1.1 = { holder=10006032 } # Aelix (nc)
7626.1.1 = { holder=10016032 } # Baelon (nc)
7652.1.1 = { holder=10036032 } # Aerion (nc)
7662.1.1 = { holder=10096032 } # Rhaegel (nc)
7711.1.1 = { holder=10116032 } # Maerys (nc)
7723.1.1 = { holder=10126032 } # Aenys (nc)
7751.1.1 = { holder=10156032 } # Aenar (nc)
7790.1.1 = { holder=10196032 } # Daeron (nc)
7837.1.1 = { holder=10236032 } # Baelor (nc)
7860.1.1 = { holder=10276032 } # Vaekar (nc)
7889.1.1 = { holder=10296032 } # Daegar (nc)
7904.1.1 = { holder=10316032 } # Daegar (nc)
7914.1.1 = { holder=10326032 } # Gaemon (nc)

