1523.1.1 = { 
	law=succ_primogeniture 
	law=cognatic_succession
	liege = d_painted_mountains
} 
7595.1.1 = { holder=10002906 } # Matarys (nc)
7628.1.1 = { holder=10032906 } # Doniphos (nc)
7645.1.1 = { holder=10062906 } # Qoherys (nc)
7688.1.1 = { holder=10102906 } # Alios (nc)
7706.1.1 = { holder=10132906 } # Gorys (nc)
7733.1.1 = { holder=10152906 } # Nyessos (nc)
7764.1.1 = { holder=10202906 } # Malaquo (nc)
7789.1.1 = { holder=10222906 } # Daegar (nc)
7824.1.1 = { holder=10262906 } # Qoherys (nc)
7829.1.1 = { holder=10292906 } # Orys (nc)
7890.1.1 = { holder=10352906 } # Methyso (nc)
7898.1.1 = { holder=10362906 } # Colloquo (nc)

