200.1.1={
	liege="d_vahar"
}
7596.1.1 = { holder=1055939 } # Is'mail (nc)
7610.1.1 = { holder=1155939 } # Jibril (nc)
7640.1.1 = { holder=1355939 } # Isa (nc)
7648.1.1 = { holder=1855939 } # Aghlab (nc)
7679.1.1 = { holder=2355939 } # Burhanaddin (nc)
7728.1.1 = { holder=2655939 } # Ramadan (nc)
7732.1.1 = { holder=2955939 } # Abdullah (nc)
7787.1.1 = { holder=3155939 } # Aram (nc)
7809.1.1 = { holder=3355939 } # Mubarak (nc)
7823.1.1 = { holder=3555939 } # Jabir (nc)
7850.1.1 = { holder=3855939 } # Abdullah (nc)
7870.1.1 = { holder=51055939 } # Shaiban (nc)
7895.1.1 = { holder=52055939 } # Sadiq (nc)

