1523.1.1 = { 
	law=succ_primogeniture 
	law=cognatic_succession
	liege = d_painted_mountains
}
7595.1.1 = { holder=100062901 } # Colloquo (nc)
7632.1.1 = { holder=100262901 } # Aelix (nc)
7635.1.1 = { holder=100462901 } # Moqorro (nc)
7694.1.1 = { holder=100962901 } # Vaekar (nc)
7711.1.1 = { holder=101362901 } # Jaekar (nc)
7732.1.1 = { holder=101562901 } # Alios (nc)
7756.1.1 = { holder=101962901 } # Nyessos (nc)
7775.1.1 = { holder=102062901 } # Methyso (nc)
7776.1.1 = { holder=102262901 } # Jaekar (nc)
7844.1.1 = { holder=102362901 } # Belicho (nc)
7852.1.1 = { holder=102662901 } # Nyessos (nc)
7875.1.1 = { holder=102962901 } # Vaekar (nc)

