1123.1.1={
	liege="k_pentos"
}

7595.1.1 = { holder=100300014 } # Roro (nc)
7634.1.1 = { holder=101300014 } # Luco (nc)
7637.1.1 = { holder=103300014 } # Denyo (nc)
7642.1.1 = { holder=104300014 } # Ezzelyno (nc)
7679.1.1 = { holder=106300014 } # Tycho (nc)
7709.1.1 = { holder=112300014 } # Ezzelyno (nc)
7749.1.1 = { holder=114300014 } # Gyloro (nc)
7763.1.1 = { holder=118300014 } # Denyo (nc)
7781.1.1 = { holder=120300014 } # Ordello (nc)
7790.1.1 = { holder=124300014 } # Illyrio (nc)
7832.1.1 = { holder=125300014 } # Luco (nc)
7855.1.1 = { holder=129300014 } # Lotho (nc)
7895.1.1 = { holder=133300014 } # Byan (nc)
