200.1.1={
	liege="d_tiqui"
}
7595.1.1 = { holder=10069112 } # Qawurd (nc)
7626.1.1 = { holder=10169112 } # Zeyd (nc)
7660.1.1 = { holder=10369112 } # Mahdi (nc)
7684.1.1 = { holder=10769112 } # Bahir (nc)
7708.1.1 = { holder=10969112 } # Idris (nc)
7734.1.1 = { holder=11169112 } # Halil (nc)
7771.1.1 = { holder=11569112 } # Is'mail (nc)
7787.1.1 = { holder=11769112 } # Aghlab (nc)
7806.1.1 = { holder=12069112 } # Aghlab (nc)
7809.1.1 = { holder=12369112 } # Akin (nc)
7851.1.1 = { holder=12669112 } # Muslihiddin (nc)
7876.1.1 = { holder=13069112 } # Jabir (nc)



