5600.1.1={
	liege="d_willowwood"
	law = succ_primogeniture
}
7579.1.1={
	holder=25152
}
7603.1.1={
	holder=24152
}
7629.1.1={
	holder=23152
}
7660.1.1={
	holder=21152
}
7694.1.1={
	holder=20152 # Androw Ryger
}
7721.1.1={
	holder=5500152 # Roger Ryger
}
7731.2.7={
	holder=17152 # Terin Ryger
}
7786.1.1={
	holder=16152
}
7816.1.1={
	holder=14152
}
7841.1.1={
	holder=13152
}
7874.1.1={
	holder=152
}
