501.1.1={
	liege="k_lorath"
}

7595.1.1 = { holder=100069139 } # Noho (nc)
7628.1.1 = { holder=100469139 } # Narbo (nc)
7650.1.1 = { holder=100569139 } # Beqqo (nc)
7678.1.1 = { holder=100769139 } # Roggo (nc)
7730.1.1 = { holder=101069139 } # Moredo (nc)
7753.1.1 = { holder=101269139 } # Tormo (nc)
7769.1.1 = { holder=101469139 } # Moredo (nc)
7796.1.1 = { holder=101869139 } # Ollo (nc)
7821.1.1 = { holder=102069139 } # Roggo (nc)
7842.1.1 = { holder=102169139 } # Denyo (nc)
7878.1.1 = { holder=102569139 } # Moredo (nc)
