5600.1.1={
	liege="d_rills"
	law = succ_primogeniture
}
7580.1.1={
	holder = 15800833
}
7616.1.1={
	holder = 14800833
}
7631.1.1={
	holder = 13800833
}
7670.1.1={
	holder = 12800833
}
7689.1.1={
	holder = 11800833
}
7700.1.1={
	holder = 10800833
}
7724.1.1={
	holder = 9800833
}
7754.1.1={
	holder = 8800833
}
7787.1.1={
	holder = 7800833
}
7805.1.1={
	holder = 6800833
}
7840.1.1={
	holder = 5800833
}
7850.1.1={
	holder = 3800833
}
7883.1.1 = { 
	holder=800833
}



