7200.1.1={
	liege="d_willowwood"
	law = succ_primogeniture
}
7577.1.1={
	holder=23141
}
7606.1.1={
	holder=22141
}
7640.1.1={
	holder=24141
}
7669.1.1={
	holder=19141
}
7702.1.1={
	holder=18141
}
7733.1.1={
	holder=17141
}
7741.1.1={
	holder=16141
}
7776.1.1={
	holder=15141
}
7801.1.1={
	holder=13141
}
7833.1.1={
	holder=12141
}
7856.1.1={
	holder=11141
}

