#c_wyndhall
500.1.1={
	liege="d_hornvale"
}
7596.1.1 = { holder=300201 } # Loren (nc)
7649.1.1 = { holder=306201 } # Dunsen (nc)
7695.1.1 = { holder=309201 } # Tybolt (nc)
7707.1.1 = { holder=312201 } # Daven (nc)
7728.1.1 = { holder=316201 } # Daven (nc)
7753.1.1 = { holder=317201 } # Loren (nc)
7787.1.1 = { holder=318201 } # Lewys (nc)
7791.1.1 = { holder=319201 } # Garrison (nc)
7818.1.1 = { holder=324201 } # Leo (nc)
7843.1.1 = { holder=326201 } # Roland (nc)	
7874.1.1 = { holder=201 } # Regenard (c)
