500.1.1 = { liege="d_cockleswhent" } 


7500.1.1 = { holder=65000298 } # Regis (nc)
7530.1.1 = { holder=65100298 } # Galadon (nc)
7567.1.1 = { holder=3000298 } # Mern (nc)
7584.1.1 = { holder=65200298 } # Gareth (nc)
7588.1.1 = { holder=3000298 } # Mern (nc)
7598.6.6 = { holder=3001298 } # Tania (nc)
7617.1.1 = { holder=3004298 } # Mathis (nc)
7665.1.1 = { holder=3008298 } # Morm (nc)
7680.1.1 = { holder=3010298 } # Martyn (nc)
7724.1.1 = { holder=3011298 } # Arryn (nc)
7746.1.1 = { holder=3015298 } # Franklyn (nc)
7770.1.1 = { holder=3019298 } # Horas (nc)
7794.1.1 = { holder=3022298 } # Gormon (nc)
#8196 Gormon Peake loses castle after balckfyre rebellion, house yelshire takes over
7796.1.1 = { holder=3017257 } # Amelryc (nc)
7805.1.1 = { holder=3020257 } # Mathis (nc)
7809.1.1 = { holder=3022257 } # Gerold (nc)
7835.1.1 = { holder=3025257 } # Mark (nc)
7882.1.1={
	holder=257
}



