200.1.1={
	liege="d_yin"
}

2100.1.1 = { 
	holder=10055956
}
2135.1.1 = { holder=0 }

2256.1.1 = { 
	holder=10055957

}
2293.1.1 = { holder=0 }

2800.1.1 = { holder=10055961 } # Qaun (nc)
2819.1.1 = { holder=10155961 } # An (nc)
2839.1.1 = { holder=10355961 } # Gai (nc)
2858.1.1 = { holder=10455961 } # Mao (nc)
2866.1.1 = { holder=10555961 } # Tho (nc)
2881.1.1 = { holder=10655961 } # Kim (nc)
2905.1.1 = { holder=10755961 } # Dong (nc)
2931.1.1 = { holder=10855961 } # Quan (nc)
2940.1.1 = { holder=10955961 } # Huu (nc)
2945.1.1 = { holder=0 }


7596.1.1 = { holder=10055954 } # Gafur (nc)
7627.1.1 = { holder=10155954 } # Hasan_Hasan (nc)
7656.1.1 = { holder=10655954 } # Mukhtar (nc)
7679.1.1 = { holder=10755954 } # Azam (nc)
7681.1.1 = { holder=11155954 } # Fadil (nc)
7723.1.1 = { holder=11455954 } # Mukhtar (nc)
7756.1.1 = { holder=11755954 } # Ramadan (nc)
7765.1.1 = { holder=11955954 } # Jibril (nc)
7797.1.1 = { holder=12155954 } # Uways (nc)
7821.1.1 = { holder=12355954 } # Burhanaddin (nc)
7852.1.1 = { holder=13055954 } # Bakr (nc)


