200.1.1={
	liege="k_asabhad"
	law = succ_primogeniture
	law = agnatic_succession
}
7596.1.1 = { holder=10055942 } # Wahab (nc)
7626.1.1 = { holder=10355942 } # Jabir (nc)
7652.1.1 = { holder=10455942 } # Ghalib (nc)
7667.1.1 = { holder=10855942 } # Ramadan (nc)
7694.1.1 = { holder=11155942 } # Wahab (nc)
7701.1.1 = { holder=11455942 } # Qawurd (nc)
7728.1.1 = { holder=11655942 } # Hafiz (nc)
7759.1.1 = { holder=12255942 } # Abdullah (nc)
7790.1.1 = { holder=12755942 } # Ali_Ali (nc)
7815.1.1 = { holder=12955942 } # Alim (nc)
7856.1.1 = { holder=13155942 } # Shamir (nc)
7873.1.1 = { holder=13555942 } # Shamir (nc)


