1123.1.1={
	liege="e_new_valyria"
}

7595.1.1 = { holder=100069143 } # Rolloquo (nc)
7631.1.1 = { holder=100169143 } # Yorko (nc)
7632.1.1 = { holder=100369143 } # Colloquo (nc)
7677.1.1 = { holder=100569143 } # Malaquo (nc)
7694.1.1 = { holder=100969143 } # Doniphos (nc)
7699.1.1 = { holder=101169143 } # Vogarro (nc)
7735.1.1 = { holder=101269143 } # Ordello (nc)
7784.1.1 = { holder=101969143 } # Methyso (nc)
7803.1.1 = { holder=102169143 } # Benerro (nc)
7814.1.1 = { holder=102369143 } # Meralyn (nc)
7828.1.1 = { holder=102469143 } # Allaquo (nc)
7844.1.1 = { holder=102769143 } # Benerro (nc)
7887.1.1 = { holder=103369143 } # Vysarro (nc)
