#d_castamere
1.1.1={ liege = "e_westerlands" }

1.1.1 = { holder=319197 } # Ryon (nc)
7410.1.1 = { holder=300197 } # Damion (nc)
7452.1.1 = { holder=301197 } # Roger (nc)
7503.1.1 = { holder=305197 } # Beron (nc)
7507.1.1 = { holder=307197 } # Lorent (nc)
7556.1.1 = { holder=311197 } # Bertram (nc)
7581.1.1 = { holder=314197 } # Raynhart (nc)
7584.1.1 = {
holder=150197
}

7621.1.1 = {
holder=140197
}
7658.1.1 = {
holder=130197
}
7678.1.1 = {
holder=120197
}
7705.1.1 = {
holder=110197
}
7726.1.1 = {
holder=10197
}
7730.1.1 = {
holder=9197
}
7776.1.1 = {
holder=8197
}
7788.1.1 = {
holder=6197
}

7801.1.1 = {
holder=5197
}



