#House Anuxho
7586.1.1 = { 
	holder=100304018 
	law = succ_seniority
	law = cognatic_succession
} # Olujondo (nc)
7605.1.1 = { holder=101304018 } # Manahuru (nc)
7610.1.1 = { holder=102304018 } # Dubaku (nc)
7631.1.1 = { holder=105304018 } # Dubaku (nc)
7633.1.1 = { holder=107304018 } # Manahuru (nc)
7696.1.1 = { holder=114304018 } # Doshuru (nc)
7733.1.1 = { holder=116304018 } # Tatenda (nc)
7779.1.1 = { holder=117304018 } # Isodo (nc)
7801.1.1 = { holder=120304018 } # Xhal (nc)
7822.1.1 = { holder=127304018 } # Isingodo (nc)
7862.1.1 = { holder=130304018 } # Siboxhoan (nc)
7884.1.1 = { holder=131304018 } # Xhakan (nc)
