7200.1.1={
	law = succ_ultimogeniture
}
7552.1.1 = { holder=10055901 } # Moro (nc)
7604.1.1 = { holder=10455901 } # Mago (nc)
7646.1.1 = { holder=10855901 } # Ogo (nc)
7647.1.1 = { holder=11155901 } # Cohollo (nc)
7698.1.1 = { holder=11655901 } # Jommo (nc)
7710.1.1 = { holder=11455901 } # Cohollo (nc)
7728.1.1 = { holder=12255901 } # Rakharo (nc)
7744.1.1 = { holder=12555901 } # Jhaquo (nc)
7783.1.1 = { holder=12755901 } # Zollo (nc)
7817.1.1 = { holder=13155901 } # Pono (nc)
7850.1.1 = { holder=13555901 } # Jhaquo (nc)
7879.1.1 = { holder=13955901 } # Drogo (nc)

