200.1.1={
	law = succ_primogeniture
	law = agnatic_succession
}
7595.1.1 = { holder=10069208 } # Jalil (nc)
7623.1.1 = { holder=10369208 } # Jalil (nc)
7628.1.1 = { holder=10469208 } # Fadil (nc)
7668.1.1 = { holder=10769208 } # Mansur (nc)
7690.1.1 = { holder=10869208 } # Zeyd (nc)
7717.1.1 = { holder=11069208 } # Mansur (nc)
7719.1.1 = { holder=11169208 } # Gafur (nc)
7751.1.1 = { holder=11569208 } # Mahdi (nc)
7785.1.1 = { holder=11869208 } # Azam (nc)
7808.1.1 = { holder=12069208 } # Ramadan (nc)
7829.1.1 = { holder=12269208 } # Husam (nc)
7862.1.1 = { holder=12469208 } # Uways (nc)
7892.1.1 = { holder=12769208 } # Halil (nc)



