5800.1.1={
	liege="e_vale"
	law = succ_primogeniture
}
7590.1.1 = { holder=3000183 } # Humfrey (nc)
7622.1.1 = { holder=3003183 } # Danwell (nc)
7645.1.1 = { holder=3006183 } # Narbert (nc)
7664.1.1 = { holder=3007183 } # Andrey (nc)
7700.1.1 = { holder=3008183 } # Aethelmure (nc)
7744.1.1 = { holder=3010183 } # Clement (nc)
7746.1.1 = { holder=3012183 } # Lothar (nc)
7768.1.1 = { holder=3015183 } # Marq (nc)
7821.1.1 = { holder=3018183 } # Malwyn (nc)

7842.1.1={
	holder=94058
}
