5600.1.1={
	liege="e_north"
	law = succ_primogeniture
	 effect = { holder_scope = { character_event = { id = roberts_rebellion.22 } } }
}
7585.1.1={
	holder=13126
}
7631.1.1={
	holder=12126
}
7654.1.1={
	holder=11126
}
7667.1.1={
	holder=14126
}
7707.1.1={
	holder=9126
}
7740.1.1={
	holder=7126
}
7772.1.1={
	holder=6126
}
7804.1.1={
	holder=5126
}
7852.1.1={
	holder=4126
}
7867.1.1={
	holder=3126
}
7882.1.1={
	holder=126
}
