5800.1.1={
	law = succ_primogeniture
}

6070.1.1 = { holder = 550881800 } #Dywen Shell, King of The Fingers
6079.1.1={ holder = 550176 } #Corwyn Corbray
6092.1.1 = { holder = 5551176 } #Gawayne Corbray
6123.1.1 = { holder = 551176 } #Qyle Corbray
6138.6.6 = { holder=552176 } # Jaimie
6139.1.1={
	holder=0
}
