200.1.1={
	liege="k_volantis"
}
7575.1.1 = { holder=100305613 } # Colloquo (nc)
7607.1.1 = { holder=101305613 } # Moqorro (nc)
7643.1.1 = { holder=104305613 } # Qarro (nc)
7665.1.1 = { holder=106305613 } # Vogarro (nc)
7681.1.1 = { holder=111305613 } # Alios (nc)
7699.1.1 = { holder=112305613 } # Belicho (nc)
7710.1.1 = { holder=113305613 } # Meralyn (nc)
7745.1.1 = { holder=117305613 } # Belicho (nc)
7747.1.1 = { holder=119305613 } # Bolquello (nc)
7779.1.1 = { holder=121305613 } # Rolloquo (nc)
7815.1.1 = { holder=124305613 } # Meralyn (nc)
7839.1.1 = { holder=127305613 } # Methyso (nc)
7866.1.1 = { holder=132305613 } # Orbelo (nc)

