6600.1.1={
	liege=e_new_valyria
}
7580.1.1 = { holder=150360001 } # Gazdhor (nc)
7606.1.1 = { holder=100360001 } # Gorzhak (nc)
7635.1.1 = { holder=101360001 } # Grazdan (nc)
7671.1.1 = { holder=106360001 } # Grazdhan (nc)
7705.1.1 = { holder=110360001 } # Yezzan (nc)
7746.1.1 = { holder=115360001 } # Grazdan (nc)
7752.1.1 = { holder=116360001 } # Marghaz (nc)
7770.1.1 = { holder=121360001 } # Maezon (nc)
7823.1.1 = { holder=127360001 } # Grazdhan (nc)
7838.1.1 = { holder=130360001 } # Skahaz (nc)
7846.1.1 = { holder=134360001 } # Yurkhaz (nc)
7885.1.1={
	holder=6571000 # Kraznys
}
