1.1.1={
	law = succ_primogeniture
	law = cognatic_succession
}

6070.1.1 = { holder = 550881801 } #Jon Brightstone, King of The Fingers
6079.1.1={
	holder=0
}
6092.1.1 = { holder = 5551176 } #Gawayne Corbray
6123.1.1 = { holder = 551176 } #Qyle Corbray
6138.6.6 = { holder=552176 } # Jaimie
6139.1.1={
	holder=0
}
