900.1.1={ law=succ_primogeniture law = agnatic_succession
	liege="d_great_wyk"
}
7845.1.1={holder=6024113}
7895.1.1={holder=6023113}
7920.1.1={holder=6022113}
7945.1.1={holder=6021113}
7970.1.1={holder=6020113}
7995.1.1 = { holder=6000113 } # Steffarion (nc)
8017.1.1 = { holder=6002113 } # Robin (nc)
8029.1.1 = { holder=6005113 } # Donnel (nc)
8050.1.1 = { holder=6006113 } # Cotter (nc)
8087.1.1 = { holder=6007113 } # Cadwyl (nc)
8134.1.1 = { holder=6008113 } # Uller (nc)
8143.1.1 = { holder=6010113 } # Rymolf (nc)
8155.1.1 = { holder=6012113 } # Qhored (nc)
8210.1.1 = { holder=6015113 } # Rook (nc)
8213.1.1 = { holder=6017113 } # Stygg (nc)

8245.1.1 = {	
	holder=3000113
}