800.1.1={
	liege="e_stormlands"
	name = D_BLACKWATER_BAY
	effect = { location = { set_name = D_BLACKWATER_BAY } }
}

##Durrandon holders, so it doesnt erroneously go to aegon 
7760.1.1 = {
     holder = 3041544 #Durran
}	
7803.1.1 = {
     holder = 3031544 #Alrec
}	
7840.1.1 = {
     holder = 3021544 #Durran
}	
7867.1.1 = {
     holder = 3011544 #Angron
}
7921.1.1 = { 
     holder = 3001544 #Durran
}
7925.1.1={
	holder = 3002544 #Angron
}
7932.1.1={
	holder = 31544 #Arrec (C)
}
7945.1.1 = {
	holder = 21544 #Arlan V(C)
}
7955.1.1={
	holder = 1544 # Argilac the Arrogant (C)
}
##

7998.2.1={
	holder = 77000		#Aegon I 'the Conqueror'
	liege="d_kings_landing"
}
8000.1.1={
	reset_name = yes
	effect = { 
		set_global_flag = red_keep_established
		set_global_flag = KL_established
		set_global_flag = KL_navy_established
		location = { 
			set_name = c_kings_landing
			set_province_flag = kings_landing_established 
		} 
	}
}
8009.1.1 = { 
	effect = {
		clr_global_flag = red_keep_established
		set_global_flag = KL_red_keep_1_done
		clr_global_flag = KL_established
		set_global_flag = KL_fortifications_1_done
	}	
}
8018.1.1 = { 
	effect = {
		b_red_keep = { 
			 set_title_flag = targshipyard_complete
		} 
		b_rk_tower_hand = { 
			 set_title_flag = targshipyard_complete
		} 
		clr_global_flag = KL_red_keep_1_done
		set_global_flag = KL_red_keep_2_done
		clr_global_flag = KL_fortifications_1_done
		set_global_flag = KL_fortifications_2_done
		clr_global_flag = KL_navy_established
		set_global_flag = KL_expand_navy_1_done
	}	
}
8027.1.1 = { 
	effect = {
		clr_global_flag = KL_red_keep_2_done
		set_global_flag = KL_red_keep_3_done
		clr_global_flag = KL_fortifications_2_done
		set_global_flag = KL_fortifications_3_done
		clr_global_flag = KL_expand_navy_1_done
		set_global_flag = KL_expand_navy_2_done
	}	
}
8036.1.1 = { 
	effect = {
		clr_global_flag = KL_fortifications_3_done
		clr_global_flag = KL_expand_navy_2_done
	}	
}
8037.9.9={	
	holder = 77004		#Aenys I
}
8042.1.1={		
	holder = 77005		#Maegor I 'the Cruel'
}
8045.1.1 = { 
	effect = { 
		clr_global_flag = KL_red_keep_3_done #Completed during reign of Maegor the Cruel
	}
}
8048.3.7={
	holder = 77006		#Jaehaerys I 'the Conciliator'
}
8103.1.1={
	holder = 77009		#Viserys I
}
8129.3.3={
	holder = 77013		#Aegon II
}
8130.6.28={
	holder = 30509009		#Trystane Truefyre, takes over for a short time
}
8130.7.1={
	holder = 77013		#Aegon II
}
8131.1.8={
	holder = 77015		#Aegon III the Unlucky
}
8157.1.1={
	holder = 77016		#Daeron I the Young Dragon
}
8161.1.1={
	holder = 77017		#Baelor I the Blessed
}
8171.1.1={
	holder = 77019		#Viserys II
}
8172.1.1={
	holder = 77020		#Aegon IV the Unworthy
}
8184.1.1={
	holder = 77023		#Daeron II the Good
}
8209.6.1={
	holder = 77030		#Aerys I
}
8221.1.1={
	holder = 77031		#Maekar I
}
8233.6.1={
	holder = 77034		#Aegon V the Unlikley
}
8259.6.1={
	holder = 77036		#Jaehaerys II
}
8262.1.1={
	holder = 77037		#Aerys II the Mad
}
8283.6.1 = {
	holder = 317		#Robert I Baratheon
}
8298.10.28 = {
	holder = 9316 #Joffrey
}
8300.1.1 = {
	holder = 7316 #tommen
}