6000.1.1={
	liege="e_vale"
	law = succ_primogeniture
}

6479.1.1={ holder = 550176 } #Corwyn Corbray
6492.1.1 = { holder = 5551176 } #Gwayne Corbray
6523.1.1 = { holder = 551176 } #Qyle Corbray
6537.1.1 = { holder=552176 } # Jaimie
6570.1.1 = { holder = 0 }
7830.1.1 = {
	holder=3210176
}
7884.1.1 = {
	holder=3200176
}
7908.1.1 = { holder=3100176 } # Lyn (nc)
7940.1.1 = { holder=3201176 } # Gwayne (nc)
7994.1.1 = { holder=200176 } # Lucas (nc)
7999.1.1={ 
	liege="k_vale"
} 
8018.1.1 = { holder=201176 } # Qarl (lord who killed ser Davos Darklyn of Kingsguard) 
8059.2.1 = { holder=204176 } # Bryen (nc)
8063.1.1 = { holder=210176 } # Eddison (nc)
8092.1.1 = { holder=211176 } # Eon (nc)
8125.1.1 = { holder=212176 } # Donnel (nc)
8133.6.1 = { holder=214176 } # Elys (nc)
8192.1.1 = { holder=218176 } # Elbert (nc)
8204.1.1 = { holder=220176 } # Walace (nc)
8227.1.1 = { holder=221176 } # Lyn (nc)
8252.1.1={
	holder=94048
}
8283.3.1={
	holder=94049
}