900.1.1={
liege="e_iron_isles"
law=succ_primogeniture law=agnatic_succession
}
2928.1.1 = { holder=5011121} # Regnar Drumm
2956.1.1 = { holder=0 }
7749.1.1 = { holder=6008121 } # Dale the Dread
7819.1.1 = { holder=6007121 }
7841.1.1 = { holder=6006121 } # Roryn the Reaver
7879.1.1 = { holder=6005121 }
7886.1.1 = { holder=3202121 }
7902.1.1 = { holder=3203121 } # Gormond the Oldfather
7985.1.1 = { holder=3201121 }
7996.1.1 = { holder=6000121 } # Hilmar the Cunning
7998.2.1={
	liege="k_iron_isles"
}
8018.1.1 = { holder=6002121 }
8037.1.1 = { holder=6003121 }
8053.1.1 = { holder=6004121 }
8087.1.1 = { holder=6009121 }
8134.5.1 = { holder=6013121 }
8154.1.1 = { holder=6017121 }
8210.1.1 = { holder=6019121 }
8213.1.1 = { holder=6024121 }

8247.1.1 = {	
	holder=121
}
8289.1.1={
	liege="e_iron_isles"
}
8289.6.1={
	liege="k_iron_isles"
}
8299.3.4 = {
	liege="e_iron_isles"
}