#House Narratys
900.1.1={ 
	liege="k_pentos"
}
7844.1.1 = { holder=345300012 } # Daaro (nc)
7876.1.1 = { holder=344300012 } # Joror (nc)
7889.1.1 = { holder=343300012 } # Caezar (nc)
7911.1.1 = { holder=342300012 } # Belidos (nc)
7925.1.1 = { holder=341300012 } # Cyrio (nc)
7951.1.1 = { holder=340300012 } # Hollo (nc)

7964.1.1 = { holder=100300012 } # Yorko (nc)
8006.1.1 = { holder=102300012 } # Narbo (nc)
8032.1.1 = { holder=103300012 } # Oro (nc)
8045.1.1 = { holder=105300012 } # Luco (nc)
8078.1.1 = { holder=108300012 } # Qarro (nc)
8085.1.1 = { holder=112300012 } # Izembaro (nc)
8128.1.1 = { holder=114300012 } # Denyo (nc)
8130.1.1 = { holder=118300012 } # Allaquo (nc)
8148.1.1 = { holder=123300012 } # Gyloro (nc)
8156.1.1 = { holder=128300012 } # Roggo (nc)
8198.1.1 = { holder=130300012 } # Ordello (nc)
8231.1.1 = { holder=132300012 } # Meralyn (nc)
8240.1.1 = { holder=135300012 } # Ordello (nc)
8281.1.1 = { holder=142300012 } # Tregar (nc)







