900.1.1={ 
	liege="c_barrowton"
}
8240.1.1 = {	
	holder=622059
}
8266.1.1 = {	
	holder=1359002
	effect = {
		holder_scope = {
			set_dynasty_flag = is_cadet_house
			c_622059 = { #barstark father
				set_dynasty_flag = has_cadet_house
				set_dynasty_flag = owned_cadet_house_@PREV 
				ROOT = { holder_scope = { set_dynasty_flag = cadet_house_@PREVPREV } }
			}
		}
	}
}
8286.1.1 = {	
	holder=1359004
}






