6200.1.1={
	liege="c_midlor_point"
	law = succ_primogeniture
	name = B_MIDLOR_KEEP
}
8241.1.1={
	holder=94042
	reset_name = yes
}
8278.1.1={
	holder=94043 #petyr
}
# 8297.1.1={
	# holder=94003 #so petyr can be master of coin
# }
8299.11.5 = {
	holder=94043 #Littlefinger
}