900.1.1={ law=succ_primogeniture law=cognatic_succession
	liege="c_tumbleton"
}
#House Lyberr
7845.1.1={holder=100251}
7895.1.1={holder=101251}
7920.1.1={holder=102251}
7945.1.1={holder=103251}
7970.1.1={holder=104251}
7995.1.1={holder=105251}
8020.1.1={holder=106251}
8045.1.1={holder=107251}
8070.1.1={holder=108251}
8095.1.1={holder=109251}
8120.1.1={holder=110251}
8145.1.1={holder=111251}
8170.1.1={holder=112251}
8195.1.1={holder=113251}
8220.1.1={holder=114251}
8245.1.1={holder=115251}
8270.1.1={
	holder=88211
}







