900.1.1={ law=succ_primogeniture law=cognatic_succession
	liege="c_deep_den"
}
7845.1.1={holder=343193}
7895.1.1={holder=342193}
7920.1.1={holder=341193}
7945.1.1={holder=340193}
7970.1.1 = { holder=325193 } # Granton (nc)
8000.1.1 = { holder=323193 } # Tyta (nc)
8014.1.1 = { holder=321193 } # Kyle (nc)
8057.1.1 = { holder=320193 } # Tranced (nc)
8088.1.1 = { holder=319193 } # Dunaver (nc)
8106.1.1 = { holder=314193 } # Tyrek (nc)
8123.1.1 = { holder=313193 } # Tregar (nc)
8183.1.1 = { holder=307193 } # Dunaver (nc)
8204.1.1 = { holder=300193 } # Tanton (nc)
8229.1.1 = { holder=326193 } # Damon (nc)
8248.1.1 = { holder=328193 } # Dunsten (nc)
8277.1.1 = { holder=331193 } # Tybolt (nc)
