900.1.1={ 
	liege="k_pentos"
	holding_dynasty = 174356
}
7859.1.1 = { holder=345174356 } # Arillo (nc)
7873.1.1 = { holder=344174356 } # Gyllo (nc)
7899.1.1 = { holder=343174356 } # Nakaro (nc)
7924.1.1 = { holder=342174356 } # Hyllirio (nc)
7940.1.1 = { holder=341174356 } # Laziros (nc)
7959.1.1 = { holder=340174356 } # Noraphos (nc)

7985.1.1 = { holder=100174356 } # Ordello (nc)
8037.1.1 = { holder=104174356 } # Tregar (nc)
8050.1.1 = { holder=105174356 } # Pynto (nc)
8072.1.1 = { holder=107174356 } # Roro (nc)
8076.1.1 = { holder=112174356 } # Lotho (nc)
8081.1.1 = { holder=108174356 } # Tregar (nc)
8104.1.1 = { holder=110174356 } # Roro (nc)
8114.1.1 = { holder=113174356 } # Areo (nc)
8128.1.1 = { holder=115174356 } # Myrmello (nc)
8143.1.1 = { holder=122174356 } # Joss (nc)
8157.1.1 = { holder=123174356 } # Tagganaro (nc)
8185.1.1 = { holder=126174356 } # Daario (nc)
8212.1.1 = { holder=128174356 } # Noho (nc)
8217.1.1 = { holder=129174356 } # Illyrio (nc)
8238.1.1 = { holder=130174356 } # Gyleno (nc)
8278.1.1 = { holder=133174356 } # Areo (nc)
8281.1.1 = { holder=134174356 } # Ternesio (nc)
8290.1.1 = { holder=136174356 } # Moredo (nc)





