900.1.1={ 
	law = succ_appointment
	liege="c_moatcailin"
	effect = {
		set_title_flag = military_command
		holder_scope = {
			if = {
				limit = { primary_title = { title = PREVPREV } }
				set_government_type = military_command_government 
				PREV = { succession = appointment }
				recalc_succession = yes
			}
		}
	}
}

8256.6.14={
	holder=45000153
}
