900.1.1={ 
	liege="k_pentos"
	holding_dynasty = 55926
}
7855.1.1 = { holder=344174360 } # Danilo (nc)
7884.1.1 = { holder=343174360 } # Syran (nc)
7915.1.1 = { holder=342174360 } # Luco (nc)
7949.1.1 = { holder=341174360 } # Bysano (nc)
7970.1.1 = { holder=340174360 } # Hasaro (nc)

7986.1.1 = { holder=100174360 } # Luco (nc)
8025.1.1 = { holder=102174360 } # Narbo (nc)
8057.1.1 = { holder=109174360 } # Izembaro (nc)
8094.1.1 = { holder=110174360 } # Ezzelyno (nc)
8109.1.1 = { holder=111174360 } # Narbo (nc)
8126.1.1 = { holder=113174360 } # Collio (nc)
8137.1.1 = { holder=115174360 } # Yorko (nc)
8143.1.1 = { holder=121174360 } # Yollo (sc)
8198.1.1 = { holder=127174360 } # Groleo (nc)
8223.1.1 = { holder=129174360 } # Collio (nc)
8248.1.1 = { holder=133174360 } # Mero (nc)
8269.1.1 = { holder=0 liege=0 } 







