900.1.1={
	liege="c_widowswatch"
	law=succ_primogeniture 
	law=cognatic_succession
}
#House Warrick
7846.1.1={holder=1174831}
7892.1.1={holder=2174831}
7920.1.1={holder=3174831}
7950.1.1={holder=4174831}
7970.1.1={holder=5174831}
7990.1.1={holder=6174831}
8020.1.1={holder=7174831}
8050.1.1={holder=8174831}
8070.1.1={holder=9174831}
8090.1.1={holder=10174831}
8120.1.1={holder=11174831}
8150.1.1={holder=12174831}
8170.1.1={holder=13174831}
8190.1.1={holder=14174831}
8220.1.1={holder=15174831}
8245.1.1={holder=16174831}
8270.1.1={holder=17174831}
8295.1.1={holder=18174831}