#House Merreq
900.1.1={ 
	liege="c_khyzaipass"
}
7864.1.1 = { holder=356360005 } # Reznak (nc)
7877.1.1 = { holder=355360005 } # Merreq (nc)
7898.1.1 = { holder=354360005 } # Gorzhak (nc)
7910.1.1 = { holder=353360005 } # Grazdan (nc)
7933.1.1 = { holder=352360005 } # Kraznys (nc)
7966.1.1 = { holder=351360005 } # Grazdan (nc)
7991.1.1 = { holder=350360005 } # Dhazzar (nc)
8000.1.1 = { holder=349360005 } # Bharkaz (nc)
8025.1.1 = { holder=348360005 } # Oznak (nc)
8048.1.1 = { holder=347360005 } # Grazdan (nc)
8091.1.1 = { holder=346360005 } # Merreq (nc)
8099.1.1 = { holder=345360005 } # Grazdan (nc)
8111.1.1 = { holder=344360005 } # Grazdar (nc)
8149.1.1 = { holder=343360005 } # Merreq (nc)
8182.1.1 = { holder=342360005 } # Grazdan (nc)
8202.1.1 = { holder=341360005 } # Morghaz (nc)
8212.1.1 = { holder=340360005 } # Grazdar (nc)

8240.1.1 = { holder = 101360005 } # Merreq (nc)
8265.1.1 = { holder = 102360005 } # Kraznys (nc)
8300.1.1 = { holder = 105360005 } # Yurkhaz (nc)