7978.1.1={
	liege="c_haystack_hall"
}
8180.1.1 = { holder=1365100 }	#Dermot (nc)
8203.1.1 = { holder=65100 }		#Eldon (nc)
8223.1.1 = { holder=1065100 }	#Lyonel (nc)
8231.1.1 = { holder=1165100 }	#Axel (nc)
8270.1.1 = { holder=1265100 }	#Godry (nc)
8283.1.1 = {
	holder = 2005994 #Ser Patrek of Kings Mountain (C)
}
8299.7.1 = {
	holder=2318 #Sebaston Errol			#Lands lost after Blackwater
}
