#House Ruttiger
7840.1.1={
	holder=335210
}
7895.1.1={
	holder=334210
}
7921.1.1={
	holder=333210
}
7936.1.1={
	holder=332210
}
7958.1.1={
	holder=331210
}
7980.1.1={
	holder=330210
}
8004.1.1 = {	
	holder=300210
}
8024.1.1 = {	
	holder=302210
}
8046.1.1 = {	
	holder=306210
}
8080.1.1 = {	
	holder=308210
}
8117.1.1 = {	
	holder=309210
}
8146.1.1 = {	
	holder=311210
}
8175.1.1 = {	
	holder=314210
}
8196.1.1 = {	
	holder=318210
}
8233.1.1 = {	
	holder=321210
}
8260.1.1 = {	
	holder=325210
}
8264.1.1 = {	
	holder=210
}