900.1.1={ 
	liege="k_lorath"
	holding_dynasty = 300560 #Vazollen
}
7866.1.1 = { holder=344300560 } # Garryros (nc)
7898.1.1 = { holder=343300560 } # Ballen (nc)
7919.1.1 = { holder=341300560 } # Qycho (nc)
7937.1.1 = { holder=340300560 } # Garryros (nc)

7955.1.1 = { holder=100300560 } # Tormo (nc)
8003.1.1 = { holder=101300560 } # Ternesio (nc)
8021.1.1 = { holder=107300560 } # Byan (nc)
8037.1.1 = { holder=108300560 } # Mellario (nc)
8042.1.1 = { holder=113300560 } # Meralyn (nc)
8085.1.1 = { holder=117300560 } # Joss (nc)
8112.1.1 = { holder=120300560 } # Beqqo (nc)
8134.1.1 = { holder=123300560 } # Tormo (nc)
8142.1.1 = { holder=126300560 } # Beqqo (nc)
8167.1.1 = { holder=124300560 } # Illyrio (nc)
8183.1.1 = { holder=128300560 } # Allaquo (nc)
8199.1.1 = { holder=133300560 } # Byan (nc)
8212.1.1 = { holder=134300560 } # Qarro (nc)
8233.1.1 = { holder=135300560 } # Moreo (nc)
8267.1.1 = { holder=136300560 } # Noho (nc)
8270.1.1 = { holder=140300560 } # Joss (nc)
8279.1.1 = { holder=144300560 } # Denyo (nc)








