#House Yore
1.1.1={ 
	law=succ_primogeniture
	liege="c_mosborough"
}
7862.1.1 = { holder=3451475 } # Yohnen (nc)
7885.1.1 = { holder=3441475 } # Osfryd (nc)
7902.1.1 = { holder=3431475 } # Perkin (nc)
7925.1.1 = { holder=3421475 } # Orys (nc)
7949.1.1 = { holder=3411475 } # Randyll (nc)
7972.1.1 = { holder=3401475 } # Rupert (nc)

7992.1.1 = { holder=201475 } # Theomar (nc)
8003.1.1 = { holder=211475 } # Gregor (nc)
8052.1.1 = { holder=221475 } # Jarmen (nc)
8080.1.1 = { holder=241475 } # Qarlton (nc)
8083.1.1 = { holder=251475 } # Walton (nc)
8111.1.1 = { holder=261475 } # Moslander (C)
8142.1.1 = { holder=271475 } # Gareth (nc)
8157.1.1 = { holder=281475 } # Osfryd (nc)
8195.1.1 = { holder=291475 } # Halmon (nc)
8213.1.1 = { holder=301475 } # Dickon (nc)
8253.1.1 = { holder=321475 } # Raymun (nc)
8277.1.1 = { holder=1475 } # Balman (nc)




