6000.1.1={
	liege="d_harrenhal"
	law = succ_primogeniture
}
7804.1.1={
	holder=600154
}
7859.1.1={
	holder=590154
}
7889.1.1={
	holder=580154
}
7905.1.1={
	holder=570154
}
7926.1.1={
	holder=560154
}
7958.1.1={
    holder=550154
}
7986.1.1={
    holder=560153
}	
8010.1.1={
	holder=21153
}
8025.1.1={
	holder=20153
}
8055.1.1={
	holder=18153
}
8090.1.1={
	holder=17153
}
8113.1.1={
	holder=16153
}
8124.1.1={
	holder=15153
}
8150.1.1={
	holder=14153
}
8179.1.1={
	holder=13153
}
8188.1.1={
	holder=12153
}
8233.1.1={
	holder=10153
}
8261.1.1={
	holder=153
}
8298.11.2={
	liege = k_riverlands
}
8299.11.5 = {
	liege = d_harrenhal
}
