#House Siimes 
600.1.1={
	liege="d_bayasabhad"
	law = succ_seniority
	law = agnatic_succession
}
7858.1.1 = { holder=34455952 } # Kain (nc)
7873.1.1 = { holder=34355952 } # Tietava (nc)
7920.1.1 = { holder=34155952 } # Lemetti (nc)
7944.1.1 = { holder=34055952 } # Aikamieli (nc)

7966.1.1 = { holder=10055952 } # Khalil (nc)
8003.1.1 = { holder=10155952 } # Zeyd (nc)
8019.1.1 = { holder=10455952 } # Fadil (nc)
8032.1.1 = { holder=10755952 } # Alim (nc)
8081.1.1 = { holder=10955952 } # Alim (nc)
8082.1.1 = { holder=11355952 } # Zeyd (nc)
8129.1.1 = { holder=11655952 } # Gafur (nc)
8145.1.1 = { holder=11955952 } # Nizam (nc)
8147.1.1 = { holder=12355952 } # Yusuf (nc)
8163.1.1 = { holder=12755952 } # Muslihiddin (nc)
8187.1.1 = { holder=13055952 } # Mubarak (nc)
8219.1.1 = { holder=13255952 } # Faruk (nc)
8275.1.1 = { holder=13555952 } # Sami (nc)
8285.1.1 = { holder=13655952 } # Husam (nc)
