#House Lornel
600.1.1={
	liege="k_myr"
}
7866.1.1 = { holder=344300516 } # Zaario (nc)
7882.1.1 = { holder=343300516 } # Ballosh (nc)
7912.1.1 = { holder=342300516 } # Irricho (nc)
7928.1.1 = { holder=341300516 } # Tregys (nc)
7953.1.1 = { holder=340300516 } # Tyssano (nc)

7976.1.1 = { holder=150300516 } # Belequo (nc)
8023.1.1 = { holder=100300516 } # Vogarro (nc)
8062.1.1 = { holder=103300516 } # Areo (nc)
8069.1.1 = { holder=109300516 } # Terro (nc)
8075.1.1 = { holder=111300516 } # Mero (nc)
8105.1.1 = { holder=113300516 } # Cossomo (nc)
8133.1.1 = { holder=115300516 } # Tormo (nc)
8144.1.1 = { holder=118300516 } # Narbo (nc)
8182.1.1 = { holder=121300516 } # Moreo (nc)
8217.1.1 = { holder=126300516 } # Cossomo (nc)
8236.1.1 = { holder=133300516 } # Terro (nc)
8269.1.1 = { holder=135300516 } # Groleo (nc)
8290.1.1 = { holder=138300516 } # Roggo (nc)