#House Kellington
900.1.1 = {liege="e_stormlands"}
7863.1.1 = { holder=345328 } # Conen (nc)
7872.1.1 = { holder=344328 } # Kyle (nc)
7900.1.1 = { holder=343328 } # Walter (nc)
7929.1.1 = { holder=342328 } # Brus (nc)
7955.1.1 = { holder=341328 } # Humfrey (nc)
7979.1.1 = { holder=340328 } # Ryman (nc)

7994.1.1 = { holder=300328 } # Colen (nc)
7998.2.27={
	liege = k_stormlands
}
8008.1.1 = { holder=301328 } # Cortney (nc)
8022.1.1 = { holder=302328 } # Criston (nc)
8063.1.1 = { holder=303328 } # Quentyn (nc)
8098.1.1 = { holder=305328 } # Casper (nc)
8137.1.1 = { holder=306328 } # Klifford (nc)
8181.1.1 = { holder=308328 } # Cortney (nc)
8204.1.1 = { holder=311328 } # Kressen (nc)
8241.1.1 = { holder=312328 } # Quellon (nc)
8259.1.1 = { holder=314328 } # Colen (nc)
8283.1.1 = { holder=315328 } # Kerric (nc)
8300.1.1 = { 
	liege="d_rainwood"	#Davos gets High Lordship
}