900.1.1={ 	liege="k_braavos"}7800.1.1 = { holder=344300004 } 7830.1.1 = { holder=343300004 } 7854.1.1 = { holder=342300004 } 7888.1.1 = { holder=341300004 } 7905.1.1 = { holder=340300004 } 
7926.1.1 = { holder=152300004 } 7970.1.1 = { holder=153300004 } 
7989.1.1 = { holder=100300004 } 
8032.1.1 = { holder=101300004 } 
8043.1.1 = { holder=104300004 } 
8061.1.1 = { holder=105300004 } 
8079.1.1 = { holder=108300004 } 
8103.1.1 = { holder=112300004 } 
8140.1.1 = { holder=115300004 } 
8156.1.1 = { holder=118300004 } 
8170.1.1 = { holder=120300004 } 
8207.1.1 = { holder=123300004 } 
8221.1.1 = { holder=127300004 } 
8236.1.1 = { holder=130300004 } 
8254.1.1 = { holder=134300004 } 
