#NOTE: The holder of this title has the House Cerwyn dynasty tracker set in roberts_rebellion_events
900.1.1={
	liege="d_winterfell"
	law = succ_primogeniture
}
7788.1.1={
	holder=31061
}
7823.1.1={
	holder=30061
}
7854.1.1={
	holder=29061
}
7868.1.1={
	holder=28061
}
7888.1.1={
	holder=28061
}
7912.1.1={
	holder=27061
}
7923.1.1={
	holder=23061
}
7965.1.1={
	holder=15061
}
7980.1.1={
	holder=18061
}
8004.1.1={
	holder=17061
}
8051.1.1={
	holder=13061
}
8069.1.1={
	holder=12061
}
8098.1.1={
	holder=11061
}
8108.1.1={
	holder=10061
}
8133.1.1={
	holder=9061
}
8149.1.1={
	holder=8061
}
8158.8.1 = {
	holder=21061
}
8172.1.1={
	holder=7061
}
8184.9.9 = {
	holder=6061
}
8232.1.1={
	holder=5061
}
8258.1.1={
	holder=4061
}
8282.1.1={
	holder=61
}
8299.3.1 = {
	holder=1061
}
8299.6.29 = {
	holder=2061
}