#House Mollen
900.1.1={
	liege="d_winterfell"
	law = succ_primogeniture
}
7850.1.1 = { holder=344086 } # Mandon (nc)
7869.1.1 = { holder=343086 } # Arthor (nc)
7900.1.1 = { holder=342086 } # Cley (nc)
7919.1.1 = { holder=341086 } # Leobald (nc)
7941.1.1 = { holder=340086 } # Benfred (nc)

7965.1.1 = { holder=17086 } # Mors (nc)
8016.1.1 = { holder=16086 } # Marlon (nc)
8027.1.1 = { holder=15086 } # Mallador (nc)
8052.1.1 = { holder=14086 } # Wayn (nc)
8065.1.1 = { holder=13086 } # Desmond (nc)
8098.1.1 = { holder=12086 } # Luton (nc)
8109.1.1 = { holder=11086 } # Helman (nc)
8152.1.1 = { holder=10086 } # Aethan (nc)
8181.1.1 = { holder=8086 } # Alyn (nc)
8220.1.1 = { holder=7086 } # Cellador (nc)
8261.1.1 = { holder=6086 } # Chayle (nc)
8271.1.1 = { holder=1086 }
8281.1.1 = {
	holder=86
}
