600.1.1={
	law = succ_open_elective
	law = enatic_succession
}
7886.1.1 = { holder=101600207 } # Doshi (C)
7911.1.1 = { holder=34110305 } # Scori (nc)
7940.1.1 = { holder=34010305 } # Miri (nc)
7960.1.1 = { holder=103600207 } # Irri (C)
7998.1.1 = { holder=100010305 } # Sezza (nc)
8005.1.1 = { holder=101010305 } # Gezzella (nc)
8009.1.1 = { holder=102010305 } # Yezza (nc)
8050.1.1 = { holder=103010305 } # Mezzala (nc)
8064.1.1 = { holder=104010305 } # Jezhane (nc)
8098.1.1 = { holder=105010305 } # Mellezzara (nc)
8125.1.1 = { holder=106010305 } # Azzara (nc)
8142.1.1 = { holder=107010305 } # Mezzala (nc)
8167.1.1 = { holder=108010305 } # Ellezzara (nc)
8193.1.1 = { holder=109010305 } # Azzara (nc)
8225.1.1 = { holder=110010305 } # Yezza (nc)
8241.1.1 = { holder=111010305 } # Sezza (nc)
8268.1.1 = { holder=112010305 } # Sezza (nc)

