#House Dunn
900.1.1={ law=succ_primogeniture law=cognatic_succession
	liege="d_brightwater"
}
7849.1.1 = { holder=3015254 } # Edgar (nc)
7860.1.1 = { holder=3013254 } # Desmond (nc)
7887.1.1 = { holder=3012254 } # Kyle (nc)
7940.1.1 = { holder=3009254 } # Imry (nc)
7954.1.1 = { holder=3008254 } # Garmon (nc)

7967.1.1 = { holder=3002254 } # Desmond (nc)
8018.1.1 = { holder=3000254 } # Normund (nc)
8029.1.1 = { holder=3001254 } # Walys (nc)
8045.1.1 = { holder=3003254 } # Gyles (nc)
8087.1.1 = { holder=3006254 } # Morm (nc)
8091.1.1 = { holder=3010254 } # Russell (nc)
8112.1.1 = { holder=3011254 } # Wendell (nc)
8127.1.1 = { holder=3014254 } # Olyvar (nc)
8164.1.1 = { holder=3017254 } # Mervyn (nc)
8172.1.1 = { holder=3020254 } # Anslem (nc)
8227.1.1 = { holder=3022254 } # Olymer (nc)
8243.1.1 = { holder=3024254 } # Quentin (nc)
8253.1.1 = { holder=3028254 } # Waldon (nc)
8290.1.1={
	holder=254
}




