#House Ilvar
600.1.1={
	liege="d_elyria"
}
7869.1.1 = { holder=345570110 } # Aenar (nc)
7879.1.1 = { holder=344570110 } # Laegon (nc)
7895.1.1 = { holder=343570110 } # Malaemar (nc)
7922.1.1 = { holder=342570110 } # Daemavar (nc)
7940.1.1 = { holder=341570110 } # Matamion (nc)
7959.1.1 = { holder=340570110 } # Aerymion (nc)

7985.1.1 = { holder=100570110 } # Doniphos (nc)
8026.1.1 = { holder=101570110 } # Aelix (nc)
8030.1.1 = { holder=102570110 } # Alios (nc)
8062.1.1 = { holder=106570110 } # Matarys (nc)
8087.1.1 = { holder=110570110 } # Vaeron (nc)
8109.1.1 = { holder=113570110 } # Aenar (nc)
8131.1.1 = { holder=114570110 } # Daegar (nc)
8157.1.1 = { holder=116570110 } # Qoherys (nc)
8204.1.1 = { holder=120570110 } # Vaekar (nc)
8226.1.1 = { holder=126570110 } # Parquello (nc)
8260.1.1 = { holder=127570110 } # Qavo (nc)
