1.1.1={ law=succ_primogeniture law=cognatic_succession
	liege="d_goldengrove"
}
60.1.1 = { holder=6000250 } # Rowan Gold-tree (C)
70.1.1 = { holder=0 }
7800.1.1 = { holder=6200250 } # Ronard (nc)
7855.1.1 = { holder=6300250 } # Theodore (nc)
7865.1.1 = { holder=6400250 } # Ryelle (nc)
7893.1.1 = { holder=6500250 } # Perceon (nc)
7904.1.1 = { holder=6800250 } # Linden (nc)
7939.1.1 = { holder=6900250 } # Titus (nc)
7954.1.1 = { holder=6110250 } # Theo (nc)

7990.1.1={
	holder=21250
}
8040.1.1={
	holder=20250
}
8075.1.1={
	holder=19250
}
8097.1.1={
	holder=18250
}
8114.1.1={
	holder=17250
}
8136.3.1={
	holder=15250
}
8160.1.1={
	holder=13250
}
8196.1.1={
	holder=12250
}
8224.1.1={
	holder=11250
}
8264.1.1={
	holder=88106
}
8280.1.1={
	holder=88033
}




