#House Grazlar
600.1.1={
	liege="k_astapor"
}
7865.1.1 = { holder=345360026 } # Marghaz (nc)
7879.1.1 = { holder=344360026 } # Grazdan (nc)
7902.1.1 = { holder=343360026 } # Uhzaq (nc)
7915.1.1 = { holder=342360026 } # Zarraq (nc)
7939.1.1 = { holder=341360026 } # Azzak (nc)
7971.1.1 = { holder=340360026 } # Gorzhak (nc)

7987.1.1 = { holder=150360026 } # Mizlaq (nc)
8021.1.1 = { holder=100360026 } # Faezdhar (nc)
8049.1.1 = { holder=101360026 } # Grazdan (nc)
8070.1.1 = { holder=104360026 } # Hizdhar (nc)
8096.1.1 = { holder=107360026 } # Gazdhor (nc)
8129.1.1 = { holder=110360026 } # Mizlaq (nc)
8151.1.1 = { holder=114360026 } # Kraznys (nc)
8172.1.1 = { holder=117360026 } # Yurkhaz (nc)
8202.1.1 = { holder=119360026 } # Reznak (nc)
8208.1.1 = { holder=121360026 } # Prendahl (nc)
8249.1.1 = { holder=126360026 } # Marghaz (nc)
8255.1.1 = { holder=127360026 } # Azzlaq (nc)
8287.1.1 = { holder=132360026 } # Hizdhar (nc)
8299.12.12={
	holder=0 # Dany happened !!
}