800.1.1={
	liege="k_the_most_devout"
}
7990.1.1={
	holder = 1000777
}
8011.1.1={
	holder=88000208
}
8013.1.1={
	holder=88000209
}
8015.1.1={
	holder=88000210
}
8017.1.1={
	holder=88000211
}
8021.1.1={
	holder=88000212
}
8022.1.1={
	holder = 1001777 #hightower
}
8043.5.10={
	holder = 1002777
}
8044.1.1={
	holder=88000207
}
8054.1.1={
	holder=88000319
}
8059.2.1={
	holder=88000277
}
8070.1.1={
	holder=1010777
}
8102.1.1 = { holder=1011777 } # a (nc)
8130.1.1 = { holder=1012777 } # a (nc)
8144.1.1={
	holder = 1003777
}
8165.1.1={
	liege="d_oldtown"
	holder= 0  
}
