#House Mertyns
202.1.1 = {liege="d_cape_wrath"}
7879.1.1 = { holder=344327 } # Conen (nc)
7885.1.1 = { holder=343327 } # Leomar (nc)
7922.1.1 = { holder=342327 } # Robin (nc)
7941.1.1 = { holder=341327 } # Elys (nc)
7962.1.1 = { holder=340327 } # Humfrey (nc)

7980.1.1 = { holder=60100327 } # Morton (nc)
8009.1.1 = { holder=300327 } # Myles (nc)
8012.1.1 = { holder=301327 } # Galladon (nc)
8057.1.1 = { holder=302327 } # Barristan (nc)
8074.1.1 = { holder=303327 } # Jon (nc)
8091.1.1 = { holder=304327 } # Balon (nc)
8100.1.1 = { holder=305327 } # Arstan (nc)
8131.1.1 = { holder=306327 } # Garse (sc)
8176.1.1 = { holder=307327 } # Elys (sc)
8219.1.1 = { holder=309327 } # Brus (nc)
8266.1.1 = { holder=310327 } # Renly (nc)
8283.1.1 = { holder=311327 } # Herbert (nc)
