#House Baharis
6700.1.1={
	law = succ_primogeniture
	liege = k_pentos
}
7849.1.1 = { holder=344300902 } # Byresso (nc)
7898.1.1 = { holder=343300902 } # Aronos (nc)
7911.1.1 = { holder=342300902 } # Lyrio (nc)
7931.1.1 = { holder=341300902 } # Ezzo (nc)
7966.1.1 = { holder=340300902 } # Cessio (nc)

7980.1.1 = { holder=100300902 } # Larazo (nc)
8021.1.1 = { holder=102300902 } # Narapho (nc)
8038.1.1 = { holder=104300902 } # Hollo (nc)
8069.1.1 = { holder=106300902 } # Cyllirio (nc)
8077.1.1 = { holder=107300902 } # Ayrio (nc)
8093.1.1 = { holder=112300902 } # Pydos (nc)
8115.1.1 = { holder=114300902 } # Zeleqor (nc)
8128.1.1 = { holder=116300902 } # Kasporio (nc)
8130.1.1 = { holder=119300902 } # Nakeo (nc)
8187.1.1 = { holder=123300902 } # Vollo (nc)
8245.1.1 = { holder=126300902 } # Zargano (nc)
8263.1.1 = { holder=128300902 } # Parados (nc)
8289.1.1 = { holder=133300902 } # Byresso (nc)
