#House Ghodania
5214.1.1={
	liege="d_kasath"
	law = succ_primogeniture
}
7806.1.1 = { holder=10056804 } # Sahasrad (nc)
7851.1.1 = { holder=10156804 } # Nayan (nc)
7861.1.1 = { holder=10656804 } # Manaar (nc)
7869.1.1 = { holder=10956804 } # Avilash (nc)
7876.1.1 = { holder=11056804 } # Kalpesh (nc)
7895.1.1 = { holder=11156804 } # Burhan (nc)
7935.1.1 = { holder=11656804 } # Vishruth (nc)
7936.1.1 = { liege = k_sarnor }
7967.1.1 = { holder=11756804 } # Chanak (nc) 

#Ruin
7958.1.1 = { 
	liege= 0
	holder=123479
}

#Dothraki 
7975.1.1 = { 
	holder=100600216  # Marro (nc)
	liege = d_sarnath
}
8007.1.1 = { holder=101600216 } # Fono (nc)
8026.1.1 = { holder=103600216 } # Fogo (nc)
8051.1.1 = { holder=105600216 } # Zekko (nc)
8072.1.1 = { holder=106600216 } # Tihho (nc)
8112.1.1 = { holder=110600216 } # Qano (nc)
8121.1.1 = { holder=114600216 } # Quaro (nc)
8177.1.1 = { holder=115600216 } # Mago (nc)
8186.1.1 = { holder=118600216 } # Tokko (nc)
8203.1.1 = { holder=120600216 } # Tokko (nc)
8252.1.1 = { holder=123600216 } # Tihho (nc)
8260.1.1 = { holder=124600216 } # Temmo (nc)
8289.1.1 = { holder=125600216 } # Ogo (c)
8298.9.10 = { holder=128600216 } # Aggo (nc)