#House Rosby
7600.1.1={
	liege="d_rosby"
	law = succ_primogeniture
}
7869.1.1 = { holder=34438 } # Hareth (nc)
7885.1.1 = { holder=34338 } # Narbert (nc)
7937.1.1 = { holder=34238 } # Clayton (nc)
7954.1.1 = { holder=34138 } # Raymun (nc)
7973.1.1 = { holder=34038 } # Malessa (nc)

7980.1.1 = { holder=300038 } # Robin (nc)
8005.1.1 = { holder=300138 } # Janos (nc)
8048.3.7 = { holder=300338 } # Alan (nc)
8059.2.1 = { holder=300738 } # Howard (nc)
8123.1.1 = { holder=300938 } # Ardrian (nc)
8130.1.26 = { holder=88000458 }
8147.1.1 = {holder=301138 } # Rorge (nc)
8164.1.1 = { holder=301238 } # Jacelyn (nc)
8183.1.1 = { holder=301438 } # Bronn (nc)
8195.1.1 = { holder=301938 } # Qarlton (nc)
8214.1.1 = { holder=302238 } # Ferret (nc)
8228.1.1={
	holder = 2039 	#Rymond Rosby
}
8266.1.1={
	holder = 38	#Gyles Rosby
}