600.1.1={
	liege="d_shaogong"
}
7995.1.1 = { holder=10069110 }
8034.1.1 = { holder=10269110 }
8055.1.1 = { holder=10669110 }
8064.1.1 = { holder=10869110 }
8097.1.1 = { holder=11069110 }
8116.1.1 = { holder=11169110 }
8150.1.1 = { holder=11269110 }
8181.1.1 = { holder=11769110 }
8214.1.1 = { holder=12169110 }
8226.1.1 = { holder=12369110 }
8234.1.1 = { holder=12769110 }
8279.1.1 = { holder=13069110 }
8299.1.1 = { holder=13269110 }

