#House Pathak
5214.1.1={
	liege="d_gornath"
	law = succ_primogeniture
}
7809.1.1 = { holder=10056811 } # Ishwar (nc)
7831.1.1 = { holder=10156811 } # Nayan (nc)
7836.1.1 = { holder=10356811 } # Avilash (nc)
7874.1.1 = { holder=10556811 } # Ganesh (nc)
7911.1.1 = { holder=11056811 } # Rathin (nc)
7933.1.1 = { holder = 10156822 } #Vishruth, Last King of Gornath

#Dothraki
7948.1.1 = {  
	holder=100600213  # Remekko (nc)
	liege = d_west_ifeqevron
}
7977.1.1 = { holder=101600213 } # Drogo (nc)
7998.1.1 = { holder=102600213 } # Loso (nc)
8012.1.1 = { holder=103600213 } # Moro (nc)
8028.1.1 = { holder=108600213 } # Jhaquo (nc)
8046.1.1 = { holder=112600213 } # Kovarro (nc)
8102.1.1 = { holder=114600213 } # Moro (nc)
8109.1.1 = { holder=117600213 } # Azho (nc)
8136.1.1 = { holder=121600213 } # Bharbo (nc)
8145.1.1 = { holder=123600213 } # Rovo (nc)
8159.1.1 = { holder=125600213 } # Rakharo (nc)
8195.1.1 = { holder=129600213 } # Kovarro (nc)
8255.1.1 = { holder=132600213 } # Hezzo (nc)
8266.1.1 = { holder=134600213 } # Qano (nc)
8274.1.1 = { holder=137600213 } # Moro (c)