#House Merryweather
900.1.1={ law=succ_primogeniture law=cognatic_succession
	liege="e_reach"
}
7849.1.1 = { holder=3034263 } # Leo (nc)
7860.1.1 = { holder=3033263 } # Morgan (nc)
7917.1.1={holder=3032263}
7936.1.1 = { holder=3031263 } # Eden (nc)
7944.1.1 = { holder=3030263 } # Ellard (nc)

7959.1.1 = { holder=3000263 } # Steffon (nc)
7974.1.1 = { holder=3002263 } # Alekyne (nc)
7998.6.6={
	liege="k_reach"
}
8029.1.1 = { holder=3003263 } # Normund (nc)
8044.1.1 = { holder=3005263 } # Bayard (nc)
8094.1.1 = { holder=3009263 } # Esme (nc)
8108.1.1 = { holder=3015263 } # Omer (nc)
8129.8.1 = { holder=3017263 } # Marq (C)
8146.1.1 = { holder=3022263 } # Mathis (nc)
8199.1.1 = { holder=3024263 } # Hobber (nc)
8226.1.1 = { holder=3026263 } # Morm (nc)
8231.1.1={
	holder=263 #Owen
}
8283.1.1 = {
	holder=0
}


