600.1.1={
	liege="k_linhan"
}
7995.1.1 = { holder=10069113 }
8024.1.1 = { holder=10169113 }
8035.1.1 = { holder=10469113 }
8049.1.1 = { holder=10769113 }
8084.1.1 = { holder=11069113 }
8088.1.1 = { holder=11169113 }
8120.1.1 = { holder=11469113 }
8164.1.1 = { holder=11669113 }
8178.1.1 = { holder=12069113 }
8194.1.1 = { holder=12469113 }
8205.1.1 = { holder=12769113 }
8220.1.1 = { holder=13069113 }
8237.1.1 = { holder=13369113 }
8287.1.1 = { holder=13569113 }


