#House Owyang
600.1.1={
	law = succ_primogeniture
	law = agnatic_succession
}
7870.1.1 = { holder=34569208 } # Dilen (nc)
7882.1.1 = { holder=34469208 } # Yanin (nc)
7907.1.1 = { holder=34369208 } # Tshala (nc)
7935.1.1 = { holder=34269208 } # Sabo (nc)
7960.1.1 = { holder=34169208 } # Harubu (nc)
7983.1.1 = { holder=34069208 } # Baishar (nc)

7995.1.1 = { holder=10069208 } # Jalil (nc)
8023.1.1 = { holder=10369208 } # Jalil (nc)
8028.1.1 = { holder=10469208 } # Fadil (nc)
8068.1.1 = { holder=10769208 } # Mansur (nc)
8090.1.1 = { holder=10869208 } # Zeyd (nc)
8117.1.1 = { holder=11069208 } # Mansur (nc)
8119.1.1 = { holder=11169208 } # Gafur (nc)
8151.1.1 = { holder=11569208 } # Mahdi (nc)
8185.1.1 = { holder=11869208 } # Azam (nc)
8208.1.1 = { holder=12069208 } # Ramadan (nc)
8229.1.1 = { holder=12269208 } # Husam (nc)
8262.1.1 = { holder=12469208 } # Uways (nc)
8292.1.1 = { holder=12769208 } # Halil (nc)



