1.1.1={ law=succ_primogeniture law=cognatic_succession
	liege="e_reach"
}

30.1.1={ holder=60130288} # Gilbert of the Vines
98.1.1={ holder=0}
7850.1.1={ holder=60110288} # Gareth Redwyne
7870.1.1={ holder=60900288} # Arlon Redwyne
7897.1.1={ holder=60800288} # Gilbert Redwyne
7934.11.1={ holder=60700288} # Portan Redwyne
7956.1.1={ holder=60600288} # Acolan Redwyne
7970.1.1={ holder=60200288} # Aramon Redwyne
7995.1.11={holder=19288} # Theodore Redwyne
7998.6.6={
	liege="k_reach"
}
8028.1.1={
	holder=18288
}
8043.1.1={
	holder=17288
}
8089.1.1={
	holder=16288
}
8090.1.1={
	holder=23288
}
8108.1.1={
	holder=15288
}
8122.1.1={
	holder=12288
}
8159.1.1={
	holder=11288
}
8184.1.1={
	holder=10288
}
8196.1.1={
	holder=88095
}
8223.1.1={
	holder=288
}
8250.1.1={
	holder=88013
}
8275.1.1={
	holder=1288
}


