1.1.1={
	law = succ_primogeniture
	law = agnatic_succession
	law = centralization_1
	law = slavery_3
	law = first_night_1
}
4337.1.1 = {
	holder = 500122
}
4376.1.1 = {
	holder = 501122
}
4393.1.1 = {
	holder = 0
}