7240.2.1={ 	
	law = succ_feudal_elective
	law = true_cognatic_succession
	law = slavery_0
	holder=6054001 # Chroyana
}
7282.10.1={holder=6000001} # Garin the Great
7299.4.4={ # About 700 years before the events of the books Nymeria was Queen.
	holder=2000001 # Nymeria
}
7300.1.1 = {
	holder=0
}