900.1.1={
	law = succ_primogeniture
	law = cognatic_succession
	law = investiture_law_2
	law = first_night_1
	law = slavery_0
	effect = { 
		set_variable = { which = "lord_paramount_status" value = 1 }
		holder_scope = { set_government_type = feudal_government_LP }
		any_previous_holder = {
			limit = { NOT = { tier = EMPEROR } }
			set_government_type = feudal_government_LP
		}
	}
}
7998.2.1={
	holder=17159 #Edmyn
}
7998.2.1={
	liege="e_iron_throne"
	law = centralization_2
}
8035.1.1={
	holder=16159 #melwys
}
8037.1.1={
	holder=150159 #Prentys
}
8043.1.1={
	liege = 0
}
8044.1.1={
	liege = "e_iron_throne"
}

8048.6.2 = {
	law = investiture_law_1 
}
8059.2.1={
	holder=15159 #Grover
}
8060.1.1={ law = first_night_0 } #First Night abolished
8129.4.1={
	liege = 0
}
8130.6.5 = {
	holder=14159 # Elmo Tully
}
8130.7.14 = {
	holder=13159 # Kermit Tully
}
8131.1.8={
	liege = "e_iron_throne"
}
8170.1.1={
	holder=19159 # Edmure Tully
}
8182.1.1={
    holder=2280159 # Edmund Tully
}
8195.3.7={
	liege = 0
}
8195.12.10={
	holder=1159 # Medgar Tully
}
8196.6.1={
	liege = "e_iron_throne"
}
8210.1.1={
	holder=10159
}
8258.1.1={
	holder=175159
}
8259.11.1={
	liege=0
}
8260.12.31={
	liege="e_iron_throne"
}
8265.1.1 = {
	holder=159
}
8282.9.15={
	liege=0
}
8282.12.31={
	liege="e_iron_throne"
}
8298.11.20={
	liege="e_north"
}
8299.10.15={
	holder=4159 # Edmure Tully
}
8299.11.5 = {
	liege=0
}
8300.1.1 = {
	law = succ_seniority
}
8300.4.15 = {
	holder=94043 #Littlefinger
	law = succ_primogeniture
}
