1.1.1={
	liege="e_yi_ti"
	law = succ_primogeniture
	law = cognatic_succession
	law = privilege_vassal_king
	law = slavery_0
	effect = {
		add_law = privilege_vassal_king
	}
}
7849.1.1 = { holder = 34569166 }
7865.1.1 = { holder = 34469166 }
7903.1.1 = { holder = 34369166 } 
7920.1.1 = { holder = 34269166 }
7954.1.1 = { holder = 34169166 }
7973.1.1 = { holder = 34069166 }
7995.1.1 = { holder = 10069166 }
8031.1.1 = { holder = 10169166 }
8058.1.1 = { holder = 10569166 }
8080.1.1 = { holder = 10769166 }
8131.1.1 = { holder = 11069166 }
8136.1.1 = { holder = 11169166 }
8185.1.1 = { holder = 11369166 }
8191.1.1 = { holder = 11769166 }
8210.1.1 = { holder = 11969166 }
8265.1.1 = { holder = 12269166 }
8276.1.1 = { holder = 12769166 }
8279.1.1 = { holder = 13069166 }


